A_SPW_2009_01.txt
2009-01-23-13:11 - 2009-01-24-08:14      19.0 hours                   0 Missing Packets
A_SPW_2009_02.txt
2009-02-24-09:02 - 2009-02-24-10:07       1.1 hours                  13 Missing Packets
A_SPW_2009_03.txt
A_SPW_2009_04.txt
