A_SPW_2017_01.txt
2017-01-03-21:09 - 2017-01-04-00:11       3.0 hours                1287 Missing Packets
2017-01-04-18:57 - 2017-01-05-16:10      21.2 hours               13102 Missing Packets
2017-01-05-16:15 - 2017-01-06-00:11       7.9 hours                4450 Missing Packets
2017-01-10-16:51 - 2017-01-10-17:15       0.4 hours                  28 Missing Packets
2017-01-10-18:48 - 2017-01-10-19:00       0.2 hours                   4 Missing Packets
2017-01-13-16:18 - 2017-01-13-16:30       0.2 hours                  12 Missing Packets
2017-01-16-17:09 - 2017-01-17-00:11       7.0 hours                4241 Missing Packets
2017-01-18-17:10 - 2017-01-19-00:11       7.0 hours                4105 Missing Packets
2017-01-22-13:09 - 2017-01-23-00:11      11.0 hours                6506 Missing Packets
2017-01-26-13:28 - 2017-01-26-13:47       0.3 hours                 108 Missing Packets
2017-01-26-15:00 - 2017-01-26-16:10       1.2 hours                 322 Missing Packets
A_SPW_2017_02.txt
2017-02-01-00:00 - 2017-02-01-13:11      13.2 hours                8014 Missing Packets
2017-02-04-18:36 - 2017-02-04-18:49       0.2 hours                  30 Missing Packets
2017-02-14-11:44 - 2017-02-14-13:06       1.4 hours                  20 Missing Packets
2017-02-18-22:16 - 2017-02-19-14:14      16.0 hours                   0 Missing Packets
A_SPW_2017_03.txt
2017-03-13-19:09 - 2017-03-13-22:19       3.2 hours                 706 Missing Packets
2017-03-26-18:06 - 2017-03-27-00:11       6.1 hours                3607 Missing Packets
A_SPW_2017_04.txt
2017-04-25-06:48 - 2017-04-25-07:15       0.4 hours                  90 Missing Packets
A_SPW_2017_05.txt
2017-05-05-18:19 - 2017-05-06-02:15       7.9 hours                4762 Missing Packets
2017-05-18-00:20 - 2017-05-19-02:14      25.9 hours                   0 Missing Packets
2017-05-24-18:15 - 2017-05-24-20:11       1.9 hours                 414 Missing Packets
2017-05-28-08:18 - 2017-05-28-08:35       0.3 hours                 100 Missing Packets
2017-05-28-08:37 - 2017-05-28-08:45       0.1 hours                   5 Missing Packets
A_SPW_2017_06.txt
2017-06-08-19:10 - 2017-06-09-18:13      23.1 hours                   0 Missing Packets
2017-06-20-18:15 - 2017-06-21-18:20      24.1 hours               15015 Missing Packets
2017-06-28-02:58 - 2017-06-28-14:11      11.2 hours                7050 Missing Packets
2017-06-28-15:10 - 2017-06-28-17:05       1.9 hours                 876 Missing Packets
2017-06-28-19:10 - 2017-06-29-00:11       5.0 hours                2604 Missing Packets
A_SPW_2017_07.txt
2017-07-04-11:10 - 2017-07-05-00:11      13.0 hours                7823 Missing Packets
2017-07-22-01:10 - 2017-07-22-19:06      17.9 hours               10805 Missing Packets
A_SPW_2017_08.txt
2017-08-02-07:10 - 2017-08-02-16:18       9.1 hours                5371 Missing Packets
A_SPW_2017_09.txt
2017-09-04-20:06 - 2017-09-04-23:06       3.0 hours                1823 Missing Packets
A_SPW_2017_10.txt
2017-10-06-19:10 - 2017-10-07-00:10       5.0 hours                2727 Missing Packets
2017-10-08-12:30 - 2017-10-08-12:38       0.1 hours                  29 Missing Packets
2017-10-08-20:06 - 2017-10-08-20:35       0.5 hours                  36 Missing Packets
2017-10-08-20:57 - 2017-10-08-21:25       0.4 hours                  32 Missing Packets
2017-10-09-11:09 - 2017-10-10-00:11      13.0 hours                6426 Missing Packets
2017-10-13-19:09 - 2017-10-14-00:11       5.0 hours                2756 Missing Packets
2017-10-21-19:09 - 2017-10-22-00:11       5.0 hours                2983 Missing Packets
2017-10-23-13:09 - 2017-10-23-17:05       3.9 hours                1900 Missing Packets
2017-10-25-05:01 - 2017-10-25-06:11       1.2 hours                  25 Missing Packets
2017-10-25-09:00 - 2017-10-25-14:15       5.2 hours                2893 Missing Packets
2017-10-25-17:10 - 2017-10-25-20:18       3.2 hours                1864 Missing Packets
2017-10-25-20:49 - 2017-10-25-21:00       0.2 hours                   1 Missing Packets
2017-10-25-23:10 - 2017-10-26-04:19       5.2 hours                2729 Missing Packets
2017-10-26-04:37 - 2017-10-26-04:59       0.4 hours                  98 Missing Packets
2017-10-26-05:24 - 2017-10-26-05:40       0.3 hours                 107 Missing Packets
2017-10-26-07:09 - 2017-10-26-14:11       7.0 hours                4397 Missing Packets
2017-10-26-16:15 - 2017-10-27-06:11      13.9 hours                8395 Missing Packets
2017-10-27-06:30 - 2017-10-27-06:35       0.1 hours                  31 Missing Packets
2017-10-30-18:57 - 2017-10-31-06:11      11.2 hours                6617 Missing Packets
2017-10-31-08:15 - 2017-10-31-14:19       6.1 hours                2257 Missing Packets
A_SPW_2017_11.txt
2017-11-01-00:00 - 2017-11-01-06:15       6.3 hours                3689 Missing Packets
2017-11-01-08:15 - 2017-11-01-23:05      14.8 hours                9057 Missing Packets
2017-11-01-23:13 - 2017-11-01-23:31       0.3 hours                  25 Missing Packets
2017-11-02-00:14 - 2017-11-02-06:11       5.9 hours                3273 Missing Packets
2017-11-02-06:18 - 2017-11-02-06:32       0.2 hours                  18 Missing Packets
2017-11-02-23:10 - 2017-11-03-01:06       1.9 hours                 287 Missing Packets
2017-11-03-01:10 - 2017-11-03-06:11       5.0 hours                2718 Missing Packets
2017-11-03-09:09 - 2017-11-03-14:19       5.2 hours                3057 Missing Packets
2017-11-03-16:14 - 2017-11-03-22:15       6.0 hours                1737 Missing Packets
2017-11-04-00:15 - 2017-11-04-07:07       6.9 hours                3659 Missing Packets
2017-11-04-09:09 - 2017-11-04-10:18       1.1 hours                 330 Missing Packets
2017-11-04-16:58 - 2017-11-05-04:10      11.2 hours                6756 Missing Packets
2017-11-05-07:10 - 2017-11-05-14:20       7.2 hours                4272 Missing Packets
2017-11-05-16:58 - 2017-11-06-15:05      22.1 hours               13408 Missing Packets
2017-11-06-16:15 - 2017-11-06-22:15       6.0 hours                3001 Missing Packets
2017-11-07-00:14 - 2017-11-07-06:11       5.9 hours                2295 Missing Packets
2017-11-07-08:15 - 2017-11-07-14:11       5.9 hours                3648 Missing Packets
2017-11-07-16:15 - 2017-11-07-19:05       2.8 hours                1109 Missing Packets
2017-11-07-23:09 - 2017-11-08-06:11       7.0 hours                3790 Missing Packets
2017-11-10-12:06 - 2017-11-10-18:11       6.1 hours                3533 Missing Packets
2017-11-10-19:09 - 2017-11-11-08:10      13.0 hours                7824 Missing Packets
2017-11-11-10:14 - 2017-11-11-16:11       5.9 hours                2765 Missing Packets
2017-11-11-16:58 - 2017-11-11-23:14       6.3 hours                3900 Missing Packets
2017-11-12-00:15 - 2017-11-12-04:11       3.9 hours                2102 Missing Packets
2017-11-12-08:15 - 2017-11-12-14:16       6.0 hours                3209 Missing Packets
2017-11-12-16:16 - 2017-11-12-21:05       4.8 hours                2550 Missing Packets
2017-11-12-21:12 - 2017-11-12-21:32       0.3 hours                  25 Missing Packets
2017-11-13-00:16 - 2017-11-13-04:11       3.9 hours                1547 Missing Packets
2017-11-13-08:15 - 2017-11-13-14:10       5.9 hours                3750 Missing Packets
2017-11-13-16:16 - 2017-11-14-00:11       7.9 hours                3624 Missing Packets
2017-11-14-00:16 - 2017-11-14-04:11       3.9 hours                1192 Missing Packets
2017-11-14-06:06 - 2017-11-14-21:13      15.1 hours                9858 Missing Packets
2017-11-15-00:15 - 2017-11-15-14:16      14.0 hours                8342 Missing Packets
2017-11-15-15:10 - 2017-11-15-22:11       7.0 hours                2163 Missing Packets
2017-11-16-00:15 - 2017-11-16-14:20      14.1 hours                8610 Missing Packets
2017-11-16-14:48 - 2017-11-16-14:59       0.2 hours                  15 Missing Packets
2017-11-16-16:14 - 2017-11-16-19:06       2.8 hours                1101 Missing Packets
2017-11-16-20:58 - 2017-11-16-22:11       1.2 hours                 495 Missing Packets
2017-11-17-00:15 - 2017-11-17-07:06       6.8 hours                3892 Missing Packets
2017-11-17-09:10 - 2017-11-17-15:06       5.9 hours                2513 Missing Packets
2017-11-17-16:15 - 2017-11-17-19:06       2.8 hours                1106 Missing Packets
2017-11-17-23:10 - 2017-11-18-02:19       3.2 hours                1602 Missing Packets
2017-11-18-02:48 - 2017-11-18-02:59       0.2 hours                  16 Missing Packets
2017-11-19-18:14 - 2017-11-19-20:11       1.9 hours                 788 Missing Packets
2017-11-20-00:14 - 2017-11-20-06:11       5.9 hours                2869 Missing Packets
2017-11-20-08:15 - 2017-11-20-23:14      15.0 hours                9450 Missing Packets
2017-11-20-23:40 - 2017-11-21-00:00       0.3 hours                  12 Missing Packets
2017-11-21-02:15 - 2017-11-21-08:11       5.9 hours                3295 Missing Packets
2017-11-21-11:10 - 2017-11-21-15:07       4.0 hours                1757 Missing Packets
2017-11-21-16:15 - 2017-11-22-00:11       7.9 hours                4466 Missing Packets
2017-11-22-07:09 - 2017-11-22-22:10      15.0 hours                9120 Missing Packets
2017-11-22-22:18 - 2017-11-22-22:31       0.2 hours                   8 Missing Packets
2017-11-29-06:15 - 2017-11-29-08:11       1.9 hours                 505 Missing Packets
2017-11-29-11:10 - 2017-11-29-22:10      11.0 hours                6520 Missing Packets
2017-11-30-00:15 - 2017-11-30-14:11      13.9 hours                8052 Missing Packets
2017-11-30-17:10 - 2017-11-30-22:10       5.0 hours                1797 Missing Packets
A_SPW_2017_12.txt
2017-12-01-00:16 - 2017-12-01-07:05       6.8 hours                3797 Missing Packets
2017-12-01-07:12 - 2017-12-01-07:31       0.3 hours                  25 Missing Packets
2017-12-01-09:10 - 2017-12-01-14:19       5.2 hours                2768 Missing Packets
2017-12-01-14:49 - 2017-12-01-14:59       0.2 hours                  13 Missing Packets
2017-12-01-17:10 - 2017-12-02-12:18      19.1 hours               12330 Missing Packets
2017-12-02-12:49 - 2017-12-02-12:59       0.2 hours                  14 Missing Packets
2017-12-04-13:10 - 2017-12-04-15:05       1.9 hours                 234 Missing Packets
2017-12-04-17:09 - 2017-12-04-22:10       5.0 hours                2960 Missing Packets
2017-12-07-08:15 - 2017-12-07-23:06      14.8 hours                9183 Missing Packets
2017-12-08-16:15 - 2017-12-08-20:11       3.9 hours                1423 Missing Packets
2017-12-08-22:07 - 2017-12-09-00:11       2.1 hours                1142 Missing Packets
2017-12-16-18:16 - 2017-12-16-22:19       4.1 hours                2127 Missing Packets
2017-12-16-22:48 - 2017-12-16-22:58       0.2 hours                  13 Missing Packets
2017-12-18-08:06 - 2017-12-18-14:11       6.1 hours                3548 Missing Packets
2017-12-18-17:10 - 2017-12-19-00:11       7.0 hours                4094 Missing Packets
