B_SPW_2012_01.txt
2012-01-01-05:11 - 2012-01-01-18:12      13.0 hours                8536 Missing Packets
2012-01-01-18:48 - 2012-01-01-18:57       0.1 hours                   8 Missing Packets
2012-01-02-01:11 - 2012-01-02-18:12      17.0 hours               10821 Missing Packets
2012-01-03-01:49 - 2012-01-03-19:07      17.3 hours               11025 Missing Packets
2012-01-04-02:07 - 2012-01-04-15:07      13.0 hours                8408 Missing Packets
2012-01-07-05:11 - 2012-01-07-14:21       9.2 hours                5800 Missing Packets
2012-01-07-18:16 - 2012-01-07-23:15       5.0 hours                3022 Missing Packets
2012-01-09-02:08 - 2012-01-09-21:28      19.3 hours               12347 Missing Packets
2012-01-10-02:16 - 2012-01-10-07:07       4.8 hours                2836 Missing Packets
2012-01-10-09:11 - 2012-01-10-13:14       4.1 hours                2106 Missing Packets
2012-01-10-17:14 - 2012-01-10-17:37       0.4 hours                 178 Missing Packets
2012-01-10-18:16 - 2012-01-10-22:12       3.9 hours                1864 Missing Packets
2012-01-11-02:15 - 2012-01-11-14:20      12.1 hours                7818 Missing Packets
2012-01-11-14:37 - 2012-01-11-14:46       0.1 hours                  10 Missing Packets
2012-01-11-18:16 - 2012-01-12-00:11       5.9 hours                3025 Missing Packets
2012-01-12-02:15 - 2012-01-12-11:15       9.0 hours                5833 Missing Packets
2012-01-12-11:48 - 2012-01-12-12:09       0.3 hours                   9 Missing Packets
2012-01-12-18:06 - 2012-01-13-14:20      20.2 hours               13264 Missing Packets
2012-01-13-18:16 - 2012-01-13-22:20       4.1 hours                2201 Missing Packets
2012-01-14-02:20 - 2012-01-14-02:56       0.6 hours                 369 Missing Packets
2012-01-14-04:16 - 2012-01-14-12:11       7.9 hours                4590 Missing Packets
2012-01-14-18:16 - 2012-01-15-00:11       5.9 hours                3027 Missing Packets
2012-01-15-02:16 - 2012-01-15-12:11       9.9 hours                6391 Missing Packets
2012-01-28-18:17 - 2012-01-28-22:11       3.9 hours                1972 Missing Packets
2012-01-31-02:16 - 2012-01-31-13:07      10.8 hours                6611 Missing Packets
2012-01-31-15:11 - 2012-01-31-23:06       7.9 hours                2904 Missing Packets
B_SPW_2012_02.txt
2012-02-02-17:10 - 2012-02-02-20:22       3.2 hours                1766 Missing Packets
2012-02-02-20:52 - 2012-02-02-21:15       0.4 hours                  17 Missing Packets
2012-02-03-02:16 - 2012-02-03-17:15      15.0 hours                9757 Missing Packets
2012-02-03-21:14 - 2012-02-03-22:08       0.9 hours                 391 Missing Packets
2012-02-04-02:16 - 2012-02-04-18:11      15.9 hours                9842 Missing Packets
2012-02-05-02:15 - 2012-02-05-10:12       7.9 hours                4931 Missing Packets
2012-02-05-15:11 - 2012-02-05-17:06       1.9 hours                1055 Missing Packets
2012-02-24-22:16 - 2012-02-25-22:10      23.9 hours               15317 Missing Packets
2012-02-26-02:15 - 2012-02-26-18:11      15.9 hours                9704 Missing Packets
2012-02-27-02:15 - 2012-02-27-04:10       1.9 hours                 461 Missing Packets
2012-02-28-07:10 - 2012-02-28-10:10       3.0 hours                1080 Missing Packets
B_SPW_2012_03.txt
2012-03-01-23:11 - 2012-03-02-03:14       4.1 hours                2196 Missing Packets
2012-03-02-07:11 - 2012-03-02-09:06       1.9 hours                 620 Missing Packets
2012-03-02-12:59 - 2012-03-03-09:07      20.1 hours               13090 Missing Packets
2012-03-03-15:11 - 2012-03-04-07:06      15.9 hours                9480 Missing Packets
2012-03-04-09:11 - 2012-03-04-17:06       7.9 hours                4370 Missing Packets
2012-03-04-22:15 - 2012-03-05-03:05       4.8 hours                2391 Missing Packets
2012-03-05-07:10 - 2012-03-05-16:30       9.3 hours                5419 Missing Packets
2012-03-05-19:10 - 2012-03-06-03:05       7.9 hours                4682 Missing Packets
2012-03-06-05:11 - 2012-03-06-17:06      11.9 hours                6743 Missing Packets
2012-03-06-21:11 - 2012-03-07-12:11      15.0 hours                6370 Missing Packets
2012-03-13-13:11 - 2012-03-14-10:12      21.0 hours               13264 Missing Packets
2012-03-14-15:11 - 2012-03-15-00:31       9.3 hours                5327 Missing Packets
2012-03-15-02:15 - 2012-03-15-06:31       4.2 hours                1810 Missing Packets
2012-03-15-08:07 - 2012-03-15-19:06      11.0 hours                6957 Missing Packets
2012-03-16-15:11 - 2012-03-17-00:11       9.0 hours                5156 Missing Packets
2012-03-17-02:15 - 2012-03-17-13:15      11.0 hours                6474 Missing Packets
2012-03-17-19:10 - 2012-03-17-23:06       3.9 hours                1631 Missing Packets
2012-03-18-02:15 - 2012-03-18-19:15      17.0 hours               10322 Missing Packets
2012-03-20-13:10 - 2012-03-21-10:10      21.0 hours               13018 Missing Packets
2012-03-21-14:59 - 2012-03-22-00:11       9.2 hours                5514 Missing Packets
2012-03-22-02:59 - 2012-03-22-16:10      13.2 hours                8279 Missing Packets
2012-03-22-18:15 - 2012-03-22-22:17       4.0 hours                1705 Missing Packets
2012-03-27-07:10 - 2012-03-27-23:05      15.9 hours                9312 Missing Packets
2012-03-28-02:59 - 2012-03-28-18:11      15.2 hours                9305 Missing Packets
2012-03-28-21:11 - 2012-03-29-08:11      11.0 hours                6316 Missing Packets
2012-03-29-08:59 - 2012-03-29-11:15       2.3 hours                1149 Missing Packets
2012-03-29-11:27 - 2012-03-29-11:41       0.2 hours                  17 Missing Packets
2012-03-29-14:15 - 2012-03-30-07:15      17.0 hours               10357 Missing Packets
B_SPW_2012_04.txt
2012-04-03-18:15 - 2012-04-04-00:11       5.9 hours                3139 Missing Packets
2012-04-06-15:11 - 2012-04-07-00:11       9.0 hours                5388 Missing Packets
2012-04-14-15:11 - 2012-04-15-23:05      31.9 hours               17543 Missing Packets
2012-04-17-11:11 - 2012-04-17-21:06       9.9 hours                5532 Missing Packets
2012-04-18-22:16 - 2012-04-19-21:06      22.8 hours               14265 Missing Packets
2012-04-19-21:13 - 2012-04-19-21:32       0.3 hours                  17 Missing Packets
2012-04-20-03:11 - 2012-04-20-05:05       1.9 hours                 777 Missing Packets
2012-04-20-07:10 - 2012-04-20-22:10      15.0 hours                9247 Missing Packets
2012-04-21-03:11 - 2012-04-21-15:06      11.9 hours                6987 Missing Packets
2012-04-26-21:27 - 2012-04-26-22:07       0.7 hours                 228 Missing Packets
B_SPW_2012_05.txt
2012-05-26-13:10 - 2012-05-27-00:11      11.0 hours                6628 Missing Packets
2012-05-29-13:10 - 2012-05-30-00:11      11.0 hours                6741 Missing Packets
B_SPW_2012_06.txt
2012-06-05-13:10 - 2012-06-06-00:11      11.0 hours                6671 Missing Packets
2012-06-11-14:15 - 2012-06-12-00:11       9.9 hours                6053 Missing Packets
2012-06-13-20:37 - 2012-06-13-20:43       0.1 hours                  78 Missing Packets
2012-06-13-20:59 - 2012-06-13-22:11       1.2 hours                 226 Missing Packets
2012-06-15-20:15 - 2012-06-16-00:11       3.9 hours                2229 Missing Packets
2012-06-20-07:10 - 2012-06-20-17:05       9.9 hours                5790 Missing Packets
2012-06-20-17:27 - 2012-06-20-17:40       0.2 hours                  17 Missing Packets
2012-06-20-20:15 - 2012-06-21-08:19      12.1 hours                7527 Missing Packets
2012-06-21-13:10 - 2012-06-21-16:10       3.0 hours                1042 Missing Packets
2012-06-21-18:15 - 2012-06-22-00:11       5.9 hours                3405 Missing Packets
2012-06-25-11:11 - 2012-06-25-16:10       5.0 hours                2974 Missing Packets
2012-06-25-16:18 - 2012-06-25-16:30       0.2 hours                  13 Missing Packets
2012-06-25-19:10 - 2012-06-26-01:06       5.9 hours                3053 Missing Packets
2012-06-26-04:15 - 2012-06-26-17:15      13.0 hours                7876 Missing Packets
2012-06-26-22:15 - 2012-06-27-10:17      12.0 hours                7117 Missing Packets
2012-06-27-14:15 - 2012-06-27-16:10       1.9 hours                1066 Missing Packets
2012-06-27-19:10 - 2012-06-28-03:14       8.1 hours                4612 Missing Packets
B_SPW_2012_07.txt
2012-07-07-02:15 - 2012-07-07-09:05       6.8 hours                3988 Missing Packets
2012-07-07-14:15 - 2012-07-07-20:11       5.9 hours                2704 Missing Packets
2012-07-08-02:15 - 2012-07-08-11:06       8.8 hours                5066 Missing Packets
2012-07-08-18:16 - 2012-07-09-02:10       7.9 hours                4792 Missing Packets
2012-07-09-05:10 - 2012-07-10-00:11      19.0 hours               11839 Missing Packets
2012-07-12-03:11 - 2012-07-12-09:05       5.9 hours                3513 Missing Packets
2012-07-12-09:13 - 2012-07-12-09:32       0.3 hours                  17 Missing Packets
2012-07-12-14:15 - 2012-07-13-00:11       9.9 hours                6176 Missing Packets
2012-07-14-21:11 - 2012-07-15-07:06       9.9 hours                6044 Missing Packets
2012-07-15-08:15 - 2012-07-15-14:10       5.9 hours                3548 Missing Packets
2012-07-15-16:16 - 2012-07-16-00:11       7.9 hours                4982 Missing Packets
2012-07-18-21:11 - 2012-07-19-01:31       4.3 hours                2101 Missing Packets
2012-07-24-19:10 - 2012-07-25-00:20       5.2 hours                3010 Missing Packets
2012-07-25-00:48 - 2012-07-25-00:59       0.2 hours                   7 Missing Packets
2012-07-25-02:59 - 2012-07-25-16:19      13.4 hours                8346 Missing Packets
2012-07-25-16:45 - 2012-07-25-16:56       0.2 hours                   2 Missing Packets
2012-07-25-19:10 - 2012-07-26-09:06      13.9 hours                8401 Missing Packets
2012-07-26-14:15 - 2012-07-26-18:11       4.0 hours                1522 Missing Packets
2012-07-26-22:16 - 2012-07-27-02:11       3.9 hours                1717 Missing Packets
2012-07-27-06:14 - 2012-07-27-16:19      10.1 hours                5895 Missing Packets
2012-07-27-16:48 - 2012-07-27-16:56       0.2 hours                   2 Missing Packets
2012-07-28-14:59 - 2012-07-28-17:05       2.1 hours                 693 Missing Packets
2012-07-28-18:14 - 2012-07-29-00:11       5.9 hours                3625 Missing Packets
B_SPW_2012_08.txt
2012-08-01-18:15 - 2012-08-02-09:06      14.8 hours                9535 Missing Packets
2012-08-02-13:11 - 2012-08-02-22:17       9.1 hours                5164 Missing Packets
2012-08-03-00:59 - 2012-08-03-01:46       0.8 hours                 385 Missing Packets
2012-08-03-02:17 - 2012-08-03-02:30       0.2 hours                   1 Missing Packets
2012-08-03-04:14 - 2012-08-03-18:15      14.0 hours                8324 Missing Packets
2012-08-03-22:59 - 2012-08-04-00:01       1.0 hours                 401 Missing Packets
2012-08-04-02:16 - 2012-08-04-09:05       6.8 hours                4028 Missing Packets
2012-08-04-16:15 - 2012-08-04-23:15       7.0 hours                4221 Missing Packets
2012-08-05-02:15 - 2012-08-05-18:13      15.9 hours                9979 Missing Packets
2012-08-06-00:16 - 2012-08-06-09:05       8.8 hours                5406 Missing Packets
2012-08-06-12:14 - 2012-08-06-23:06      10.9 hours                7041 Missing Packets
2012-08-06-23:28 - 2012-08-06-23:43       0.2 hours                  17 Missing Packets
2012-08-07-02:15 - 2012-08-07-14:11      11.9 hours                7368 Missing Packets
2012-08-07-14:18 - 2012-08-07-14:31       0.2 hours                   6 Missing Packets
2012-08-07-19:10 - 2012-08-07-22:10       3.0 hours                1472 Missing Packets
2012-08-09-13:11 - 2012-08-10-00:11      11.0 hours                6734 Missing Packets
2012-08-10-02:15 - 2012-08-10-11:05       8.8 hours                5139 Missing Packets
2012-08-10-11:14 - 2012-08-10-11:31       0.3 hours                  16 Missing Packets
2012-08-10-19:11 - 2012-08-11-11:05      15.9 hours               10085 Missing Packets
2012-08-11-18:58 - 2012-08-12-09:15      14.3 hours                9045 Missing Packets
2012-08-12-09:28 - 2012-08-12-09:43       0.2 hours                  16 Missing Packets
2012-08-12-15:11 - 2012-08-13-01:06       9.9 hours                6106 Missing Packets
2012-08-13-03:11 - 2012-08-13-13:06       9.9 hours                5761 Missing Packets
2012-08-13-18:58 - 2012-08-14-01:14       6.3 hours                3772 Missing Packets
2012-08-14-08:15 - 2012-08-15-02:10      17.9 hours               11057 Missing Packets
2012-08-15-07:11 - 2012-08-15-14:10       7.0 hours                3791 Missing Packets
2012-08-15-18:16 - 2012-08-16-00:21       6.1 hours                3022 Missing Packets
2012-08-16-02:15 - 2012-08-17-00:33      22.3 hours               13964 Missing Packets
2012-08-17-02:15 - 2012-08-17-06:11       4.0 hours                2081 Missing Packets
2012-08-17-07:44 - 2012-08-17-08:03       0.3 hours                   4 Missing Packets
2012-08-17-08:15 - 2012-08-17-15:06       6.8 hours                3769 Missing Packets
2012-08-17-18:15 - 2012-08-18-01:06       6.8 hours                3903 Missing Packets
2012-08-20-02:15 - 2012-08-20-18:11      15.9 hours               10068 Missing Packets
2012-08-20-19:10 - 2012-08-21-00:11       5.0 hours                2846 Missing Packets
2012-08-23-15:11 - 2012-08-24-00:11       9.0 hours                5460 Missing Packets
2012-08-25-20:59 - 2012-08-26-10:10      13.2 hours                8130 Missing Packets
2012-08-26-14:59 - 2012-08-27-01:43      10.8 hours                6851 Missing Packets
2012-08-27-03:11 - 2012-08-27-19:15      16.1 hours               10124 Missing Packets
2012-08-28-00:58 - 2012-08-28-10:10       9.2 hours                5375 Missing Packets
2012-08-28-11:11 - 2012-08-28-22:21      11.2 hours                6679 Missing Packets
2012-08-29-02:15 - 2012-08-29-15:06      12.8 hours                8214 Missing Packets
B_SPW_2012_09.txt
2012-09-19-13:10 - 2012-09-19-18:11       5.0 hours                2824 Missing Packets
2012-09-19-22:36 - 2012-09-19-22:56       0.3 hours                  81 Missing Packets
B_SPW_2012_10.txt
2012-10-01-23:11 - 2012-10-02-10:13      11.0 hours                7043 Missing Packets
2012-10-02-17:10 - 2012-10-03-13:07      19.9 hours               13028 Missing Packets
2012-10-03-17:10 - 2012-10-04-08:12      15.0 hours                9473 Missing Packets
2012-10-12-10:58 - 2012-10-12-22:12      11.2 hours                7051 Missing Packets
2012-10-18-20:15 - 2012-10-19-01:15       5.0 hours                2726 Missing Packets
2012-10-21-14:07 - 2012-10-22-00:11      10.1 hours                6473 Missing Packets
2012-10-25-08:17 - 2012-10-25-10:12       1.9 hours                 401 Missing Packets
2012-10-25-11:11 - 2012-10-25-13:07       1.9 hours                 517 Missing Packets
2012-10-25-14:39 - 2012-10-25-14:48       0.1 hours                   2 Missing Packets
2012-10-25-15:13 - 2012-10-25-16:08       0.9 hours                 298 Missing Packets
2012-10-29-14:16 - 2012-10-29-18:33       4.3 hours                1829 Missing Packets
B_SPW_2012_11.txt
2012-11-03-14:16 - 2012-11-03-20:15       6.0 hours                   0 Missing Packets
2012-11-11-22:07 - 2012-11-12-00:11       2.0 hours                1003 Missing Packets
2012-11-13-20:16 - 2012-11-14-00:11       3.9 hours                1729 Missing Packets
2012-11-14-03:11 - 2012-11-14-18:11      15.0 hours                8348 Missing Packets
2012-11-14-22:07 - 2012-11-15-16:12      18.1 hours               10720 Missing Packets
2012-11-15-16:16 - 2012-11-16-14:20      22.1 hours               12913 Missing Packets
2012-11-16-16:58 - 2012-11-17-00:11       7.2 hours                3904 Missing Packets
2012-11-20-15:11 - 2012-11-20-18:11       3.0 hours                1371 Missing Packets
2012-11-20-20:16 - 2012-11-21-11:06      14.8 hours                9205 Missing Packets
2012-11-21-13:10 - 2012-11-22-18:22      29.2 hours               18964 Missing Packets
2012-11-22-20:17 - 2012-11-22-22:12       1.9 hours                 718 Missing Packets
2012-11-23-00:18 - 2012-11-23-18:11      17.9 hours               11532 Missing Packets
2012-11-27-16:59 - 2012-11-28-05:06      12.1 hours                7830 Missing Packets
2012-11-29-14:16 - 2012-11-29-22:12       7.9 hours                3682 Missing Packets
2012-11-30-00:17 - 2012-11-30-02:12       1.9 hours                 305 Missing Packets
B_SPW_2012_12.txt
2012-12-02-16:59 - 2012-12-02-22:17       5.3 hours                2949 Missing Packets
2012-12-10-10:17 - 2012-12-11-22:18      36.0 hours               32029 Missing Packets
2012-12-12-00:16 - 2012-12-12-09:06       8.8 hours                5192 Missing Packets
2012-12-12-11:10 - 2012-12-13-00:11      13.0 hours                7156 Missing Packets
2012-12-13-00:58 - 2012-12-13-18:11      17.2 hours               10131 Missing Packets
2012-12-17-23:11 - 2012-12-18-15:08      15.9 hours                9182 Missing Packets
2012-12-18-17:11 - 2012-12-19-18:11      25.0 hours               14801 Missing Packets
2012-12-19-23:11 - 2012-12-20-02:34       3.4 hours                1369 Missing Packets
2012-12-20-04:17 - 2012-12-20-15:07      10.8 hours                7102 Missing Packets
2012-12-25-16:17 - 2012-12-25-18:11       1.9 hours                  20 Missing Packets
2012-12-26-17:11 - 2012-12-27-00:11       7.0 hours                4245 Missing Packets
2012-12-27-03:11 - 2012-12-27-16:10      13.0 hours                8205 Missing Packets
2012-12-27-17:11 - 2012-12-27-23:06       5.9 hours                2665 Missing Packets
2012-12-29-17:26 - 2012-12-29-18:08       0.7 hours                 265 Missing Packets
2012-12-29-20:15 - 2012-12-30-10:11      13.9 hours                7860 Missing Packets
2012-12-30-17:11 - 2012-12-31-05:15      12.1 hours                7050 Missing Packets
2012-12-31-09:11 - 2012-12-31-22:10      13.0 hours                7475 Missing Packets
