B_SPW_2010_01.txt
2010-01-01-20:19 - 2010-01-02-00:35       4.2 hours                2341 Missing Packets
2010-01-02-06:16 - 2010-01-02-12:21       6.1 hours                3709 Missing Packets
2010-01-05-10:07 - 2010-01-05-20:06      10.0 hours                3662 Missing Packets
2010-01-05-20:11 - 2010-01-06-00:27       4.3 hours                2099 Missing Packets
2010-01-06-02:54 - 2010-01-06-03:13       0.3 hours                   1 Missing Packets
2010-01-06-03:34 - 2010-01-06-12:11       8.6 hours                4920 Missing Packets
2010-01-06-15:11 - 2010-01-06-16:18       1.1 hours                  14 Missing Packets
2010-01-06-20:31 - 2010-01-07-01:27       4.9 hours                2718 Missing Packets
2010-01-07-03:11 - 2010-01-07-15:05      11.9 hours                7091 Missing Packets
2010-01-09-12:18 - 2010-01-09-12:32       0.2 hours                   6 Missing Packets
2010-01-10-01:00 - 2010-01-10-01:28       0.5 hours                  20 Missing Packets
2010-01-10-07:12 - 2010-01-10-21:05      13.9 hours                8485 Missing Packets
2010-01-10-21:13 - 2010-01-10-21:32       0.3 hours                  20 Missing Packets
2010-01-11-03:11 - 2010-01-11-22:19      19.1 hours               11869 Missing Packets
2010-01-12-04:07 - 2010-01-12-21:15      17.1 hours               11190 Missing Packets
2010-01-13-04:07 - 2010-01-13-16:11      12.1 hours                7628 Missing Packets
2010-01-13-19:11 - 2010-01-14-01:06       5.9 hours                2994 Missing Packets
2010-01-14-04:07 - 2010-01-14-08:10       4.1 hours                2235 Missing Packets
2010-01-14-10:16 - 2010-01-14-20:10       9.9 hours                5918 Missing Packets
2010-01-15-02:07 - 2010-01-15-12:20      10.2 hours                6426 Missing Packets
2010-01-16-11:33 - 2010-01-16-11:47       0.2 hours                  20 Missing Packets
2010-01-17-10:16 - 2010-01-17-21:14      11.0 hours                6650 Missing Packets
2010-01-18-04:07 - 2010-01-18-21:14      17.1 hours               10888 Missing Packets
2010-01-19-04:07 - 2010-01-19-12:14       8.1 hours                2576 Missing Packets
2010-01-19-12:32 - 2010-01-19-12:46       0.2 hours                   8 Missing Packets
2010-01-21-20:28 - 2010-01-21-20:36       0.1 hours                  27 Missing Packets
2010-01-22-01:10 - 2010-01-22-20:11      19.0 hours               11380 Missing Packets
2010-01-23-02:06 - 2010-01-23-14:11      12.1 hours                7506 Missing Packets
2010-01-23-20:46 - 2010-01-24-03:33       6.8 hours                3730 Missing Packets
2010-01-24-10:16 - 2010-01-24-19:07       8.9 hours                5005 Missing Packets
2010-01-25-01:11 - 2010-01-25-14:32      13.3 hours                8116 Missing Packets
2010-01-28-06:58 - 2010-01-28-12:20       5.3 hours                3245 Missing Packets
2010-01-29-12:19 - 2010-01-29-12:32       0.2 hours                   6 Missing Packets
