%!PS-Adobe-3.0
%%BoundingBox: 54 360 558 720
%%Title: Graphics produced by IDL
%%For: uitenbr@unicycle, /home/uitenbr/atlases/UV_atlas
%%Creator: IDL Version 8.1 (linux x86_64 m64)
%%CreationDate: Thu Apr  4 22:11:32 2013
%%DocumentData: Clean7bit
%%Requirements: color
%%LanguageLevel: 1
%%PageOrder: Ascend
%%Pages: (atend)
%%DocumentNeededResources: (atend)
%%EndComments
%%BeginProlog
save
%+ prolog.ps -- Prolog for IDL generated PostScript files
%+ Copyright (c) 1988-2011 ITT Visual Information Solutions. All Rights Reserved.
%v 5
/$IDL_DICT 40 dict def $IDL_DICT begin /bdef { bind def } bind def /C
{currentpoint newpath moveto} bdef /CP {currentpoint} bdef /D {currentpoint
stroke moveto} bdef /F {closepath fill} bdef /K { setgray } bdef /M {moveto}
bdef /N {rmoveto} bdef /P {lineto} bdef /R {rlineto} bdef /S {gsave show
grestore} bdef /X {currentpoint pop} bdef /Z {gsave currentpoint lineto 20
setlinewidth 1 setlinecap stroke grestore} bdef /L0 {[] 0 setdash} bdef /L1
{[40 100] 0 setdash} bdef /L2 {[200 200] 0 setdash} bdef /L3 {[200 100 50
100] 0 setdash} bdef /L4 {[300 100 50 100 50 100 50 100] 0 setdash} bdef /L5
{[400 200] 0 setdash} bdef /STDFONT { findfont exch scalefont setfont } bdef
/ISOFONT { findfont dup length dict begin { 1 index /FID ne {def} {pop pop}
ifelse } forall /Encoding ISOLatin1Encoding def currentdict end /idltmpfont
exch definefont exch scalefont setfont } bdef /ISOBULLET { gsave /Helvetica
findfont exch scalefont setfont (\267) show currentpoint grestore moveto}
bdef /MITERLIMIT { 2.5 setmiterlimit } bdef end
%%EndProlog
%%Page: 0 1
%%PageRequirements: color
%%PageResources: (atend)
%%PageOrientation: Portrait
%%PageBoundingBox: 54 360 558 720
%%BeginPageSetup
save
$IDL_DICT begin 54 360 translate 0.0283465 dup scale MITERLIMIT
%%IncludeResource: font Helvetica
423.333 /Helvetica STDFONT
%%EndPageSetup
30 setlinewidth L0 0.000 0.000 0.000 setrgbcolor 3463 1690 M 13784 0 R D
3463 1690 M 0 203 R D 10 setlinewidth 2902 1294 M 28 14 R 43 43 R 0 -295 R D
3169 1351 M 154 0 R -84 -113 R 42 0 R 28 -14 R 14 -14 R 14 -42 R 0 -28 R
-14 -42 R -28 -28 R -42 -14 R -42 0 R -42 14 R -14 14 R -14 28 R D
3505 1351 M -42 -15 R -28 -42 R -14 -70 R 0 -42 R 14 -70 R 28 -42 R 42 -14 R
28 0 R 42 14 R 29 42 R 14 70 R 0 42 R -14 70 R -29 42 R -42 15 R -28 0 R D
3730 1084 M -14 -14 R 14 -14 R 14 14 R -14 14 R D 3926 1351 M -42 -15 R
-28 -42 R -14 -70 R 0 -42 R 14 -70 R 28 -42 R 42 -14 R 28 0 R 42 14 R
28 42 R 14 70 R 0 42 R -14 70 R -28 42 R -42 15 R -28 0 R D 30 setlinewidth
6220 1690 M 0 203 R D 10 setlinewidth 5659 1294 M 28 14 R 42 43 R 0 -295 R D
5926 1351 M 154 0 R -84 -113 R 42 0 R 28 -14 R 14 -14 R 14 -42 R 0 -28 R
-14 -42 R -28 -28 R -42 -14 R -42 0 R -42 14 R -14 14 R -14 28 R D
6262 1351 M -42 -15 R -28 -42 R -14 -70 R 0 -42 R 14 -70 R 28 -42 R 42 -14 R
28 0 R 42 14 R 28 42 R 14 70 R 0 42 R -14 70 R -28 42 R -42 15 R -28 0 R D
6486 1084 M -14 -14 R 14 -14 R 15 14 R -15 14 R D 6613 1280 M 0 14 R 14 28 R
14 14 R 28 15 R 56 0 R 28 -15 R 14 -14 R 14 -28 R 0 -28 R -14 -28 R
-28 -42 R -140 -140 R 196 0 R D 30 setlinewidth 8977 1690 M 0 203 R D
10 setlinewidth 8416 1294 M 28 14 R 42 43 R 0 -295 R D 8682 1351 M 155 0 R
-84 -113 R 42 0 R 28 -14 R 14 -14 R 14 -42 R 0 -28 R -14 -42 R -28 -28 R
-42 -14 R -42 0 R -43 14 R -14 14 R -14 28 R D 9019 1351 M -42 -15 R
-28 -42 R -14 -70 R 0 -42 R 14 -70 R 28 -42 R 42 -14 R 28 0 R 42 14 R
28 42 R 14 70 R 0 42 R -14 70 R -28 42 R -42 15 R -28 0 R D 9243 1084 M
-14 -14 R 14 -14 R 14 14 R -14 14 R D 9496 1351 M -141 -197 R 211 0 R D
9496 1351 M 0 -295 R D 30 setlinewidth 11734 1690 M 0 203 R D
10 setlinewidth 11173 1294 M 28 14 R 42 43 R 0 -295 R D 11439 1351 M 154 0 R
-84 -113 R 42 0 R 28 -14 R 14 -14 R 15 -42 R 0 -28 R -15 -42 R -28 -28 R
-42 -14 R -42 0 R -42 14 R -14 14 R -14 28 R D 11776 1351 M -42 -15 R
-28 -42 R -14 -70 R 0 -42 R 14 -70 R 28 -42 R 42 -14 R 28 0 R 42 14 R
28 42 R 14 70 R 0 42 R -14 70 R -28 42 R -42 15 R -28 0 R D 12000 1084 M
-14 -14 R 14 -14 R 14 14 R -14 14 R D 12295 1308 M -14 28 R -43 15 R -28 0 R
-42 -15 R -28 -42 R -14 -70 R 0 -70 R 14 -56 R 28 -28 R 42 -14 R 14 0 R
42 14 R 29 28 R 14 42 R 0 14 R -14 42 R -29 28 R -42 14 R -14 0 R -42 -14 R
-28 -28 R -14 -42 R D 30 setlinewidth 14490 1690 M 0 203 R D 10 setlinewidth
13930 1294 M 28 14 R 42 43 R 0 -295 R D 14196 1351 M 154 0 R -84 -113 R
42 0 R 28 -14 R 14 -14 R 14 -42 R 0 -28 R -14 -42 R -28 -28 R -42 -14 R
-42 0 R -42 14 R -14 14 R -14 28 R D 14533 1351 M -43 -15 R -28 -42 R
-14 -70 R 0 -42 R 14 -70 R 28 -42 R 43 -14 R 28 0 R 42 14 R 28 42 R 14 70 R
0 42 R -14 70 R -28 42 R -42 15 R -28 0 R D 14757 1084 M -14 -14 R 14 -14 R
14 14 R -14 14 R D 14939 1351 M -42 -15 R -14 -28 R 0 -28 R 14 -28 R
28 -14 R 56 -14 R 42 -14 R 28 -28 R 14 -28 R 0 -42 R -14 -28 R -14 -14 R
-42 -14 R -56 0 R -42 14 R -14 14 R -14 28 R 0 42 R 14 28 R 28 28 R 42 14 R
56 14 R 28 14 R 14 28 R 0 28 R -14 28 R -42 15 R -56 0 R D 30 setlinewidth
17247 1690 M 0 203 R D 10 setlinewidth 16686 1294 M 28 14 R 43 43 R 0 -295 R
D 16953 1351 M 154 0 R -84 -113 R 42 0 R 28 -14 R 14 -14 R 14 -42 R 0 -28 R
-14 -42 R -28 -28 R -42 -14 R -42 0 R -42 14 R -14 14 R -14 28 R D
17247 1294 M 28 14 R 42 43 R 0 -295 R D 17514 1084 M -14 -14 R 14 -14 R
14 14 R -14 14 R D 17710 1351 M -42 -15 R -28 -42 R -14 -70 R 0 -42 R
14 -70 R 28 -42 R 42 -14 R 28 0 R 42 14 R 28 42 R 14 70 R 0 42 R -14 70 R
-28 42 R -42 15 R -28 0 R D 30 setlinewidth 4152 1690 M 0 101 R D
4842 1690 M 0 101 R D 5531 1690 M 0 101 R D 6909 1690 M 0 101 R D
7598 1690 M 0 101 R D 8288 1690 M 0 101 R D 9666 1690 M 0 101 R D
10355 1690 M 0 101 R D 11044 1690 M 0 101 R D 12423 1690 M 0 101 R D
13112 1690 M 0 101 R D 13801 1690 M 0 101 R D 15180 1690 M 0 101 R D
15869 1690 M 0 101 R D 16558 1690 M 0 101 R D 10 setlinewidth 8512 801 M
70 -294 R 70 294 R 70 -294 R 70 294 R D 9030 703 M 0 -196 R D 9030 661 M
-28 28 R -28 14 R -42 0 R -28 -14 R -28 -28 R -14 -42 R 0 -28 R 14 -42 R
28 -28 R 28 -14 R 42 0 R 28 14 R 28 28 R D 9114 703 M 85 -196 R 84 196 R D
9353 619 M 168 0 R 0 28 R -14 28 R -14 14 R -28 14 R -42 0 R -28 -14 R
-28 -28 R -14 -42 R 0 -28 R 14 -42 R 28 -28 R 28 -14 R 42 0 R 28 14 R
28 28 R D 9619 801 M 0 -294 R D 9717 619 M 169 0 R 0 28 R -14 28 R -14 14 R
-28 14 R -43 0 R -28 -14 R -28 -28 R -14 -42 R 0 -28 R 14 -42 R 28 -28 R
28 -14 R 43 0 R 28 14 R 28 28 R D 9984 703 M 0 -196 R D 9984 647 M 42 42 R
28 14 R 42 0 R 28 -14 R 14 -42 R 0 -140 R D 10404 703 M 0 -238 R -14 -42 R
-14 -14 R -28 -14 R -42 0 R -28 14 R D 10404 661 M -28 28 R -28 14 R -42 0 R
-28 -14 R -28 -28 R -14 -42 R 0 -28 R 14 -42 R 28 -28 R 28 -14 R 42 0 R
28 14 R 28 28 R D 10531 801 M 0 -238 R 14 -42 R 28 -14 R 28 0 R D
10488 703 M 99 0 R D 10685 801 M 0 -294 R D 10685 647 M 42 42 R 28 14 R
42 0 R 28 -14 R 14 -42 R 0 -140 R D 11176 857 M 0 -462 R D 11190 857 M
0 -462 R D 11176 857 M 98 0 R D 11176 395 M 98 0 R D 11372 703 M 0 -196 R D
11372 647 M 42 42 R 28 14 R 42 0 R 28 -14 R 14 -42 R 0 -140 R D 11638 703 M
0 -196 R D 11638 647 M 42 42 R 28 14 R 42 0 R 28 -14 R 14 -42 R 0 -140 R D
11792 647 M 43 42 R 28 14 R 42 0 R 28 -14 R 14 -42 R 0 -140 R D 12129 857 M
0 -462 R D 12143 857 M 0 -462 R D 12045 857 M 98 0 R D 12045 395 M 98 0 R D
30 setlinewidth 3463 11855 M 13784 0 R D 3463 11855 M 0 -203 R D
6220 11855 M 0 -203 R D 8977 11855 M 0 -203 R D 11734 11855 M 0 -203 R D
14490 11855 M 0 -203 R D 17247 11855 M 0 -203 R D 4152 11855 M 0 -101 R D
4842 11855 M 0 -101 R D 5531 11855 M 0 -101 R D 6909 11855 M 0 -101 R D
7598 11855 M 0 -101 R D 8288 11855 M 0 -101 R D 9666 11855 M 0 -101 R D
10355 11855 M 0 -101 R D 11044 11855 M 0 -101 R D 12423 11855 M 0 -101 R D
13112 11855 M 0 -101 R D 13801 11855 M 0 -101 R D 15180 11855 M 0 -101 R D
15869 11855 M 0 -101 R D 16558 11855 M 0 -101 R D 3463 1690 M 0 10165 R D
3463 1690 M 276 0 R D 10 setlinewidth 3162 1984 M -42 -14 R -28 -42 R
-14 -70 R 0 -42 R 14 -70 R 28 -42 R 42 -14 R 28 0 R 42 14 R 28 42 R 14 70 R
0 42 R -14 70 R -28 42 R -42 14 R -28 0 R D 30 setlinewidth 3463 4231 M
276 0 R D 10 setlinewidth 2839 4300 M 28 14 R 42 43 R 0 -295 R D 3162 4357 M
-42 -14 R -28 -43 R -14 -70 R 0 -42 R 14 -70 R 28 -42 R 42 -14 R 28 0 R
42 14 R 28 42 R 14 70 R 0 42 R -14 70 R -28 43 R -42 14 R -28 0 R D
30 setlinewidth 3463 6772 M 276 0 R D 10 setlinewidth 2811 6828 M 0 14 R
14 28 R 14 14 R 28 14 R 56 0 R 29 -14 R 14 -14 R 14 -28 R 0 -28 R -14 -28 R
-28 -42 R -141 -140 R 197 0 R D 3162 6898 M -42 -14 R -28 -42 R -14 -70 R
0 -42 R 14 -70 R 28 -42 R 42 -14 R 28 0 R 42 14 R 28 42 R 14 70 R 0 42 R
-14 70 R -28 42 R -42 14 R -28 0 R D 30 setlinewidth 3463 9314 M 276 0 R D
10 setlinewidth 2825 9439 M 155 0 R -85 -112 R 43 0 R 28 -14 R 14 -14 R
14 -42 R 0 -28 R -14 -42 R -28 -28 R -43 -14 R -42 0 R -42 14 R -14 14 R
-14 28 R D 3162 9439 M -42 -14 R -28 -42 R -14 -70 R 0 -42 R 14 -70 R
28 -42 R 42 -14 R 28 0 R 42 14 R 28 42 R 14 70 R 0 42 R -14 70 R -28 42 R
-42 14 R -28 0 R D 30 setlinewidth 3463 11855 M 276 0 R D 10 setlinewidth
2938 11854 M -141 -196 R 211 0 R D 2938 11854 M 0 -294 R D 3162 11854 M
-42 -14 R -28 -42 R -14 -70 R 0 -42 R 14 -70 R 28 -42 R 42 -14 R 28 0 R
42 14 R 28 42 R 14 70 R 0 42 R -14 70 R -28 42 R -42 14 R -28 0 R D
30 setlinewidth 3463 1944 M 138 0 R D 3463 2198 M 138 0 R D 3463 2452 M
138 0 R D 3463 2706 M 138 0 R D 3463 2960 M 138 0 R D 3463 3215 M 138 0 R D
3463 3469 M 138 0 R D 3463 3723 M 138 0 R D 3463 3977 M 138 0 R D
3463 4485 M 138 0 R D 3463 4739 M 138 0 R D 3463 4993 M 138 0 R D
3463 5248 M 138 0 R D 3463 5502 M 138 0 R D 3463 5756 M 138 0 R D
3463 6010 M 138 0 R D 3463 6264 M 138 0 R D 3463 6518 M 138 0 R D
3463 7027 M 138 0 R D 3463 7281 M 138 0 R D 3463 7535 M 138 0 R D
3463 7789 M 138 0 R D 3463 8043 M 138 0 R D 3463 8297 M 138 0 R D
3463 8551 M 138 0 R D 3463 8806 M 138 0 R D 3463 9060 M 138 0 R D
3463 9568 M 138 0 R D 3463 9822 M 138 0 R D 3463 10076 M 138 0 R D
3463 10330 M 138 0 R D 3463 10585 M 138 0 R D 3463 10839 M 138 0 R D
3463 11093 M 138 0 R D 3463 11347 M 138 0 R D 3463 11601 M 138 0 R D
10 setlinewidth 2075 3359 M 295 0 R D 2173 3471 M 197 0 R D 2229 3471 M
-42 42 R -14 28 R 0 42 R 14 28 R 42 14 R 141 0 R D 2075 3752 M 239 0 R
42 14 R 14 28 R 0 28 R D 2173 3710 M 0 98 R D 2257 3892 M 0 168 R -28 0 R
-28 -14 R -14 -14 R -14 -28 R 0 -42 R 14 -28 R 28 -28 R 42 -14 R 29 0 R
42 14 R 28 28 R 14 28 R 0 42 R -14 28 R -28 28 R D 2173 4158 M 197 0 R D
2229 4158 M -42 42 R -14 28 R 0 42 R 14 28 R 42 14 R 141 0 R D 2215 4565 M
-28 -14 R -14 -42 R 0 -42 R 14 -42 R 28 -14 R 28 14 R 14 28 R 14 70 R
15 28 R 28 14 R 14 0 R 28 -14 R 14 -42 R 0 -42 R -14 -42 R -28 -14 R D
2075 4649 M 14 14 R -14 14 R -14 -14 R 14 -14 R D 2173 4663 M 197 0 R D
2075 4789 M 239 0 R 42 14 R 14 28 R 0 28 R D 2173 4747 M 0 98 R D
2173 4915 M 197 85 R -197 84 R D 2370 5000 M 70 -29 R 28 -28 R 14 -28 R
0 -14 R D 2019 5392 M 463 0 R D 2019 5406 M 463 0 R D 2019 5392 M 0 98 R D
2482 5392 M 0 98 R D 2075 5701 M 225 0 R 42 -14 R 14 -14 R 14 -29 R 0 -28 R
-14 -28 R -14 -14 R -42 -14 R -29 0 R D 2173 6037 M 197 0 R D 2229 6037 M
-42 42 R -14 28 R 0 42 R 14 28 R 42 14 R 141 0 R D 2229 6191 M -42 42 R
-14 28 R 0 42 R 14 29 R 42 14 R 141 0 R D 2078 6442 M 0 156 R D 2018 6667 M
-9 0 R -17 9 R -9 9 R -9 17 R 0 35 R 9 17 R 9 9 R 17 8 R 17 0 R 18 -8 R
26 -18 R 87 -86 R 0 121 R D 2215 7222 M -28 -15 R -14 -42 R 0 -42 R 14 -42 R
28 -14 R 28 14 R 14 28 R 14 70 R 15 28 R 28 15 R 14 0 R 28 -15 R 14 -42 R
0 -42 R -14 -42 R -28 -14 R D 2078 7304 M 0 156 R D 2009 7547 M -9 17 R
-26 26 R 183 0 R D 2173 7943 M 197 0 R D 2229 7943 M -42 42 R -14 28 R
0 42 R 14 28 R 42 14 R 141 0 R D 2173 8210 M 197 0 R D 2229 8210 M -42 42 R
-14 28 R 0 42 R 14 28 R 42 14 R 141 0 R D 2229 8364 M -42 42 R -14 28 R
0 42 R 14 28 R 42 14 R 141 0 R D 2078 8614 M 0 156 R D 2009 8857 M -9 18 R
-26 26 R 183 0 R D 2215 9394 M -28 -14 R -14 -42 R 0 -42 R 14 -42 R 28 -14 R
28 14 R 14 28 R 14 70 R 15 28 R 28 14 R 14 0 R 28 -14 R 14 -42 R 0 -42 R
-14 -42 R -28 -14 R D 2173 9492 M 197 0 R D 2257 9492 M -42 14 R -28 28 R
-14 28 R 0 42 R D 2078 9658 M 0 157 R D 2009 9901 M -9 18 R -26 26 R 183 0 R
D 2019 10144 M 463 0 R D 2019 10158 M 463 0 R D 2019 10060 M 0 98 R D
2482 10060 M 0 98 R D 30 setlinewidth 17247 1690 M 0 10165 R D 17247 1690 M
-275 0 R D 17247 4231 M -275 0 R D 17247 6772 M -275 0 R D 17247 9314 M
-275 0 R D 17247 11855 M -275 0 R D 17247 1944 M -138 0 R D 17247 2198 M
-138 0 R D 17247 2452 M -138 0 R D 17247 2706 M -138 0 R D 17247 2960 M
-138 0 R D 17247 3215 M -138 0 R D 17247 3469 M -138 0 R D 17247 3723 M
-138 0 R D 17247 3977 M -138 0 R D 17247 4485 M -138 0 R D 17247 4739 M
-138 0 R D 17247 4993 M -138 0 R D 17247 5248 M -138 0 R D 17247 5502 M
-138 0 R D 17247 5756 M -138 0 R D 17247 6010 M -138 0 R D 17247 6264 M
-138 0 R D 17247 6518 M -138 0 R D 17247 7027 M -138 0 R D 17247 7281 M
-138 0 R D 17247 7535 M -138 0 R D 17247 7789 M -138 0 R D 17247 8043 M
-138 0 R D 17247 8297 M -138 0 R D 17247 8551 M -138 0 R D 17247 8806 M
-138 0 R D 17247 9060 M -138 0 R D 17247 9568 M -138 0 R D 17247 9822 M
-138 0 R D 17247 10076 M -138 0 R D 17247 10330 M -138 0 R D 17247 10585 M
-138 0 R D 17247 10839 M -138 0 R D 17247 11093 M -138 0 R D 17247 11347 M
-138 0 R D 17247 11601 M -138 0 R D 0.502 0.502 0.502 setrgbcolor
3463 1909 M 18 -4 R 26 -1 R 27 0 R 24 -1 R 27 -2 R 26 1 R 25 4 R 26 2 R
26 -1 R 25 -1 R 26 -3 R 26 1 R 25 0 R 26 0 R 27 4 R 24 0 R 26 -1 R 27 0 R
24 -4 R 27 0 R 26 5 R 25 9 R 26 0 R 26 -8 R 25 -6 R 26 -1 R 26 1 R 26 5 R
25 5 R 26 0 R 25 -3 R 26 -3 R 26 0 R 27 5 R 25 0 R 26 -3 R 26 2 R 25 -1 R
26 -4 R 26 0 R 25 3 R 26 5 R 26 5 R 25 1 R 26 23 R 26 109 R 25 236 R
26 251 R 27 139 R 24 -72 R 27 -229 R 26 -257 R 25 -149 R 26 -46 R 26 -9 R
25 -2 R 26 2 R 26 5 R 27 3 R 24 -2 R 26 1 R 25 4 R 27 4 R 26 3 R 24 -2 R
27 -6 R 26 -8 R 25 -1 R 26 2 R 26 2 R 26 1 R 25 -2 R 26 -2 R 25 -6 R 26 -4 R
26 0 R 26 -5 R 26 -4 R 26 2 R 26 4 R 24 2 R 27 3 R 26 -1 R 25 -2 R 26 -1 R
26 2 R 25 4 R 26 1 R 26 1 R 25 1 R 26 -1 R 27 1 R 24 1 R 27 1 R 26 1 R
24 -1 R 27 0 R 26 -1 R 25 0 R 26 2 R 26 -4 R 26 -3 R 25 3 R 26 12 R 25 17 R
26 29 R 27 51 R 26 100 R 24 196 R 27 348 R 26 664 R 25 1014 R 26 1400 R
26 1145 R 25 -290 R 26 -693 R 26 -152 R 25 913 R 26 1007 R 26 -413 R
25 -1726 R 26 -1436 R 27 -961 R 24 -454 R 27 -262 R 26 -162 R 25 -126 R
26 -102 R 26 -69 R 25 -27 R 26 -7 R 26 -5 R 25 -5 R 26 -2 R 26 -1 R 25 0 R
26 -1 R 27 -5 R 24 -6 R 27 2 R 26 1 R 25 0 R 26 1 R 26 12 R 26 28 R 25 17 R
26 0 R 25 -14 R 26 -15 R 26 4 R 26 31 R 25 47 R 27 31 R 24 -1 R 27 -37 R
26 -47 R 26 -32 R 25 -10 R 26 -4 R 26 0 R 25 -2 R 26 -6 R 26 -2 R 25 11 R
26 26 R 26 33 R 25 11 R 26 -15 R 27 -31 R 24 -24 R 27 -9 R 26 -4 R 25 7 R
26 9 R 26 9 R 25 10 R 26 9 R 26 8 R 25 11 R 26 11 R 27 8 R 24 7 R 26 6 R
27 -6 R 26 -21 R 25 -28 R 26 -19 R 25 -13 R 26 -6 R 26 0 R 26 -3 R 25 -2 R
26 0 R 26 0 R 25 -2 R 26 2 R 27 3 R 24 4 R 27 -2 R 26 -3 R 25 0 R 26 0 R
26 -1 R 25 -1 R 26 -1 R 26 -1 R 25 -3 R 26 -2 R 26 0 R 27 2 R 24 3 R 26 -1 R
27 -1 R 24 3 R 27 0 R 26 -2 R 25 -1 R 26 1 R 26 0 R 25 -2 R 26 0 R 26 4 R
25 5 R 26 5 R 27 -1 R 24 -3 R 26 3 R 27 19 R 25 41 R 26 67 R 26 108 R
25 140 R 26 141 R 26 111 R 25 46 R 26 -32 R 26 -105 R 25 -150 R 26 -150 R
26 -113 R 25 -64 R 26 -31 R 26 -9 R 27 -2 R 25 -2 R 26 4 R 26 4 R 25 6 R
26 13 R 26 23 R 25 42 R 26 83 R 26 163 R 25 316 R 26 558 R 27 1305 R
24 1301 R 27 1403 R 26 257 R 25 -206 R 26 233 R 26 942 R 25 445 R 26 -1253 R
26 -2012 R 25 -1625 R 26 -1102 R 26 -442 R 27 -233 R 24 -116 R 26 -60 R
25 -30 R 27 -18 R 26 -11 R 24 -5 R 27 1 R 26 2 R 26 -1 R 25 1 R 26 0 R
26 2 R 25 1 R 26 -2 R 26 -2 R 25 -1 R 27 -1 R 26 -5 R 25 -4 R 26 2 R 26 6 R
25 2 R 26 6 R 26 2 R 26 -2 R 25 -3 R 26 -4 R 26 -3 R 25 5 R 26 5 R 27 7 R
24 1 R 27 1 R 26 2 R 25 0 R 26 2 R 25 -1 R 26 -8 R 26 -6 R 26 2 R 25 6 R
26 11 R 26 25 R 25 51 R 26 80 R 27 107 R 24 162 R 27 297 R 26 525 R
26 1224 R 25 1500 R 26 2122 R 25 1178 R 26 594 R 26 600 R 26 162 R
25 -1459 R 26 -2704 R 27 -1943 R 24 -1288 R 26 -721 R 27 -267 R 24 -129 R
27 -66 R 26 -33 R 25 -19 R 26 -11 R 26 -4 R 25 0 R 26 -1 R 26 -3 R 26 -2 R
25 2 R 27 3 R 24 0 R 26 -5 R 27 -2 R 25 2 R 26 -4 R 26 -6 R 25 -4 R 26 -2 R
26 1 R 26 0 R 25 1 R 26 -1 R 27 0 R 24 4 R 26 2 R 27 1 R 24 -3 R 27 -2 R
26 -2 R 25 -3 R 26 -3 R 26 -2 R 25 2 R 26 4 R 26 0 R 25 -1 R 26 2 R 26 0 R
27 0 R 24 0 R 26 0 R 27 0 R 25 -3 R 26 -4 R 26 -2 R 25 3 R 26 3 R 26 0 R
25 -2 R 26 -1 R 26 2 R 25 5 R 26 5 R 27 2 R 24 -2 R 26 1 R 27 1 R 25 0 R
26 -2 R 26 -3 R 25 -1 R 26 1 R 26 2 R 26 -1 R 25 -4 R 26 -3 R 25 0 R 26 -1 R
26 3 R 27 3 R 25 -3 R 26 -6 R 26 -4 R 25 3 R 26 3 R 26 4 R 25 2 R 26 0 R
26 2 R 25 0 R 26 -2 R 26 -4 R 25 -3 R 26 1 R 27 -1 R 26 -3 R 25 2 R 26 3 R
25 -1 R 26 1 R 26 3 R 26 1 R 25 2 R 26 -2 R 26 -4 R 25 -3 R 26 1 R 27 2 R
24 2 R 27 -1 R 26 -3 R 25 -1 R 26 4 R 26 2 R 26 1 R 25 0 R 26 -4 R 26 0 R
25 3 R 26 0 R 26 -3 R 25 3 R 27 4 R 26 -2 R 25 -2 R 26 -4 R 26 -1 R 25 1 R
26 1 R 26 4 R 25 0 R 26 -2 R 26 -1 R 25 0 R 26 1 R 26 2 R 27 5 R 24 2 R
27 -3 R 24 -3 R 27 -4 R 26 -2 R 25 1 R 26 6 R 26 1 R 26 -3 R 25 1 R 26 -2 R
26 0 R 25 2 R 27 1 R 26 1 R 24 2 R 27 3 R 26 2 R 26 -1 R 25 0 R 26 -3 R
25 -1 R 26 6 R 26 0 R 25 -2 R 26 0 R 26 8 R 26 14 R 25 15 R 27 18 R 26 31 R
24 62 R 27 105 R 26 131 R 25 133 R 26 122 R 26 122 R 25 150 R 26 167 R
26 99 R 27 -84 R 24 -238 R 27 -270 R 26 -226 R 25 -156 R 26 -86 R 26 -44 R
25 -25 R 26 -18 R 26 -11 R 25 -8 R 26 -6 R 26 -6 R 25 0 R 26 -1 R 26 -2 R
25 -1 R 27 0 R 26 2 R 24 5 R 27 -2 R 26 -3 R 26 -2 R 25 0 R 26 -2 R 26 -3 R
25 -4 R 26 -3 R 25 -1 R 26 0 R 26 -2 R 27 1 R 24 3 R 27 -3 R 26 -5 R 16 0 R
D
%%PageTrailer
end
restore
showpage
%%PageResources: font Helvetica
%%Trailer
restore
%%Pages: 1
%%DocumentNeededResources: font Helvetica
%%EOF
