                      DATE                   T_START                    T_STOP    VER_NUM   WAVE_STR   WAVELNTH     EPERDN   DNPERPHT   EFF_AREA   EFF_WVLN    EFFA_P1    EFFA_P2    EFFA_P3       RMSE
   2017-11-30T05:09:36.000   2010-03-24T00:00:00.000   2011-01-27T15:00:00.000          8    94_THIN         94      18.30    1.97671    0.31656      93.90    0.00000    0.00000    0.00000    0.06311
   2017-11-30T05:09:37.000   2011-01-27T15:00:00.000   2011-04-13T18:00:00.000          8    94_THIN         94      18.30    1.97671    0.32730      93.90    0.00000    0.00000    0.00000    0.02765
   2017-11-30T05:09:39.000   2011-04-13T18:00:00.000   2011-05-20T18:00:00.000          8    94_THIN         94      18.30    1.97671    0.30272      93.90    0.00000    0.00000    0.00000    0.01406
   2017-11-30T05:09:40.000   2011-05-20T18:00:00.000   2011-10-06T12:00:00.000          8    94_THIN         94      18.30    1.97671    0.29009      93.90    0.00000    0.00000    0.00000    0.02359
   2017-11-30T05:09:42.000   2011-10-06T12:00:00.000   2012-01-01T12:00:00.000          8    94_THIN         94      18.30    1.97671    0.30042      93.90    0.00000    0.00000    0.00000    0.00964
   2017-11-30T05:09:43.000   2012-01-01T12:00:00.000   2012-04-10T12:00:00.000          8    94_THIN         94      18.30    1.97671    0.29437      93.90    0.00000    0.00000    0.00000    0.00991
   2017-11-30T05:09:44.000   2012-04-10T12:00:00.000   2013-02-15T12:00:00.000          8    94_THIN         94      18.30    1.97671    0.28762      93.90    0.00000    0.00000    0.00000    0.01250
   2017-11-30T05:09:46.000   2013-02-15T12:00:00.000   2013-05-01T12:00:00.000          8    94_THIN         94      18.30    1.97671    0.27663      93.90    0.00000    0.00000    0.00000    0.01050
   2017-11-30T05:09:47.000   2013-05-01T12:00:00.000   2013-10-01T12:00:00.000          8    94_THIN         94      18.30    1.97671    0.26405      93.90    0.00000    0.00000    0.00000    0.01315
   2017-11-30T05:09:49.000   2013-10-01T12:00:00.000   2014-05-01T12:00:00.000          8    94_THIN         94      18.30    1.97671    0.25974      93.90    0.00000    0.00000    0.00000    0.01247
   2017-11-30T05:09:50.000   2014-05-01T12:00:00.000   2014-05-25T12:00:00.000          8    94_THIN         94      18.30    1.97671    0.24405      93.90    0.00000    0.00000    0.00000    0.01141
   2017-11-30T05:09:50.000   2014-05-25T12:00:00.000   2015-05-01T12:00:00.000          8    94_THIN         94      18.30    1.97671    0.24428      93.90    0.00000    0.00000    0.00000    0.04097
   2017-11-30T05:09:51.000   2015-05-01T12:00:00.000   2016-05-01T12:00:00.000          8    94_THIN         94      18.30    1.97671    0.23695      93.90    0.00000    0.00000    0.00000    0.03596
   2017-11-30T05:09:51.000   2016-05-01T12:00:00.000   2030-05-01T00:00:00.000          8    94_THIN         94      18.30    1.97671    0.23593      93.90    0.00000    0.00000    0.00000    0.02729
   2017-11-30T05:09:53.000   2010-03-24T00:00:00.000   2011-02-24T19:00:00.000          8   131_THIN        131      17.60    1.47100    1.10943     131.20   -0.00032    0.00000    0.00000    0.00952
   2017-11-30T05:09:54.000   2011-02-24T19:00:00.000   2012-01-01T12:00:00.000          8   131_THIN        131      17.60    1.47100    1.00512     131.20   -0.00015    0.00000    0.00000    0.00889
   2017-11-30T05:09:55.000   2012-01-01T12:00:00.000   2012-04-10T12:00:00.000          8   131_THIN        131      17.60    1.47100    0.94416     131.20   -0.00043    0.00000    0.00000    0.00770
   2017-11-30T05:09:57.000   2012-04-10T12:00:00.000   2013-02-15T12:00:00.000          8   131_THIN        131      17.60    1.47100    0.96610     131.20   -0.00020    0.00000    0.00000    0.00807
   2017-11-30T05:09:58.000   2013-02-15T12:00:00.000   2013-05-01T12:00:00.000          8   131_THIN        131      17.60    1.47100    0.89933     131.20   -0.00028    0.00000    0.00000    0.00546
   2017-11-30T05:10:00.000   2013-05-01T12:00:00.000   2013-10-01T12:00:00.000          8   131_THIN        131      17.60    1.47100    0.88044     131.20   -0.00005    0.00000    0.00000    0.00687
   2017-11-30T05:10:01.000   2013-10-01T12:00:00.000   2014-05-01T12:00:00.000          8   131_THIN        131      17.60    1.47100    0.88841     131.20   -0.00016    0.00000    0.00000    0.00492
   2017-11-30T05:10:03.000   2014-05-01T12:00:00.000   2014-05-25T12:00:00.000          8   131_THIN        131      17.60    1.47100    0.85416     131.20   -0.00046    0.00000    0.00000    0.00224
   2017-11-30T05:10:03.000   2014-05-25T12:00:00.000   2015-05-01T12:00:00.000          8   131_THIN        131      17.60    1.47100    0.84918     131.20   -0.00025    0.00000    0.00000    0.02332
   2017-11-30T05:10:03.000   2015-05-01T12:00:00.000   2016-05-01T12:00:00.000          8   131_THIN        131      17.60    1.47100    0.80248     131.20   -0.00021    0.00000    0.00000    0.01900
   2017-11-30T05:10:04.000   2016-05-01T12:00:00.000   2030-05-01T00:00:00.000          8   131_THIN        131      17.60    1.47100    0.74572     131.20    0.00000    0.00000    0.00000    0.01642
   2017-11-30T05:10:05.000   2010-03-24T00:00:00.000   2011-01-27T15:00:00.000          8   171_THIN        171      17.70    1.12159    3.46641     171.10   -0.00016    0.00000    0.00000    0.00740
   2017-11-30T05:10:07.000   2011-01-27T15:00:00.000   2012-01-01T12:00:00.000          8   171_THIN        171      17.70    1.12159    3.36139     171.10   -0.00002    0.00000    0.00000    0.00662
   2017-11-30T05:10:08.000   2012-01-01T12:00:00.000   2013-02-15T12:00:00.000          8   171_THIN        171      17.70    1.12159    3.31772     171.10   -0.00021    0.00000    0.00000    0.00598
   2017-11-30T05:10:09.000   2013-02-15T12:00:00.000   2013-05-01T12:00:00.000          8   171_THIN        171      17.70    1.12159    3.00253     171.10   -0.00010    0.00000    0.00000    0.00375
   2017-11-30T05:10:11.000   2013-05-01T12:00:00.000   2013-10-01T12:00:00.000          8   171_THIN        171      17.70    1.12159    2.98776     171.10   -0.00009    0.00000    0.00000    0.00517
   2017-11-30T05:10:12.000   2013-10-01T12:00:00.000   2014-05-01T12:00:00.000          8   171_THIN        171      17.70    1.12159    2.96084     171.10    0.00000    0.00000    0.00000    0.00564
   2017-11-30T05:10:14.000   2014-05-01T12:00:00.000   2014-05-25T12:00:00.000          8   171_THIN        171      17.70    1.12159    2.96568     171.10   -0.00010    0.00000    0.00000    0.00347
   2017-11-30T05:10:14.000   2014-05-25T12:00:00.000   2015-05-01T12:00:00.000          8   171_THIN        171      17.70    1.12159    3.03579     171.10   -0.00030    0.00000    0.00000    0.03015
   2017-11-30T05:10:14.000   2015-05-01T12:00:00.000   2016-05-01T12:00:00.000          8   171_THIN        171      17.70    1.12159    2.86897     171.10   -0.00023    0.00000    0.00000    0.02090
   2017-11-30T05:10:15.000   2016-05-01T12:00:00.000   2030-05-01T00:00:00.000          8   171_THIN        171      17.70    1.12159    2.71635     171.10    0.00000    0.00000    0.00000    0.01959
   2017-11-30T05:10:16.000   2010-03-24T00:00:00.000   2011-01-27T15:00:00.000          8   193_THIN        193      18.30    0.95137    1.42839     195.10   -0.00006    0.00000    0.00000    0.00525
   2017-11-30T05:10:18.000   2011-01-27T15:00:00.000   2012-01-01T12:00:00.000          8   193_THIN        193      18.30    0.95137    1.41816     195.10   -0.00017    0.00000    0.00000    0.00502
   2017-11-30T05:10:19.000   2012-01-01T12:00:00.000   2012-04-10T12:00:00.000          8   193_THIN        193      18.30    0.95137    1.35667     195.10   -0.00035    0.00000    0.00000    0.00254
   2017-11-30T05:10:20.000   2012-04-10T12:00:00.000   2013-02-15T12:00:00.000          8   193_THIN        193      18.30    0.95137    1.36734     195.10   -0.00009    0.00000    0.00000    0.00504
   2017-11-30T05:10:22.000   2013-02-15T12:00:00.000   2013-05-01T12:00:00.000          8   193_THIN        193      18.30    0.95137    1.30623     195.10    0.00000    0.00000    0.00000    0.00331
   2017-11-30T05:10:23.000   2013-05-01T12:00:00.000   2013-10-01T12:00:00.000          8   193_THIN        193      18.30    0.95137    1.30347     195.10   -0.00011    0.00000    0.00000    0.00303
   2017-11-30T05:10:25.000   2013-10-01T12:00:00.000   2014-05-01T12:00:00.000          8   193_THIN        193      18.30    0.95137    1.28844     195.10    0.00000    0.00000    0.00000    0.00831
   2017-11-30T05:10:26.000   2014-05-01T12:00:00.000   2014-05-25T12:00:00.000          8   193_THIN        193      18.30    0.95137    1.30442     195.10    0.00000    0.00000    0.00000    0.00271
   2017-11-30T05:10:26.000   2014-05-25T12:00:00.000   2015-05-01T12:00:00.000          8   193_THIN        193      18.30    0.95137    1.25131     195.10   -0.00015    0.00000    0.00000    0.02187
   2017-11-30T05:10:27.000   2015-05-01T12:00:00.000   2016-05-01T12:00:00.000          8   193_THIN        193      18.30    0.95137    1.23856     195.10   -0.00010    0.00000    0.00000    0.02118
   2017-11-30T05:10:27.000   2016-05-01T12:00:00.000   2030-05-01T00:00:00.000          8   193_THIN        193      18.30    0.95137    1.18583     195.10    0.00000    0.00000    0.00000    0.02408
   2017-11-30T05:10:29.000   2010-03-24T00:00:00.000   2011-01-27T15:00:00.000          8   211_THIN        211      18.30    0.87843    1.29562     211.30   -0.00013    0.00000    0.00000    0.00694
   2017-11-30T05:10:30.000   2011-01-27T15:00:00.000   2012-01-01T12:00:00.000          8   211_THIN        211      18.30    0.87843    1.27778     211.30   -0.00026    0.00000    0.00000    0.00680
   2017-11-30T05:10:31.000   2012-01-01T12:00:00.000   2012-04-10T12:00:00.000          8   211_THIN        211      18.30    0.87843    1.17382     211.30   -0.00068    0.00000    0.00000    0.00369
   2017-11-30T05:10:33.000   2012-04-10T12:00:00.000   2013-02-15T12:00:00.000          8   211_THIN        211      18.30    0.87843    1.17377     211.30   -0.00018    0.00000    0.00000    0.00678
   2017-11-30T05:10:34.000   2013-02-15T12:00:00.000   2013-05-01T12:00:00.000          8   211_THIN        211      18.30    0.87843    1.07271     211.30    0.00000    0.00000    0.00000    0.00617
   2017-11-30T05:10:36.000   2013-05-01T12:00:00.000   2013-10-01T12:00:00.000          8   211_THIN        211      18.30    0.87843    1.07011     211.30   -0.00019    0.00000    0.00000    0.00341
   2017-11-30T05:10:37.000   2013-10-01T12:00:00.000   2014-05-01T12:00:00.000          8   211_THIN        211      18.30    0.87843    1.04540     211.30    0.00000    0.00000    0.00000    0.00669
   2017-11-30T05:10:39.000   2014-05-01T12:00:00.000   2014-05-25T12:00:00.000          8   211_THIN        211      18.30    0.87843    1.05423     211.30   -0.00013    0.00000    0.00000    0.00431
   2017-11-30T05:10:39.000   2014-05-25T12:00:00.000   2015-05-01T12:00:00.000          8   211_THIN        211      18.30    0.87843    0.98413     211.30    0.00000    0.00000    0.00000    0.02780
   2017-11-30T05:10:39.000   2015-05-01T12:00:00.000   2016-05-01T12:00:00.000          8   211_THIN        211      18.30    0.87843    1.00761     211.30   -0.00009    0.00000    0.00000    0.03097
   2017-11-30T05:10:40.000   2016-05-01T12:00:00.000   2030-05-01T00:00:00.000          8   211_THIN        211      18.30    0.87843    0.93264     211.30    0.00000    0.00000    0.00000    0.03919
   2017-11-30T05:10:41.000   2010-03-24T00:00:00.000   2011-01-27T15:00:00.000          8   304_THIN        304      18.30    0.61097    0.10424     303.80   -0.00161    0.00000    0.00000    0.01365
   2017-11-30T05:10:43.000   2011-01-27T15:00:00.000   2011-04-13T18:00:00.000          8   304_THIN        304      18.30    0.61097    0.06483     303.80   -0.00323    0.00000    0.00000    0.00402
   2017-11-30T05:10:44.000   2011-04-13T18:00:00.000   2011-05-20T18:00:00.000          8   304_THIN        304      18.30    0.61097    0.05197     303.80   -0.00364    0.00000    0.00000    0.00267
   2017-11-30T05:10:45.000   2011-05-20T18:00:00.000   2011-10-06T12:00:00.000          8   304_THIN        304      18.30    0.61097    0.04532     303.80   -0.00259    0.00000    0.00000    0.00450
   2017-11-30T05:10:47.000   2011-10-06T12:00:00.000   2012-01-01T12:00:00.000          8   304_THIN        304      18.30    0.61097    0.03270     303.80   -0.00113    0.00000    0.00000    0.00282
   2017-11-30T05:10:48.000   2012-01-01T12:00:00.000   2012-04-10T12:00:00.000          8   304_THIN        304      18.30    0.61097    0.02977     303.80    0.00000    0.00000    0.00000    0.00228
   2017-11-30T05:10:50.000   2012-04-10T12:00:00.000   2013-02-15T12:00:00.000          8   304_THIN        304      18.30    0.61097    0.03533     303.80    0.00000    0.00000    0.00000    0.01427
   2017-11-30T05:10:51.000   2013-02-15T12:00:00.000   2013-05-01T12:00:00.000          8   304_THIN        304      18.30    0.61097    0.03471     303.80   -0.00010    0.00000    0.00000    0.00298
   2017-11-30T05:10:53.000   2013-05-01T12:00:00.000   2013-10-01T12:00:00.000          8   304_THIN        304      18.30    0.61097    0.03394     303.80   -0.00083    0.00000    0.00000    0.00291
   2017-11-30T05:10:54.000   2013-10-01T12:00:00.000   2014-05-01T12:00:00.000          8   304_THIN        304      18.30    0.61097    0.02814     303.80   -0.00064    0.00000    0.00000    0.00766
   2017-11-30T05:10:55.000   2014-05-01T12:00:00.000   2014-05-25T12:00:00.000          8   304_THIN        304      18.30    0.61097    0.02456     303.80   -0.00186    0.00000    0.00000    0.00238
   2017-11-30T05:10:56.000   2014-05-25T12:00:00.000   2015-05-01T12:00:00.000          8   304_THIN        304      18.30    0.61097    0.02059     303.80   -0.00131    0.00000    0.00000    0.00533
   2017-11-30T05:10:56.000   2015-05-01T12:00:00.000   2016-05-01T12:00:00.000          8   304_THIN        304      18.30    0.61097    0.01128     303.80   -0.00112    0.00000    0.00000    0.00373
   2017-11-30T05:10:56.000   2016-05-01T12:00:00.000   2016-11-01T12:00:00.000          8   304_THIN        304      18.30    0.61097    0.00700     303.80   -0.00066    0.00000    0.00000    0.00169
   2017-11-30T05:10:57.000   2016-11-01T12:00:00.000   2030-05-01T00:00:00.000          8   304_THIN        304      18.30    0.61097    0.00602     303.80    0.00000    0.00000    0.00000    0.00138
   2017-11-30T05:10:58.000   2010-03-24T00:00:00.000   2011-02-24T19:00:00.000          8   335_THIN        335      17.60    0.57542    0.06055     335.40   -0.00091    0.00000    0.00000    0.04752
   2017-11-30T05:11:00.000   2011-02-24T19:00:00.000   2012-01-01T12:00:00.000          8   335_THIN        335      17.60    0.57542    0.05888     335.40   -0.00092    0.00000    0.00000    0.05613
   2017-11-30T05:11:01.000   2012-01-01T12:00:00.000   2012-04-10T12:00:00.000          8   335_THIN        335      17.60    0.57542    0.04257     335.40   -0.00249    0.00000    0.00000    0.01621
   2017-11-30T05:11:02.000   2012-04-10T12:00:00.000   2013-02-15T12:00:00.000          8   335_THIN        335      17.60    0.57542    0.04209     335.40   -0.00117    0.00000    0.00000    0.02922
   2017-11-30T05:11:04.000   2013-02-15T12:00:00.000   2013-05-01T12:00:00.000          8   335_THIN        335      17.60    0.57542    0.02696     335.40   -0.00065    0.00000    0.00000    0.01699
   2017-11-30T05:11:05.000   2013-05-01T12:00:00.000   2013-10-01T12:00:00.000          8   335_THIN        335      17.60    0.57542    0.02573     335.40   -0.00103    0.00000    0.00000    0.01315
   2017-11-30T05:11:07.000   2013-10-01T12:00:00.000   2014-05-01T12:00:00.000          8   335_THIN        335      17.60    0.57542    0.02298     335.40   -0.00063    0.00000    0.00000    0.00866
   2017-11-30T05:11:08.000   2014-05-01T12:00:00.000   2014-05-25T12:00:00.000          8   335_THIN        335      17.60    0.57542    0.01941     335.40   -0.00216    0.00000    0.00000    0.00880
   2017-11-30T05:11:09.000   2014-05-25T12:00:00.000   2015-05-01T12:00:00.000          8   335_THIN        335      17.60    0.57542    0.01750     335.40   -0.00049    0.00000    0.00000    0.02062
   2017-11-30T05:11:09.000   2015-05-01T12:00:00.000   2016-05-01T12:00:00.000          8   335_THIN        335      17.60    0.57542    0.01463     335.40   -0.00047    0.00000    0.00000    0.01962
   2017-11-30T05:11:09.000   2016-05-01T12:00:00.000   2030-05-01T00:00:00.000          8   335_THIN        335      17.60    0.57542    0.01203     335.40    0.00000    0.00000    0.00000    0.01663
   2017-11-30T05:11:10.000   2010-03-24T00:00:00.000   2011-01-27T15:00:00.000          8       1600       1600      17.70    0.11994    0.01291    1600.00   -0.00012    0.00000    0.00000    0.00701
   2017-11-30T05:11:11.000   2011-01-27T15:00:00.000   2012-01-01T12:00:00.000          8       1600       1600      17.70    0.11994    0.01264    1600.00   -0.00045    0.00000    0.00000    0.00479
   2017-11-30T05:11:12.000   2012-01-01T12:00:00.000   2012-04-10T12:00:00.000          8       1600       1600      17.70    0.11994    0.00980    1600.00   -0.00012    0.00000    0.00000    0.00699
   2017-11-30T05:11:12.000   2012-04-10T12:00:00.000   2013-02-15T12:00:00.000          8       1600       1600      17.70    0.11994    0.00945    1600.00   -0.00032    0.00000    0.00000    0.00474
   2017-11-30T05:11:13.000   2013-02-15T12:00:00.000   2013-05-01T12:00:00.000          8       1600       1600      17.70    0.11994    0.00849    1600.00   -0.00007    0.00000    0.00000    0.00492
   2017-11-30T05:11:14.000   2013-05-01T12:00:00.000   2013-08-16T00:00:00.000          8       1600       1600      17.70    0.11994    0.00813    1600.00   -0.00024    0.00000    0.00000    0.00353
   2017-11-30T05:11:15.000   2013-08-16T00:00:00.000   2013-10-01T12:00:00.000          8       1600       1600      17.70    0.11994    0.00866    1600.00   -0.00090    0.00000    0.00000    0.00277
   2017-11-30T05:11:15.000   2013-10-01T12:00:00.000   2014-05-01T12:00:00.000          8       1600       1600      17.70    0.11994    0.00857    1600.00    0.00000    0.00000    0.00000    0.00901
   2017-11-30T05:11:16.000   2014-05-01T12:00:00.000   2015-05-01T12:00:00.000          8       1600       1600      17.70    0.11994    0.00843    1600.00   -0.00016    0.00000    0.00000    0.00899
   2017-11-30T05:11:17.000   2015-05-01T12:00:00.000   2016-05-01T12:00:00.000          8       1600       1600      17.70    0.11994    0.00777    1600.00   -0.00005    0.00000    0.00000    0.01281
   2017-11-30T05:11:18.000   2016-05-01T12:00:00.000   2017-01-01T12:00:00.000          8       1600       1600      17.70    0.11994    0.00726    1600.00   -0.00015    0.00000    0.00000    0.00852
   2017-11-30T05:11:18.000   2017-01-01T12:00:00.000   2030-05-01T00:00:00.000          8       1600       1600      17.70    0.11994    0.00679    1600.00    0.00000    0.00000    0.00000    0.01551
   2017-11-30T05:11:19.000   2010-03-24T00:00:00.000   2011-01-27T15:00:00.000          8       1700       1700      17.70    0.11289    0.03770    1700.00    0.00000    0.00000    0.00000    0.01037
   2017-11-30T05:11:20.000   2011-01-27T15:00:00.000   2012-01-01T12:00:00.000          8       1700       1700      17.70    0.11289    0.03860    1700.00   -0.00024    0.00000    0.00000    0.00676
   2017-11-30T05:11:21.000   2012-01-01T12:00:00.000   2012-04-10T12:00:00.000          8       1700       1700      17.70    0.11289    0.03249    1700.00    0.00000    0.00000    0.00000    0.01150
   2017-11-30T05:11:21.000   2012-04-10T12:00:00.000   2013-02-15T12:00:00.000          8       1700       1700      17.70    0.11289    0.03237    1700.00   -0.00013    0.00000    0.00000    0.00843
   2017-11-30T05:11:22.000   2013-02-15T12:00:00.000   2013-05-01T12:00:00.000          8       1700       1700      17.70    0.11289    0.03091    1700.00    0.00000    0.00000    0.00000    0.01202
   2017-11-30T05:11:23.000   2013-05-01T12:00:00.000   2013-08-16T00:00:00.000          8       1700       1700      17.70    0.11289    0.03022    1700.00   -0.00002    0.00000    0.00000    0.00687
   2017-11-30T05:11:24.000   2013-08-16T00:00:00.000   2013-10-01T12:00:00.000          8       1700       1700      17.70    0.11289    0.03249    1700.00   -0.00074    0.00000    0.00000    0.00633
   2017-11-30T05:11:24.000   2013-10-01T12:00:00.000   2014-05-01T12:00:00.000          8       1700       1700      17.70    0.11289    0.03374    1700.00    0.00000    0.00000    0.00000    0.02311
   2017-11-30T05:11:25.000   2014-05-01T12:00:00.000   2015-05-01T12:00:00.000          8       1700       1700      17.70    0.11289    0.03491    1700.00    0.00000    0.00000    0.00000    0.02129
   2017-11-30T05:11:26.000   2015-05-01T12:00:00.000   2016-05-01T12:00:00.000          8       1700       1700      17.70    0.11289    0.03560    1700.00    0.00000    0.00000    0.00000    0.03079
   2017-11-30T05:11:27.000   2016-05-01T12:00:00.000   2017-01-01T12:00:00.000          8       1700       1700      17.70    0.11289    0.03502    1700.00   -0.00002    0.00000    0.00000    0.02029
   2017-11-30T05:11:27.000   2017-01-01T12:00:00.000   2030-05-01T00:00:00.000          8       1700       1700      17.70    0.11289    0.03482    1700.00    0.00000    0.00000    0.00000    0.03580
