Start Time            Duration   Avg
                      (sec)      (arcsec)
2008-12-20T11:50:25    30.000      9.740
2008-12-24T02:50:31    10.000     11.368
2008-12-24T02:50:49     4.000      4.474
2008-12-24T02:51:07     4.000      4.261
2008-12-27T19:50:25    14.000      9.724
2008-12-27T19:50:47     2.000      4.347
