PROCEDURE/	VARIABLE	DEFAULT
FUNCTION
****************************************************************************
1.

diva.pro	def_path	['/home/jar24/data/images/','D:\Temp\']
****************************************************************************
2.
diva_hist   	filename(L313)	'D:\Temp\hist.ps'
****************************************************************************
3.
diva_line   	filename(L145)	'D:\Temp\hist.ps'
****************************************************************************
4.
****************************************************************************
5.
****************************************************************************
6.
****************************************************************************
7.
****************************************************************************
8.
