%!PS-Adobe-3.0
%%BoundingBox: 54 360 558 720
%%Title: Graphics produced by IDL
%%For: jar24@ccdjar.ag.rl.ac.uk, /home/jar24/idl/diva
%%Creator: IDL Version 5.5a (linux x86)
%%CreationDate: Thu Oct 31 15:09:29 2002
%%DocumentData: Clean7bit
%%Requirements: color
%%LanguageLevel: 1
%%PageOrder: Ascend
%%Pages: (atend)
%%DocumentNeededResources: (atend)
%%EndComments
%%BeginProlog
save
%+ prolog.ps -- Prolog for IDL generated PostScript files
%+ Copyright (c) 1988-2000 Research Systems, Inc. All Rights Reserved.
%v 4
/$IDL_DICT 40 dict def $IDL_DICT begin /bdef { bind def } bind def /C
{currentpoint newpath moveto} bdef /CP {currentpoint} bdef /D {currentpoint
stroke moveto} bdef /F {closepath fill} bdef /K { setgray } bdef /M {moveto}
bdef /N {rmoveto} bdef /P {lineto} bdef /R {rlineto} bdef /S {gsave show
grestore} bdef /X {currentpoint pop} bdef /Z {gsave currentpoint lineto 20
setlinewidth 1 setlinecap stroke grestore} bdef /L0 {[] 0 setdash} bdef /L1
{[40 100] 0 setdash} bdef /L2 {[200 200] 0 setdash} bdef /L3 {[200 100 50
100] 0 setdash} bdef /L4 {[300 100 50 100 50 100 50 100] 0 setdash} bdef /L5
{[400 200] 0 setdash} bdef /STDFONT { findfont exch scalefont setfont } bdef
/ISOFONT { findfont dup length dict begin { 1 index /FID ne {def} {pop pop}
ifelse } forall /Encoding ISOLatin1Encoding def currentdict end /idltmpfont
exch definefont exch scalefont setfont } bdef /ISOBULLET { gsave /Helvetica
findfont exch scalefont setfont (\267) show currentpoint grestore moveto}
bdef end 2.5 setmiterlimit
%%EndProlog
%%Page: 0 1
%%PageRequirements: color
%%PageResources: (atend)
%%PageOrientation: Portrait
%%PageBoundingBox: 54 360 558 720
%%BeginPageSetup
save
$IDL_DICT begin 54 360 translate 0.0283465 dup scale
%%IncludeResource: font Helvetica
423.333 /Helvetica STDFONT
%%EndPageSetup
10 setlinewidth L0 0.000 0.000 0.000 setrgbcolor 2886 1830 M 14028 0 R D
4856 1830 M 0 200 R D 3777 1402 M 30 15 R 46 46 R 0 -319 R D 4066 1174 M
-15 -15 R 15 -15 R 15 15 R -15 15 R D 4263 1463 M -45 -15 R -16 -31 R
0 -30 R 16 -30 R 30 -15 R 61 -16 R 45 -15 R 31 -30 R 15 -31 R 0 -45 R
-15 -31 R -15 -15 R -46 -15 R -61 0 R -45 15 R -16 15 R -15 31 R 0 45 R
15 31 R 31 30 R 45 15 R 61 16 R 31 15 R 15 30 R 0 30 R -15 31 R -46 15 R
-61 0 R D 4582 1463 M -45 -15 R -31 -46 R -15 -76 R 0 -45 R 15 -76 R
31 -46 R 45 -15 R 31 0 R 45 15 R 30 46 R 16 76 R 0 45 R -16 76 R -30 46 R
-45 15 R -31 0 R D 4825 1402 M 213 -212 R D 5038 1402 M -213 -212 R D
5175 1402 M 30 15 R 45 46 R 0 -319 R D 5524 1463 M -46 -15 R -30 -46 R
-15 -76 R 0 -45 R 15 -76 R 30 -46 R 46 -15 R 30 0 R 46 15 R 30 46 R 15 76 R
0 45 R -15 76 R -30 46 R -46 15 R -30 0 R D 5888 1708 M -151 -212 R 227 0 R
D 5888 1708 M 0 -319 R D 8149 1830 M 0 200 R D 7071 1402 M 30 15 R 46 46 R
0 -319 R D 7359 1174 M -15 -15 R 15 -15 R 15 15 R -15 15 R D 7678 1357 M
-15 -46 R -30 -30 R -46 -15 R -15 0 R -46 15 R -30 30 R -15 46 R 0 15 R
15 45 R 30 31 R 46 15 R 15 0 R 46 -15 R 30 -31 R 15 -60 R 0 -76 R -15 -76 R
-30 -46 R -46 -15 R -30 0 R -46 15 R -15 31 R D 7876 1463 M -46 -15 R
-30 -46 R -15 -76 R 0 -45 R 15 -76 R 30 -46 R 46 -15 R 30 0 R 46 15 R
30 46 R 15 76 R 0 45 R -15 76 R -30 46 R -46 15 R -30 0 R D 8119 1402 M
212 -212 R D 8331 1402 M -212 -212 R D 8468 1402 M 30 15 R 46 46 R 0 -319 R
D 8817 1463 M -45 -15 R -31 -46 R -15 -76 R 0 -45 R 15 -76 R 31 -46 R
45 -15 R 31 0 R 45 15 R 31 46 R 15 76 R 0 45 R -15 76 R -31 46 R -45 15 R
-31 0 R D 9182 1708 M -152 -212 R 228 0 R D 9182 1708 M 0 -319 R D
11443 1830 M 0 200 R D 10334 1387 M 0 15 R 15 31 R 15 15 R 31 15 R 60 0 R
31 -15 R 15 -15 R 15 -31 R 0 -30 R -15 -30 R -31 -46 R -151 -152 R 212 0 R D
10653 1174 M -15 -15 R 15 -15 R 15 15 R -15 15 R D 10865 1463 M -45 -15 R
-31 -46 R -15 -76 R 0 -45 R 15 -76 R 31 -46 R 45 -15 R 31 0 R 45 15 R
31 46 R 15 76 R 0 45 R -15 76 R -31 46 R -45 15 R -31 0 R D 11169 1463 M
-45 -15 R -31 -46 R -15 -76 R 0 -45 R 15 -76 R 31 -46 R 45 -15 R 31 0 R
45 15 R 31 46 R 15 76 R 0 45 R -15 76 R -31 46 R -45 15 R -31 0 R D
11412 1402 M 213 -212 R D 11625 1402 M -213 -212 R D 11762 1402 M 30 15 R
46 46 R 0 -319 R D 12111 1463 M -46 -15 R -30 -46 R -15 -76 R 0 -45 R
15 -76 R 30 -46 R 46 -15 R 30 0 R 46 15 R 30 46 R 15 76 R 0 45 R -15 76 R
-30 46 R -46 15 R -30 0 R D 12475 1708 M -151 -212 R 227 0 R D 12475 1708 M
0 -319 R D 14736 1830 M 0 200 R D 13627 1387 M 0 15 R 15 31 R 16 15 R
30 15 R 61 0 R 30 -15 R 15 -15 R 16 -31 R 0 -30 R -16 -30 R -30 -46 R
-152 -152 R 213 0 R D 13946 1174 M -15 -15 R 15 -15 R 15 15 R -15 15 R D
14113 1402 M 31 15 R 45 46 R 0 -319 R D 14463 1463 M -46 -15 R -30 -46 R
-15 -76 R 0 -45 R 15 -76 R 30 -46 R 46 -15 R 30 0 R 46 15 R 30 46 R 15 76 R
0 45 R -15 76 R -30 46 R -46 15 R -30 0 R D 14706 1402 M 212 -212 R D
14918 1402 M -212 -212 R D 15055 1402 M 30 15 R 46 46 R 0 -319 R D
15404 1463 M -45 -15 R -30 -46 R -16 -76 R 0 -45 R 16 -76 R 30 -46 R
45 -15 R 31 0 R 45 15 R 31 46 R 15 76 R 0 45 R -15 76 R -31 46 R -45 15 R
-31 0 R D 15769 1708 M -152 -212 R 228 0 R D 15769 1708 M 0 -319 R D
3209 1830 M 0 100 R D 3538 1830 M 0 100 R D 3868 1830 M 0 100 R D
4197 1830 M 0 100 R D 4526 1830 M 0 100 R D 5185 1830 M 0 100 R D
5514 1830 M 0 100 R D 5844 1830 M 0 100 R D 6173 1830 M 0 100 R D
6502 1830 M 0 100 R D 6832 1830 M 0 100 R D 7161 1830 M 0 100 R D
7490 1830 M 0 100 R D 7820 1830 M 0 100 R D 8478 1830 M 0 100 R D
8808 1830 M 0 100 R D 9137 1830 M 0 100 R D 9466 1830 M 0 100 R D
9796 1830 M 0 100 R D 10125 1830 M 0 100 R D 10455 1830 M 0 100 R D
10784 1830 M 0 100 R D 11113 1830 M 0 100 R D 11772 1830 M 0 100 R D
12101 1830 M 0 100 R D 12431 1830 M 0 100 R D 12760 1830 M 0 100 R D
13089 1830 M 0 100 R D 13419 1830 M 0 100 R D 13748 1830 M 0 100 R D
14077 1830 M 0 100 R D 14407 1830 M 0 100 R D 15065 1830 M 0 100 R D
15395 1830 M 0 100 R D 15724 1830 M 0 100 R D 16054 1830 M 0 100 R D
16383 1830 M 0 100 R D 16712 1830 M 0 100 R D 8670 868 M 0 -319 R D
8670 868 M 137 0 R 45 -15 R 15 -15 R 15 -31 R 0 -45 R -15 -31 R -15 -15 R
-45 -15 R -137 0 R D 8974 868 M 15 -15 R 15 15 R -15 15 R -15 -15 R D
8989 762 M 0 -213 R D 9095 762 M 167 -213 R D 9262 762 M -167 -213 R D
9353 671 M 183 0 R 0 30 R -16 30 R -15 16 R -30 15 R -46 0 R -30 -15 R
-30 -31 R -16 -45 R 0 -31 R 16 -45 R 30 -31 R 30 -15 R 46 0 R 30 15 R
31 31 R D 9642 868 M 0 -319 R D 9976 762 M 91 -213 R 91 213 R D 10417 762 M
0 -213 R D 10417 716 M -31 31 R -30 15 R -46 0 R -30 -15 R -30 -31 R
-16 -45 R 0 -31 R 16 -45 R 30 -31 R 30 -15 R 46 0 R 30 15 R 31 31 R D
10538 868 M 0 -319 R D 10660 762 M 0 -152 R 15 -46 R 30 -15 R 46 0 R 30 15 R
46 46 R D 10827 762 M 0 -213 R D 10933 671 M 182 0 R 0 30 R -15 30 R
-15 16 R -30 15 R -46 0 R -30 -15 R -31 -31 R -15 -45 R 0 -31 R 15 -45 R
31 -31 R 30 -15 R 46 0 R 30 15 R 30 31 R D 2886 11785 M 14028 0 R D
4856 11785 M 0 -199 R D 8149 11785 M 0 -199 R D 11443 11785 M 0 -199 R D
14736 11785 M 0 -199 R D 3209 11785 M 0 -100 R D 3538 11785 M 0 -100 R D
3868 11785 M 0 -100 R D 4197 11785 M 0 -100 R D 4526 11785 M 0 -100 R D
5185 11785 M 0 -100 R D 5514 11785 M 0 -100 R D 5844 11785 M 0 -100 R D
6173 11785 M 0 -100 R D 6502 11785 M 0 -100 R D 6832 11785 M 0 -100 R D
7161 11785 M 0 -100 R D 7490 11785 M 0 -100 R D 7820 11785 M 0 -100 R D
8478 11785 M 0 -100 R D 8808 11785 M 0 -100 R D 9137 11785 M 0 -100 R D
9466 11785 M 0 -100 R D 9796 11785 M 0 -100 R D 10125 11785 M 0 -100 R D
10455 11785 M 0 -100 R D 10784 11785 M 0 -100 R D 11113 11785 M 0 -100 R D
11772 11785 M 0 -100 R D 12101 11785 M 0 -100 R D 12431 11785 M 0 -100 R D
12760 11785 M 0 -100 R D 13089 11785 M 0 -100 R D 13419 11785 M 0 -100 R D
13748 11785 M 0 -100 R D 14077 11785 M 0 -100 R D 14407 11785 M 0 -100 R D
15065 11785 M 0 -100 R D 15395 11785 M 0 -100 R D 15724 11785 M 0 -100 R D
16054 11785 M 0 -100 R D 16383 11785 M 0 -100 R D 16712 11785 M 0 -100 R D
2886 1830 M 0 9955 R D 2886 1830 M 281 0 R D 2560 2149 M -46 -15 R -30 -45 R
-16 -76 R 0 -46 R 16 -76 R 30 -45 R 46 -16 R 30 0 R 45 16 R 31 45 R 15 76 R
0 46 R -15 76 R -31 45 R -45 15 R -30 0 R D 2886 4319 M 281 0 R D
2210 4394 M 31 15 R 45 46 R 0 -319 R D 2560 4455 M -46 -15 R -30 -46 R
-16 -76 R 0 -45 R 16 -76 R 30 -46 R 46 -15 R 30 0 R 45 15 R 31 46 R 15 76 R
0 45 R -15 76 R -31 46 R -45 15 R -30 0 R D 2886 6808 M 281 0 R D
2180 6868 M 0 15 R 15 30 R 15 15 R 31 16 R 60 0 R 31 -16 R 15 -15 R 15 -30 R
0 -31 R -15 -30 R -31 -45 R -151 -152 R 212 0 R D 2560 6944 M -46 -16 R
-30 -45 R -16 -76 R 0 -46 R 16 -76 R 30 -45 R 46 -15 R 30 0 R 45 15 R
31 45 R 15 76 R 0 46 R -15 76 R -31 45 R -45 16 R -30 0 R D 2886 9296 M
281 0 R D 2195 9432 M 167 0 R -91 -121 R 45 0 R 31 -16 R 15 -15 R 15 -45 R
0 -31 R -15 -45 R -30 -31 R -46 -15 R -45 0 R -46 15 R -15 16 R -15 30 R D
2560 9432 M -46 -15 R -30 -46 R -16 -76 R 0 -45 R 16 -76 R 30 -46 R 46 -15 R
30 0 R 45 15 R 31 46 R 15 76 R 0 45 R -15 76 R -31 46 R -45 15 R -30 0 R D
2886 11785 M 281 0 R D 2316 11784 M -151 -213 R 227 0 R D 2316 11784 M
0 -319 R D 2560 11784 M -46 -16 R -30 -45 R -16 -76 R 0 -46 R 16 -76 R
30 -45 R 46 -15 R 30 0 R 45 15 R 31 45 R 15 76 R 0 46 R -15 76 R -31 45 R
-45 16 R -30 0 R D 2886 2079 M 140 0 R D 2886 2328 M 140 0 R D 2886 2577 M
140 0 R D 2886 2826 M 140 0 R D 2886 3075 M 140 0 R D 2886 3324 M 140 0 R D
2886 3572 M 140 0 R D 2886 3821 M 140 0 R D 2886 4070 M 140 0 R D
2886 4568 M 140 0 R D 2886 4817 M 140 0 R D 2886 5066 M 140 0 R D
2886 5315 M 140 0 R D 2886 5563 M 140 0 R D 2886 5812 M 140 0 R D
2886 6061 M 140 0 R D 2886 6310 M 140 0 R D 2886 6559 M 140 0 R D
2886 7057 M 140 0 R D 2886 7305 M 140 0 R D 2886 7554 M 140 0 R D
2886 7803 M 140 0 R D 2886 8052 M 140 0 R D 2886 8301 M 140 0 R D
2886 8550 M 140 0 R D 2886 8799 M 140 0 R D 2886 9047 M 140 0 R D
2886 9545 M 140 0 R D 2886 9794 M 140 0 R D 2886 10043 M 140 0 R D
2886 10292 M 140 0 R D 2886 10541 M 140 0 R D 2886 10789 M 140 0 R D
2886 11038 M 140 0 R D 2886 11287 M 140 0 R D 2886 11536 M 140 0 R D
1382 5653 M 319 0 R D 1382 5653 M 0 198 R D 1534 5653 M 0 122 R D
1489 5927 M 212 0 R D 1580 5927 M -46 15 R -30 30 R -15 31 R 0 45 R D
1580 6109 M 0 182 R -31 0 R -30 -15 R -15 -15 R -15 -31 R 0 -45 R 15 -30 R
30 -31 R 46 -15 R 30 0 R 46 15 R 30 31 R 15 30 R 0 45 R -15 31 R -30 30 R D
1489 6565 M 334 0 R D 1534 6565 M -30 -31 R -15 -30 R 0 -46 R 15 -30 R
30 -30 R 46 -16 R 30 0 R 46 16 R 30 30 R 15 30 R 0 46 R -15 30 R -30 31 R D
1489 6686 M 152 0 R 45 15 R 15 31 R 0 45 R -15 31 R -45 45 R D 1489 6853 M
212 0 R D 1580 6960 M 0 182 R -31 0 R -30 -15 R -15 -16 R -15 -30 R 0 -45 R
15 -31 R 30 -30 R 46 -15 R 30 0 R 46 15 R 30 30 R 15 31 R 0 45 R -15 30 R
-30 31 R D 1489 7248 M 212 0 R D 1549 7248 M -45 46 R -15 30 R 0 46 R
15 30 R 45 15 R 152 0 R D 1534 7704 M -30 -31 R -15 -30 R 0 -45 R 15 -31 R
30 -30 R 46 -15 R 30 0 R 46 15 R 30 30 R 15 31 R 0 45 R -15 30 R -30 31 R D
1489 7780 M 212 91 R -212 91 R D 1701 7871 M 76 -30 R 31 -31 R 15 -30 R
0 -15 R D 16914 1830 M 0 9955 R D 16914 1830 M -280 0 R D 16914 4319 M
-280 0 R D 16914 6808 M -280 0 R D 16914 9296 M -280 0 R D 16914 11785 M
-280 0 R D 16914 2079 M -140 0 R D 16914 2328 M -140 0 R D 16914 2577 M
-140 0 R D 16914 2826 M -140 0 R D 16914 3075 M -140 0 R D 16914 3324 M
-140 0 R D 16914 3572 M -140 0 R D 16914 3821 M -140 0 R D 16914 4070 M
-140 0 R D 16914 4568 M -140 0 R D 16914 4817 M -140 0 R D 16914 5066 M
-140 0 R D 16914 5315 M -140 0 R D 16914 5563 M -140 0 R D 16914 5812 M
-140 0 R D 16914 6061 M -140 0 R D 16914 6310 M -140 0 R D 16914 6559 M
-140 0 R D 16914 7057 M -140 0 R D 16914 7305 M -140 0 R D 16914 7554 M
-140 0 R D 16914 7803 M -140 0 R D 16914 8052 M -140 0 R D 16914 8301 M
-140 0 R D 16914 8550 M -140 0 R D 16914 8799 M -140 0 R D 16914 9047 M
-140 0 R D 16914 9545 M -140 0 R D 16914 9794 M -140 0 R D 16914 10043 M
-140 0 R D 16914 10292 M -140 0 R D 16914 10541 M -140 0 R D 16914 10789 M
-140 0 R D 16914 11038 M -140 0 R D 16914 11287 M -140 0 R D 16914 11536 M
-140 0 R D 0.000 1.000 0.000 setrgbcolor 2886 5315 M 2 0 R 0 -249 R 1 0 R
2 0 R 0 995 R 2 0 R 1 0 R 0 1742 R 2 0 R 2 0 R 0 -995 R 1 0 R 2 0 R
0 -2987 R 2 0 R 1 0 R 0 3733 R 2 0 R 1 0 R 0 -1742 R 2 0 R 2 0 R 0 -497 R
1 0 R 2 0 R 0 746 R 2 0 R 1 0 R 0 1244 R 2 0 R 2 0 R 0 -746 R 1 0 R 2 0 R
2 0 R 1 0 R 0 746 R 2 0 R 1 0 R 0 -995 R 2 0 R 2 0 R 0 -249 R 1 0 R 2 0 R
0 -249 R 2 0 R 1 0 R 0 249 R 2 0 R 2 0 R 0 -1244 R 1 0 R 2 0 R 0 -498 R
2 0 R 1 0 R 0 498 R 2 0 R 2 0 R 0 1742 R 1 0 R 2 0 R 0 995 R 1 0 R 2 0 R
0 -2239 R 2 0 R 1 0 R 0 1244 R 2 0 R 2 0 R 0 -1991 R 1 0 R 2 0 R 0 995 R
2 0 R 1 0 R 0 498 R 2 0 R 2 0 R 0 996 R 1 0 R 2 0 R 0 -1742 R 2 0 R 1 0 R
2 0 R 1 0 R 0 497 R 2 0 R 2 0 R 0 -746 R 1 0 R 2 0 R 0 1991 R 2 0 R 1 0 R
0 -2240 R 2 0 R 2 0 R 0 1742 R 1 0 R 2 0 R 0 -2489 R 2 0 R 1 0 R 0 -249 R
2 0 R 2 0 R 0 996 R 1 0 R 2 0 R 0 498 R 1 0 R 2 0 R 0 995 R 2 0 R 1 0 R
0 498 R 2 0 R 2 0 R 0 -498 R 1 0 R 2 0 R 0 -249 R 2 0 R 1 0 R 2 0 R 2 0 R
0 996 R 1 0 R 2 0 R 0 -1742 R 2 0 R 1 0 R 0 995 R 2 0 R 1 0 R 0 1991 R 2 0 R
2 0 R 0 -1742 R 1 0 R 2 0 R 2 0 R 1 0 R 0 -249 R 2 0 R 2 0 R 0 -1244 R 1 0 R
2 0 R 0 3235 R 2 0 R 1 0 R 0 -1742 R 2 0 R 2 0 R 0 2240 R 1 0 R 2 0 R
0 -2987 R 1 0 R 2 0 R 0 1245 R 2 0 R 1 0 R 0 1244 R 2 0 R 2 0 R 0 -1991 R
1 0 R 2 0 R 0 -1493 R 2 0 R 1 0 R 0 2240 R 2 0 R 2 0 R 0 -249 R 1 0 R 2 0 R
0 -1245 R 2 0 R 1 0 R 2 0 R 1 0 R 0 1494 R 2 0 R 2 0 R 0 -498 R 1 0 R 2 0 R
0 1244 R 2 0 R 1 0 R 0 -1244 R 2 0 R 2 0 R 0 -1244 R 1 0 R 2 0 R 0 995 R
2 0 R 1 0 R 0 -747 R 2 0 R 2 0 R 0 -248 R 1 0 R 2 0 R 0 497 R 1 0 R 2 0 R
0 747 R 2 0 R 1 0 R 0 498 R 2 0 R 2 0 R 0 -498 R 1 0 R 2 0 R 0 1493 R 2 0 R
1 0 R 0 -2986 R 2 0 R 2 0 R 0 995 R 1 0 R 2 0 R 0 747 R 2 0 R 1 0 R
0 -1991 R 2 0 R 1 0 R 0 2240 R 2 0 R 2 0 R 0 -1245 R 1 0 R 2 0 R 0 747 R
2 0 R 1 0 R 0 995 R 2 0 R 2 0 R 0 -3484 R 1 0 R 2 0 R 0 1991 R 2 0 R 1 0 R
2 0 R 2 0 R 0 -1742 R 1 0 R 2 0 R 0 2489 R 1 0 R 2 0 R 0 995 R 2 0 R 1 0 R
0 1493 R 2 0 R 2 0 R 1 0 R 2 0 R 0 -3235 R 2 0 R 1 0 R 0 996 R 2 0 R 2 0 R
1 0 R 2 0 R 0 -1245 R 2 0 R 1 0 R 0 -497 R 2 0 R 1 0 R 0 1990 R 2 0 R 2 0 R
0 -995 R 1 0 R 2 0 R 0 1244 R 2 0 R 1 0 R 0 -1493 R 2 0 R 2 0 R 0 2240 R
1 0 R 2 0 R 0 -2489 R 2 0 R 1 0 R 0 747 R 2 0 R 2 0 R 0 3235 R 1 0 R 2 0 R
0 -3484 R 1 0 R 2 0 R 0 -995 R 2 0 R 1 0 R 0 995 R 2 0 R 2 0 R 0 747 R 1 0 R
2 0 R 0 1742 R 2 0 R 1 0 R 0 -3733 R 2 0 R 2 0 R 0 3235 R 1 0 R 2 0 R
0 -3235 R 1 0 R 2 0 R 0 1742 R 2 0 R 1 0 R 0 -2489 R 2 0 R 2 0 R 0 4231 R
1 0 R 2 0 R 0 -3235 R 2 0 R 1 0 R 0 1990 R 2 0 R 2 0 R 0 -1990 R 1 0 R 2 0 R
0 248 R 2 0 R 1 0 R 0 249 R 2 0 R 1 0 R 0 2240 R 2 0 R 2 0 R 0 -2489 R 1 0 R
2 0 R 0 2987 R 2 0 R 1 0 R 0 -2240 R 2 0 R 2 0 R 1 0 R 2 0 R 0 -2240 R 2 0 R
1 0 R 0 2738 R 2 0 R 2 0 R 0 -1245 R 1 0 R 2 0 R 0 2738 R 1 0 R 2 0 R
0 -1493 R 2 0 R 1 0 R 0 -747 R 2 0 R 2 0 R 0 1493 R 1 0 R 2 0 R 0 -995 R
2 0 R 1 0 R 0 -996 R 2 0 R 2 0 R 1 0 R 2 0 R 0 1742 R 2 0 R 1 0 R 0 -1493 R
2 0 R 1 0 R 2 0 R 2 0 R 0 1493 R 1 0 R 2 0 R 0 498 R 2 0 R 1 0 R 0 -1244 R
2 0 R 2 0 R 0 1991 R 1 0 R 2 0 R 0 -2738 R 2 0 R 1 0 R 2 0 R 2 0 R 0 1245 R
1 0 R 2 0 R 0 -498 R 1 0 R 2 0 R 0 5225 R D 3378 11784 M 0 -5225 R 2 0 R
2 0 R 0 995 R 1 0 R 2 0 R 0 -497 R 2 0 R 1 0 R 0 -498 R 2 0 R 2 0 R 0 -249 R
1 0 R 2 0 R 0 4728 R 2 0 R 1 0 R 0 -4479 R 2 0 R 1 0 R 0 2737 R 2 0 R 2 0 R
0 -2239 R 1 0 R 2 0 R 0 1742 R 2 0 R 1 0 R 0 -498 R 2 0 R 2 0 R 0 -2489 R
1 0 R 2 0 R 0 -746 R 2 0 R 1 0 R 0 4728 R 2 0 R 2 0 R 0 -2986 R 1 0 R 2 0 R
0 -1245 R 1 0 R 2 0 R 0 249 R 2 0 R 1 0 R 0 3982 R 2 0 R 2 0 R 0 -2737 R
1 0 R 2 0 R 0 1493 R 2 0 R 1 0 R 0 -2489 R 2 0 R 2 0 R 0 2986 R 1 0 R 2 0 R
0 -3235 R 2 0 R 1 0 R 0 1493 R 2 0 R 1 0 R 0 -248 R 2 0 R 2 0 R 0 -249 R
1 0 R 2 0 R 0 -1245 R 2 0 R 1 0 R 0 2489 R 2 0 R 2 0 R 0 -2240 R 1 0 R 2 0 R
0 1245 R 2 0 R 1 0 R 2 0 R 2 0 R 0 3981 R 1 0 R 2 0 R 0 -5475 R 1 0 R 2 0 R
2 0 R 1 0 R 0 498 R 2 0 R 2 0 R 0 2240 R 1 0 R 2 0 R 0 2737 R 2 0 R 1 0 R
0 -2986 R 2 0 R 2 0 R 0 -249 R 1 0 R 2 0 R 0 1742 R 2 0 R 1 0 R 0 -1493 R
2 0 R 1 0 R 0 498 R 2 0 R 2 0 R 0 249 R 1 0 R 2 0 R 0 -1245 R 2 0 R 1 0 R
0 -746 R 2 0 R 2 0 R 0 -498 R 1 0 R 2 0 R 2 0 R 1 0 R 0 1244 R 2 0 R 2 0 R
0 249 R 1 0 R 2 0 R 0 -2240 R 1 0 R 2 0 R 0 498 R 2 0 R 1 0 R 0 498 R 2 0 R
2 0 R 0 -1493 R 1 0 R 2 0 R 0 1493 R 2 0 R 1 0 R 0 1244 R 2 0 R 2 0 R
0 -746 R 1 0 R 2 0 R 0 -747 R 2 0 R 1 0 R 0 1244 R 2 0 R 1 0 R 2 0 R 2 0 R
0 2240 R 1 0 R 2 0 R 0 -1493 R 2 0 R 1 0 R 0 -1493 R 2 0 R 2 0 R 0 1493 R
1 0 R 2 0 R 0 1493 R 2 0 R 1 0 R 0 -3235 R 2 0 R 1 0 R 0 1244 R 2 0 R 2 0 R
0 -498 R 1 0 R 2 0 R 0 -1493 R 2 0 R 1 0 R 2 0 R 2 0 R 0 996 R 1 0 R 2 0 R
0 497 R 2 0 R 1 0 R 0 -248 R 2 0 R 2 0 R 0 2488 R 1 0 R 2 0 R 0 249 R 1 0 R
2 0 R 0 -2489 R 2 0 R 1 0 R 0 996 R 2 0 R 2 0 R 0 -249 R 1 0 R 2 0 R
0 -1742 R 2 0 R 1 0 R 0 1991 R 2 0 R 2 0 R 0 -1493 R 1 0 R 2 0 R 0 -498 R
2 0 R 1 0 R 0 2240 R 2 0 R 1 0 R 0 -498 R 2 0 R 2 0 R 0 -1493 R 1 0 R 2 0 R
0 -996 R 2 0 R 1 0 R 0 3982 R 2 0 R 2 0 R 0 -1991 R 1 0 R 2 0 R 0 996 R
2 0 R 1 0 R 0 -1991 R 2 0 R 2 0 R 0 498 R 1 0 R 2 0 R 0 -498 R 1 0 R 2 0 R
0 2737 R 2 0 R 1 0 R 0 -497 R 2 0 R 2 0 R 0 -498 R 1 0 R 2 0 R 0 -1742 R
2 0 R 1 0 R 0 4977 R 2 0 R 2 0 R 0 -5475 R 1 0 R 2 0 R 0 1493 R 2 0 R 1 0 R
2 0 R 1 0 R 0 996 R 2 0 R 2 0 R 0 -747 R 1 0 R 2 0 R 0 747 R 2 0 R 1 0 R
0 -498 R 2 0 R 2 0 R 0 747 R 1 0 R 2 0 R 0 248 R 2 0 R 1 0 R 0 -1742 R 2 0 R
2 0 R 0 -1244 R 1 0 R 2 0 R 0 3235 R 1 0 R 2 0 R 0 -1244 R 2 0 R 1 0 R
0 -249 R 2 0 R 2 0 R 0 -498 R 1 0 R 2 0 R 0 249 R 2 0 R 1 0 R 0 -249 R 2 0 R
2 0 R 0 -1244 R 1 0 R 2 0 R 0 -1991 R 2 0 R 1 0 R 0 6471 R 2 0 R 1 0 R
0 -1991 R 2 0 R 2 0 R 0 497 R 1 0 R 2 0 R 2 0 R 1 0 R 0 -2239 R 2 0 R 2 0 R
0 2239 R 1 0 R 2 0 R 2 0 R 1 0 R 0 -1742 R 2 0 R 2 0 R 0 1245 R 1 0 R 2 0 R
0 249 R 1 0 R 2 0 R 0 -498 R 2 0 R 1 0 R 0 -249 R 2 0 R 2 0 R 0 2240 R 1 0 R
2 0 R 0 -2987 R 2 0 R 1 0 R 0 -746 R 2 0 R 2 0 R 0 746 R 1 0 R 2 0 R
0 -497 R 2 0 R 1 0 R 0 2986 R 2 0 R 1 0 R 0 498 R 2 0 R 2 0 R 0 -4480 R
1 0 R 2 0 R 0 4231 R 2 0 R 1 0 R 0 -4977 R 2 0 R 2 0 R 0 497 R 1 0 R 2 0 R
0 3733 R 2 0 R 1 0 R 0 -995 R 2 0 R 2 0 R 0 1244 R 1 0 R 2 0 R 0 -3733 R
1 0 R 2 0 R 0 2489 R 2 0 R 1 0 R 0 -498 R 2 0 R 2 0 R 0 1991 R 1 0 R 2 0 R
0 -2737 R 2 0 R 1 0 R 0 497 R 2 0 R 2 0 R 1 0 R 2 0 R 2 0 R 1 0 R 0 1991 R
2 0 R 1 0 R 0 -995 R 2 0 R 2 0 R 0 249 R 1 0 R 2 0 R 0 -3236 R 2 0 R 1 0 R
0 2489 R 2 0 R 2 0 R 0 -249 R 1 0 R 2 0 R 0 2240 R 2 0 R 1 0 R 0 -4480 R
2 0 R 2 0 R 0 4231 R 1 0 R 2 0 R 0 -1742 R 1 0 R 2 0 R 0 1991 R 2 0 R 1 0 R
0 -3484 R 2 0 R 2 0 R 0 2488 R 1 0 R 2 0 R 0 -2737 R 2 0 R 1 0 R 0 995 R
2 0 R 2 0 R 1 0 R 2 0 R 0 2240 R 1 0 R 2 0 R 0 -498 R 2 0 R 1 0 R 0 498 R
2 0 R 2 0 R 0 -2488 R 1 0 R 2 0 R 0 248 R 2 0 R 1 0 R 0 249 R 2 0 R 2 0 R
0 747 R 1 0 R 2 0 R 0 -1991 R 2 0 R 1 0 R 0 249 R 2 0 R 1 0 R 0 -498 R 2 0 R
2 0 R 0 -1493 R 1 0 R 2 0 R 0 3235 R 2 0 R 1 0 R 0 249 R 2 0 R 2 0 R
0 -249 R 1 0 R 2 0 R 0 -1991 R 2 0 R 1 0 R 0 1493 R 2 0 R 2 0 R 0 1991 R
1 0 R 2 0 R 0 -746 R 1 0 R 2 0 R 0 995 R 2 0 R 1 0 R 0 -1742 R 2 0 R 2 0 R
0 -249 R 1 0 R 2 0 R 0 -1493 R 2 0 R 1 0 R 0 1244 R 2 0 R 2 0 R 0 996 R
1 0 R 2 0 R 2 0 R 1 0 R 0 -996 R 2 0 R 1 0 R 0 1742 R 2 0 R 2 0 R 0 -497 R
1 0 R 2 0 R 0 1493 R 2 0 R 1 0 R 0 -4231 R 2 0 R 2 0 R 0 1245 R 1 0 R 2 0 R
0 -498 R 2 0 R 1 0 R 0 995 R 2 0 R 2 0 R 0 996 R 1 0 R 2 0 R 0 -1245 R 1 0 R
2 0 R 2 0 R 1 0 R 0 1245 R 2 0 R 2 0 R 0 -2489 R 1 0 R 2 0 R 0 747 R 2 0 R
1 0 R 0 1244 R 2 0 R 2 0 R 0 747 R 1 0 R 2 0 R 0 -2738 R 2 0 R 1 0 R
0 1244 R 2 0 R 1 0 R 0 249 R 2 0 R 2 0 R 1 0 R 2 0 R 0 249 R 2 0 R 1 0 R
0 498 R 2 0 R 2 0 R 0 -1493 R 1 0 R 2 0 R 0 2986 R 2 0 R 1 0 R 0 -2986 R
2 0 R 2 0 R 0 1991 R 1 0 R 2 0 R 0 -3236 R 1 0 R 2 0 R 0 3733 R 2 0 R 1 0 R
0 -1742 R 2 0 R 2 0 R 0 747 R 1 0 R 2 0 R 0 -2738 R 2 0 R 1 0 R 0 3484 R
2 0 R 2 0 R 0 498 R 1 0 R 2 0 R 0 -249 R 2 0 R 1 0 R 0 -2986 R 2 0 R 1 0 R
0 -498 R 2 0 R 2 0 R 0 3733 R 1 0 R 2 0 R 0 -1244 R 2 0 R 1 0 R 0 -2489 R
2 0 R 2 0 R 0 2489 R 1 0 R 2 0 R 0 -249 R 2 0 R 1 0 R 0 995 R 2 0 R 2 0 R
0 -1742 R 1 0 R 2 0 R 0 1742 R 1 0 R 2 0 R 0 747 R 2 0 R 1 0 R 0 -249 R
2 0 R 2 0 R 0 -995 R 1 0 R 2 0 R 0 1493 R 2 0 R 1 0 R 0 -2240 R 2 0 R 2 0 R
0 -2488 R 1 0 R 2 0 R 0 2239 R 2 0 R 1 0 R 0 747 R 2 0 R 1 0 R 0 746 R 2 0 R
2 0 R 0 -2239 R 1 0 R 2 0 R 0 -1245 R 2 0 R 1 0 R 0 1494 R 2 0 R 2 0 R
0 746 R 1 0 R 2 0 R 0 -1493 R 2 0 R 1 0 R 0 1742 R 2 0 R 2 0 R 1 0 R 2 0 R
0 1244 R 1 0 R 2 0 R 0 -2239 R 2 0 R 1 0 R 0 -996 R 2 0 R 2 0 R 0 2240 R
1 0 R 2 0 R 0 -3235 R 2 0 R 1 0 R D 4218 5066 M 0 2488 R 2 0 R 2 0 R
0 -746 R 1 0 R 2 0 R 0 2737 R 2 0 R 1 0 R 0 -249 R 2 0 R 1 0 R 0 -1742 R
2 0 R 2 0 R 0 -1244 R 1 0 R 2 0 R 0 2240 R 2 0 R 1 0 R 0 -2489 R 2 0 R 2 0 R
0 1493 R 1 0 R 2 0 R 0 498 R 2 0 R 1 0 R 0 -1742 R 2 0 R 1 0 R 0 1742 R
2 0 R 2 0 R 0 2489 R 1 0 R 2 0 R 0 -4729 R 2 0 R 1 0 R 0 3484 R 2 0 R 2 0 R
0 -1493 R 1 0 R 2 0 R 0 -1244 R 2 0 R 1 0 R 0 1493 R 2 0 R 2 0 R 0 498 R
1 0 R 2 0 R 0 -1493 R 1 0 R 2 0 R 0 497 R 2 0 R 1 0 R 0 996 R 2 0 R 2 0 R
0 -1493 R 1 0 R 2 0 R 0 497 R 2 0 R 1 0 R 0 747 R 2 0 R 2 0 R 0 -1244 R
1 0 R 2 0 R 0 -996 R 2 0 R 1 0 R 0 1742 R 2 0 R 1 0 R 0 -249 R 2 0 R 2 0 R
0 747 R 1 0 R 2 0 R 0 -1742 R 2 0 R 1 0 R 0 1244 R 2 0 R 2 0 R 0 2986 R
1 0 R 2 0 R 0 -1742 R 2 0 R 1 0 R 0 249 R 2 0 R 2 0 R 0 -1493 R 1 0 R 2 0 R
0 -249 R 1 0 R 2 0 R 0 747 R 2 0 R 1 0 R 0 -3235 R 2 0 R 2 0 R 0 995 R 1 0 R
2 0 R 0 747 R 2 0 R 1 0 R 0 -498 R 2 0 R 2 0 R 0 498 R 1 0 R 2 0 R 0 995 R
2 0 R 1 0 R 0 -498 R 2 0 R 1 0 R 0 -248 R 2 0 R 2 0 R 0 746 R 1 0 R 2 0 R
0 1244 R 2 0 R 1 0 R 0 -4977 R 2 0 R 2 0 R 0 2489 R 1 0 R 2 0 R 0 2240 R
2 0 R 1 0 R 0 -1245 R 2 0 R 2 0 R 0 -497 R 1 0 R 2 0 R 0 497 R 1 0 R 2 0 R
0 -746 R 2 0 R 1 0 R 0 -1991 R 2 0 R 2 0 R 0 3733 R 1 0 R 2 0 R 0 -3982 R
2 0 R 1 0 R 0 3484 R 2 0 R 2 0 R 0 498 R 1 0 R 2 0 R 0 -996 R 2 0 R 1 0 R
0 -1493 R 2 0 R 1 0 R 0 249 R 2 0 R 2 0 R 0 -498 R 1 0 R 2 0 R 0 1245 R
2 0 R 1 0 R 0 995 R 2 0 R 2 0 R 0 -498 R 1 0 R 2 0 R 0 -249 R 2 0 R 1 0 R
0 -995 R 2 0 R 2 0 R 0 249 R 1 0 R 2 0 R 0 995 R 1 0 R 2 0 R 0 996 R 2 0 R
1 0 R 0 -2489 R 2 0 R 2 0 R 0 -1244 R 1 0 R 2 0 R 0 2737 R 2 0 R 1 0 R
0 -249 R 2 0 R 2 0 R 0 1494 R 1 0 R 2 0 R 0 -2489 R 2 0 R 1 0 R 0 1244 R
2 0 R 1 0 R 0 -746 R 2 0 R 2 0 R 0 -747 R 1 0 R 2 0 R 0 747 R 2 0 R 1 0 R
0 2239 R 2 0 R 2 0 R 0 -2737 R 1 0 R 2 0 R 0 498 R 2 0 R 1 0 R 2 0 R 2 0 R
0 1493 R 1 0 R 2 0 R 0 -1991 R 1 0 R 2 0 R 0 995 R 2 0 R 1 0 R 0 249 R 2 0 R
2 0 R 0 747 R 1 0 R 2 0 R 0 -249 R 2 0 R 1 0 R 0 -995 R 2 0 R 2 0 R 0 1493 R
1 0 R 2 0 R 0 -996 R 2 0 R 1 0 R 0 -249 R 2 0 R 1 0 R 0 747 R 2 0 R 2 0 R
0 -1244 R 1 0 R 2 0 R 0 -249 R 2 0 R 1 0 R 0 -747 R 2 0 R 2 0 R 0 -995 R
1 0 R 2 0 R 0 1493 R 2 0 R 1 0 R 0 1991 R 2 0 R 2 0 R 0 -1991 R 1 0 R 2 0 R
0 2240 R 1 0 R 2 0 R 0 -2240 R 2 0 R 1 0 R 0 -249 R 2 0 R 2 0 R 0 996 R
1 0 R 2 0 R 2 0 R 1 0 R 0 248 R 2 0 R 2 0 R 0 3236 R 1 0 R 2 0 R 0 -3733 R
1 0 R 2 0 R 0 -1245 R 2 0 R 1 0 R 0 996 R 2 0 R 2 0 R 0 -498 R 1 0 R 2 0 R
0 -746 R 2 0 R 1 0 R 0 497 R 2 0 R 2 0 R 0 3484 R 1 0 R 2 0 R 0 -1991 R
2 0 R 1 0 R 0 1245 R 2 0 R 1 0 R 0 -1493 R 2 0 R 2 0 R 0 -747 R 1 0 R 2 0 R
0 3982 R 2 0 R 1 0 R 0 -4480 R 2 0 R 2 0 R 0 3235 R 1 0 R 2 0 R 0 -2239 R
2 0 R 1 0 R 0 1991 R 2 0 R 2 0 R 0 -249 R 1 0 R 2 0 R 0 -2240 R 1 0 R 2 0 R
0 1493 R 2 0 R 1 0 R 0 1244 R 2 0 R 2 0 R 0 -1990 R 1 0 R 2 0 R 0 -747 R
2 0 R 1 0 R 0 249 R 2 0 R 2 0 R 0 3733 R 1 0 R 2 0 R 0 -4729 R 2 0 R 1 0 R
0 3236 R 2 0 R 1 0 R 0 -498 R 2 0 R 2 0 R 1 0 R 2 0 R 0 -996 R 2 0 R 1 0 R
0 747 R 2 0 R 2 0 R 0 -2240 R 1 0 R 2 0 R 0 2240 R 2 0 R 1 0 R 0 -1742 R
2 0 R 2 0 R 0 -1493 R 1 0 R 2 0 R 0 1493 R 1 0 R 2 0 R 0 1742 R 2 0 R 1 0 R
0 -1991 R 2 0 R 2 0 R 0 1493 R 1 0 R 2 0 R 0 -1244 R 2 0 R 1 0 R 0 747 R
2 0 R 2 0 R 1 0 R 2 0 R 0 497 R 2 0 R 1 0 R 0 -1244 R 2 0 R 1 0 R 0 -995 R
2 0 R 2 0 R 0 5226 R 1 0 R 2 0 R 0 -1742 R 2 0 R 1 0 R 0 -996 R 2 0 R 2 0 R
0 -995 R 1 0 R 2 0 R 0 -747 R 2 0 R 1 0 R 0 996 R 2 0 R 2 0 R 0 248 R 1 0 R
2 0 R 0 1245 R 1 0 R 2 0 R 0 249 R 2 0 R 1 0 R 0 -1742 R 2 0 R 2 0 R 0 497 R
1 0 R 2 0 R 0 -249 R 2 0 R 1 0 R 0 -497 R 2 0 R 2 0 R 0 1244 R 1 0 R 2 0 R
0 -2737 R 2 0 R 1 0 R 0 2239 R 2 0 R 1 0 R 0 -1493 R 2 0 R 2 0 R 0 3484 R
1 0 R 2 0 R 0 -1742 R 2 0 R 1 0 R 0 -498 R 2 0 R 2 0 R 0 -248 R 1 0 R 2 0 R
0 -249 R 2 0 R 1 0 R 0 746 R 2 0 R 2 0 R 0 -746 R 1 0 R 2 0 R 0 -1493 R
1 0 R 2 0 R 0 2488 R 2 0 R 1 0 R 0 1244 R 2 0 R 2 0 R 0 -497 R 1 0 R 2 0 R
0 -2240 R 2 0 R 1 0 R 0 1244 R 2 0 R 2 0 R 0 1245 R 1 0 R 2 0 R 0 995 R
2 0 R 1 0 R 0 -4479 R 2 0 R 1 0 R 0 1244 R 2 0 R 2 0 R 0 -498 R 1 0 R 2 0 R
0 1742 R 2 0 R 1 0 R 0 747 R 2 0 R 2 0 R 0 1244 R 1 0 R 2 0 R 0 -1244 R
2 0 R 1 0 R 0 249 R 2 0 R 2 0 R 0 -498 R 1 0 R 2 0 R 0 -498 R 1 0 R 2 0 R
0 498 R 2 0 R 1 0 R 0 -249 R 2 0 R 2 0 R 0 -2986 R 1 0 R 2 0 R 0 2239 R
2 0 R 1 0 R 0 249 R 2 0 R 2 0 R 0 747 R 1 0 R 2 0 R 0 -498 R 1 0 R 2 0 R
0 498 R 2 0 R 1 0 R 2 0 R 2 0 R 0 995 R 1 0 R 2 0 R 0 -1742 R 2 0 R 1 0 R
0 249 R 2 0 R 2 0 R 0 -2240 R 1 0 R 2 0 R 0 1245 R 2 0 R 1 0 R 0 497 R 2 0 R
1 0 R 0 747 R 2 0 R 2 0 R 0 -747 R 1 0 R 2 0 R 0 1494 R 2 0 R 1 0 R
0 -3982 R 2 0 R 2 0 R 0 2488 R 1 0 R 2 0 R 0 249 R 2 0 R 1 0 R 0 996 R 2 0 R
2 0 R 0 -249 R 1 0 R 2 0 R 1 0 R 2 0 R 2 0 R 1 0 R 0 -747 R 2 0 R 2 0 R
0 498 R 1 0 R 2 0 R 0 -249 R 2 0 R 1 0 R 0 -498 R 2 0 R 2 0 R 1 0 R 2 0 R
0 -497 R 2 0 R 1 0 R 0 -249 R 2 0 R 1 0 R 0 746 R 2 0 R 2 0 R 0 996 R 1 0 R
2 0 R 0 498 R 2 0 R 1 0 R 0 -1494 R 2 0 R 2 0 R 0 996 R 1 0 R 2 0 R
0 -1742 R 2 0 R 1 0 R 0 1742 R 2 0 R 2 0 R 0 -2240 R 1 0 R 2 0 R 0 996 R
1 0 R 2 0 R 0 2239 R 2 0 R 1 0 R 0 -1244 R 2 0 R 2 0 R 0 -498 R 1 0 R 2 0 R
0 -746 R 2 0 R 1 0 R 0 2737 R 2 0 R 2 0 R 0 -995 R 1 0 R 2 0 R 0 -2240 R
2 0 R 1 0 R 2 0 R 1 0 R 0 1493 R 2 0 R 2 0 R 0 -1244 R 1 0 R 2 0 R 0 -1244 R
2 0 R 1 0 R 2 0 R 2 0 R 0 1742 R 1 0 R 2 0 R 0 497 R 2 0 R 1 0 R 0 -1493 R
2 0 R 2 0 R 0 996 R D 5052 7057 M 1 0 R 2 0 R 0 746 R 1 0 R 2 0 R 0 996 R
2 0 R 1 0 R 0 -2489 R 2 0 R 2 0 R 0 3235 R 1 0 R 2 0 R 0 -1742 R 2 0 R 1 0 R
0 2489 R 2 0 R 2 0 R 0 -4231 R 1 0 R 2 0 R 0 4480 R 2 0 R 1 0 R 0 -4231 R
2 0 R 1 0 R 2 0 R 2 0 R 0 747 R 1 0 R 2 0 R 2 0 R 1 0 R 0 3235 R 2 0 R 2 0 R
0 -747 R 1 0 R 2 0 R 0 -2737 R 2 0 R 1 0 R 0 -249 R 2 0 R 2 0 R 0 1991 R
1 0 R 2 0 R 1 0 R 2 0 R 0 -249 R 2 0 R 1 0 R 0 -1493 R 2 0 R 2 0 R 0 497 R
1 0 R 2 0 R 0 1991 R 2 0 R 1 0 R 0 -995 R 2 0 R 2 0 R 1 0 R 2 0 R 0 -1991 R
2 0 R 1 0 R 0 995 R 2 0 R 1 0 R 0 1494 R 2 0 R 2 0 R 0 -249 R 1 0 R 2 0 R
0 -2240 R 2 0 R 1 0 R 0 2240 R 2 0 R 2 0 R 0 -2489 R 1 0 R 2 0 R 0 1991 R
2 0 R 1 0 R 0 -747 R 2 0 R 2 0 R 0 -1244 R 1 0 R 2 0 R 0 2489 R 1 0 R 2 0 R
0 -996 R 2 0 R 1 0 R 0 1493 R 2 0 R 2 0 R 0 -1742 R 1 0 R 2 0 R 0 249 R
2 0 R 1 0 R 0 249 R 2 0 R 2 0 R 0 -249 R 1 0 R 2 0 R 0 -249 R 2 0 R 1 0 R
2 0 R 1 0 R 0 -2239 R 2 0 R 2 0 R 0 4230 R 1 0 R 2 0 R 0 -746 R 2 0 R 1 0 R
0 -2489 R 2 0 R 2 0 R 0 1742 R 1 0 R 2 0 R 0 249 R 2 0 R 1 0 R 0 -1244 R
2 0 R 1 0 R 0 -498 R 2 0 R 2 0 R 0 1991 R 1 0 R 2 0 R 0 -996 R 2 0 R 1 0 R
0 -995 R 2 0 R 2 0 R 0 249 R 1 0 R 2 0 R 0 2488 R 2 0 R 1 0 R 0 -2737 R
2 0 R 2 0 R 0 498 R 1 0 R 2 0 R 0 -498 R 1 0 R 2 0 R 2 0 R 1 0 R 0 249 R
2 0 R 2 0 R 0 249 R 1 0 R 2 0 R 0 1493 R 2 0 R 1 0 R 0 -2240 R 2 0 R 2 0 R
0 2489 R 1 0 R 2 0 R 0 -1493 R 2 0 R 1 0 R 0 3981 R 2 0 R 1 0 R 0 -4230 R
2 0 R 2 0 R 0 1991 R 1 0 R 2 0 R 0 -249 R 2 0 R 1 0 R 0 -996 R 2 0 R 2 0 R
0 1742 R 1 0 R 2 0 R 0 -249 R 2 0 R 1 0 R 0 -746 R 2 0 R 2 0 R 0 -996 R
1 0 R 2 0 R 0 249 R 1 0 R 2 0 R 0 249 R 2 0 R 1 0 R 0 -498 R 2 0 R 2 0 R
0 -746 R 1 0 R 2 0 R 0 1244 R 2 0 R 1 0 R 0 -1493 R 2 0 R 2 0 R 0 249 R
1 0 R 2 0 R 0 -249 R 2 0 R 1 0 R 0 -249 R 2 0 R 1 0 R 0 2738 R 2 0 R 2 0 R
0 -498 R 1 0 R 2 0 R 0 -1991 R 2 0 R 1 0 R 0 249 R 2 0 R 2 0 R 0 -249 R
1 0 R 2 0 R 2 0 R 1 0 R 0 995 R 2 0 R 2 0 R 0 -497 R 1 0 R 2 0 R 0 497 R
1 0 R 2 0 R 0 2489 R 2 0 R 1 0 R 0 -2240 R 2 0 R 2 0 R 0 249 R 1 0 R 2 0 R
0 -249 R 2 0 R 1 0 R 0 747 R 2 0 R 2 0 R 0 995 R 1 0 R 2 0 R 0 -3235 R 2 0 R
1 0 R 0 1742 R 2 0 R 1 0 R 0 996 R 2 0 R 2 0 R 0 -1742 R 1 0 R 2 0 R 0 746 R
2 0 R 1 0 R 0 1742 R 2 0 R 2 0 R 0 -2986 R 1 0 R 2 0 R 0 746 R 2 0 R 1 0 R
0 -995 R 2 0 R 2 0 R 0 1991 R 1 0 R 2 0 R 0 -1244 R 1 0 R 2 0 R 0 1742 R
2 0 R 1 0 R 0 746 R 2 0 R 2 0 R 0 -1493 R 1 0 R 2 0 R 2 0 R 1 0 R 0 -1244 R
2 0 R 2 0 R 0 2239 R 1 0 R 2 0 R 0 -995 R 2 0 R 1 0 R 0 -2737 R 2 0 R 1 0 R
0 1493 R 2 0 R 2 0 R 0 1742 R 1 0 R 2 0 R 0 -249 R 2 0 R 1 0 R 0 -1493 R
2 0 R 2 0 R 0 1493 R 1 0 R 2 0 R 0 -1742 R 2 0 R 1 0 R 0 2986 R 2 0 R 2 0 R
0 -2737 R 1 0 R 2 0 R 0 746 R 1 0 R 2 0 R 0 -995 R 2 0 R 1 0 R 0 3235 R
2 0 R 2 0 R 0 -2240 R 1 0 R 2 0 R 0 1245 R 2 0 R 1 0 R 0 -249 R 2 0 R 2 0 R
0 -996 R 1 0 R 2 0 R 0 249 R 2 0 R 1 0 R 0 -1244 R 2 0 R 1 0 R 0 995 R 2 0 R
2 0 R 1 0 R 2 0 R 0 1493 R 2 0 R 1 0 R 0 -248 R 2 0 R 2 0 R 0 -2240 R 1 0 R
2 0 R 0 746 R 2 0 R 1 0 R 0 498 R 2 0 R 2 0 R 0 1244 R 1 0 R 2 0 R 0 -746 R
1 0 R 2 0 R 0 498 R 2 0 R 1 0 R 0 -1245 R 2 0 R 2 0 R 0 2489 R 1 0 R 2 0 R
0 -3235 R 2 0 R 1 0 R 0 746 R 2 0 R 2 0 R 0 747 R 1 0 R 2 0 R 0 -498 R 1 0 R
2 0 R 0 -249 R 2 0 R 1 0 R 0 747 R 2 0 R 2 0 R 0 -2986 R 1 0 R 2 0 R
0 3732 R 2 0 R 1 0 R 0 -497 R 2 0 R 2 0 R 0 497 R 1 0 R 2 0 R 0 -2737 R
2 0 R 1 0 R 0 2737 R 2 0 R 1 0 R 0 -1244 R 2 0 R 2 0 R 1 0 R 2 0 R 0 -1991 R
2 0 R 1 0 R 0 5475 R 2 0 R 2 0 R 0 -2737 R 1 0 R 2 0 R 0 -1742 R 2 0 R 1 0 R
2 0 R 2 0 R 0 995 R 1 0 R 2 0 R 0 249 R 1 0 R 2 0 R 0 -3484 R 2 0 R 1 0 R
0 1493 R 2 0 R 2 0 R 0 2240 R 1 0 R 2 0 R 0 249 R 2 0 R 1 0 R 0 -1493 R
2 0 R 2 0 R 1 0 R 2 0 R 0 -747 R 2 0 R 1 0 R 0 747 R 2 0 R 1 0 R 0 1244 R
2 0 R 2 0 R 0 -2489 R 1 0 R 2 0 R 0 -249 R 2 0 R 1 0 R 0 1245 R 2 0 R 2 0 R
0 1742 R 1 0 R 2 0 R 0 -996 R 2 0 R 1 0 R 2 0 R 2 0 R 0 -746 R 1 0 R 2 0 R
0 1742 R 1 0 R 2 0 R 0 -996 R 2 0 R 1 0 R 0 -746 R 2 0 R 2 0 R 1 0 R 2 0 R
0 -498 R 2 0 R 1 0 R 0 3235 R 2 0 R 2 0 R 0 -3235 R 1 0 R 2 0 R 0 -249 R
2 0 R 1 0 R 0 498 R 2 0 R 1 0 R 0 1493 R 2 0 R 2 0 R 0 747 R 1 0 R 2 0 R
0 -1494 R 2 0 R 1 0 R 0 2240 R 2 0 R 2 0 R 0 -2488 R 1 0 R 2 0 R 0 995 R
2 0 R 1 0 R 0 -1244 R 2 0 R 2 0 R 0 -249 R 1 0 R 2 0 R 0 995 R 1 0 R 2 0 R
0 2987 R 2 0 R 1 0 R 0 -4231 R 2 0 R 2 0 R 0 1493 R 1 0 R 2 0 R 0 -1244 R
2 0 R 1 0 R 0 249 R 2 0 R 2 0 R 1 0 R 2 0 R 0 995 R 2 0 R 1 0 R 0 1244 R
2 0 R 1 0 R 2 0 R 2 0 R 0 -248 R 1 0 R 2 0 R 0 995 R 2 0 R 1 0 R 0 -4231 R
2 0 R 2 0 R 0 1742 R 1 0 R 2 0 R 0 -497 R 2 0 R 1 0 R 0 249 R 2 0 R 2 0 R
0 995 R 1 0 R 2 0 R 0 747 R 1 0 R 2 0 R 0 -996 R 2 0 R 1 0 R 0 -1991 R 2 0 R
2 0 R 0 498 R 1 0 R 2 0 R 0 1493 R 2 0 R 1 0 R 0 -249 R 2 0 R 2 0 R 0 -497 R
1 0 R 2 0 R 0 -996 R 2 0 R 1 0 R 0 4977 R 2 0 R 1 0 R 0 -1991 R 2 0 R 2 0 R
0 -995 R 1 0 R 2 0 R 0 -995 R 2 0 R 1 0 R 0 -996 R 2 0 R 2 0 R 0 996 R 1 0 R
2 0 R 0 746 R 2 0 R 1 0 R 0 -746 R 2 0 R 2 0 R 0 -996 R 1 0 R 2 0 R 0 996 R
1 0 R 2 0 R 0 -1245 R 2 0 R 1 0 R 0 249 R 2 0 R 2 0 R 0 1991 R 1 0 R 2 0 R
0 1244 R 2 0 R 1 0 R 0 996 R 2 0 R 2 0 R 0 -3733 R 1 0 R 2 0 R 0 -498 R
2 0 R 1 0 R 0 2489 R 2 0 R 1 0 R 0 -996 R 2 0 R 2 0 R 0 498 R 1 0 R 2 0 R
0 -995 R 2 0 R 1 0 R 0 1244 R 2 0 R 2 0 R 0 -2986 R 1 0 R 2 0 R 2 0 R 1 0 R
0 497 R 2 0 R 1 0 R 0 1245 R 2 0 R 2 0 R 0 3732 R 1 0 R 2 0 R 0 -1493 R
2 0 R 1 0 R 0 -1493 R 2 0 R 2 0 R D 5895 7803 M 0 -995 R 1 0 R 2 0 R 0 995 R
2 0 R 1 0 R 0 -1244 R 2 0 R 2 0 R 0 249 R 1 0 R 2 0 R 0 1742 R 1 0 R 2 0 R
0 249 R 2 0 R 1 0 R 0 -747 R 2 0 R 2 0 R 1 0 R 2 0 R 0 -995 R 2 0 R 1 0 R
0 497 R 2 0 R 2 0 R 0 498 R 1 0 R 2 0 R 0 995 R 2 0 R 1 0 R 0 -1990 R 2 0 R
1 0 R 0 -498 R 2 0 R 2 0 R 0 -747 R 1 0 R 2 0 R 0 1991 R 2 0 R 1 0 R 2 0 R
2 0 R 0 1742 R 1 0 R 2 0 R 0 -3484 R 2 0 R 1 0 R 0 -1244 R 2 0 R 2 0 R
0 4230 R 1 0 R 2 0 R 0 -746 R 1 0 R 2 0 R 0 -996 R 2 0 R 1 0 R 0 -995 R
2 0 R 2 0 R 0 2240 R 1 0 R 2 0 R 0 -498 R 2 0 R 1 0 R 0 -498 R 2 0 R 2 0 R
0 -746 R 1 0 R 2 0 R 0 249 R 2 0 R 1 0 R 0 1244 R 2 0 R 1 0 R 0 1742 R 2 0 R
2 0 R 0 -2738 R 1 0 R 2 0 R 0 1991 R 2 0 R 1 0 R 0 -3484 R 2 0 R 2 0 R
0 1742 R 1 0 R 2 0 R 0 1991 R 2 0 R 1 0 R 0 -4479 R 2 0 R 2 0 R 0 3484 R
1 0 R 2 0 R 0 -498 R 1 0 R 2 0 R 0 -498 R 2 0 R 1 0 R 0 747 R 2 0 R 2 0 R
0 249 R 1 0 R 2 0 R 0 -747 R 2 0 R 1 0 R 0 -746 R 2 0 R 2 0 R 0 1244 R 1 0 R
2 0 R 2 0 R 1 0 R 0 995 R 2 0 R 1 0 R 0 -1742 R 2 0 R 2 0 R 0 -2737 R 1 0 R
2 0 R 0 4977 R 2 0 R 1 0 R 0 -3235 R 2 0 R 2 0 R 0 -747 R 1 0 R 2 0 R
0 1245 R 2 0 R 1 0 R 0 -1245 R 2 0 R 2 0 R 0 1991 R 1 0 R 2 0 R 1 0 R 2 0 R
0 -498 R 2 0 R 1 0 R 0 747 R 2 0 R 2 0 R 0 -1742 R 1 0 R 2 0 R 0 995 R 2 0 R
1 0 R 0 1742 R 2 0 R 2 0 R 0 249 R 1 0 R 2 0 R 0 -2488 R 2 0 R 1 0 R 2 0 R
1 0 R 0 497 R 2 0 R 2 0 R 0 -995 R 1 0 R 2 0 R 2 0 R 1 0 R 0 3733 R 2 0 R
2 0 R 0 -2240 R 1 0 R 2 0 R 0 996 R 2 0 R 1 0 R 0 -2738 R 2 0 R 2 0 R
0 1493 R 1 0 R 2 0 R 0 1493 R 1 0 R 2 0 R 0 -1244 R 2 0 R 1 0 R 0 -498 R
2 0 R 2 0 R 0 1991 R 1 0 R 2 0 R 0 -2737 R 2 0 R 1 0 R 0 995 R 2 0 R 2 0 R
1 0 R 2 0 R 0 996 R 2 0 R 1 0 R 0 -1493 R 2 0 R 1 0 R 0 1493 R 2 0 R 2 0 R
0 -1493 R 1 0 R 2 0 R 0 248 R 2 0 R 1 0 R 0 -746 R 2 0 R 2 0 R 0 249 R 1 0 R
2 0 R 0 1493 R 2 0 R 1 0 R 0 746 R 2 0 R 2 0 R 0 -2488 R 1 0 R 2 0 R
0 2240 R 1 0 R 2 0 R 0 -2738 R 2 0 R 1 0 R 0 1991 R 2 0 R 2 0 R 0 -747 R
1 0 R 2 0 R 0 3236 R 2 0 R 1 0 R 0 -1494 R 2 0 R 2 0 R 0 -1244 R 1 0 R 2 0 R
0 -1493 R 1 0 R 2 0 R 0 747 R 2 0 R 1 0 R 0 -747 R 2 0 R 2 0 R 0 5226 R
1 0 R 2 0 R 0 -4231 R 2 0 R 1 0 R 0 -497 R 2 0 R 2 0 R 0 -249 R 1 0 R 2 0 R
2 0 R 1 0 R 0 746 R 2 0 R 1 0 R 0 -497 R 2 0 R 2 0 R 0 -1493 R 1 0 R 2 0 R
0 2986 R 2 0 R 1 0 R 0 -498 R 2 0 R 2 0 R 0 249 R 1 0 R 2 0 R 0 -995 R 2 0 R
1 0 R 0 -249 R 2 0 R 2 0 R 0 -249 R 1 0 R 2 0 R 0 2240 R 1 0 R 2 0 R
0 -1245 R 2 0 R 1 0 R 2 0 R 2 0 R 0 1245 R 1 0 R 2 0 R 0 -1742 R 2 0 R 1 0 R
0 1990 R 2 0 R 2 0 R 0 -2737 R 1 0 R 2 0 R 0 1493 R 2 0 R 1 0 R 0 1991 R
2 0 R 1 0 R 0 -2489 R 2 0 R 2 0 R 0 1245 R 1 0 R 2 0 R 0 -1742 R 2 0 R 1 0 R
0 2737 R 2 0 R 2 0 R 0 -3733 R 1 0 R 2 0 R 0 1493 R 2 0 R 1 0 R 0 747 R
2 0 R 2 0 R 0 -1244 R 1 0 R 2 0 R 0 -1245 R 1 0 R 2 0 R 0 2738 R 2 0 R 1 0 R
0 -996 R 2 0 R 2 0 R 0 1742 R 1 0 R 2 0 R 0 -2239 R 2 0 R 1 0 R 0 995 R
2 0 R 2 0 R 0 996 R 1 0 R 2 0 R 0 -1494 R 2 0 R 1 0 R 0 -2488 R 2 0 R 1 0 R
0 4728 R 2 0 R 2 0 R 0 -498 R 1 0 R 2 0 R 0 -746 R 2 0 R 1 0 R 0 1742 R
2 0 R 2 0 R 0 -1244 R 1 0 R 2 0 R 0 -996 R 2 0 R 1 0 R 0 249 R 2 0 R 2 0 R
0 -995 R 1 0 R 2 0 R 1 0 R 2 0 R 0 3235 R 2 0 R 1 0 R 0 -2738 R 2 0 R 2 0 R
0 -249 R 1 0 R 2 0 R 0 -1990 R 2 0 R 1 0 R 0 995 R 2 0 R 2 0 R 0 1742 R
1 0 R 2 0 R 0 -2489 R 2 0 R 1 0 R 0 1245 R 2 0 R 1 0 R 0 1493 R 2 0 R 2 0 R
0 -747 R 1 0 R 2 0 R 0 -1244 R 2 0 R 1 0 R 0 747 R 2 0 R 2 0 R 0 -498 R
1 0 R 2 0 R 0 746 R 2 0 R 1 0 R 0 -1742 R 2 0 R 2 0 R 0 3982 R 1 0 R 2 0 R
0 -2488 R 1 0 R 2 0 R 0 2488 R 2 0 R 1 0 R 0 -2240 R 2 0 R 2 0 R 0 1991 R
1 0 R 2 0 R 0 -497 R 2 0 R 1 0 R 0 -3236 R 2 0 R 2 0 R 0 498 R 1 0 R 2 0 R
0 1742 R 2 0 R 1 0 R 0 747 R 2 0 R 1 0 R 0 -2240 R 2 0 R 2 0 R 0 249 R 1 0 R
2 0 R 0 -498 R 2 0 R 1 0 R 0 2240 R 2 0 R 2 0 R 0 -1742 R 1 0 R 2 0 R
0 3235 R 2 0 R 1 0 R 0 -3733 R 2 0 R 2 0 R 0 249 R 1 0 R 2 0 R 0 2240 R
1 0 R 2 0 R 0 -3235 R 2 0 R 1 0 R 2 0 R 2 0 R 0 995 R 1 0 R 2 0 R 0 2737 R
2 0 R 1 0 R 0 -3484 R 2 0 R 2 0 R 0 2987 R 1 0 R 2 0 R 0 -747 R 1 0 R 2 0 R
0 1493 R 2 0 R 1 0 R 0 -1991 R 2 0 R 2 0 R 0 1991 R 1 0 R 2 0 R 0 -2488 R
2 0 R 1 0 R 0 497 R 2 0 R 2 0 R 0 -1742 R 1 0 R 2 0 R 0 2987 R 2 0 R 1 0 R
0 -747 R 2 0 R 1 0 R 0 -249 R 2 0 R 2 0 R 0 1991 R 1 0 R 2 0 R 0 -746 R
2 0 R 1 0 R 0 -1742 R 2 0 R 2 0 R 0 -249 R 1 0 R 2 0 R 0 746 R 2 0 R 1 0 R
0 498 R 2 0 R 2 0 R 0 -2240 R 1 0 R 2 0 R 0 2240 R 1 0 R 2 0 R 0 -498 R
2 0 R 1 0 R 0 2240 R 2 0 R 2 0 R 0 -2737 R 1 0 R 2 0 R 0 4230 R 2 0 R 1 0 R
0 -3733 R 2 0 R 2 0 R 0 -1742 R 1 0 R 2 0 R 0 1493 R 2 0 R 1 0 R 0 249 R
2 0 R 1 0 R 0 -1742 R 2 0 R 2 0 R 0 3733 R 1 0 R 2 0 R 0 -1742 R 2 0 R 1 0 R
0 -746 R 2 0 R 2 0 R 0 -498 R 1 0 R 2 0 R 0 995 R 2 0 R 1 0 R 0 1493 R 2 0 R
2 0 R 1 0 R 2 0 R 0 1494 R 1 0 R 2 0 R 0 -3236 R 2 0 R 1 0 R 0 1991 R 2 0 R
2 0 R 0 -497 R 1 0 R 2 0 R 0 -1742 R 2 0 R 1 0 R 0 248 R 2 0 R 2 0 R
0 -746 R 1 0 R 2 0 R 0 -249 R 2 0 R 1 0 R 0 2240 R 2 0 R 1 0 R 0 995 R 2 0 R
2 0 R 0 -746 R 1 0 R 2 0 R 0 -3236 R 2 0 R 1 0 R 0 1245 R 2 0 R 2 0 R
0 1742 R 1 0 R 2 0 R 0 -1245 R 2 0 R 1 0 R 0 1991 R 2 0 R 2 0 R 0 996 R
1 0 R 2 0 R 0 -747 R 1 0 R 2 0 R 0 -3235 R 2 0 R 1 0 R 0 2489 R 2 0 R 2 0 R
0 1742 R 1 0 R 2 0 R 0 -3733 R 2 0 R 1 0 R 0 -1493 R 2 0 R 2 0 R 0 2488 R
1 0 R 2 0 R 0 1742 R 2 0 R 1 0 R 0 -2488 R 2 0 R 1 0 R 0 746 R 2 0 R 2 0 R
0 498 R 1 0 R 2 0 R 0 -996 R 2 0 R 1 0 R 0 1742 R 2 0 R 2 0 R 0 -1742 R
1 0 R 2 0 R 0 747 R 2 0 R 1 0 R D 6731 8052 M 0 -498 R 2 0 R 2 0 R 0 498 R
1 0 R 2 0 R 0 -498 R 1 0 R 2 0 R 0 249 R 2 0 R 1 0 R 0 -746 R 2 0 R 2 0 R
0 2488 R 1 0 R 2 0 R 0 -498 R 2 0 R 1 0 R 2 0 R 2 0 R 0 -1244 R 1 0 R 2 0 R
2 0 R 1 0 R 0 498 R 2 0 R 1 0 R 0 249 R 2 0 R 2 0 R 0 -1493 R 1 0 R 2 0 R
0 1742 R 2 0 R 1 0 R 0 -1991 R 2 0 R 2 0 R 0 -498 R 1 0 R 2 0 R 0 249 R
2 0 R 1 0 R 0 1991 R 2 0 R 2 0 R 0 -996 R 1 0 R 2 0 R 0 1991 R 1 0 R 2 0 R
0 -995 R 2 0 R 1 0 R 0 -747 R 2 0 R 2 0 R 0 -995 R 1 0 R 2 0 R 0 249 R 2 0 R
1 0 R 0 497 R 2 0 R 2 0 R 1 0 R 2 0 R 0 -249 R 2 0 R 1 0 R 2 0 R 1 0 R
0 -995 R 2 0 R 2 0 R 0 747 R 1 0 R 2 0 R 0 2488 R 2 0 R 1 0 R 0 -2240 R
2 0 R 2 0 R 0 249 R 1 0 R 2 0 R 0 249 R 2 0 R 1 0 R 0 1742 R 2 0 R 1 0 R
0 -746 R 2 0 R 2 0 R 0 -1742 R 1 0 R 2 0 R 0 4727 R D 6856 11784 M 0 -5225 R
2 0 R 2 0 R 0 -2240 R 1 0 R 2 0 R 0 4480 R 2 0 R 1 0 R 0 -1991 R 2 0 R 2 0 R
0 2737 R 1 0 R 2 0 R 0 -1244 R 1 0 R 2 0 R 2 0 R 1 0 R 0 -1742 R 2 0 R 2 0 R
0 -1991 R 1 0 R 2 0 R 0 2986 R 2 0 R 1 0 R 0 1742 R 2 0 R 2 0 R 0 -746 R
1 0 R 2 0 R 0 -747 R 2 0 R 1 0 R 0 249 R 2 0 R 1 0 R 0 -249 R 2 0 R 2 0 R
0 -2240 R 1 0 R 2 0 R 0 1245 R 2 0 R 1 0 R 0 746 R 2 0 R 2 0 R 0 -249 R
1 0 R 2 0 R 0 -995 R 2 0 R 1 0 R 0 1742 R 2 0 R 2 0 R 0 249 R 1 0 R 2 0 R
0 -498 R 1 0 R 2 0 R 0 2240 R 2 0 R 1 0 R 0 -2489 R 2 0 R 2 0 R 0 -746 R
1 0 R 2 0 R 0 497 R 2 0 R 1 0 R 0 -497 R 2 0 R 2 0 R 1 0 R 2 0 R 0 2488 R
2 0 R 1 0 R 0 -3484 R 2 0 R 1 0 R 0 1991 R 2 0 R 2 0 R 0 -498 R 1 0 R 2 0 R
0 2240 R 2 0 R 1 0 R 0 249 R 2 0 R 2 0 R 0 -995 R 1 0 R 2 0 R 0 -498 R 2 0 R
1 0 R 0 1493 R 2 0 R 2 0 R 0 -2737 R 1 0 R 2 0 R 0 2737 R 1 0 R 2 0 R
0 -2489 R 2 0 R 1 0 R 0 1742 R 2 0 R 2 0 R 0 1991 R 1 0 R 2 0 R 0 -995 R
2 0 R 1 0 R 0 -1991 R 2 0 R 2 0 R 0 -1244 R 1 0 R 2 0 R 0 1742 R 2 0 R 1 0 R
0 -2240 R 2 0 R 1 0 R 0 2489 R 2 0 R 2 0 R 0 -2489 R 1 0 R 2 0 R 0 1244 R
2 0 R 1 0 R 0 -746 R 2 0 R 2 0 R 1 0 R 2 0 R 0 1742 R 2 0 R 1 0 R 0 -498 R
2 0 R 2 0 R 0 1493 R 1 0 R 2 0 R 0 -1244 R 1 0 R 2 0 R 0 -1493 R 2 0 R 1 0 R
0 2488 R 2 0 R 2 0 R 0 -249 R 1 0 R 2 0 R 0 -2737 R 2 0 R 1 0 R 0 249 R
2 0 R 2 0 R 1 0 R 2 0 R 0 -1244 R 2 0 R 1 0 R 0 1493 R 2 0 R 1 0 R 0 497 R
2 0 R 2 0 R 0 249 R 1 0 R 2 0 R 0 1245 R 2 0 R 1 0 R 0 -2240 R 2 0 R 2 0 R
0 2488 R 1 0 R 2 0 R 0 -2986 R 2 0 R 1 0 R 0 2240 R 2 0 R 2 0 R 0 -1991 R
1 0 R 2 0 R 0 2986 R 1 0 R 2 0 R 0 -1742 R 2 0 R 1 0 R 0 -497 R 2 0 R 2 0 R
0 1990 R 1 0 R 2 0 R 0 -497 R 2 0 R 1 0 R 0 1493 R 2 0 R 2 0 R 0 -3733 R
1 0 R 2 0 R 0 1493 R 2 0 R 1 0 R 0 -498 R 2 0 R 1 0 R 0 249 R 2 0 R 2 0 R
0 -995 R 1 0 R 2 0 R 0 995 R 2 0 R 1 0 R 0 996 R 2 0 R 2 0 R 0 -2240 R 1 0 R
2 0 R 0 2240 R 2 0 R 1 0 R 0 -1245 R 2 0 R 2 0 R 0 -1990 R 1 0 R 2 0 R
0 1742 R 1 0 R 2 0 R 2 0 R 1 0 R 0 1990 R 2 0 R 2 0 R 0 -1990 R 1 0 R 2 0 R
0 497 R 2 0 R 1 0 R 0 3235 R 2 0 R 2 0 R 0 -4479 R 1 0 R 2 0 R 0 3982 R
1 0 R 2 0 R 0 -2987 R 2 0 R 1 0 R 0 -248 R 2 0 R 2 0 R 0 1990 R 1 0 R 2 0 R
0 -2239 R 2 0 R 1 0 R 0 -747 R 2 0 R 2 0 R 0 4728 R 1 0 R 2 0 R 0 -3732 R
2 0 R 1 0 R 0 746 R 2 0 R 1 0 R 0 249 R 2 0 R 2 0 R 0 -1244 R 1 0 R 2 0 R
0 -249 R 2 0 R 1 0 R 0 1991 R 2 0 R 2 0 R 0 -249 R 1 0 R 2 0 R 0 -1244 R
2 0 R 1 0 R 0 -2489 R 2 0 R 2 0 R 0 4479 R 1 0 R 2 0 R 0 -995 R 1 0 R 2 0 R
0 747 R 2 0 R 1 0 R 0 -2489 R 2 0 R 2 0 R 0 2737 R 1 0 R 2 0 R 0 -2488 R
2 0 R 1 0 R 0 1991 R 2 0 R 2 0 R 0 -747 R 1 0 R 2 0 R 0 -746 R 2 0 R 1 0 R
0 1244 R 2 0 R 1 0 R 0 1991 R 2 0 R 2 0 R 0 -996 R 1 0 R 2 0 R 0 -2488 R
2 0 R 1 0 R 0 249 R 2 0 R 2 0 R 0 1990 R 1 0 R 2 0 R 0 -1244 R 2 0 R 1 0 R
0 1244 R 2 0 R 2 0 R 0 -1742 R 1 0 R 2 0 R 1 0 R 2 0 R 0 -1742 R 2 0 R 1 0 R
0 -248 R 2 0 R 2 0 R 0 248 R 1 0 R 2 0 R 0 2738 R 2 0 R 1 0 R 0 -747 R 2 0 R
2 0 R 0 -746 R 1 0 R 2 0 R 0 2986 R 2 0 R 1 0 R 0 -2240 R 2 0 R 1 0 R
0 -1742 R 2 0 R 2 0 R 0 2240 R 1 0 R 2 0 R 0 -1742 R 2 0 R 1 0 R 0 -747 R
2 0 R 2 0 R 0 1991 R 1 0 R 2 0 R 2 0 R 1 0 R 0 249 R 2 0 R 2 0 R 0 -746 R
1 0 R 2 0 R 0 497 R 1 0 R 2 0 R 0 -746 R 2 0 R 1 0 R 2 0 R 2 0 R 0 1493 R
1 0 R 2 0 R 0 -2738 R 2 0 R 1 0 R 0 996 R 2 0 R 2 0 R 0 2488 R 1 0 R 2 0 R
0 2240 R 2 0 R 1 0 R 0 -6719 R 2 0 R 1 0 R 0 1244 R 2 0 R 2 0 R 0 747 R
1 0 R 2 0 R 0 3235 R 2 0 R 1 0 R 0 -4231 R 2 0 R 2 0 R 0 3236 R 1 0 R 2 0 R
0 -2240 R 2 0 R 1 0 R 0 746 R 2 0 R 2 0 R 0 -995 R 1 0 R 2 0 R 0 498 R 1 0 R
2 0 R 0 -498 R 2 0 R 1 0 R 0 1991 R 2 0 R 2 0 R 0 -2986 R 1 0 R 2 0 R
0 3235 R 2 0 R 1 0 R 0 -747 R 2 0 R 2 0 R 0 -249 R 1 0 R 2 0 R 0 498 R 2 0 R
1 0 R 0 -995 R 2 0 R 1 0 R 0 1493 R 2 0 R 2 0 R 0 -498 R 1 0 R 2 0 R
0 -1244 R 2 0 R 1 0 R 0 -996 R 2 0 R 2 0 R 0 1991 R 1 0 R 2 0 R 0 -498 R
2 0 R 1 0 R 0 -1244 R 2 0 R 2 0 R 0 498 R 1 0 R 2 0 R 0 995 R 1 0 R 2 0 R
0 -1493 R 2 0 R 1 0 R 2 0 R 2 0 R 0 1991 R 1 0 R 2 0 R 0 -1742 R 2 0 R 1 0 R
0 1493 R 2 0 R 2 0 R 0 -1742 R 1 0 R 2 0 R 0 1991 R 2 0 R 1 0 R 0 -995 R
2 0 R 1 0 R 0 1493 R 2 0 R 2 0 R 0 -1991 R 1 0 R 2 0 R 0 -1493 R 2 0 R 1 0 R
0 3733 R 2 0 R 2 0 R 0 -3484 R 1 0 R 2 0 R 0 -747 R 2 0 R 1 0 R 0 3733 R
2 0 R 1 0 R 0 2488 R 2 0 R 2 0 R 0 -2986 R 1 0 R 2 0 R 0 -995 R 2 0 R 1 0 R
0 -1245 R 2 0 R 2 0 R 0 1742 R 1 0 R 2 0 R 2 0 R 1 0 R 0 -248 R 2 0 R 2 0 R
0 1244 R 1 0 R 2 0 R 0 -498 R 1 0 R 2 0 R 0 -2488 R 2 0 R 1 0 R 0 2488 R
2 0 R 2 0 R 0 -2737 R 1 0 R 2 0 R 0 249 R 2 0 R 1 0 R 0 248 R 2 0 R 2 0 R
0 2987 R 1 0 R 2 0 R 0 497 R 2 0 R 1 0 R 0 -746 R 2 0 R 1 0 R 2 0 R 2 0 R
0 995 R 1 0 R 2 0 R 0 -746 R 2 0 R 1 0 R 0 -1493 R 2 0 R 2 0 R 0 1493 R
1 0 R 2 0 R 0 -3484 R 2 0 R 1 0 R 0 1493 R 2 0 R 2 0 R 0 746 R 1 0 R 2 0 R
0 2240 R 1 0 R 2 0 R 0 -3733 R 2 0 R 1 0 R 0 747 R 2 0 R 2 0 R 0 -249 R
1 0 R 2 0 R 0 1742 R 2 0 R 1 0 R 0 -995 R 2 0 R 2 0 R 0 746 R 1 0 R 2 0 R
0 996 R 2 0 R 1 0 R 0 -498 R 2 0 R 1 0 R 0 -2986 R 2 0 R 2 0 R 0 995 R 1 0 R
2 0 R 2 0 R 1 0 R 0 2489 R 2 0 R 2 0 R 0 -2489 R 1 0 R 2 0 R 0 -498 R 2 0 R
1 0 R 0 1245 R 2 0 R 2 0 R 0 -2240 R 1 0 R 2 0 R 0 4230 R 1 0 R 2 0 R
0 498 R 2 0 R 1 0 R 0 -2986 R 2 0 R 2 0 R 0 1493 R 1 0 R 2 0 R 0 498 R 2 0 R
1 0 R 0 -1493 R 2 0 R 2 0 R 0 995 R 1 0 R 2 0 R 0 -1244 R 2 0 R 1 0 R
0 -498 R 2 0 R 1 0 R 0 1244 R 2 0 R 2 0 R 0 747 R 1 0 R 2 0 R 0 -1493 R
2 0 R 1 0 R 2 0 R 2 0 R 1 0 R 2 0 R 0 2737 R 2 0 R D 7695 9545 M 1 0 R
0 -1742 R 2 0 R 2 0 R 0 -995 R 1 0 R 2 0 R 0 1244 R 1 0 R 2 0 R 0 -1493 R
2 0 R 1 0 R 2 0 R 2 0 R 0 249 R 1 0 R 2 0 R 0 1244 R 2 0 R 1 0 R 0 -2240 R
2 0 R 2 0 R 0 1493 R 1 0 R 2 0 R 0 -497 R 2 0 R 1 0 R 0 2239 R 2 0 R 1 0 R
0 -497 R 2 0 R 2 0 R 0 -2240 R 1 0 R 2 0 R 0 747 R 2 0 R 1 0 R 0 995 R 2 0 R
2 0 R 0 -1493 R 1 0 R 2 0 R 0 -996 R 2 0 R 1 0 R 0 2240 R 2 0 R 2 0 R
0 -2240 R 1 0 R 2 0 R 0 3236 R 1 0 R 2 0 R 0 -1245 R 2 0 R 1 0 R 2 0 R 2 0 R
0 -1244 R 1 0 R 2 0 R 0 -995 R 2 0 R 1 0 R 0 995 R 2 0 R 2 0 R 0 -747 R
1 0 R 2 0 R 0 1494 R 2 0 R 1 0 R 0 -747 R 2 0 R 1 0 R 0 1742 R 2 0 R 2 0 R
0 -1742 R 1 0 R 2 0 R 2 0 R 1 0 R 0 2240 R 2 0 R 2 0 R 0 -2240 R 1 0 R 2 0 R
0 1991 R 2 0 R 1 0 R 0 -1742 R 2 0 R 2 0 R 0 249 R 1 0 R 2 0 R 0 2986 R
1 0 R 2 0 R 0 -3235 R 2 0 R 1 0 R 0 -1991 R 2 0 R 2 0 R 0 1991 R 1 0 R 2 0 R
0 1244 R 2 0 R 1 0 R 0 -995 R 2 0 R 2 0 R 0 2488 R 1 0 R 2 0 R 0 -1742 R
1 0 R 2 0 R 0 498 R 2 0 R 1 0 R 0 -1742 R 2 0 R 2 0 R 0 249 R 1 0 R 2 0 R
0 249 R 2 0 R 1 0 R 0 746 R 2 0 R 2 0 R 0 249 R 1 0 R 2 0 R 0 -498 R 2 0 R
1 0 R 0 1245 R 2 0 R 1 0 R 0 -2489 R 2 0 R 2 0 R 0 498 R 1 0 R 2 0 R
0 -747 R 2 0 R 1 0 R 0 249 R 2 0 R 2 0 R 0 1244 R 1 0 R 2 0 R 0 249 R 2 0 R
1 0 R 0 747 R 2 0 R 2 0 R 0 746 R 1 0 R 2 0 R 0 -3484 R 1 0 R 2 0 R 0 249 R
2 0 R 1 0 R 0 2240 R 2 0 R 2 0 R 0 -498 R 1 0 R 2 0 R 0 -1244 R 2 0 R 1 0 R
0 2489 R 2 0 R 2 0 R 0 -1991 R 1 0 R 2 0 R 0 995 R 2 0 R 1 0 R 2 0 R 1 0 R
0 -995 R 2 0 R 2 0 R 0 4728 R 1 0 R 2 0 R 0 -4728 R 2 0 R 1 0 R 2 0 R 2 0 R
0 -249 R 1 0 R 2 0 R 0 -498 R 2 0 R 1 0 R 0 996 R 2 0 R 2 0 R 0 1244 R 1 0 R
2 0 R 0 -1991 R 1 0 R 2 0 R 0 498 R 2 0 R 1 0 R 0 -747 R 2 0 R 2 0 R
0 -746 R 1 0 R 2 0 R 2 0 R 1 0 R 0 2488 R 2 0 R 2 0 R 0 -746 R 1 0 R 2 0 R
2 0 R 1 0 R 0 -747 R 2 0 R 1 0 R 2 0 R 2 0 R 0 -249 R 1 0 R 2 0 R 0 2986 R
2 0 R 1 0 R 0 -4230 R 2 0 R 2 0 R 0 249 R 1 0 R 2 0 R 0 2488 R 2 0 R 1 0 R
0 -497 R 2 0 R 2 0 R 0 -1245 R 1 0 R 2 0 R 0 1742 R 1 0 R 2 0 R 0 -995 R
2 0 R 1 0 R 0 1742 R 2 0 R 2 0 R 0 -1991 R 1 0 R 2 0 R 0 995 R 2 0 R 1 0 R
0 -995 R 2 0 R 2 0 R 0 747 R 1 0 R 2 0 R 0 -1245 R 2 0 R 1 0 R 0 747 R 2 0 R
1 0 R 0 1991 R 2 0 R 2 0 R 0 -1245 R 1 0 R 2 0 R 0 -248 R 2 0 R 1 0 R
0 -249 R 2 0 R 2 0 R 0 1493 R 1 0 R 2 0 R 0 -1244 R 2 0 R 1 0 R 0 -1245 R
2 0 R 2 0 R 0 -249 R 1 0 R 2 0 R 0 1245 R 1 0 R 2 0 R 0 -1245 R 2 0 R 1 0 R
0 747 R 2 0 R 2 0 R 0 498 R 1 0 R 2 0 R 2 0 R 1 0 R 0 1493 R 2 0 R 2 0 R
0 -2986 R 1 0 R 2 0 R 0 2737 R 2 0 R 1 0 R 0 -1742 R 2 0 R 1 0 R 0 1742 R
2 0 R 2 0 R 0 -2489 R 1 0 R 2 0 R 0 1991 R 2 0 R 1 0 R 0 -249 R 2 0 R 2 0 R
0 747 R 1 0 R 2 0 R 2 0 R 1 0 R 0 -1742 R 2 0 R 2 0 R 0 -747 R 1 0 R 2 0 R
0 1494 R 1 0 R 2 0 R 0 -1742 R 2 0 R 1 0 R 0 2488 R 2 0 R 2 0 R 0 -1244 R
1 0 R 2 0 R 2 0 R 1 0 R 0 1493 R 2 0 R 2 0 R 0 498 R 1 0 R 2 0 R 0 249 R
1 0 R 2 0 R 0 248 R 2 0 R 1 0 R 0 -2737 R 2 0 R 2 0 R 0 1493 R 1 0 R 2 0 R
0 -1493 R 2 0 R 1 0 R 0 2986 R 2 0 R 2 0 R 0 -3235 R 1 0 R 2 0 R 0 1493 R
2 0 R 1 0 R 0 747 R 2 0 R 1 0 R 0 -3982 R 2 0 R 2 0 R 0 3484 R 1 0 R 2 0 R
0 -746 R 2 0 R 1 0 R 2 0 R 2 0 R 1 0 R 2 0 R 0 -249 R 2 0 R 1 0 R 0 746 R
2 0 R 2 0 R 0 -995 R 1 0 R 2 0 R 0 2488 R 1 0 R 2 0 R 0 -1244 R 2 0 R 1 0 R
0 -1742 R 2 0 R 2 0 R 0 -498 R 1 0 R 2 0 R 0 1991 R 2 0 R 1 0 R 0 -1742 R
2 0 R 2 0 R 0 5475 R 1 0 R 2 0 R 0 -5226 R 2 0 R 1 0 R 0 2738 R 2 0 R 1 0 R
0 -1245 R 2 0 R 2 0 R 0 498 R 1 0 R 2 0 R 0 -1493 R 2 0 R 1 0 R 0 -1244 R
2 0 R 2 0 R 0 497 R 1 0 R 2 0 R 2 0 R 1 0 R 0 498 R 2 0 R 2 0 R 0 1742 R
1 0 R 2 0 R 0 -1991 R 1 0 R 2 0 R 0 498 R 2 0 R 1 0 R 0 -498 R 2 0 R 2 0 R
0 996 R 1 0 R 2 0 R 0 -1245 R 2 0 R 1 0 R 0 747 R 2 0 R 2 0 R 0 -1742 R
1 0 R 2 0 R 0 1991 R 2 0 R 1 0 R 0 -498 R 2 0 R 1 0 R 0 1991 R 2 0 R 2 0 R
0 -1991 R 1 0 R 2 0 R 0 249 R 2 0 R 1 0 R 0 -249 R 2 0 R 2 0 R 0 -498 R
1 0 R 2 0 R 0 -249 R 2 0 R 1 0 R 0 1991 R 2 0 R 2 0 R 0 -2488 R 1 0 R 2 0 R
0 1244 R 1 0 R 2 0 R 0 -1493 R 2 0 R 1 0 R 0 3982 R 2 0 R 2 0 R 0 -2738 R
1 0 R 2 0 R 0 1493 R 2 0 R 1 0 R 0 1742 R 2 0 R 2 0 R 0 -2986 R 1 0 R 2 0 R
0 249 R 2 0 R 1 0 R 0 -498 R 2 0 R 1 0 R 0 1991 R 2 0 R 2 0 R 0 -1991 R
1 0 R 2 0 R 2 0 R 1 0 R 0 996 R 2 0 R 2 0 R 0 -249 R 1 0 R 2 0 R 0 746 R
2 0 R 1 0 R 0 -746 R 2 0 R 2 0 R 0 -1245 R 1 0 R 2 0 R 0 996 R 1 0 R 2 0 R
0 -498 R 2 0 R 1 0 R 0 747 R 2 0 R 2 0 R 0 1244 R 1 0 R 2 0 R 0 498 R 2 0 R
1 0 R 0 -3235 R 2 0 R 2 0 R 0 497 R 1 0 R 2 0 R 0 747 R 2 0 R 1 0 R 0 -249 R
2 0 R 1 0 R 2 0 R 2 0 R 0 -249 R 1 0 R 2 0 R 0 498 R 2 0 R 1 0 R 0 995 R
2 0 R 2 0 R 0 249 R 1 0 R 2 0 R 0 -1742 R 2 0 R 1 0 R 2 0 R 2 0 R 0 1493 R
1 0 R 2 0 R 0 498 R 1 0 R 2 0 R 0 -747 R 2 0 R 1 0 R 2 0 R 2 0 R 0 -1493 R
1 0 R 2 0 R 0 1742 R 2 0 R 1 0 R 0 -746 R 2 0 R 2 0 R 0 -249 R 1 0 R 2 0 R
0 -2489 R 2 0 R 1 0 R 0 1991 R 2 0 R 1 0 R 2 0 R 2 0 R 0 249 R 1 0 R 2 0 R
0 -2240 R 2 0 R 1 0 R 0 2240 R 2 0 R 2 0 R 0 498 R 1 0 R 2 0 R 0 2239 R
2 0 R 1 0 R 0 -2488 R 2 0 R 1 0 R 0 -498 R 2 0 R 2 0 R 0 1991 R 1 0 R 2 0 R
0 -2240 R 2 0 R 1 0 R 0 1245 R 2 0 R 2 0 R 0 -1742 R 1 0 R 2 0 R 0 248 R
2 0 R 1 0 R 0 -248 R 2 0 R 2 0 R 0 1244 R 1 0 R 2 0 R 1 0 R 2 0 R 0 -1244 R
2 0 R 1 0 R 0 746 R 2 0 R 2 0 R 0 996 R 1 0 R 2 0 R 0 1990 R 2 0 R 1 0 R
0 -3981 R 2 0 R 2 0 R 0 249 R 1 0 R 2 0 R 0 -747 R 2 0 R 1 0 R 0 1493 R
2 0 R 1 0 R 0 2489 R 2 0 R 2 0 R 0 -3484 R 1 0 R 2 0 R 2 0 R 1 0 R 2 0 R
2 0 R D 8543 5066 M 1 0 R 2 0 R 0 1244 R 2 0 R 1 0 R 0 -249 R 2 0 R 2 0 R
0 498 R 1 0 R 2 0 R 0 -2738 R 1 0 R 2 0 R 0 3236 R 2 0 R 1 0 R 0 -2738 R
2 0 R 2 0 R 0 4231 R 1 0 R 2 0 R 0 -2489 R 2 0 R 1 0 R 0 -746 R 2 0 R 2 0 R
0 1493 R 1 0 R 2 0 R 0 -1742 R 2 0 R 1 0 R 0 1244 R 2 0 R 1 0 R 0 498 R
2 0 R 2 0 R 0 -1493 R 1 0 R 2 0 R 0 -1245 R 2 0 R 1 0 R 0 249 R 2 0 R 2 0 R
0 1493 R 1 0 R 2 0 R 0 -746 R 2 0 R 1 0 R 0 1493 R 2 0 R 2 0 R 0 -1493 R
1 0 R 2 0 R 0 995 R 1 0 R 2 0 R 0 -1742 R 2 0 R 1 0 R 0 2489 R 2 0 R 2 0 R
0 -1991 R 1 0 R 2 0 R 0 249 R 2 0 R 1 0 R 0 746 R 2 0 R 2 0 R 0 1991 R 1 0 R
2 0 R 0 -2986 R 2 0 R 1 0 R 0 995 R 2 0 R 1 0 R 0 -2240 R 2 0 R 2 0 R
0 2489 R 1 0 R 2 0 R 0 -2737 R 2 0 R 1 0 R 0 1493 R 2 0 R 2 0 R 0 498 R
1 0 R 2 0 R 2 0 R 1 0 R 0 -498 R 2 0 R 2 0 R 0 -747 R 1 0 R 2 0 R 0 1991 R
1 0 R 2 0 R 0 -249 R 2 0 R 1 0 R 0 -746 R 2 0 R 2 0 R 0 746 R 1 0 R 2 0 R
0 -249 R 2 0 R 1 0 R 2 0 R 2 0 R 0 -2239 R 1 0 R 2 0 R 0 746 R 2 0 R 1 0 R
0 498 R 2 0 R 1 0 R 0 -498 R 2 0 R 2 0 R 0 -498 R 1 0 R 2 0 R 0 747 R 2 0 R
1 0 R 0 249 R 2 0 R 2 0 R 0 747 R 1 0 R 2 0 R 0 746 R 2 0 R 1 0 R 0 -1493 R
2 0 R 2 0 R 0 249 R 1 0 R 2 0 R 1 0 R 2 0 R 0 -249 R 2 0 R 1 0 R 0 747 R
2 0 R 2 0 R 0 746 R 1 0 R 2 0 R 0 -498 R 2 0 R 1 0 R 0 -1493 R 2 0 R 2 0 R
0 996 R 1 0 R 2 0 R 2 0 R 1 0 R 0 -1245 R 2 0 R 1 0 R 0 1245 R 2 0 R 2 0 R
0 -1245 R 1 0 R 2 0 R 0 1245 R 2 0 R 1 0 R 0 -1494 R 2 0 R 2 0 R 0 747 R
1 0 R 2 0 R 0 747 R 2 0 R 1 0 R 0 -996 R 2 0 R 2 0 R 0 747 R 1 0 R 2 0 R
0 -249 R 1 0 R 2 0 R 0 -498 R 2 0 R 1 0 R 0 498 R 2 0 R 2 0 R 0 -498 R 1 0 R
2 0 R 0 -746 R 2 0 R 1 0 R 0 1742 R 2 0 R 2 0 R 0 497 R 1 0 R 2 0 R
0 -2239 R 1 0 R 2 0 R 0 1742 R 2 0 R 1 0 R 0 -1245 R 2 0 R 2 0 R 0 996 R
1 0 R 2 0 R 0 -996 R 2 0 R 1 0 R 2 0 R 2 0 R 0 498 R 1 0 R 2 0 R 0 -249 R
2 0 R 1 0 R 2 0 R 1 0 R 0 -1244 R 2 0 R 2 0 R 0 1742 R 1 0 R 2 0 R 0 -249 R
2 0 R 1 0 R 2 0 R 2 0 R 0 -1493 R 1 0 R 2 0 R 0 995 R 2 0 R 1 0 R 0 1742 R
2 0 R 2 0 R 0 -746 R 1 0 R 2 0 R 1 0 R 2 0 R 0 -996 R 2 0 R 1 0 R 0 498 R
2 0 R 2 0 R 0 -1493 R 1 0 R 2 0 R 0 1742 R 2 0 R 1 0 R 0 -1244 R 2 0 R 2 0 R
0 248 R 1 0 R 2 0 R 0 996 R 2 0 R 1 0 R 0 249 R 2 0 R 1 0 R 0 -1245 R 2 0 R
2 0 R 0 1494 R 1 0 R 2 0 R 0 -996 R 2 0 R 1 0 R 0 249 R 2 0 R 2 0 R 0 -249 R
1 0 R 2 0 R 0 -1493 R 2 0 R 1 0 R 0 995 R 2 0 R 2 0 R 0 1494 R 1 0 R 2 0 R
0 -2489 R 1 0 R 2 0 R 0 747 R 2 0 R 1 0 R 0 1244 R 2 0 R 2 0 R 0 -498 R
1 0 R 2 0 R 2 0 R 1 0 R 0 -746 R 2 0 R 2 0 R 0 746 R 1 0 R 2 0 R 0 -1742 R
2 0 R 1 0 R 0 1244 R 2 0 R 1 0 R 0 -248 R 2 0 R 2 0 R 0 -249 R 1 0 R 2 0 R
0 746 R 2 0 R 1 0 R 0 -746 R 2 0 R 2 0 R 0 497 R 1 0 R 2 0 R 0 -497 R 2 0 R
1 0 R 2 0 R 2 0 R 0 1493 R 1 0 R 2 0 R 0 -1991 R 1 0 R 2 0 R 0 498 R 2 0 R
1 0 R 2 0 R 2 0 R 0 746 R 1 0 R 2 0 R 0 747 R 2 0 R 1 0 R 0 -1493 R 2 0 R
2 0 R 0 249 R 1 0 R 2 0 R 0 746 R 2 0 R 1 0 R 0 -498 R 2 0 R 1 0 R 0 -248 R
2 0 R 2 0 R 1 0 R 2 0 R 0 497 R 2 0 R 1 0 R 0 249 R 2 0 R 2 0 R 0 -498 R
1 0 R 2 0 R 0 -248 R 2 0 R 1 0 R 0 497 R 2 0 R 2 0 R 0 -1493 R 1 0 R 2 0 R
0 747 R 1 0 R 2 0 R 0 -498 R 2 0 R 1 0 R 0 1493 R 2 0 R 2 0 R 0 -1742 R
1 0 R 2 0 R 0 1742 R 2 0 R 1 0 R 0 249 R 2 0 R 2 0 R 0 498 R 1 0 R 2 0 R
0 -1991 R 2 0 R 1 0 R 2 0 R 1 0 R 2 0 R 2 0 R 0 746 R 1 0 R 2 0 R 0 -746 R
2 0 R 1 0 R 0 746 R 2 0 R 2 0 R 0 498 R 1 0 R 2 0 R 0 -995 R 2 0 R 1 0 R
0 -249 R 2 0 R 2 0 R 0 1244 R 1 0 R 2 0 R 0 996 R 1 0 R 2 0 R 0 -1245 R
2 0 R 1 0 R 0 498 R 2 0 R 2 0 R 0 -498 R 1 0 R 2 0 R 0 -1493 R 2 0 R 1 0 R
0 1244 R 2 0 R 2 0 R 0 -248 R 1 0 R 2 0 R 0 1742 R 2 0 R 1 0 R 0 -1991 R
2 0 R 1 0 R 0 -249 R 2 0 R 2 0 R 0 249 R 1 0 R 2 0 R 2 0 R 1 0 R 2 0 R 2 0 R
1 0 R 2 0 R 0 -249 R 2 0 R 1 0 R 0 249 R 2 0 R 1 0 R 0 -498 R 2 0 R 2 0 R
1 0 R 2 0 R 0 -249 R 2 0 R 1 0 R 0 -249 R 2 0 R 2 0 R 0 498 R 1 0 R 2 0 R
0 1244 R 2 0 R 1 0 R 0 -249 R 2 0 R 2 0 R 0 -746 R 1 0 R 2 0 R 1 0 R 2 0 R
0 1742 R 2 0 R 1 0 R 0 -1493 R 2 0 R 2 0 R 0 -498 R 1 0 R 2 0 R 0 -747 R
2 0 R 1 0 R 0 996 R 2 0 R 2 0 R 0 498 R 1 0 R 2 0 R 0 -249 R 2 0 R 1 0 R
0 -747 R 2 0 R 1 0 R 0 747 R 2 0 R 2 0 R 0 497 R 1 0 R 2 0 R 0 996 R 2 0 R
1 0 R 0 -1244 R 2 0 R 2 0 R 0 -996 R 1 0 R 2 0 R 0 249 R 2 0 R 1 0 R
0 -498 R 2 0 R 2 0 R 0 996 R 1 0 R 2 0 R 1 0 R 2 0 R 0 -747 R 2 0 R 1 0 R
0 747 R 2 0 R 2 0 R 0 746 R 1 0 R 2 0 R 0 -995 R 2 0 R 1 0 R 0 -249 R 2 0 R
2 0 R 0 747 R 1 0 R 2 0 R 0 -996 R 2 0 R 1 0 R 0 1244 R 2 0 R 1 0 R 0 -746 R
2 0 R 2 0 R 0 -249 R 1 0 R 2 0 R 0 498 R 2 0 R 1 0 R 0 -249 R 2 0 R 2 0 R
0 249 R 1 0 R 2 0 R 0 497 R 2 0 R 1 0 R 0 -746 R 2 0 R 2 0 R 1 0 R 2 0 R
0 -747 R 1 0 R 2 0 R 0 1245 R 2 0 R 1 0 R 2 0 R 2 0 R 0 -747 R 1 0 R 2 0 R
2 0 R 1 0 R 0 -249 R 2 0 R 2 0 R 0 1244 R 1 0 R 2 0 R 0 -248 R 2 0 R 1 0 R
0 -498 R 2 0 R 1 0 R 0 -498 R 2 0 R 2 0 R 1 0 R 2 0 R 0 -249 R 2 0 R 1 0 R
0 1245 R 2 0 R 2 0 R 1 0 R 2 0 R 2 0 R 1 0 R 2 0 R 2 0 R 0 -249 R 1 0 R
2 0 R 0 -498 R 1 0 R 2 0 R 0 1244 R 2 0 R 1 0 R 0 -249 R 2 0 R 2 0 R 1 0 R
2 0 R 0 249 R 2 0 R 1 0 R 0 -1244 R 2 0 R 2 0 R 0 249 R 1 0 R 2 0 R 2 0 R
1 0 R 0 -747 R 2 0 R 1 0 R 0 249 R 2 0 R 2 0 R 0 498 R 1 0 R 2 0 R 0 249 R
2 0 R 1 0 R 0 -249 R 2 0 R 2 0 R 0 -498 R 1 0 R 2 0 R 0 249 R 2 0 R 1 0 R
0 249 R 2 0 R 2 0 R 1 0 R 2 0 R 0 -747 R 1 0 R 2 0 R 0 1245 R 2 0 R 1 0 R
0 -498 R 2 0 R 2 0 R 0 249 R 1 0 R 2 0 R 0 249 R D 9399 3324 M 2 0 R 1 0 R
2 0 R 2 0 R 1 0 R 2 0 R 0 -498 R 2 0 R 1 0 R 2 0 R 1 0 R 0 -249 R 2 0 R
2 0 R 0 -249 R 1 0 R 2 0 R 0 1244 R 2 0 R 1 0 R 0 -1244 R 2 0 R 2 0 R
0 1244 R 1 0 R 2 0 R 0 -1493 R 2 0 R 1 0 R 0 249 R 2 0 R 2 0 R 0 1742 R
1 0 R 2 0 R 0 -995 R 1 0 R 2 0 R 0 -996 R 2 0 R 1 0 R 0 498 R 2 0 R 2 0 R
0 -498 R 1 0 R 2 0 R 0 1742 R 2 0 R 1 0 R 0 -1493 R 2 0 R 2 0 R 1 0 R 2 0 R
0 747 R 1 0 R 2 0 R 0 -249 R 2 0 R 1 0 R 0 -498 R 2 0 R 2 0 R 0 1742 R 1 0 R
2 0 R 0 -746 R 2 0 R 1 0 R 0 -498 R 2 0 R 2 0 R 0 995 R 1 0 R 2 0 R 0 -995 R
2 0 R 1 0 R 0 746 R 2 0 R 1 0 R 0 -995 R 2 0 R 2 0 R 1 0 R 2 0 R 0 498 R
2 0 R 1 0 R 0 -249 R 2 0 R 2 0 R 1 0 R 2 0 R 0 249 R 2 0 R 1 0 R 0 249 R
2 0 R 2 0 R 0 -249 R 1 0 R 2 0 R 1 0 R 2 0 R 0 -996 R 2 0 R 1 0 R 0 249 R
2 0 R 2 0 R 0 498 R 1 0 R 2 0 R 0 -249 R 2 0 R 1 0 R 2 0 R 2 0 R 0 -498 R
1 0 R 2 0 R 0 1245 R 2 0 R 1 0 R 0 -996 R 2 0 R 1 0 R 0 747 R 2 0 R 2 0 R
0 -249 R 1 0 R 2 0 R 0 -249 R 2 0 R 1 0 R 0 1493 R 2 0 R 2 0 R 0 -1742 R
1 0 R 2 0 R 0 996 R 2 0 R 1 0 R 0 -747 R 2 0 R 2 0 R 0 1991 R 1 0 R 2 0 R
0 -2240 R 1 0 R 2 0 R 0 498 R 2 0 R 1 0 R 0 -996 R 2 0 R 2 0 R 0 1245 R
1 0 R 2 0 R 0 746 R 2 0 R 1 0 R 0 -746 R 2 0 R 2 0 R 1 0 R 2 0 R 2 0 R 1 0 R
0 -747 R 2 0 R 1 0 R 0 498 R 2 0 R 2 0 R 0 995 R 1 0 R 2 0 R 0 -1493 R 2 0 R
1 0 R 2 0 R 2 0 R 0 996 R 1 0 R 2 0 R 0 -747 R 2 0 R 1 0 R 0 249 R 2 0 R
2 0 R 0 498 R 1 0 R 2 0 R 0 -747 R 1 0 R 2 0 R 0 995 R 2 0 R 1 0 R 0 -1244 R
2 0 R 2 0 R 0 747 R 1 0 R 2 0 R 0 -747 R 2 0 R 1 0 R 2 0 R 2 0 R 0 -249 R
1 0 R 2 0 R 0 1245 R 2 0 R 1 0 R 0 248 R 2 0 R 1 0 R 0 -746 R 2 0 R 2 0 R
0 249 R 1 0 R 2 0 R 0 497 R 2 0 R 1 0 R 2 0 R 2 0 R 0 -746 R 1 0 R 2 0 R
0 -249 R 2 0 R 1 0 R 0 498 R 2 0 R 2 0 R 0 -498 R 1 0 R 2 0 R 0 498 R 1 0 R
2 0 R 0 -747 R 2 0 R 1 0 R 0 249 R 2 0 R 2 0 R 0 498 R 1 0 R 2 0 R 0 -249 R
2 0 R 1 0 R 0 498 R 2 0 R 2 0 R 0 -747 R 1 0 R 2 0 R 0 249 R 2 0 R 1 0 R
0 -747 R 2 0 R 1 0 R 0 996 R 2 0 R 2 0 R 0 746 R 1 0 R 2 0 R 0 -1493 R 2 0 R
1 0 R 0 -249 R 2 0 R 2 0 R 0 249 R 1 0 R 2 0 R 0 498 R 2 0 R 1 0 R 0 -747 R
2 0 R 2 0 R 0 996 R 1 0 R 2 0 R 1 0 R 2 0 R 0 -996 R 2 0 R 1 0 R 0 249 R
2 0 R 2 0 R 0 996 R 1 0 R 2 0 R 0 -747 R 2 0 R 1 0 R 0 -498 R 2 0 R 2 0 R
0 249 R 1 0 R 2 0 R 0 498 R 1 0 R 2 0 R 0 -249 R 2 0 R 1 0 R 0 -498 R 2 0 R
2 0 R 0 996 R 1 0 R 2 0 R 2 0 R 1 0 R 0 249 R 2 0 R 2 0 R 0 -249 R 1 0 R
2 0 R 0 249 R 2 0 R 1 0 R 0 -498 R 2 0 R 1 0 R 0 498 R 2 0 R 2 0 R 0 -498 R
1 0 R 2 0 R 0 -249 R 2 0 R 1 0 R 0 995 R 2 0 R 2 0 R 0 -746 R 1 0 R 2 0 R
2 0 R 1 0 R 0 -249 R 2 0 R 2 0 R 0 249 R 1 0 R 2 0 R 0 -498 R 1 0 R 2 0 R
0 -498 R 2 0 R 1 0 R 0 1245 R 2 0 R 2 0 R 1 0 R 2 0 R 0 -498 R 2 0 R 1 0 R
2 0 R 2 0 R 0 1244 R 1 0 R 2 0 R 0 -746 R 2 0 R 1 0 R 2 0 R 1 0 R 0 -747 R
2 0 R 2 0 R 0 1493 R 1 0 R 2 0 R 0 -497 R 2 0 R 1 0 R 0 -996 R 2 0 R 2 0 R
1 0 R 2 0 R 0 498 R 2 0 R 1 0 R 0 249 R 2 0 R 2 0 R 0 -747 R 1 0 R 2 0 R
0 1493 R 1 0 R 2 0 R 0 -1244 R 2 0 R 1 0 R 0 -498 R 2 0 R 2 0 R 0 747 R
1 0 R 2 0 R 2 0 R 1 0 R 0 -498 R 2 0 R 2 0 R 0 498 R 1 0 R 2 0 R 0 -498 R
2 0 R 1 0 R 0 -498 R 2 0 R 1 0 R 0 996 R 2 0 R 2 0 R 0 -249 R 1 0 R 2 0 R
0 -249 R 2 0 R 1 0 R 0 498 R 2 0 R 2 0 R 0 498 R 1 0 R 2 0 R 2 0 R 1 0 R
0 -249 R 2 0 R 2 0 R 0 -498 R 1 0 R 2 0 R 0 -249 R 1 0 R 2 0 R 0 249 R 2 0 R
1 0 R 0 249 R 2 0 R 2 0 R 0 -249 R 1 0 R 2 0 R 2 0 R 1 0 R 0 249 R 2 0 R
2 0 R 0 -498 R 1 0 R 2 0 R 0 498 R 2 0 R 1 0 R 0 -249 R 2 0 R 1 0 R 0 -498 R
2 0 R 2 0 R 0 747 R 1 0 R 2 0 R 0 498 R 2 0 R 1 0 R 0 -249 R 2 0 R 2 0 R
0 249 R 1 0 R 2 0 R 0 248 R 2 0 R 1 0 R 0 -1244 R 2 0 R 2 0 R 0 249 R 1 0 R
2 0 R 0 249 R 1 0 R 2 0 R 2 0 R 1 0 R 0 1493 R 2 0 R 2 0 R 0 -1991 R 1 0 R
2 0 R 2 0 R 1 0 R 0 498 R 2 0 R 2 0 R 0 498 R 1 0 R 2 0 R 2 0 R 1 0 R 2 0 R
1 0 R 0 -996 R 2 0 R 2 0 R 0 996 R 1 0 R 2 0 R 0 -249 R 2 0 R 1 0 R 0 -249 R
2 0 R 2 0 R 0 -747 R 1 0 R 2 0 R 0 1991 R 2 0 R 1 0 R 0 -995 R 2 0 R 2 0 R
0 -1245 R 1 0 R 2 0 R 0 996 R 1 0 R 2 0 R 0 -498 R 2 0 R 1 0 R 2 0 R 2 0 R
0 249 R 1 0 R 2 0 R 0 -249 R 2 0 R 1 0 R 0 996 R 2 0 R 2 0 R 0 -249 R 1 0 R
2 0 R 0 -249 R 2 0 R 1 0 R 0 498 R 2 0 R 1 0 R 0 -498 R 2 0 R 2 0 R 0 -498 R
1 0 R 2 0 R 2 0 R 1 0 R 0 498 R 2 0 R 2 0 R 0 995 R 1 0 R 2 0 R 0 -1244 R
2 0 R 1 0 R 0 -498 R 2 0 R 1 0 R 0 249 R 2 0 R 2 0 R 0 -498 R 1 0 R 2 0 R
0 1245 R 2 0 R 1 0 R 0 249 R 2 0 R 2 0 R 0 -996 R 1 0 R 2 0 R 0 249 R 2 0 R
1 0 R 2 0 R 2 0 R 0 249 R 1 0 R 2 0 R 1 0 R 2 0 R 2 0 R 1 0 R 2 0 R 2 0 R
1 0 R 2 0 R 2 0 R 1 0 R 0 249 R 2 0 R 2 0 R 0 -498 R 1 0 R 2 0 R 0 -498 R
2 0 R 1 0 R 0 747 R 2 0 R 1 0 R 0 -498 R 2 0 R 2 0 R 0 498 R 1 0 R 2 0 R
0 746 R 2 0 R 1 0 R 2 0 R 2 0 R 0 -248 R 1 0 R 2 0 R 0 -1245 R 2 0 R 1 0 R
0 996 R 2 0 R 2 0 R 0 -747 R 1 0 R 2 0 R 0 996 R 1 0 R 2 0 R 0 -498 R 2 0 R
1 0 R 2 0 R 2 0 R 0 1244 R 1 0 R 2 0 R 0 -1244 R 2 0 R 1 0 R 0 249 R 2 0 R
2 0 R 1 0 R 2 0 R 0 746 R 2 0 R 1 0 R 0 -249 R 2 0 R 1 0 R 0 747 R 2 0 R
2 0 R 0 -1493 R 1 0 R 2 0 R 2 0 R 1 0 R 0 -249 R 2 0 R 2 0 R 0 249 R 1 0 R
2 0 R 0 -498 R 2 0 R 1 0 R 0 -249 R 2 0 R 2 0 R 0 249 R 1 0 R 2 0 R 0 498 R
1 0 R 2 0 R 0 746 R 2 0 R 1 0 R 0 -995 R 2 0 R 2 0 R 1 0 R 2 0 R 0 747 R
2 0 R 1 0 R 0 -498 R 2 0 R 2 0 R 1 0 R 2 0 R 0 -249 R 2 0 R 1 0 R 0 -747 R
2 0 R 1 0 R D 10268 1830 M 0 1245 R 2 0 R 2 0 R 0 -1245 R 1 0 R 2 0 R
0 996 R 2 0 R 1 0 R 2 0 R 2 0 R 0 1244 R 1 0 R 2 0 R 0 -995 R 2 0 R 1 0 R
2 0 R 2 0 R 1 0 R 2 0 R 0 -1245 R 1 0 R 2 0 R 0 1245 R 2 0 R 1 0 R 0 -498 R
2 0 R 2 0 R 1 0 R 2 0 R 0 -249 R 2 0 R 1 0 R 0 1493 R 2 0 R 2 0 R 0 -1493 R
1 0 R 2 0 R 0 498 R 2 0 R 1 0 R 0 -249 R 2 0 R 1 0 R 2 0 R 2 0 R 0 -249 R
1 0 R 2 0 R 0 249 R 2 0 R 1 0 R 2 0 R 2 0 R 0 249 R 1 0 R 2 0 R 0 -498 R
2 0 R 1 0 R 0 249 R 2 0 R 2 0 R 1 0 R 2 0 R 0 -249 R 1 0 R 2 0 R 0 498 R
2 0 R 1 0 R 0 -249 R 2 0 R 2 0 R 0 249 R 1 0 R 2 0 R 2 0 R 1 0 R 0 746 R
2 0 R 2 0 R 0 -248 R 1 0 R 2 0 R 0 -249 R 2 0 R 1 0 R 2 0 R 1 0 R 0 497 R
2 0 R 2 0 R 0 -1244 R 1 0 R 2 0 R 2 0 R 1 0 R 0 996 R 2 0 R 2 0 R 0 -249 R
1 0 R 2 0 R 2 0 R 1 0 R 0 249 R 2 0 R 2 0 R 0 -747 R 1 0 R 2 0 R 0 -498 R
1 0 R 2 0 R 0 249 R 2 0 R 1 0 R 0 498 R 2 0 R 2 0 R 0 249 R 1 0 R 2 0 R
0 -747 R 2 0 R 1 0 R 2 0 R 2 0 R 0 498 R 1 0 R 2 0 R 1 0 R 2 0 R 0 498 R
2 0 R 1 0 R 0 746 R 2 0 R 2 0 R 0 -1244 R 1 0 R 2 0 R 0 -498 R 2 0 R 1 0 R
0 498 R 2 0 R 2 0 R 0 249 R 1 0 R 2 0 R 0 -249 R 2 0 R 1 0 R 0 -747 R 2 0 R
1 0 R 0 996 R 2 0 R 2 0 R 1 0 R 2 0 R 0 -498 R 2 0 R 1 0 R 0 995 R 2 0 R
2 0 R 0 -1244 R 1 0 R 2 0 R 0 498 R 2 0 R 1 0 R 0 498 R 2 0 R 2 0 R 0 -249 R
1 0 R 2 0 R 1 0 R 2 0 R 0 -747 R 2 0 R 1 0 R 0 747 R 2 0 R 2 0 R 0 -498 R
1 0 R 2 0 R 0 747 R 2 0 R 1 0 R 0 -498 R 2 0 R 2 0 R 1 0 R 2 0 R 0 -249 R
2 0 R 1 0 R 0 -498 R 2 0 R 1 0 R 0 996 R 2 0 R 2 0 R 0 -249 R 1 0 R 2 0 R
0 498 R 2 0 R 1 0 R 0 746 R 2 0 R 2 0 R 0 -746 R 1 0 R 2 0 R 0 -996 R 2 0 R
1 0 R 0 996 R 2 0 R 2 0 R 0 248 R 1 0 R 2 0 R 0 -746 R 1 0 R 2 0 R 0 249 R
2 0 R 1 0 R 0 249 R 2 0 R 2 0 R 0 -747 R 1 0 R 2 0 R 0 498 R 2 0 R 1 0 R
0 -498 R 2 0 R 2 0 R 0 -249 R 1 0 R 2 0 R 0 249 R 2 0 R 1 0 R 2 0 R 1 0 R
0 747 R 2 0 R 2 0 R 0 -249 R 1 0 R 2 0 R 2 0 R 1 0 R 0 -747 R 2 0 R 2 0 R
0 747 R 1 0 R 2 0 R 0 -498 R 2 0 R 1 0 R 0 249 R 2 0 R 2 0 R 0 -249 R 1 0 R
2 0 R 0 1244 R 1 0 R 2 0 R 0 -249 R 2 0 R 1 0 R 0 -1742 R 2 0 R 2 0 R
0 996 R 1 0 R 2 0 R 0 1244 R 2 0 R 1 0 R 0 -1244 R 2 0 R 2 0 R 0 746 R 1 0 R
2 0 R 0 -746 R 2 0 R 1 0 R 2 0 R 1 0 R 0 -747 R 2 0 R 2 0 R 0 747 R 1 0 R
2 0 R 0 746 R 2 0 R 1 0 R 0 -746 R 2 0 R 2 0 R 0 -498 R 1 0 R 2 0 R 0 249 R
2 0 R 1 0 R 0 -498 R 2 0 R 2 0 R 0 747 R 1 0 R 2 0 R 0 -498 R 1 0 R 2 0 R
0 996 R 2 0 R 1 0 R 0 -747 R 2 0 R 2 0 R 0 995 R 1 0 R 2 0 R 0 -995 R 2 0 R
1 0 R 0 249 R 2 0 R 2 0 R 0 746 R 1 0 R 2 0 R 0 -1244 R 2 0 R 1 0 R 0 498 R
2 0 R 1 0 R 0 746 R 2 0 R 2 0 R 0 -1493 R 1 0 R 2 0 R 0 1493 R 2 0 R 1 0 R
0 -248 R 2 0 R 2 0 R 0 -498 R 1 0 R 2 0 R 2 0 R 1 0 R 0 498 R 2 0 R 2 0 R
0 -498 R 1 0 R 2 0 R 0 -996 R 1 0 R 2 0 R 0 498 R 2 0 R 1 0 R 0 1244 R 2 0 R
2 0 R 0 -1244 R 1 0 R 2 0 R 0 1493 R 2 0 R 1 0 R 0 -746 R 2 0 R 2 0 R
0 -747 R 1 0 R 2 0 R 0 249 R 2 0 R 1 0 R 0 995 R 2 0 R 1 0 R 0 -995 R 2 0 R
2 0 R 0 249 R 1 0 R 2 0 R 0 249 R 2 0 R 1 0 R 0 -996 R 2 0 R 2 0 R 0 1493 R
1 0 R 2 0 R 0 -1244 R 2 0 R 1 0 R 2 0 R 1 0 R 0 1244 R 2 0 R 2 0 R 0 -1493 R
1 0 R 2 0 R 2 0 R 1 0 R 0 747 R 2 0 R 2 0 R 0 498 R 1 0 R 2 0 R 0 -498 R
2 0 R 1 0 R 0 -996 R 2 0 R 2 0 R 0 996 R 1 0 R 2 0 R 0 249 R 1 0 R 2 0 R
2 0 R 1 0 R 2 0 R 2 0 R 0 1244 R 1 0 R 2 0 R 0 -1493 R 2 0 R 1 0 R 0 -747 R
2 0 R 2 0 R 0 498 R 1 0 R 2 0 R 0 -498 R 2 0 R 1 0 R 0 747 R 2 0 R 1 0 R
0 498 R 2 0 R 2 0 R 0 -249 R 1 0 R 2 0 R 0 249 R 2 0 R 1 0 R 0 248 R 2 0 R
2 0 R 0 249 R 1 0 R 2 0 R 0 -1493 R 2 0 R 1 0 R 0 1244 R 2 0 R 2 0 R
0 -1244 R 1 0 R 2 0 R 0 1991 R 1 0 R 2 0 R 0 -1991 R 2 0 R 1 0 R 0 498 R
2 0 R 2 0 R 0 -249 R 1 0 R 2 0 R 0 498 R 2 0 R 1 0 R 0 497 R 2 0 R 2 0 R
0 -1493 R 1 0 R 2 0 R 0 249 R 2 0 R 1 0 R 0 498 R 2 0 R 1 0 R 0 -747 R 2 0 R
2 0 R 0 747 R 1 0 R 2 0 R 0 -498 R 2 0 R 1 0 R 0 249 R 2 0 R 2 0 R 0 747 R
1 0 R 2 0 R 0 -249 R 2 0 R 1 0 R 0 746 R 2 0 R 2 0 R 0 -995 R 1 0 R 2 0 R
0 -498 R 1 0 R 2 0 R 0 249 R 2 0 R 1 0 R 2 0 R 2 0 R 0 -249 R 1 0 R 2 0 R
0 498 R 2 0 R 1 0 R 0 1244 R 2 0 R 2 0 R 0 -1742 R 1 0 R 2 0 R 2 0 R 1 0 R
2 0 R 1 0 R 2 0 R 2 0 R 1 0 R 2 0 R 0 1244 R 2 0 R 1 0 R 0 -497 R 2 0 R
2 0 R 1 0 R 2 0 R 0 -747 R 2 0 R 1 0 R 2 0 R 2 0 R 0 249 R 1 0 R 2 0 R 1 0 R
2 0 R 0 -498 R 2 0 R 1 0 R 0 249 R 2 0 R 2 0 R 0 249 R 1 0 R 2 0 R 0 498 R
2 0 R 1 0 R 0 -747 R 2 0 R 2 0 R 1 0 R 2 0 R 0 996 R 2 0 R 1 0 R 0 -996 R
2 0 R 1 0 R 0 1244 R 2 0 R 2 0 R 0 -497 R 1 0 R 2 0 R 0 -249 R 2 0 R 1 0 R
0 995 R 2 0 R 2 0 R 0 -1742 R 1 0 R 2 0 R 0 996 R 2 0 R 1 0 R 0 -249 R 2 0 R
2 0 R 0 498 R 1 0 R 2 0 R 0 248 R 1 0 R 2 0 R 0 -248 R 2 0 R 1 0 R 0 248 R
2 0 R 2 0 R 0 -746 R 1 0 R 2 0 R 2 0 R 1 0 R 0 -249 R 2 0 R 2 0 R 0 249 R
1 0 R 2 0 R 0 498 R 2 0 R 1 0 R 2 0 R 1 0 R 0 1742 R 2 0 R 2 0 R 0 -2489 R
1 0 R 2 0 R 0 498 R 2 0 R 1 0 R 0 -498 R 2 0 R 2 0 R 0 -498 R 1 0 R 2 0 R
0 996 R 2 0 R 1 0 R 0 249 R 2 0 R 2 0 R 0 -249 R 1 0 R 2 0 R 0 497 R 1 0 R
2 0 R 0 -248 R 2 0 R 1 0 R 0 -498 R 2 0 R 2 0 R 0 498 R 1 0 R 2 0 R 0 -249 R
2 0 R 1 0 R 2 0 R 2 0 R 0 -996 R 1 0 R 2 0 R 0 1245 R 1 0 R 2 0 R 0 -249 R
2 0 R 1 0 R 0 -498 R 2 0 R 2 0 R 0 249 R 1 0 R 2 0 R 2 0 R 1 0 R 0 746 R
2 0 R 2 0 R 0 -746 R 1 0 R 2 0 R 0 -249 R 2 0 R 1 0 R 2 0 R 1 0 R 0 -498 R
2 0 R 2 0 R 0 1742 R 1 0 R 2 0 R 0 -1244 R 2 0 R 1 0 R 2 0 R 2 0 R D
11135 2577 M 0 -249 R 1 0 R 2 0 R 2 0 R 1 0 R 0 747 R 2 0 R 2 0 R 0 249 R
1 0 R 2 0 R 0 -498 R 1 0 R 2 0 R 0 -498 R 2 0 R 1 0 R 0 498 R 2 0 R 2 0 R
0 -747 R 1 0 R 2 0 R 0 249 R 2 0 R 1 0 R 0 249 R 2 0 R 2 0 R 0 249 R 1 0 R
2 0 R 0 -498 R 2 0 R 1 0 R 0 1244 R 2 0 R 1 0 R 0 -1244 R 2 0 R 2 0 R
0 -498 R 1 0 R 2 0 R 0 1245 R 2 0 R 1 0 R 0 -747 R 2 0 R 2 0 R 0 747 R 1 0 R
2 0 R 0 -249 R 2 0 R 1 0 R 0 995 R 2 0 R 2 0 R 0 -995 R 1 0 R 2 0 R 0 -498 R
1 0 R 2 0 R 0 249 R 2 0 R 1 0 R 2 0 R 2 0 R 0 249 R 1 0 R 2 0 R 0 -996 R
2 0 R 1 0 R 0 747 R 2 0 R 2 0 R 0 249 R 1 0 R 2 0 R 0 -249 R 2 0 R 1 0 R
0 498 R 2 0 R 1 0 R 0 -498 R 2 0 R 2 0 R 1 0 R 2 0 R 0 -249 R 2 0 R 1 0 R
0 -249 R 2 0 R 2 0 R 0 498 R 1 0 R 2 0 R 0 498 R 2 0 R 1 0 R 2 0 R 2 0 R
0 -996 R 1 0 R 2 0 R 0 747 R 1 0 R 2 0 R 0 -498 R 2 0 R 1 0 R 0 747 R 2 0 R
2 0 R 0 -498 R 1 0 R 2 0 R 0 249 R 2 0 R 1 0 R 0 498 R 2 0 R 2 0 R 0 -249 R
1 0 R 2 0 R 0 -747 R 2 0 R 1 0 R 2 0 R 1 0 R 0 996 R 2 0 R 2 0 R 0 248 R
1 0 R 2 0 R 0 -995 R 2 0 R 1 0 R 0 249 R 2 0 R 2 0 R 0 746 R 1 0 R 2 0 R
0 -1493 R 2 0 R 1 0 R 0 1493 R 2 0 R 2 0 R 0 -1244 R 1 0 R 2 0 R 0 498 R
1 0 R 2 0 R 0 -747 R 2 0 R 1 0 R 0 498 R 2 0 R 2 0 R 0 747 R 1 0 R 2 0 R
0 248 R 2 0 R 1 0 R 0 -995 R 2 0 R 2 0 R 0 -747 R 1 0 R 2 0 R 0 1494 R 2 0 R
1 0 R 0 -747 R 2 0 R 1 0 R 0 -747 R 2 0 R 2 0 R 0 1245 R 1 0 R 2 0 R
0 -498 R 2 0 R 1 0 R 0 -249 R 2 0 R 2 0 R 0 249 R 1 0 R 2 0 R 0 249 R 2 0 R
1 0 R 0 -498 R 2 0 R 2 0 R 0 747 R 1 0 R 2 0 R 0 -249 R 1 0 R 2 0 R 0 1244 R
2 0 R 1 0 R 0 -1493 R 2 0 R 2 0 R 0 747 R 1 0 R 2 0 R 0 -996 R 2 0 R 1 0 R
0 -498 R 2 0 R 2 0 R 0 1245 R 1 0 R 2 0 R 0 -747 R 2 0 R 1 0 R 0 1244 R
2 0 R 1 0 R 0 -995 R 2 0 R 2 0 R 0 747 R 1 0 R 2 0 R 0 -996 R 2 0 R 1 0 R
2 0 R 2 0 R 1 0 R 2 0 R 0 498 R 2 0 R 1 0 R 0 249 R 2 0 R 1 0 R 2 0 R 2 0 R
0 -1245 R 1 0 R 2 0 R 0 1742 R 2 0 R 1 0 R 0 -1244 R 2 0 R 2 0 R 0 249 R
1 0 R 2 0 R 0 249 R 2 0 R 1 0 R 0 249 R 2 0 R 2 0 R 0 -249 R 1 0 R 2 0 R
0 -498 R 1 0 R 2 0 R 2 0 R 1 0 R 0 1244 R 2 0 R 2 0 R 0 -1742 R 1 0 R 2 0 R
0 1245 R 2 0 R 1 0 R 0 -747 R 2 0 R 2 0 R 0 996 R 1 0 R 2 0 R 0 -249 R 2 0 R
1 0 R 0 -747 R 2 0 R 1 0 R 0 -249 R 2 0 R 2 0 R 0 498 R 1 0 R 2 0 R 0 747 R
2 0 R 1 0 R 0 -498 R 2 0 R 2 0 R 0 -747 R 1 0 R 2 0 R 0 249 R 2 0 R 1 0 R
0 1493 R 2 0 R 2 0 R 0 -1493 R 1 0 R 2 0 R 0 249 R 1 0 R 2 0 R 0 249 R 2 0 R
1 0 R 2 0 R 2 0 R 0 -498 R 1 0 R 2 0 R 0 249 R 2 0 R 1 0 R 2 0 R 2 0 R
0 -249 R 1 0 R 2 0 R 0 747 R 2 0 R 1 0 R 0 -498 R 2 0 R 1 0 R 2 0 R 2 0 R
0 1244 R 1 0 R 2 0 R 0 -746 R 2 0 R 1 0 R 0 -747 R 2 0 R 2 0 R 1 0 R 2 0 R
0 498 R 2 0 R 1 0 R 0 498 R 2 0 R 2 0 R 0 -996 R 1 0 R 2 0 R 0 249 R 1 0 R
2 0 R 0 249 R 2 0 R 1 0 R 0 -498 R 2 0 R 2 0 R 1 0 R 2 0 R 0 -249 R 2 0 R
1 0 R 0 747 R 2 0 R 2 0 R 0 1244 R 1 0 R 2 0 R 0 -995 R 2 0 R 1 0 R 0 -498 R
2 0 R 1 0 R 0 249 R 2 0 R 2 0 R 0 -249 R 1 0 R 2 0 R 0 747 R 2 0 R 1 0 R
0 -498 R 2 0 R 2 0 R 0 -498 R 1 0 R 2 0 R 0 498 R 2 0 R 1 0 R 2 0 R 2 0 R
0 -249 R 1 0 R 2 0 R 1 0 R 2 0 R 0 498 R 2 0 R 1 0 R 2 0 R 2 0 R 0 -498 R
1 0 R 2 0 R 0 995 R 2 0 R 1 0 R 0 -1244 R 2 0 R 2 0 R 0 249 R 1 0 R 2 0 R
0 -498 R 2 0 R 1 0 R 0 498 R 2 0 R 1 0 R 0 -249 R 2 0 R 2 0 R 0 -249 R 1 0 R
2 0 R 0 1245 R 2 0 R 1 0 R 0 -498 R 2 0 R 2 0 R 0 -249 R 1 0 R 2 0 R 0 249 R
2 0 R 1 0 R 0 498 R 2 0 R 2 0 R 0 -747 R 1 0 R 2 0 R 1 0 R 2 0 R 0 1493 R
2 0 R 1 0 R 0 -746 R 2 0 R 2 0 R 0 -747 R 1 0 R 2 0 R 0 498 R 2 0 R 1 0 R
0 -996 R 2 0 R 2 0 R 1 0 R 2 0 R 0 1742 R 2 0 R 1 0 R 0 -995 R 2 0 R 1 0 R
0 -498 R 2 0 R 2 0 R 0 498 R 1 0 R 2 0 R 0 -249 R 2 0 R 1 0 R 0 498 R 2 0 R
2 0 R 1 0 R 2 0 R 2 0 R 1 0 R 0 -249 R 2 0 R 1 0 R 0 995 R 2 0 R 2 0 R
0 -249 R 1 0 R 2 0 R 0 -1493 R 2 0 R 1 0 R 0 747 R 2 0 R 2 0 R 0 249 R 1 0 R
2 0 R 0 -249 R 2 0 R 1 0 R 0 498 R 2 0 R 2 0 R 0 -498 R 1 0 R 2 0 R 0 746 R
1 0 R 2 0 R 0 -746 R 2 0 R 1 0 R 0 498 R 2 0 R 2 0 R 0 -747 R 1 0 R 2 0 R
2 0 R 1 0 R 0 249 R 2 0 R 2 0 R 0 -498 R 1 0 R 2 0 R 2 0 R 1 0 R 0 -249 R
2 0 R 1 0 R 0 249 R 2 0 R 2 0 R 1 0 R 2 0 R 2 0 R 1 0 R 0 747 R 2 0 R 2 0 R
0 -996 R 1 0 R 2 0 R 0 1493 R 2 0 R 1 0 R 0 -1493 R 2 0 R 2 0 R 0 1245 R
1 0 R 2 0 R 0 -1245 R 1 0 R 2 0 R 0 1493 R 2 0 R 1 0 R 0 -1742 R 2 0 R 2 0 R
0 498 R 1 0 R 2 0 R 0 498 R 2 0 R 1 0 R 0 249 R 2 0 R 2 0 R 0 -747 R 1 0 R
2 0 R 0 1244 R 2 0 R 1 0 R 0 -1244 R 2 0 R 1 0 R 2 0 R 2 0 R 0 747 R 1 0 R
2 0 R 0 -498 R 2 0 R 1 0 R 0 249 R 2 0 R 2 0 R 0 498 R 1 0 R 2 0 R 0 -249 R
2 0 R 1 0 R 0 -498 R 2 0 R 2 0 R 0 -747 R 1 0 R 2 0 R 0 498 R 1 0 R 2 0 R
0 249 R 2 0 R 1 0 R 2 0 R 2 0 R 0 498 R 1 0 R 2 0 R 0 -747 R 2 0 R 1 0 R
0 996 R 2 0 R 2 0 R 0 -747 R 1 0 R 2 0 R 2 0 R 1 0 R 0 995 R 2 0 R 1 0 R
0 -746 R 2 0 R 2 0 R 0 -747 R 1 0 R 2 0 R 0 996 R 2 0 R 1 0 R 2 0 R 2 0 R
0 497 R 1 0 R 2 0 R 0 -746 R 2 0 R 1 0 R 0 -249 R 2 0 R 2 0 R 0 1244 R 1 0 R
2 0 R 0 -1244 R 1 0 R 2 0 R 0 498 R 2 0 R 1 0 R 0 -747 R 2 0 R 2 0 R 0 249 R
1 0 R 2 0 R 0 249 R 2 0 R 1 0 R 0 995 R 2 0 R 2 0 R 0 -995 R 1 0 R 2 0 R
0 249 R 2 0 R 1 0 R 0 -747 R 2 0 R 1 0 R 0 498 R 2 0 R 2 0 R 0 746 R 1 0 R
2 0 R 0 -1244 R 2 0 R 1 0 R 2 0 R 2 0 R 0 747 R 1 0 R 2 0 R 2 0 R 1 0 R
0 249 R 2 0 R 2 0 R 1 0 R 2 0 R 0 -747 R 1 0 R 2 0 R 0 -498 R 2 0 R 1 0 R
0 1245 R 2 0 R 2 0 R 0 -1245 R 1 0 R 2 0 R 0 1742 R 2 0 R D 11993 3821 M
1 0 R 0 -1244 R 2 0 R 2 0 R 0 249 R 1 0 R 2 0 R 0 498 R 2 0 R 1 0 R 0 -498 R
2 0 R 1 0 R 2 0 R 2 0 R 0 498 R 1 0 R 2 0 R 0 -1494 R 2 0 R 1 0 R 0 1245 R
2 0 R 2 0 R 0 -249 R 1 0 R 2 0 R 2 0 R 1 0 R 0 -498 R 2 0 R 2 0 R 0 -249 R
1 0 R 2 0 R 0 1245 R 1 0 R 2 0 R 2 0 R 1 0 R 0 -498 R 2 0 R 2 0 R 1 0 R
2 0 R 0 498 R 2 0 R 1 0 R 0 -498 R 2 0 R 2 0 R 0 -996 R 1 0 R 2 0 R 0 747 R
1 0 R 2 0 R 0 -249 R 2 0 R 1 0 R 0 747 R 2 0 R 2 0 R 1 0 R 2 0 R 0 -747 R
2 0 R 1 0 R 0 996 R 2 0 R 2 0 R 1 0 R 2 0 R 0 -249 R 2 0 R 1 0 R 0 1244 R
2 0 R 1 0 R 0 -1244 R 2 0 R 2 0 R 0 -996 R 1 0 R 2 0 R 0 747 R 2 0 R 1 0 R
0 249 R 2 0 R 2 0 R 0 -747 R 1 0 R 2 0 R 0 747 R 2 0 R 1 0 R 0 1244 R 2 0 R
2 0 R 0 -995 R 1 0 R 2 0 R 0 248 R 1 0 R 2 0 R 0 -1244 R 2 0 R 1 0 R 0 498 R
2 0 R 2 0 R 1 0 R 2 0 R 2 0 R 1 0 R 2 0 R 2 0 R 1 0 R 2 0 R 2 0 R 1 0 R
0 249 R 2 0 R 1 0 R 0 995 R 2 0 R 2 0 R 0 -1991 R 1 0 R 2 0 R 0 996 R 2 0 R
1 0 R 2 0 R 2 0 R 0 497 R 1 0 R 2 0 R 0 498 R 2 0 R 1 0 R 0 -1244 R 2 0 R
2 0 R 1 0 R 2 0 R 0 498 R 1 0 R 2 0 R 0 -996 R 2 0 R 1 0 R 0 498 R 2 0 R
2 0 R 1 0 R 2 0 R 0 -747 R 2 0 R 1 0 R 0 2489 R 2 0 R 2 0 R 0 -1742 R 1 0 R
2 0 R 0 746 R 2 0 R 1 0 R 0 -248 R 2 0 R 1 0 R 0 248 R 2 0 R 2 0 R 0 -248 R
1 0 R 2 0 R 0 -1245 R 2 0 R 1 0 R 0 1742 R 2 0 R 2 0 R 0 -1493 R 1 0 R 2 0 R
0 -498 R 2 0 R 1 0 R 0 996 R 2 0 R 2 0 R 0 995 R 1 0 R 2 0 R 0 -1742 R 1 0 R
2 0 R 0 1742 R 2 0 R 1 0 R 0 -1493 R 2 0 R 2 0 R 1 0 R 2 0 R 0 498 R 2 0 R
1 0 R 0 -747 R 2 0 R 2 0 R 0 747 R 1 0 R 2 0 R 0 -747 R 2 0 R 1 0 R 0 249 R
2 0 R 1 0 R 0 1244 R 2 0 R 2 0 R 0 -746 R 1 0 R 2 0 R 2 0 R 1 0 R 0 498 R
2 0 R 2 0 R 0 -498 R 1 0 R 2 0 R 2 0 R 1 0 R 0 -498 R 2 0 R 2 0 R 0 996 R
1 0 R 2 0 R 1 0 R 2 0 R 2 0 R 1 0 R 0 -249 R 2 0 R 2 0 R 0 249 R 1 0 R 2 0 R
0 -996 R 2 0 R 1 0 R 0 -249 R 2 0 R 2 0 R 0 747 R 1 0 R 2 0 R 0 746 R 2 0 R
1 0 R 0 -1493 R 2 0 R 1 0 R 0 1245 R 2 0 R 2 0 R 1 0 R 2 0 R 0 -996 R 2 0 R
1 0 R 0 747 R 2 0 R 2 0 R 0 249 R 1 0 R 2 0 R 0 -747 R 2 0 R 1 0 R 0 1742 R
2 0 R 2 0 R 0 -1991 R 1 0 R 2 0 R 0 1991 R 1 0 R 2 0 R 0 -747 R 2 0 R 1 0 R
0 -497 R 2 0 R 2 0 R 0 -747 R 1 0 R 2 0 R 0 996 R 2 0 R 1 0 R 0 -498 R 2 0 R
2 0 R 1 0 R 2 0 R 0 1493 R 2 0 R 1 0 R 0 -1991 R 2 0 R 1 0 R 0 249 R 2 0 R
2 0 R 1 0 R 2 0 R 2 0 R 1 0 R 0 -498 R 2 0 R 2 0 R 0 498 R 1 0 R 2 0 R
0 249 R 2 0 R 1 0 R 0 -249 R 2 0 R 1 0 R 0 249 R 2 0 R 2 0 R 0 1244 R 1 0 R
2 0 R 0 -1493 R 2 0 R 1 0 R 0 249 R 2 0 R 2 0 R 0 -747 R 1 0 R 2 0 R
0 1493 R 2 0 R 1 0 R 0 -746 R 2 0 R 2 0 R 1 0 R 2 0 R 0 -498 R 1 0 R 2 0 R
0 249 R 2 0 R 1 0 R 0 249 R 2 0 R 2 0 R 0 -249 R 1 0 R 2 0 R 2 0 R 1 0 R
0 498 R 2 0 R 2 0 R 0 -747 R 1 0 R 2 0 R 2 0 R 1 0 R 0 498 R 2 0 R 1 0 R
2 0 R 2 0 R 0 -498 R 1 0 R 2 0 R 0 498 R 2 0 R 1 0 R 2 0 R 2 0 R 0 249 R
1 0 R 2 0 R 0 497 R 2 0 R 1 0 R 0 -995 R 2 0 R 2 0 R 0 249 R 1 0 R 2 0 R
0 249 R 1 0 R 2 0 R 0 497 R 2 0 R 1 0 R 0 -497 R 2 0 R 2 0 R 1 0 R 2 0 R
0 497 R 2 0 R 1 0 R 0 -1493 R 2 0 R 2 0 R 0 1493 R 1 0 R 2 0 R 0 -746 R
2 0 R 1 0 R 2 0 R 1 0 R 0 746 R 2 0 R 2 0 R 0 -995 R 1 0 R 2 0 R 0 1493 R
2 0 R 1 0 R 0 -1991 R 2 0 R 2 0 R 0 498 R 1 0 R 2 0 R 2 0 R 1 0 R 0 995 R
2 0 R 2 0 R 0 -1493 R 1 0 R 2 0 R 0 1245 R 1 0 R 2 0 R 0 497 R 2 0 R 1 0 R
0 -995 R 2 0 R 2 0 R 0 -747 R 1 0 R 2 0 R 0 249 R 2 0 R 1 0 R 0 996 R 2 0 R
2 0 R 0 497 R 1 0 R 2 0 R 0 -1244 R 2 0 R 1 0 R 0 249 R 2 0 R 1 0 R 2 0 R
2 0 R 0 -498 R 1 0 R 2 0 R 0 996 R 2 0 R 1 0 R 0 -249 R 2 0 R 2 0 R 0 249 R
1 0 R 2 0 R 0 -747 R 2 0 R 1 0 R 0 995 R 2 0 R 2 0 R 0 -746 R 1 0 R 2 0 R
0 498 R 1 0 R 2 0 R 0 -498 R 2 0 R 1 0 R 0 249 R 2 0 R 2 0 R 0 -498 R 1 0 R
2 0 R 0 -249 R 2 0 R 1 0 R 0 1493 R 2 0 R 2 0 R 0 -995 R 1 0 R 2 0 R
0 -249 R 2 0 R 1 0 R 0 747 R 2 0 R 1 0 R 0 -747 R 2 0 R 2 0 R 0 -249 R 1 0 R
2 0 R 0 747 R 2 0 R 1 0 R 0 -498 R 2 0 R 2 0 R 0 995 R 1 0 R 2 0 R 0 -1493 R
2 0 R 1 0 R 0 249 R 2 0 R 2 0 R 0 -249 R 1 0 R 2 0 R 0 747 R 1 0 R 2 0 R
0 249 R 2 0 R 1 0 R 0 -498 R 2 0 R 2 0 R 1 0 R 2 0 R 0 747 R 2 0 R 1 0 R
0 -996 R 2 0 R 2 0 R 0 1244 R 1 0 R 2 0 R 0 -746 R 2 0 R 1 0 R 2 0 R 1 0 R
2 0 R 2 0 R 0 -498 R 1 0 R 2 0 R 0 747 R 2 0 R 1 0 R 0 -996 R 2 0 R 2 0 R
0 498 R 1 0 R 2 0 R 0 249 R 2 0 R 1 0 R 0 1493 R 2 0 R 2 0 R 0 -995 R 1 0 R
2 0 R 0 -747 R 1 0 R 2 0 R 0 747 R 2 0 R 1 0 R 0 -996 R 2 0 R 2 0 R 0 249 R
1 0 R 2 0 R 0 747 R 2 0 R 1 0 R 0 -1494 R 2 0 R 2 0 R 0 1245 R 1 0 R 2 0 R
0 -1245 R 1 0 R 2 0 R 0 498 R 2 0 R 1 0 R 0 747 R 2 0 R 2 0 R 0 -996 R 1 0 R
2 0 R 0 996 R 2 0 R 1 0 R 0 -249 R 2 0 R 2 0 R 0 746 R 1 0 R 2 0 R 0 -995 R
2 0 R 1 0 R 0 -249 R 2 0 R 1 0 R 2 0 R 2 0 R 0 498 R 1 0 R 2 0 R 0 -498 R
2 0 R 1 0 R 0 996 R 2 0 R 2 0 R 0 -498 R 1 0 R 2 0 R 0 249 R 2 0 R 1 0 R
2 0 R 2 0 R 0 -249 R 1 0 R 2 0 R 0 -249 R 1 0 R 2 0 R 0 747 R 2 0 R 1 0 R
2 0 R 2 0 R 0 -249 R 1 0 R 2 0 R 2 0 R 1 0 R 0 497 R 2 0 R 2 0 R 0 -746 R
1 0 R 2 0 R 0 -498 R 2 0 R 1 0 R 0 -249 R 2 0 R 1 0 R 0 498 R 2 0 R 2 0 R
0 -498 R 1 0 R 2 0 R 0 747 R 2 0 R 1 0 R 0 995 R 2 0 R 2 0 R 0 -497 R 1 0 R
2 0 R 0 -498 R 2 0 R 1 0 R 0 -249 R 2 0 R 2 0 R 0 249 R 1 0 R 2 0 R 0 746 R
1 0 R 2 0 R 0 -746 R 2 0 R 1 0 R 0 1244 R 2 0 R 2 0 R 0 -498 R 1 0 R 2 0 R
2 0 R 1 0 R 0 -1244 R 2 0 R 2 0 R 0 498 R 1 0 R 2 0 R 0 -498 R 2 0 R 1 0 R
0 498 R 2 0 R 1 0 R D 12860 2826 M 2 0 R 2 0 R 1 0 R 2 0 R 2 0 R 1 0 R
0 -498 R 2 0 R 2 0 R 0 996 R 1 0 R 2 0 R 2 0 R 1 0 R 0 -498 R 2 0 R 2 0 R
0 -747 R 1 0 R 2 0 R 0 1493 R 1 0 R 2 0 R 2 0 R 1 0 R 0 498 R 2 0 R 2 0 R
0 -1244 R 1 0 R 2 0 R 0 -249 R 2 0 R 1 0 R 0 249 R 2 0 R 2 0 R 0 -498 R
1 0 R 2 0 R 0 -249 R 2 0 R 1 0 R 0 498 R 2 0 R 1 0 R 0 498 R 2 0 R 2 0 R
0 995 R 1 0 R 2 0 R 0 -1493 R 2 0 R 1 0 R 0 995 R 2 0 R 2 0 R 0 747 R 1 0 R
2 0 R 0 -1493 R 2 0 R 1 0 R 0 -498 R 2 0 R 2 0 R 1 0 R 2 0 R 0 498 R 1 0 R
2 0 R 0 -249 R 2 0 R 1 0 R 2 0 R 2 0 R 0 -498 R 1 0 R 2 0 R 0 1245 R 2 0 R
1 0 R 0 -747 R 2 0 R 2 0 R 0 498 R 1 0 R 2 0 R 0 -249 R 2 0 R 1 0 R 0 -498 R
2 0 R 1 0 R 2 0 R 2 0 R 0 747 R 1 0 R 2 0 R 0 -498 R 2 0 R 1 0 R 2 0 R 2 0 R
0 -498 R 1 0 R 2 0 R 0 747 R 2 0 R 1 0 R 0 498 R 2 0 R 2 0 R 0 -996 R 1 0 R
2 0 R 0 -249 R 1 0 R 2 0 R 0 747 R 2 0 R 1 0 R 0 746 R 2 0 R 2 0 R 0 -248 R
1 0 R 2 0 R 0 -249 R 2 0 R 1 0 R 0 -498 R 2 0 R 2 0 R 0 747 R 1 0 R 2 0 R
0 -996 R 2 0 R 1 0 R 0 249 R 2 0 R 1 0 R 0 747 R 2 0 R 2 0 R 0 746 R 1 0 R
2 0 R 0 -1244 R 2 0 R 1 0 R 0 995 R 2 0 R 2 0 R 0 -497 R 1 0 R 2 0 R 0 248 R
2 0 R 1 0 R 0 -497 R 2 0 R 1 0 R 0 -747 R 2 0 R 2 0 R 0 249 R 1 0 R 2 0 R
0 249 R 2 0 R 1 0 R 0 995 R 2 0 R 2 0 R 0 -1742 R 1 0 R 2 0 R 0 249 R 2 0 R
1 0 R 2 0 R 2 0 R 0 747 R 1 0 R 2 0 R 0 -747 R 1 0 R 2 0 R 0 498 R 2 0 R
1 0 R 0 746 R 2 0 R 2 0 R 0 -1493 R 1 0 R 2 0 R 0 1493 R 2 0 R 1 0 R
0 -995 R 2 0 R 2 0 R 0 498 R 1 0 R 2 0 R 0 -747 R 2 0 R 1 0 R 0 249 R 2 0 R
1 0 R 0 249 R 2 0 R 2 0 R 1 0 R 2 0 R 0 -498 R 2 0 R 1 0 R 0 498 R 2 0 R
2 0 R 0 -498 R 1 0 R 2 0 R 0 249 R 2 0 R 1 0 R 2 0 R 2 0 R 0 1493 R 1 0 R
2 0 R 0 -1493 R 1 0 R 2 0 R 0 995 R 2 0 R 1 0 R 0 -995 R 2 0 R 2 0 R 1 0 R
2 0 R 0 249 R 2 0 R 1 0 R 2 0 R 2 0 R 0 -249 R 1 0 R 2 0 R 0 -249 R 2 0 R
1 0 R 0 747 R 2 0 R 1 0 R 0 -498 R 2 0 R 2 0 R 1 0 R 2 0 R 0 249 R 2 0 R
1 0 R 0 498 R 2 0 R 2 0 R 0 248 R 1 0 R 2 0 R 0 -248 R 2 0 R 1 0 R 0 248 R
2 0 R 2 0 R 0 -1493 R 1 0 R 2 0 R 1 0 R 2 0 R 0 1991 R 2 0 R 1 0 R 0 -1742 R
2 0 R 2 0 R 0 1244 R 1 0 R 2 0 R 0 -1493 R 2 0 R 1 0 R 0 1245 R 2 0 R 2 0 R
0 -747 R 1 0 R 2 0 R 0 249 R 2 0 R 1 0 R 2 0 R 1 0 R 0 746 R 2 0 R 2 0 R
0 -1493 R 1 0 R 2 0 R 0 747 R 2 0 R 1 0 R 0 -249 R 2 0 R 2 0 R 1 0 R 2 0 R
0 747 R 2 0 R 1 0 R 0 1244 R 2 0 R 2 0 R 0 -1742 R 1 0 R 2 0 R 0 249 R 1 0 R
2 0 R 0 -498 R 2 0 R 1 0 R 2 0 R 2 0 R 0 995 R 1 0 R 2 0 R 2 0 R 1 0 R
0 -1493 R 2 0 R 2 0 R 1 0 R 2 0 R 0 996 R 2 0 R 1 0 R 0 249 R 2 0 R 1 0 R
0 -498 R 2 0 R 2 0 R 0 -747 R 1 0 R 2 0 R 0 498 R 2 0 R 1 0 R 0 -249 R 2 0 R
2 0 R 0 996 R 1 0 R 2 0 R 0 248 R 2 0 R 1 0 R 0 -248 R 2 0 R 2 0 R 0 -747 R
1 0 R 2 0 R 0 498 R 1 0 R 2 0 R 0 -747 R 2 0 R 1 0 R 2 0 R 2 0 R 0 249 R
1 0 R 2 0 R 0 249 R 2 0 R 1 0 R 0 249 R 2 0 R 2 0 R 0 -249 R 1 0 R 2 0 R
0 498 R 2 0 R 1 0 R 0 -249 R 2 0 R 1 0 R 0 -249 R 2 0 R 2 0 R 1 0 R 2 0 R
0 -249 R 2 0 R 1 0 R 0 -249 R 2 0 R 2 0 R 1 0 R 2 0 R 2 0 R 1 0 R 2 0 R
1 0 R 0 747 R 2 0 R 2 0 R 0 -249 R 1 0 R 2 0 R 0 249 R 2 0 R 1 0 R 0 -249 R
2 0 R 2 0 R 0 249 R 1 0 R 2 0 R 0 -249 R 2 0 R 1 0 R 0 -249 R 2 0 R 2 0 R
0 498 R 1 0 R 2 0 R 0 497 R 1 0 R 2 0 R 0 -995 R 2 0 R 1 0 R 0 498 R 2 0 R
2 0 R 0 -249 R 1 0 R 2 0 R 0 -249 R 2 0 R 1 0 R 0 1493 R 2 0 R 2 0 R
0 -1742 R 1 0 R 2 0 R 0 498 R 2 0 R 1 0 R 0 995 R 2 0 R 1 0 R 0 -1742 R
2 0 R 2 0 R 0 1742 R 1 0 R 2 0 R 0 -746 R 2 0 R 1 0 R 0 -249 R 2 0 R 2 0 R
1 0 R 2 0 R 0 -498 R 2 0 R 1 0 R 0 996 R 2 0 R 2 0 R 0 -498 R 1 0 R 2 0 R
0 498 R 1 0 R 2 0 R 0 -996 R 2 0 R 1 0 R 0 498 R 2 0 R 2 0 R 0 -498 R 1 0 R
2 0 R 0 249 R 2 0 R 1 0 R 0 249 R 2 0 R 2 0 R 0 498 R 1 0 R 2 0 R 0 -996 R
2 0 R 1 0 R 2 0 R 1 0 R 0 498 R 2 0 R 2 0 R 0 -249 R 1 0 R 2 0 R 0 995 R
2 0 R 1 0 R 0 -248 R 2 0 R 2 0 R 0 -498 R 1 0 R 2 0 R 0 995 R 2 0 R 1 0 R
2 0 R 2 0 R 0 -1244 R 1 0 R 2 0 R 0 498 R 1 0 R 2 0 R 0 -498 R 2 0 R 1 0 R
2 0 R 2 0 R 0 1244 R 1 0 R 2 0 R 0 -1244 R 2 0 R 1 0 R 0 249 R 2 0 R 2 0 R
1 0 R 2 0 R 0 -249 R 2 0 R 1 0 R 0 249 R 2 0 R 1 0 R 0 249 R 2 0 R 2 0 R
0 -249 R 1 0 R 2 0 R 0 746 R 2 0 R 1 0 R 0 -1244 R 2 0 R 2 0 R 0 -498 R
1 0 R 2 0 R 0 996 R 2 0 R 1 0 R 0 995 R 2 0 R 2 0 R 0 -1742 R 1 0 R 2 0 R
0 498 R 1 0 R 2 0 R 0 -498 R 2 0 R 1 0 R 0 747 R 2 0 R 2 0 R 0 249 R 1 0 R
2 0 R 2 0 R 1 0 R 0 -498 R 2 0 R 2 0 R 0 -249 R 1 0 R 2 0 R 0 498 R 2 0 R
1 0 R 0 -249 R 2 0 R 1 0 R 0 747 R 2 0 R 2 0 R 0 -498 R 1 0 R 2 0 R 2 0 R
1 0 R 0 -249 R 2 0 R 2 0 R 0 -249 R 1 0 R 2 0 R 0 249 R 2 0 R 1 0 R 0 1244 R
2 0 R 2 0 R 0 -249 R 1 0 R 2 0 R 0 -1244 R 1 0 R 2 0 R 2 0 R 1 0 R 0 249 R
2 0 R 2 0 R 0 498 R 1 0 R 2 0 R 0 -996 R 2 0 R 1 0 R 0 996 R 2 0 R 2 0 R
0 -249 R 1 0 R 2 0 R 0 -249 R 2 0 R 1 0 R 0 747 R 2 0 R 1 0 R 0 -498 R 2 0 R
2 0 R 0 249 R 1 0 R 2 0 R 2 0 R 1 0 R 0 -498 R 2 0 R 2 0 R 1 0 R 2 0 R
0 -249 R 2 0 R 1 0 R 0 1244 R 2 0 R 2 0 R 0 -995 R 1 0 R 2 0 R 0 747 R 1 0 R
2 0 R 0 -498 R 2 0 R 1 0 R 0 -747 R 2 0 R 2 0 R 0 498 R 1 0 R 2 0 R 0 747 R
2 0 R 1 0 R 0 -747 R 2 0 R 2 0 R 1 0 R 2 0 R 0 -498 R 1 0 R 2 0 R 0 747 R
2 0 R 1 0 R 0 -498 R 2 0 R 2 0 R 0 1991 R 1 0 R 2 0 R 0 -1742 R 2 0 R 1 0 R
0 249 R 2 0 R 2 0 R 1 0 R 2 0 R 0 -498 R 2 0 R 1 0 R 0 747 R 2 0 R 1 0 R
0 497 R 2 0 R 2 0 R 1 0 R 2 0 R 0 -746 R 2 0 R 1 0 R 0 498 R 2 0 R 2 0 R D
13727 3324 M 0 -747 R 1 0 R 2 0 R 0 249 R 2 0 R 1 0 R 0 498 R 2 0 R 2 0 R
0 -498 R 1 0 R 2 0 R 0 -498 R 1 0 R 2 0 R 2 0 R 1 0 R 0 747 R 2 0 R 2 0 R
0 -498 R 1 0 R 2 0 R 0 747 R 2 0 R 1 0 R 0 -1494 R 2 0 R 2 0 R 0 1245 R
1 0 R 2 0 R 0 249 R 2 0 R 1 0 R 0 -747 R 2 0 R 1 0 R 0 -498 R 2 0 R 2 0 R
0 249 R 1 0 R 2 0 R 0 996 R 2 0 R 1 0 R 0 -747 R 2 0 R 2 0 R 0 995 R 1 0 R
2 0 R 0 -1493 R 2 0 R 1 0 R 0 747 R 2 0 R 2 0 R 0 746 R 1 0 R 2 0 R 0 -995 R
1 0 R 2 0 R 0 249 R 2 0 R 1 0 R 0 -249 R 2 0 R 2 0 R 0 1493 R 1 0 R 2 0 R
0 -1244 R 2 0 R 1 0 R 0 249 R 2 0 R 2 0 R 1 0 R 2 0 R 0 -498 R 2 0 R 1 0 R
2 0 R 1 0 R 0 747 R 2 0 R 2 0 R 0 -249 R 1 0 R 2 0 R 0 -747 R 2 0 R 1 0 R
0 498 R 2 0 R 2 0 R 0 -249 R 1 0 R 2 0 R 2 0 R 1 0 R 0 249 R 2 0 R 2 0 R
0 -249 R 1 0 R 2 0 R 0 -249 R 1 0 R 2 0 R 0 249 R 2 0 R 1 0 R 0 -498 R 2 0 R
2 0 R 0 1245 R 1 0 R 2 0 R 2 0 R 1 0 R 0 -1245 R 2 0 R 2 0 R 0 249 R 1 0 R
2 0 R 0 249 R 2 0 R 1 0 R 0 249 R 2 0 R 1 0 R 0 -747 R 2 0 R 2 0 R 0 249 R
1 0 R 2 0 R 2 0 R 1 0 R 0 249 R 2 0 R 2 0 R 0 249 R 1 0 R 2 0 R 2 0 R 1 0 R
2 0 R 2 0 R 0 -747 R 1 0 R 2 0 R 0 996 R 1 0 R 2 0 R 2 0 R 1 0 R 0 -498 R
2 0 R 2 0 R 0 498 R 1 0 R 2 0 R 0 -747 R 2 0 R 1 0 R 0 -249 R 2 0 R 2 0 R
0 249 R 1 0 R 2 0 R 0 996 R 2 0 R 1 0 R 0 -249 R 2 0 R 1 0 R 0 -996 R 2 0 R
2 0 R 0 498 R 1 0 R 2 0 R 0 -249 R 2 0 R 1 0 R 0 996 R 2 0 R 2 0 R 0 -498 R
1 0 R 2 0 R 0 -498 R 2 0 R 1 0 R 2 0 R 2 0 R 0 249 R 1 0 R 2 0 R 0 498 R
1 0 R 2 0 R 0 -747 R 2 0 R 1 0 R 0 747 R 2 0 R 2 0 R 0 -249 R 1 0 R 2 0 R
0 249 R 2 0 R 1 0 R 0 -747 R 2 0 R 2 0 R 0 498 R 1 0 R 2 0 R 0 249 R 2 0 R
1 0 R 0 249 R 2 0 R 1 0 R 0 -996 R 2 0 R 2 0 R 0 249 R 1 0 R 2 0 R 0 -249 R
2 0 R 1 0 R 0 996 R 2 0 R 2 0 R 0 -249 R 1 0 R 2 0 R 0 -747 R 2 0 R 1 0 R
0 996 R 2 0 R 1 0 R 0 -249 R 2 0 R 2 0 R 0 -747 R 1 0 R 2 0 R 2 0 R 1 0 R
0 747 R 2 0 R 2 0 R 0 -996 R 1 0 R 2 0 R 0 498 R 2 0 R 1 0 R 0 747 R 2 0 R
2 0 R 0 -996 R 1 0 R 2 0 R 0 747 R 1 0 R 2 0 R 0 -498 R 2 0 R 1 0 R 0 -249 R
2 0 R 2 0 R 0 249 R 1 0 R 2 0 R 0 1742 R 2 0 R 1 0 R 0 -995 R 2 0 R 2 0 R
0 -498 R 1 0 R 2 0 R 0 -498 R 2 0 R 1 0 R 2 0 R 1 0 R 0 -498 R 2 0 R 2 0 R
0 747 R 1 0 R 2 0 R 0 -498 R 2 0 R 1 0 R 0 498 R 2 0 R 2 0 R 1 0 R 2 0 R
0 -498 R 2 0 R 1 0 R 0 747 R 2 0 R 2 0 R 1 0 R 2 0 R 0 498 R 1 0 R 2 0 R
0 -498 R 2 0 R 1 0 R 0 -249 R 2 0 R 2 0 R 1 0 R 2 0 R 0 249 R 2 0 R 1 0 R
0 -249 R 2 0 R 2 0 R 0 498 R 1 0 R 2 0 R 0 249 R 2 0 R 1 0 R 0 -996 R 2 0 R
1 0 R 0 747 R 2 0 R 2 0 R 0 497 R 1 0 R 2 0 R 0 -995 R 2 0 R 1 0 R 0 -747 R
2 0 R 2 0 R 0 996 R 1 0 R 2 0 R 0 -249 R 2 0 R 1 0 R 0 498 R 2 0 R 2 0 R
0 -747 R 1 0 R 2 0 R 0 249 R 1 0 R 2 0 R 0 -249 R 2 0 R 1 0 R 0 996 R 2 0 R
2 0 R 0 -996 R 1 0 R 2 0 R 2 0 R 1 0 R 0 249 R 2 0 R 2 0 R 0 498 R 1 0 R
2 0 R 0 -996 R 2 0 R 1 0 R 0 498 R 2 0 R 1 0 R 0 -249 R 2 0 R 2 0 R 0 996 R
1 0 R 2 0 R 2 0 R 1 0 R 0 -1245 R 2 0 R 2 0 R 0 747 R 1 0 R 2 0 R 0 249 R
2 0 R 1 0 R 2 0 R 2 0 R 0 -498 R 1 0 R 2 0 R 0 249 R 1 0 R 2 0 R 0 -249 R
2 0 R 1 0 R 0 249 R 2 0 R 2 0 R 0 -996 R 1 0 R 2 0 R 2 0 R 1 0 R 0 249 R
2 0 R 2 0 R 0 996 R 1 0 R 2 0 R 0 249 R 2 0 R 1 0 R 0 -996 R 2 0 R 1 0 R
0 747 R 2 0 R 2 0 R 0 -249 R 1 0 R 2 0 R 0 -498 R 2 0 R 1 0 R 0 996 R 2 0 R
2 0 R 1 0 R 2 0 R 0 -1245 R 2 0 R 1 0 R 0 747 R 2 0 R 2 0 R 0 249 R 1 0 R
2 0 R 1 0 R 2 0 R 0 -1245 R 2 0 R 1 0 R 0 1245 R 2 0 R 2 0 R 0 249 R 1 0 R
2 0 R 0 -1245 R 2 0 R 1 0 R 0 1245 R 2 0 R 2 0 R 0 -996 R 1 0 R 2 0 R
0 498 R 2 0 R 1 0 R 0 746 R 2 0 R 1 0 R 0 -1742 R 2 0 R 2 0 R 0 996 R 1 0 R
2 0 R 0 -249 R 2 0 R 1 0 R 2 0 R 2 0 R 0 249 R 1 0 R 2 0 R 0 249 R 2 0 R
1 0 R 0 -498 R 2 0 R 2 0 R 0 498 R 1 0 R 2 0 R 0 -249 R 1 0 R 2 0 R 0 -747 R
2 0 R 1 0 R 0 747 R 2 0 R 2 0 R 0 -249 R 1 0 R 2 0 R 2 0 R 1 0 R 0 249 R
2 0 R 2 0 R 0 -249 R 1 0 R 2 0 R 0 -249 R 1 0 R 2 0 R 0 498 R 2 0 R 1 0 R
0 -249 R 2 0 R 2 0 R 0 -498 R 1 0 R 2 0 R 0 747 R 2 0 R 1 0 R 0 -249 R 2 0 R
2 0 R 0 -498 R 1 0 R 2 0 R 0 249 R 2 0 R 1 0 R 0 498 R 2 0 R 1 0 R 0 249 R
2 0 R 2 0 R 0 -747 R 1 0 R 2 0 R 0 249 R 2 0 R 1 0 R 2 0 R 2 0 R 0 747 R
1 0 R 2 0 R 2 0 R 1 0 R 0 -249 R 2 0 R 2 0 R 1 0 R 2 0 R 1 0 R 2 0 R
0 -249 R 2 0 R 1 0 R 0 249 R 2 0 R 2 0 R 0 -498 R 1 0 R 2 0 R 0 498 R 2 0 R
1 0 R 0 -747 R 2 0 R 2 0 R 0 -249 R 1 0 R 2 0 R 0 747 R 2 0 R 1 0 R 0 249 R
2 0 R 1 0 R 0 249 R 2 0 R 2 0 R 0 -996 R 1 0 R 2 0 R 0 -249 R 2 0 R 1 0 R
0 498 R 2 0 R 2 0 R 0 995 R 1 0 R 2 0 R 2 0 R 1 0 R 0 -1244 R 2 0 R 2 0 R
0 498 R 1 0 R 2 0 R 0 -498 R 1 0 R 2 0 R 0 498 R 2 0 R 1 0 R 0 -249 R 2 0 R
2 0 R 0 249 R 1 0 R 2 0 R 0 -996 R 2 0 R 1 0 R 0 996 R 2 0 R 2 0 R 0 -498 R
1 0 R 2 0 R 0 996 R 2 0 R 1 0 R 0 -996 R 2 0 R 1 0 R 0 1493 R 2 0 R 2 0 R
0 -1244 R 1 0 R 2 0 R 0 -498 R 2 0 R 1 0 R 0 1493 R 2 0 R 2 0 R 0 -1493 R
1 0 R 2 0 R 2 0 R 1 0 R 0 1245 R 2 0 R 2 0 R 0 497 R 1 0 R 2 0 R 0 -1742 R
1 0 R 2 0 R 0 498 R 2 0 R 1 0 R 0 -249 R 2 0 R 2 0 R 0 747 R 1 0 R 2 0 R
0 -498 R 2 0 R 1 0 R 0 249 R 2 0 R 2 0 R 0 -249 R 1 0 R 2 0 R 2 0 R 1 0 R
0 498 R 2 0 R 1 0 R 0 -498 R 2 0 R 2 0 R 0 249 R 1 0 R 2 0 R 0 249 R 2 0 R
1 0 R 0 249 R 2 0 R 2 0 R 0 -996 R 1 0 R 2 0 R 0 249 R 2 0 R 1 0 R 0 249 R
2 0 R 2 0 R 0 249 R 1 0 R 2 0 R 0 -747 R 1 0 R 2 0 R 0 996 R 2 0 R 1 0 R
0 -747 R 2 0 R 2 0 R 0 249 R 1 0 R 2 0 R D 14583 2826 M 0 -249 R 2 0 R 1 0 R
0 -249 R 2 0 R 2 0 R 0 1244 R 1 0 R 2 0 R 0 -1244 R 2 0 R 1 0 R 0 -249 R
2 0 R 1 0 R 0 498 R 2 0 R 2 0 R 0 498 R 1 0 R 2 0 R 0 -747 R 2 0 R 1 0 R
0 249 R 2 0 R 2 0 R 0 249 R 1 0 R 2 0 R 0 249 R 2 0 R 1 0 R 0 -249 R 2 0 R
2 0 R 1 0 R 2 0 R 0 249 R 1 0 R 2 0 R 0 249 R 2 0 R 1 0 R 0 -747 R 2 0 R
2 0 R 0 747 R 1 0 R 2 0 R 0 -498 R 2 0 R 1 0 R 2 0 R 2 0 R 1 0 R 2 0 R
0 -996 R 2 0 R 1 0 R 0 747 R 2 0 R 1 0 R 2 0 R 2 0 R 1 0 R 2 0 R 0 747 R
2 0 R 1 0 R 0 -498 R 2 0 R 2 0 R 1 0 R 2 0 R 2 0 R 1 0 R 0 -498 R 2 0 R
1 0 R 0 -249 R 2 0 R 2 0 R 0 996 R 1 0 R 2 0 R 0 -1245 R 2 0 R 1 0 R 0 996 R
2 0 R 2 0 R 0 -498 R 1 0 R 2 0 R 0 1493 R 2 0 R 1 0 R 0 -746 R 2 0 R 2 0 R
0 -498 R 1 0 R 2 0 R 1 0 R 2 0 R 0 -498 R 2 0 R 1 0 R 0 1245 R 2 0 R 2 0 R
1 0 R 2 0 R 0 -1245 R 2 0 R 1 0 R 0 1245 R 2 0 R 2 0 R 0 -996 R 1 0 R 2 0 R
0 249 R 2 0 R 1 0 R 0 249 R 2 0 R 1 0 R 0 -249 R 2 0 R 2 0 R 0 747 R 1 0 R
2 0 R 2 0 R 1 0 R 0 -996 R 2 0 R 2 0 R 0 747 R 1 0 R 2 0 R 0 -498 R 2 0 R
1 0 R 0 249 R 2 0 R 2 0 R 0 1244 R 1 0 R 2 0 R 0 -1493 R 1 0 R 2 0 R
0 -747 R 2 0 R 1 0 R 0 1245 R 2 0 R 2 0 R 0 -249 R 1 0 R 2 0 R 0 -249 R
2 0 R 1 0 R 0 249 R 2 0 R 2 0 R 1 0 R 2 0 R 0 249 R 2 0 R 1 0 R 2 0 R 1 0 R
0 -747 R 2 0 R 2 0 R 1 0 R 2 0 R 0 747 R 2 0 R 1 0 R 0 -996 R 2 0 R 2 0 R
0 498 R 1 0 R 2 0 R 0 747 R 2 0 R 1 0 R 0 -747 R 2 0 R 2 0 R 0 249 R 1 0 R
2 0 R 0 -249 R 1 0 R 2 0 R 2 0 R 1 0 R 2 0 R 2 0 R 0 249 R 1 0 R 2 0 R
0 -498 R 2 0 R 1 0 R 0 996 R 2 0 R 2 0 R 0 -249 R 1 0 R 2 0 R 0 -498 R 2 0 R
1 0 R 0 -249 R 2 0 R 1 0 R 0 996 R 2 0 R 2 0 R 0 248 R 1 0 R 2 0 R 0 -1493 R
2 0 R 1 0 R 0 747 R 2 0 R 2 0 R 1 0 R 2 0 R 0 1493 R 2 0 R 1 0 R 0 -1244 R
2 0 R 2 0 R 0 -498 R 1 0 R 2 0 R 1 0 R 2 0 R 0 -249 R 2 0 R 1 0 R 2 0 R
2 0 R 0 498 R 1 0 R 2 0 R 0 498 R 2 0 R 1 0 R 0 -996 R 2 0 R 2 0 R 0 249 R
1 0 R 2 0 R 2 0 R 1 0 R 2 0 R 1 0 R 2 0 R 2 0 R 0 -498 R 1 0 R 2 0 R 2 0 R
1 0 R 0 747 R 2 0 R 2 0 R 0 -498 R 1 0 R 2 0 R 0 249 R 2 0 R 1 0 R 0 -249 R
2 0 R 2 0 R 1 0 R 2 0 R 1 0 R 2 0 R 2 0 R 1 0 R 0 498 R 2 0 R 2 0 R 0 -498 R
1 0 R 2 0 R 2 0 R 1 0 R 0 249 R 2 0 R 2 0 R 0 498 R 1 0 R 2 0 R 0 -996 R
2 0 R 1 0 R 0 249 R 2 0 R 1 0 R 0 747 R 2 0 R 2 0 R 0 -498 R 1 0 R 2 0 R
2 0 R 1 0 R 0 995 R 2 0 R 2 0 R 1 0 R 2 0 R 0 -497 R 2 0 R 1 0 R 0 -498 R
2 0 R 1 0 R 0 -249 R 2 0 R 2 0 R 0 996 R 1 0 R 2 0 R 0 -498 R 2 0 R 1 0 R
0 -249 R 2 0 R 2 0 R 0 747 R 1 0 R 2 0 R 0 -1245 R 2 0 R 1 0 R 0 747 R 2 0 R
2 0 R 0 -249 R 1 0 R 2 0 R 0 -498 R 1 0 R 2 0 R 0 498 R 2 0 R 1 0 R 0 -747 R
2 0 R 2 0 R 0 996 R 1 0 R 2 0 R 0 1244 R 2 0 R 1 0 R 0 -1742 R 2 0 R 2 0 R
1 0 R 2 0 R 0 498 R 2 0 R 1 0 R 0 -249 R 2 0 R 1 0 R 2 0 R 2 0 R 0 -249 R
1 0 R 2 0 R 0 1244 R 2 0 R 1 0 R 0 -995 R 2 0 R 2 0 R 1 0 R 2 0 R 0 -747 R
2 0 R 1 0 R 0 498 R 2 0 R 2 0 R 0 747 R 1 0 R 2 0 R 0 -747 R 1 0 R 2 0 R
0 498 R 2 0 R 1 0 R 0 498 R 2 0 R 2 0 R 0 -249 R 1 0 R 2 0 R 0 -747 R 2 0 R
1 0 R 2 0 R 2 0 R 0 498 R 1 0 R 2 0 R 0 249 R 2 0 R 1 0 R 0 -498 R 2 0 R
1 0 R 0 -249 R 2 0 R 2 0 R 0 249 R 1 0 R 2 0 R 0 1244 R 2 0 R 1 0 R 0 -497 R
2 0 R 2 0 R 0 248 R 1 0 R 2 0 R 0 -1244 R 2 0 R 1 0 R 0 498 R 2 0 R 2 0 R
1 0 R 2 0 R 0 498 R 1 0 R 2 0 R 0 -1245 R 2 0 R 1 0 R 2 0 R 2 0 R 0 249 R
1 0 R 2 0 R 0 498 R 2 0 R 1 0 R 0 249 R 2 0 R 2 0 R 0 497 R 1 0 R 2 0 R
0 -497 R 2 0 R 1 0 R 2 0 R 1 0 R 0 -249 R 2 0 R 2 0 R 0 -498 R 1 0 R 2 0 R
0 747 R 2 0 R 1 0 R 0 249 R 2 0 R 2 0 R 0 -498 R 1 0 R 2 0 R 0 249 R 2 0 R
1 0 R 2 0 R 2 0 R 0 -747 R 1 0 R 2 0 R 1 0 R 2 0 R 0 249 R 2 0 R 1 0 R 2 0 R
2 0 R 0 747 R 1 0 R 2 0 R 0 -747 R 2 0 R 1 0 R 0 -249 R 2 0 R 2 0 R 0 -498 R
1 0 R 2 0 R 0 996 R 2 0 R 1 0 R 0 498 R 2 0 R 1 0 R 2 0 R 2 0 R 0 -996 R
1 0 R 2 0 R 0 249 R 2 0 R 1 0 R 2 0 R 2 0 R 1 0 R 2 0 R 0 -249 R 2 0 R 1 0 R
0 1493 R 2 0 R 2 0 R 0 -995 R 1 0 R 2 0 R 0 249 R 1 0 R 2 0 R 0 -249 R 2 0 R
1 0 R 0 498 R 2 0 R 2 0 R 0 -1494 R 1 0 R 2 0 R 0 747 R 2 0 R 1 0 R 0 -249 R
2 0 R 2 0 R 0 249 R 1 0 R 2 0 R 0 747 R 2 0 R 1 0 R 2 0 R 1 0 R 0 -747 R
2 0 R 2 0 R 0 498 R 1 0 R 2 0 R 0 -747 R 2 0 R 1 0 R 0 249 R 2 0 R 2 0 R
0 -498 R 1 0 R 2 0 R 2 0 R 1 0 R 0 747 R 2 0 R 2 0 R 1 0 R 2 0 R 1 0 R 2 0 R
0 -249 R 2 0 R 1 0 R 0 -249 R 2 0 R 2 0 R 0 -249 R 1 0 R 2 0 R 0 996 R 2 0 R
1 0 R 0 497 R 2 0 R 2 0 R 0 -746 R 1 0 R 2 0 R 0 -498 R 1 0 R 2 0 R 0 249 R
2 0 R 1 0 R 2 0 R 2 0 R 0 249 R 1 0 R 2 0 R 0 498 R 2 0 R 1 0 R 2 0 R 2 0 R
0 497 R 1 0 R 2 0 R 0 -1244 R 2 0 R 1 0 R 0 249 R 2 0 R 1 0 R 0 249 R 2 0 R
2 0 R 0 249 R 1 0 R 2 0 R 0 -747 R 2 0 R 1 0 R 0 498 R 2 0 R 2 0 R 1 0 R
2 0 R 0 -249 R 2 0 R 1 0 R 0 -498 R 2 0 R 2 0 R 1 0 R 2 0 R 0 498 R 1 0 R
2 0 R 0 249 R 2 0 R 1 0 R 0 -498 R 2 0 R 2 0 R 0 498 R 1 0 R 2 0 R 0 -498 R
2 0 R 1 0 R 2 0 R 2 0 R 0 249 R 1 0 R 2 0 R 0 249 R 2 0 R 1 0 R 0 -498 R
2 0 R 1 0 R 0 -747 R 2 0 R 2 0 R 0 1494 R 1 0 R 2 0 R 0 -996 R 2 0 R 1 0 R
0 249 R 2 0 R 2 0 R 1 0 R 2 0 R 0 498 R 2 0 R 1 0 R 0 497 R 2 0 R 2 0 R
0 -1244 R 1 0 R 2 0 R 0 498 R 1 0 R 2 0 R 0 -249 R 2 0 R 1 0 R 2 0 R 2 0 R
0 -498 R 1 0 R 2 0 R 0 1245 R 2 0 R 1 0 R 0 -996 R 2 0 R 2 0 R 0 498 R 1 0 R
2 0 R 0 249 R 2 0 R 1 0 R 0 249 R 2 0 R 1 0 R 0 -249 R 2 0 R 2 0 R 0 -498 R
1 0 R 2 0 R 2 0 R 1 0 R 2 0 R 2 0 R D 15466 2577 M 0 -249 R 1 0 R 2 0 R
0 -249 R 2 0 R 1 0 R 0 1245 R 2 0 R 2 0 R 0 -996 R 1 0 R 2 0 R 1 0 R 2 0 R
2 0 R 1 0 R 2 0 R 2 0 R 0 1244 R 1 0 R 2 0 R 0 -497 R 2 0 R 1 0 R 0 249 R
2 0 R 2 0 R 0 -1245 R 1 0 R 2 0 R 0 498 R 2 0 R 1 0 R 0 -249 R 2 0 R 1 0 R
0 249 R 2 0 R 2 0 R 0 1244 R 1 0 R 2 0 R 0 249 R 2 0 R 1 0 R 0 -1742 R 2 0 R
2 0 R 0 249 R 1 0 R 2 0 R 0 249 R 2 0 R 1 0 R 0 -498 R 2 0 R 2 0 R 0 249 R
1 0 R 2 0 R 0 747 R 1 0 R 2 0 R 0 497 R 2 0 R 1 0 R 0 -1493 R 2 0 R 2 0 R
0 249 R 1 0 R 2 0 R 0 -249 R 2 0 R 1 0 R 0 249 R 2 0 R 2 0 R 0 -498 R 1 0 R
2 0 R 0 498 R 2 0 R 1 0 R 0 747 R 2 0 R 1 0 R 0 -747 R 2 0 R 2 0 R 0 249 R
1 0 R 2 0 R 0 -249 R 2 0 R 1 0 R 0 995 R 2 0 R 2 0 R 0 -497 R 1 0 R 2 0 R
0 -747 R 2 0 R 1 0 R 0 747 R 2 0 R 2 0 R 0 -498 R 1 0 R 2 0 R 1 0 R 2 0 R
2 0 R 1 0 R 0 -498 R 2 0 R 2 0 R 0 249 R 1 0 R 2 0 R 0 -498 R 2 0 R 1 0 R
0 747 R 2 0 R 2 0 R 0 995 R 1 0 R 2 0 R 0 -1493 R 2 0 R 1 0 R 0 498 R 2 0 R
1 0 R 0 -498 R 2 0 R 2 0 R 1 0 R 2 0 R 0 249 R 2 0 R 1 0 R 0 249 R 2 0 R
2 0 R 1 0 R 2 0 R 2 0 R 1 0 R 0 -249 R 2 0 R 1 0 R 0 1244 R 2 0 R 2 0 R
0 -1244 R 1 0 R 2 0 R 0 498 R 2 0 R 1 0 R 2 0 R 2 0 R 0 -996 R 1 0 R 2 0 R
0 1245 R 2 0 R 1 0 R 2 0 R 2 0 R 0 -249 R 1 0 R 2 0 R 0 -498 R 1 0 R 2 0 R
0 1493 R 2 0 R 1 0 R 0 -1493 R 2 0 R 2 0 R 0 996 R 1 0 R 2 0 R 0 -996 R
2 0 R 1 0 R 0 249 R 2 0 R 2 0 R 1 0 R 2 0 R 0 498 R 2 0 R 1 0 R 0 -747 R
2 0 R 1 0 R 0 747 R 2 0 R 2 0 R 1 0 R 2 0 R 0 497 R 2 0 R 1 0 R 0 -497 R
2 0 R 2 0 R 1 0 R 2 0 R 0 -249 R 2 0 R 1 0 R 2 0 R 2 0 R 0 -249 R 1 0 R
2 0 R 0 -249 R 1 0 R 2 0 R 0 -249 R 2 0 R 1 0 R 0 996 R 2 0 R 2 0 R 0 746 R
1 0 R 2 0 R 0 -1244 R 2 0 R 1 0 R 2 0 R 2 0 R 0 249 R 1 0 R 2 0 R 0 -249 R
2 0 R 1 0 R 0 498 R 2 0 R 1 0 R 0 -498 R 2 0 R 2 0 R 0 -747 R 1 0 R 2 0 R
0 996 R 2 0 R 1 0 R 0 -498 R 2 0 R 2 0 R 0 249 R 1 0 R 2 0 R 0 -747 R 2 0 R
1 0 R 0 996 R 2 0 R 2 0 R 0 249 R 1 0 R 2 0 R 0 -996 R 1 0 R 2 0 R 0 996 R
2 0 R 1 0 R 0 497 R 2 0 R 2 0 R 0 -497 R 1 0 R 2 0 R 0 -1245 R 2 0 R 1 0 R
0 747 R 2 0 R 2 0 R 1 0 R 2 0 R 0 -249 R 2 0 R 1 0 R 0 249 R 2 0 R 1 0 R
0 498 R 2 0 R 2 0 R 0 -249 R 1 0 R 2 0 R 0 249 R 2 0 R 1 0 R 2 0 R 2 0 R
0 -498 R 1 0 R 2 0 R 0 -249 R 2 0 R 1 0 R 0 249 R 2 0 R 2 0 R 0 -249 R 1 0 R
2 0 R 0 498 R 1 0 R 2 0 R 0 -498 R 2 0 R 1 0 R 0 249 R 2 0 R 2 0 R 0 747 R
1 0 R 2 0 R 0 -249 R 2 0 R 1 0 R 0 497 R 2 0 R 2 0 R 0 -746 R 1 0 R 2 0 R
0 -498 R 2 0 R 1 0 R 0 249 R 2 0 R 1 0 R 2 0 R 2 0 R 0 747 R 1 0 R 2 0 R
0 497 R 2 0 R 1 0 R 0 -995 R 2 0 R 2 0 R 0 249 R 1 0 R 2 0 R 0 -249 R 2 0 R
1 0 R 2 0 R 2 0 R 0 498 R 1 0 R 2 0 R 0 -996 R 1 0 R 2 0 R 0 249 R 2 0 R
1 0 R 0 -249 R 2 0 R 2 0 R 0 249 R 1 0 R 2 0 R 0 747 R 2 0 R 1 0 R 0 -996 R
2 0 R 2 0 R 0 -498 R 1 0 R 2 0 R 0 1245 R 2 0 R 1 0 R 0 -747 R 2 0 R 1 0 R
0 996 R 2 0 R 2 0 R 0 -747 R 1 0 R 2 0 R 0 249 R 2 0 R 1 0 R 2 0 R 2 0 R
0 746 R 1 0 R 2 0 R 0 -497 R 2 0 R 1 0 R 0 -249 R 2 0 R 2 0 R 0 -498 R 1 0 R
2 0 R 0 -249 R 1 0 R 2 0 R 0 2240 R 2 0 R 1 0 R 0 -1244 R 2 0 R 2 0 R
0 -747 R 1 0 R 2 0 R 0 996 R 2 0 R 1 0 R 0 497 R 2 0 R 2 0 R 0 -1244 R 1 0 R
2 0 R 1 0 R 2 0 R 0 -249 R 2 0 R 1 0 R 0 747 R 2 0 R 2 0 R 0 -498 R 1 0 R
2 0 R 0 249 R 2 0 R 1 0 R 0 -747 R 2 0 R 2 0 R 0 498 R 1 0 R 2 0 R 0 1244 R
2 0 R 1 0 R 0 -1493 R 2 0 R 1 0 R 0 747 R 2 0 R 2 0 R 0 -249 R 1 0 R 2 0 R
0 249 R 2 0 R 1 0 R 0 -996 R 2 0 R 2 0 R 0 747 R 1 0 R 2 0 R 2 0 R 1 0 R
0 -996 R 2 0 R 2 0 R 0 1245 R 1 0 R 2 0 R 1 0 R 2 0 R 0 -996 R 2 0 R 1 0 R
0 996 R 2 0 R 2 0 R 0 -498 R 1 0 R 2 0 R 2 0 R 1 0 R 0 -249 R 2 0 R 2 0 R
1 0 R 2 0 R 0 996 R 2 0 R 1 0 R 0 248 R 2 0 R 1 0 R 0 -995 R 2 0 R 2 0 R
0 249 R 1 0 R 2 0 R 0 249 R 2 0 R 1 0 R 2 0 R 2 0 R 0 -996 R 1 0 R 2 0 R
0 747 R 2 0 R 1 0 R 0 -498 R 2 0 R 2 0 R 0 747 R 1 0 R 2 0 R 0 -498 R 1 0 R
2 0 R 2 0 R 1 0 R 0 747 R 2 0 R 2 0 R 1 0 R 2 0 R 0 -747 R 2 0 R 1 0 R
0 995 R 2 0 R 2 0 R 1 0 R 2 0 R 0 -497 R 2 0 R 1 0 R 0 -747 R 2 0 R 1 0 R
0 249 R 2 0 R 2 0 R 0 -498 R 1 0 R 2 0 R 0 1245 R 2 0 R 1 0 R 2 0 R 2 0 R
0 -747 R 1 0 R 2 0 R 0 -249 R 2 0 R 1 0 R 0 249 R 2 0 R 2 0 R 0 747 R 1 0 R
2 0 R 1 0 R 2 0 R 2 0 R 1 0 R 0 -498 R 2 0 R 2 0 R 0 -996 R 1 0 R 2 0 R
0 747 R 2 0 R 1 0 R 0 1493 R 2 0 R 2 0 R 0 -995 R 1 0 R 2 0 R 0 746 R 2 0 R
1 0 R 0 -249 R 2 0 R 1 0 R 0 -746 R 2 0 R 2 0 R 0 -249 R 1 0 R 2 0 R 0 249 R
2 0 R 1 0 R 0 -996 R 2 0 R 2 0 R 0 249 R 1 0 R 2 0 R 0 249 R 2 0 R 1 0 R
0 -249 R 2 0 R 2 0 R 1 0 R 2 0 R 0 249 R 1 0 R 2 0 R 0 747 R 2 0 R 1 0 R
0 -498 R 2 0 R 2 0 R 0 995 R 1 0 R 2 0 R 0 -995 R 2 0 R 1 0 R 0 747 R 2 0 R
2 0 R 0 -1245 R 1 0 R 2 0 R 0 996 R 2 0 R 1 0 R 0 -747 R 2 0 R 1 0 R 0 747 R
2 0 R 2 0 R 0 -747 R 1 0 R 2 0 R 0 747 R 2 0 R 1 0 R 0 -249 R 2 0 R 2 0 R
0 746 R 1 0 R 2 0 R 0 -1244 R 2 0 R 1 0 R 0 249 R 2 0 R 2 0 R 0 -747 R 1 0 R
2 0 R 0 1742 R 1 0 R 2 0 R 0 -995 R 2 0 R 1 0 R 0 -747 R 2 0 R 2 0 R 0 996 R
1 0 R 2 0 R 0 -498 R 2 0 R 1 0 R 0 249 R 2 0 R 2 0 R 0 -249 R 1 0 R 2 0 R
0 747 R 2 0 R 1 0 R 0 -498 R 2 0 R 1 0 R 0 -249 R 2 0 R 2 0 R 0 -249 R 1 0 R
2 0 R 0 996 R 2 0 R 1 0 R 0 -249 R 2 0 R 2 0 R 0 -747 R 1 0 R 2 0 R 0 1245 R
2 0 R 1 0 R 0 -747 R 2 0 R 1 0 R 0 995 R 2 0 R 2 0 R 0 -1244 R 1 0 R 2 0 R
0 747 R 2 0 R 1 0 R 2 0 R 2 0 R 1 0 R 2 0 R 0 -996 R 2 0 R 1 0 R 0 747 R
2 0 R D 16327 2826 M 2 0 R 1 0 R 2 0 R 1 0 R 2 0 R 2 0 R 1 0 R 2 0 R 2 0 R
0 -498 R 1 0 R 2 0 R 0 249 R 2 0 R 1 0 R 0 498 R 2 0 R 2 0 R 0 -498 R 1 0 R
2 0 R 0 -498 R 2 0 R 1 0 R 0 747 R 2 0 R 1 0 R 0 -498 R 2 0 R 2 0 R 1 0 R
2 0 R 0 249 R 2 0 R 1 0 R 0 249 R 2 0 R 2 0 R 0 249 R 1 0 R 2 0 R 0 497 R
2 0 R 1 0 R 0 -1244 R 2 0 R 2 0 R 0 498 R 1 0 R 2 0 R 0 -498 R 1 0 R 2 0 R
0 -249 R 2 0 R 1 0 R 0 498 R 2 0 R 2 0 R 0 -747 R 1 0 R 2 0 R 0 498 R 2 0 R
1 0 R 0 249 R 2 0 R 2 0 R 0 -498 R 1 0 R 2 0 R 0 1245 R 2 0 R 1 0 R 0 -498 R
2 0 R 1 0 R 0 995 R 2 0 R 2 0 R 0 -995 R 1 0 R 2 0 R 0 498 R 2 0 R 1 0 R
0 -996 R 2 0 R 2 0 R 0 -498 R 1 0 R 2 0 R 0 747 R 2 0 R 1 0 R 0 747 R 2 0 R
2 0 R 0 -498 R 1 0 R 2 0 R 0 -249 R 1 0 R 2 0 R 0 995 R 2 0 R 1 0 R 0 -248 R
2 0 R 2 0 R 0 -747 R 1 0 R 2 0 R 0 -498 R 2 0 R 1 0 R 0 249 R 2 0 R 2 0 R
0 747 R 1 0 R 2 0 R 0 249 R 2 0 R 1 0 R 2 0 R 1 0 R 0 -996 R 2 0 R 2 0 R
0 249 R 1 0 R 2 0 R 0 -249 R 2 0 R 1 0 R 0 249 R 2 0 R 2 0 R 0 249 R 1 0 R
2 0 R 2 0 R 1 0 R 2 0 R 2 0 R 0 498 R 1 0 R 2 0 R 0 -747 R 1 0 R 2 0 R 2 0 R
1 0 R 0 1244 R 2 0 R 2 0 R 0 -995 R 1 0 R 2 0 R 0 249 R 2 0 R 1 0 R 0 -747 R
2 0 R 2 0 R 0 -498 R 1 0 R 2 0 R 0 1494 R 2 0 R 1 0 R 0 -249 R 2 0 R 1 0 R
0 -498 R 2 0 R 2 0 R 0 -249 R 1 0 R 2 0 R 0 996 R 2 0 R 1 0 R 0 -747 R 2 0 R
2 0 R 0 -498 R 1 0 R 2 0 R 0 996 R 2 0 R 1 0 R 0 249 R 2 0 R 2 0 R 0 -498 R
1 0 R 2 0 R 0 249 R 1 0 R 2 0 R 0 -498 R 2 0 R 1 0 R 0 249 R 2 0 R 2 0 R
0 -747 R 1 0 R 2 0 R 0 996 R 2 0 R 1 0 R 0 -249 R 2 0 R 2 0 R 0 746 R 1 0 R
2 0 R 0 -746 R 2 0 R 1 0 R 0 995 R 2 0 R 1 0 R 0 -1742 R 2 0 R 2 0 R 0 747 R
1 0 R 2 0 R 2 0 R 1 0 R 0 249 R 2 0 R 2 0 R 0 -498 R 1 0 R 2 0 R 0 -249 R
2 0 R 1 0 R 0 996 R 2 0 R 1 0 R 2 0 R 2 0 R 0 -498 R 1 0 R 2 0 R 0 -498 R
2 0 R 1 0 R 0 249 R 2 0 R 2 0 R 0 249 R 1 0 R 2 0 R 0 -249 R 2 0 R 1 0 R
0 498 R 2 0 R 2 0 R 0 -249 R 1 0 R 2 0 R 0 -249 R 1 0 R 2 0 R 0 -249 R 2 0 R
1 0 R 0 1244 R 2 0 R 2 0 R 0 -248 R 1 0 R 2 0 R 0 -747 R 2 0 R 1 0 R
0 -249 R 2 0 R 2 0 R 0 249 R 1 0 R 2 0 R 0 249 R 2 0 R 1 0 R 0 498 R 2 0 R
1 0 R 0 -249 R 2 0 R 2 0 R 1 0 R 2 0 R 0 -996 R 2 0 R 1 0 R 0 498 R 2 0 R
2 0 R 0 249 R 1 0 R 2 0 R 0 498 R 2 0 R 1 0 R 0 -498 R 2 0 R 2 0 R 0 -249 R
1 0 R 2 0 R 0 -249 R 1 0 R 2 0 R 0 249 R 2 0 R 1 0 R 0 -249 R 2 0 R 2 0 R
0 747 R 1 0 R 2 0 R 0 -498 R 2 0 R 1 0 R 0 -249 R 2 0 R 2 0 R 0 249 R 1 0 R
2 0 R 0 249 R 2 0 R 1 0 R 0 -249 R 2 0 R 1 0 R 0 -249 R 2 0 R 2 0 R 1 0 R
2 0 R 0 498 R 2 0 R 1 0 R 2 0 R 2 0 R 0 -996 R 1 0 R 2 0 R 0 996 R 2 0 R
1 0 R 0 746 R 2 0 R 2 0 R 0 -1493 R 1 0 R 2 0 R 0 498 R 1 0 R 2 0 R 0 -747 R
2 0 R 1 0 R 0 1245 R 2 0 R 2 0 R 0 -747 R 1 0 R 2 0 R 0 249 R 2 0 R 1 0 R
0 -498 R 2 0 R 2 0 R 0 996 R 1 0 R 2 0 R 0 -996 R 2 0 R 1 0 R 2 0 R 1 0 R
0 747 R 2 0 R 2 0 R 0 -747 R 1 0 R 2 0 R 0 249 R 2 0 R 1 0 R 0 -249 R 2 0 R
2 0 R 0 747 R 1 0 R 2 0 R 2 0 R 1 0 R 0 -498 R 2 0 R 2 0 R 0 498 R 1 0 R
2 0 R 1 0 R 2 0 R 2 0 R 1 0 R 0 249 R 2 0 R 2 0 R 0 -249 R 1 0 R 2 0 R
0 -498 R 2 0 R 1 0 R 2 0 R 2 0 R 0 747 R 1 0 R 2 0 R 0 -498 R 2 0 R 1 0 R
0 -249 R 2 0 R 1 0 R 0 249 R 2 0 R 2 0 R 0 -249 R 1 0 R 2 0 R 0 -249 R 2 0 R
1 0 R 0 249 R 2 0 R 2 0 R 0 747 R 1 0 R 2 0 R 0 -747 R 2 0 R 1 0 R 0 -498 R
2 0 R 2 0 R 0 1494 R 1 0 R 2 0 R 1 0 R 2 0 R 0 -1494 R 2 0 R 1 0 R 0 996 R
2 0 R 2 0 R 0 249 R 1 0 R 2 0 R 0 497 R 2 0 R 1 0 R 0 -1244 R 2 0 R 2 0 R
0 498 R 1 0 R 2 0 R 0 -249 R 2 0 R 1 0 R 0 498 R 2 0 R 1 0 R 0 249 R 2 0 R
2 0 R 0 -1494 R 1 0 R 2 0 R 0 996 R 2 0 R 1 0 R 0 -747 R 2 0 R 2 0 R
0 1245 R 1 0 R 2 0 R 2 0 R 1 0 R 0 -498 R 2 0 R 2 0 R 0 -249 R 1 0 R 1 0 R D
%%PageTrailer
end
restore
showpage
%%PageResources: font Helvetica
%%Trailer
restore
%%Pages: 1
%%DocumentNeededResources: font Helvetica
%%EOF
