%!PS-Adobe-3.0
%%BoundingBox: 54 360 558 720
%%Title: Graphics produced by IDL
%%For: jar24@ccdjar.ag.rl.ac.uk, /home/jar24/idl/diva
%%Creator: IDL Version 5.5a (linux x86)
%%CreationDate: Thu Oct 31 12:38:38 2002
%%DocumentData: Clean7bit
%%Requirements: color
%%LanguageLevel: 1
%%PageOrder: Ascend
%%Pages: (atend)
%%DocumentNeededResources: (atend)
%%EndComments
%%BeginProlog
save
%+ prolog.ps -- Prolog for IDL generated PostScript files
%+ Copyright (c) 1988-2000 Research Systems, Inc. All Rights Reserved.
%v 4
/$IDL_DICT 40 dict def $IDL_DICT begin /bdef { bind def } bind def /C
{currentpoint newpath moveto} bdef /CP {currentpoint} bdef /D {currentpoint
stroke moveto} bdef /F {closepath fill} bdef /K { setgray } bdef /M {moveto}
bdef /N {rmoveto} bdef /P {lineto} bdef /R {rlineto} bdef /S {gsave show
grestore} bdef /X {currentpoint pop} bdef /Z {gsave currentpoint lineto 20
setlinewidth 1 setlinecap stroke grestore} bdef /L0 {[] 0 setdash} bdef /L1
{[40 100] 0 setdash} bdef /L2 {[200 200] 0 setdash} bdef /L3 {[200 100 50
100] 0 setdash} bdef /L4 {[300 100 50 100 50 100 50 100] 0 setdash} bdef /L5
{[400 200] 0 setdash} bdef /STDFONT { findfont exch scalefont setfont } bdef
/ISOFONT { findfont dup length dict begin { 1 index /FID ne {def} {pop pop}
ifelse } forall /Encoding ISOLatin1Encoding def currentdict end /idltmpfont
exch definefont exch scalefont setfont } bdef /ISOBULLET { gsave /Helvetica
findfont exch scalefont setfont (\267) show currentpoint grestore moveto}
bdef end 2.5 setmiterlimit
%%EndProlog
%%Page: 0 1
%%PageRequirements: color
%%PageResources: (atend)
%%PageOrientation: Portrait
%%PageBoundingBox: 54 360 558 720
%%BeginPageSetup
save
$IDL_DICT begin 54 360 translate 0.0283465 dup scale
%%IncludeResource: font Helvetica
423.333 /Helvetica STDFONT
%%EndPageSetup
10 setlinewidth L0 0.000 0.000 0.000 setrgbcolor 2664 1690 M 14317 0 R D
5728 1690 M 0 203 R D 5363 1351 M 154 0 R -84 -113 R 42 0 R 28 -14 R
14 -14 R 14 -42 R 0 -28 R -14 -42 R -28 -28 R -42 -14 R -42 0 R -42 14 R
-14 14 R -14 28 R D 5699 1351 M -42 -15 R -28 -42 R -14 -70 R 0 -42 R
14 -70 R 28 -42 R 42 -14 R 29 0 R 42 14 R 28 42 R 14 70 R 0 42 R -14 70 R
-28 42 R -42 15 R -29 0 R D 5980 1351 M -42 -15 R -28 -42 R -14 -70 R
0 -42 R 14 -70 R 28 -42 R 42 -14 R 28 0 R 42 14 R 28 42 R 14 70 R 0 42 R
-14 70 R -28 42 R -42 15 R -28 0 R D 8853 1690 M 0 203 R D 8489 1351 M
154 0 R -84 -113 R 42 0 R 28 -14 R 14 -14 R 14 -42 R 0 -28 R -14 -42 R
-28 -28 R -42 -14 R -42 0 R -42 14 R -14 14 R -14 28 R D 8910 1351 M
-141 0 R -14 -127 R 14 14 R 42 14 R 42 0 R 43 -14 R 28 -28 R 14 -42 R
0 -28 R -14 -42 R -28 -28 R -43 -14 R -42 0 R -42 14 R -14 14 R -14 28 R D
9106 1351 M -42 -15 R -28 -42 R -14 -70 R 0 -42 R 14 -70 R 28 -42 R 42 -14 R
28 0 R 42 14 R 28 42 R 14 70 R 0 42 R -14 70 R -28 42 R -42 15 R -28 0 R D
11979 1690 M 0 203 R D 11727 1351 M -140 -197 R 210 0 R D 11727 1351 M
0 -295 R D 11951 1351 M -42 -15 R -28 -42 R -14 -70 R 0 -42 R 14 -70 R
28 -42 R 42 -14 R 28 0 R 42 14 R 28 42 R 15 70 R 0 42 R -15 70 R -28 42 R
-42 15 R -28 0 R D 12232 1351 M -42 -15 R -28 -42 R -14 -70 R 0 -42 R
14 -70 R 28 -42 R 42 -14 R 28 0 R 42 14 R 28 42 R 14 70 R 0 42 R -14 70 R
-28 42 R -42 15 R -28 0 R D 15105 1690 M 0 203 R D 14853 1351 M -140 -197 R
210 0 R D 14853 1351 M 0 -295 R D 15161 1351 M -140 0 R -14 -127 R 14 14 R
42 14 R 42 0 R 42 -14 R 28 -28 R 14 -42 R 0 -28 R -14 -42 R -28 -28 R
-42 -14 R -42 0 R -42 14 R -14 14 R -14 28 R D 15358 1351 M -42 -15 R
-28 -42 R -14 -70 R 0 -42 R 14 -70 R 28 -42 R 42 -14 R 28 0 R 42 14 R
28 42 R 14 70 R 0 42 R -14 70 R -28 42 R -42 15 R -28 0 R D 3227 1690 M
0 101 R D 3852 1690 M 0 101 R D 4477 1690 M 0 101 R D 5102 1690 M 0 101 R D
6353 1690 M 0 101 R D 6978 1690 M 0 101 R D 7603 1690 M 0 101 R D
8228 1690 M 0 101 R D 9479 1690 M 0 101 R D 10104 1690 M 0 101 R D
10729 1690 M 0 101 R D 11354 1690 M 0 101 R D 12605 1690 M 0 101 R D
13230 1690 M 0 101 R D 13855 1690 M 0 101 R D 14480 1690 M 0 101 R D
15731 1690 M 0 101 R D 16356 1690 M 0 101 R D 16981 1690 M 0 101 R D
2664 11855 M 14317 0 R D 5728 11855 M 0 -203 R D 8853 11855 M 0 -203 R D
11979 11855 M 0 -203 R D 15105 11855 M 0 -203 R D 3227 11855 M 0 -101 R D
3852 11855 M 0 -101 R D 4477 11855 M 0 -101 R D 5102 11855 M 0 -101 R D
6353 11855 M 0 -101 R D 6978 11855 M 0 -101 R D 7603 11855 M 0 -101 R D
8228 11855 M 0 -101 R D 9479 11855 M 0 -101 R D 10104 11855 M 0 -101 R D
10729 11855 M 0 -101 R D 11354 11855 M 0 -101 R D 12605 11855 M 0 -101 R D
13230 11855 M 0 -101 R D 13855 11855 M 0 -101 R D 14480 11855 M 0 -101 R D
15731 11855 M 0 -101 R D 16356 11855 M 0 -101 R D 16981 11855 M 0 -101 R D
2664 1690 M 0 10165 R D 2664 2914 M 286 0 R D 1451 2969 M 0 14 R 14 29 R
14 14 R 28 14 R 56 0 R 28 -14 R 14 -14 R 15 -29 R 0 -28 R -15 -28 R
-28 -42 R -140 -140 R 197 0 R D 1802 3040 M -42 -14 R -28 -43 R -14 -70 R
0 -42 R 14 -70 R 28 -42 R 42 -14 R 28 0 R 42 14 R 28 42 R 14 70 R 0 42 R
-14 70 R -28 43 R -42 14 R -28 0 R D 2082 3040 M -42 -14 R -28 -43 R
-14 -70 R 0 -42 R 14 -70 R 28 -42 R 42 -14 R 28 0 R 42 14 R 28 42 R 14 70 R
0 42 R -14 70 R -28 43 R -42 14 R -28 0 R D 2363 3040 M -42 -14 R -28 -43 R
-14 -70 R 0 -42 R 14 -70 R 28 -42 R 42 -14 R 28 0 R 42 14 R 28 42 R 14 70 R
0 42 R -14 70 R -28 43 R -42 14 R -28 0 R D 2664 4910 M 286 0 R D
1577 5035 M -140 -196 R 211 0 R D 1577 5035 M 0 -294 R D 1802 5035 M
-42 -14 R -28 -42 R -14 -70 R 0 -42 R 14 -70 R 28 -42 R 42 -14 R 28 0 R
42 14 R 28 42 R 14 70 R 0 42 R -14 70 R -28 42 R -42 14 R -28 0 R D
2082 5035 M -42 -14 R -28 -42 R -14 -70 R 0 -42 R 14 -70 R 28 -42 R 42 -14 R
28 0 R 42 14 R 28 42 R 14 70 R 0 42 R -14 70 R -28 42 R -42 14 R -28 0 R D
2363 5035 M -42 -14 R -28 -42 R -14 -70 R 0 -42 R 14 -70 R 28 -42 R 42 -14 R
28 0 R 42 14 R 28 42 R 14 70 R 0 42 R -14 70 R -28 42 R -42 14 R -28 0 R D
2664 6906 M 286 0 R D 1620 6989 M -15 28 R -42 14 R -28 0 R -42 -14 R
-28 -42 R -14 -70 R 0 -70 R 14 -56 R 28 -28 R 42 -14 R 14 0 R 42 14 R
29 28 R 14 42 R 0 14 R -14 42 R -29 28 R -42 14 R -14 0 R -42 -14 R
-28 -28 R -14 -42 R D 1802 7031 M -42 -14 R -28 -42 R -14 -70 R 0 -42 R
14 -70 R 28 -42 R 42 -14 R 28 0 R 42 14 R 28 42 R 14 70 R 0 42 R -14 70 R
-28 42 R -42 14 R -28 0 R D 2082 7031 M -42 -14 R -28 -42 R -14 -70 R
0 -42 R 14 -70 R 28 -42 R 42 -14 R 28 0 R 42 14 R 28 42 R 14 70 R 0 42 R
-14 70 R -28 42 R -42 14 R -28 0 R D 2363 7031 M -42 -14 R -28 -42 R
-14 -70 R 0 -42 R 14 -70 R 28 -42 R 42 -14 R 28 0 R 42 14 R 28 42 R 14 70 R
0 42 R -14 70 R -28 42 R -42 14 R -28 0 R D 2664 8901 M 286 0 R D
1507 9027 M -42 -14 R -14 -28 R 0 -28 R 14 -28 R 28 -14 R 56 -14 R 42 -14 R
29 -28 R 14 -28 R 0 -42 R -14 -28 R -15 -14 R -42 -14 R -56 0 R -42 14 R
-14 14 R -14 28 R 0 42 R 14 28 R 28 28 R 42 14 R 56 14 R 28 14 R 15 28 R
0 28 R -15 28 R -42 14 R -56 0 R D 1802 9027 M -42 -14 R -28 -42 R -14 -70 R
0 -42 R 14 -70 R 28 -42 R 42 -14 R 28 0 R 42 14 R 28 42 R 14 70 R 0 42 R
-14 70 R -28 42 R -42 14 R -28 0 R D 2082 9027 M -42 -14 R -28 -42 R
-14 -70 R 0 -42 R 14 -70 R 28 -42 R 42 -14 R 28 0 R 42 14 R 28 42 R 14 70 R
0 42 R -14 70 R -28 42 R -42 14 R -28 0 R D 2363 9027 M -42 -14 R -28 -42 R
-14 -70 R 0 -42 R 14 -70 R 28 -42 R 42 -14 R 28 0 R 42 14 R 28 42 R 14 70 R
0 42 R -14 70 R -28 42 R -42 14 R -28 0 R D 2664 10897 M 286 0 R D
1199 10967 M 28 14 R 42 42 R 0 -295 R D 1521 11023 M -42 -14 R -28 -42 R
-14 -70 R 0 -42 R 14 -71 R 28 -42 R 42 -14 R 28 0 R 42 14 R 29 42 R 14 71 R
0 42 R -14 70 R -29 42 R -42 14 R -28 0 R D 1802 11023 M -42 -14 R -28 -42 R
-14 -70 R 0 -42 R 14 -71 R 28 -42 R 42 -14 R 28 0 R 42 14 R 28 42 R 14 71 R
0 42 R -14 70 R -28 42 R -42 14 R -28 0 R D 2082 11023 M -42 -14 R -28 -42 R
-14 -70 R 0 -42 R 14 -71 R 28 -42 R 42 -14 R 28 0 R 42 14 R 28 42 R 14 71 R
0 42 R -14 70 R -28 42 R -42 14 R -28 0 R D 2363 11023 M -42 -14 R -28 -42 R
-14 -70 R 0 -42 R 14 -71 R 28 -42 R 42 -14 R 28 0 R 42 14 R 28 42 R 14 71 R
0 42 R -14 70 R -28 42 R -42 14 R -28 0 R D 2664 1916 M 143 0 R D
2664 2415 M 143 0 R D 2664 3413 M 143 0 R D 2664 3912 M 143 0 R D
2664 4411 M 143 0 R D 2664 5409 M 143 0 R D 2664 5908 M 143 0 R D
2664 6407 M 143 0 R D 2664 7405 M 143 0 R D 2664 7904 M 143 0 R D
2664 8403 M 143 0 R D 2664 9400 M 143 0 R D 2664 9899 M 143 0 R D
2664 10398 M 143 0 R D 2664 11396 M 143 0 R D 435 6198 M 294 112 R
-294 112 R D 533 6646 M 196 0 R D 575 6646 M -28 -28 R -14 -28 R 0 -42 R
14 -28 R 28 -28 R 42 -14 R 28 0 R 42 14 R 28 28 R 14 28 R 0 42 R -14 28 R
-28 28 R D 435 6758 M 294 0 R D 533 6871 M 140 0 R 42 14 R 14 28 R 0 42 R
-14 28 R -42 42 R D 533 7025 M 196 0 R D 617 7123 M 0 168 R -28 0 R
-28 -14 R -14 -14 R -14 -28 R 0 -42 R 14 -28 R 28 -28 R 42 -14 R 28 0 R
42 14 R 28 28 R 14 28 R 0 42 R -14 28 R -28 28 R D 16981 1690 M 0 10165 R D
16981 2914 M -286 0 R D 16981 4910 M -286 0 R D 16981 6906 M -286 0 R D
16981 8901 M -286 0 R D 16981 10897 M -286 0 R D 16981 1916 M -143 0 R D
16981 2415 M -143 0 R D 16981 3413 M -143 0 R D 16981 3912 M -143 0 R D
16981 4411 M -143 0 R D 16981 5409 M -143 0 R D 16981 5908 M -143 0 R D
16981 6407 M -143 0 R D 16981 7405 M -143 0 R D 16981 7904 M -143 0 R D
16981 8403 M -143 0 R D 16981 9400 M -143 0 R D 16981 9899 M -143 0 R D
16981 10398 M -143 0 R D 16981 11396 M -143 0 R D 20 setlinewidth
0.000 1.000 0.000 setrgbcolor 2664 10592 M 31 0 R 0 76 R 32 0 R 31 0 R
0 -74 R 31 0 R 31 0 R 0 5 R 32 0 R 31 0 R 0 73 R 31 0 R 31 0 R 0 -1815 R
32 0 R 31 0 R 0 -3969 R 31 0 R 31 0 R 0 134 R 32 0 R 31 0 R 0 2637 R 31 0 R
31 0 R 0 -2883 R 32 0 R 31 0 R 0 -1354 R 31 0 R 32 0 R 0 -469 R 31 0 R
31 0 R 0 -177 R 31 0 R 32 0 R 0 -63 R 31 0 R 31 0 R 0 26 R 31 0 R 32 0 R
0 74 R 31 0 R 31 0 R 0 -4 R 31 0 R 32 0 R 0 -32 R 31 0 R 31 0 R 0 65 R
31 0 R 32 0 R 0 69 R 31 0 R 31 0 R 0 12 R 31 0 R 32 0 R 0 8 R 31 0 R 31 0 R
0 54 R 32 0 R 31 0 R 0 -50 R 31 0 R 31 0 R 0 -56 R 32 0 R 31 0 R 0 59 R
31 0 R 31 0 R 0 53 R 32 0 R 31 0 R 0 -16 R 31 0 R 31 0 R 0 28 R 32 0 R
31 0 R 0 85 R 31 0 R 31 0 R 0 459 R 32 0 R 31 0 R 0 1081 R 31 0 R 31 0 R
0 -1537 R 32 0 R 31 0 R 0 -542 R 31 0 R 31 0 R 0 -52 R 32 0 R 31 0 R 0 52 R
31 0 R 32 0 R 0 182 R 31 0 R 31 0 R 0 691 R 31 0 R 32 0 R 0 -402 R 31 0 R
31 0 R 0 -594 R 31 0 R 32 0 R 0 -99 R 31 0 R 31 0 R 0 -51 R 31 0 R 32 0 R
0 11 R 31 0 R 31 0 R 0 -24 R 31 0 R 32 0 R 0 11 R 31 0 R 31 0 R 0 111 R
31 0 R 32 0 R 0 26 R 31 0 R 31 0 R 0 9 R 31 0 R 32 0 R 0 -54 R 31 0 R 31 0 R
0 -34 R 32 0 R 31 0 R 0 54 R 31 0 R 31 0 R 0 69 R 32 0 R 31 0 R 0 115 R
31 0 R 31 0 R 0 -210 R 32 0 R 31 0 R 0 109 R 31 0 R 31 0 R 0 11 R 32 0 R
31 0 R 0 -124 R 31 0 R 31 0 R 0 -80 R 32 0 R 31 0 R 0 -17 R 31 0 R 31 0 R
0 39 R 32 0 R 31 0 R 0 91 R 31 0 R 31 0 R 0 -96 R 32 0 R 31 0 R 0 -349 R
31 0 R 32 0 R 0 -186 R 31 0 R 31 0 R 0 -21 R 31 0 R 32 0 R 0 77 R 31 0 R
31 0 R 0 169 R 31 0 R 32 0 R 0 892 R 31 0 R 31 0 R 0 659 R 31 0 R 32 0 R
0 -268 R 31 0 R 31 0 R 0 -704 R 31 0 R 32 0 R 0 -665 R 31 0 R 31 0 R
0 -121 R 31 0 R 32 0 R 0 -16 R 31 0 R 31 0 R 0 25 R 31 0 R 32 0 R 0 -7 R
31 0 R 31 0 R 0 -16 R 32 0 R 31 0 R 0 58 R 31 0 R 31 0 R 0 43 R 32 0 R
31 0 R 0 -112 R 31 0 R 31 0 R 0 103 R 32 0 R 31 0 R 0 80 R 31 0 R 31 0 R
0 395 R 32 0 R 31 0 R 0 696 R 31 0 R 31 0 R 0 2923 R 32 0 R 31 0 R 0 2112 R
31 0 R 31 0 R 0 383 R 32 0 R 31 0 R 0 100 R 31 0 R 31 0 R 0 128 R 32 0 R
31 0 R 0 -22 R 31 0 R 32 0 R 0 106 R 31 0 R 31 0 R 0 11 R 31 0 R 32 0 R
0 176 R 31 0 R 31 0 R 0 440 R 31 0 R 32 0 R 0 270 R 31 0 R 31 0 R 0 165 R
31 0 R 32 0 R 0 190 R 31 0 R 31 0 R 0 269 R 31 0 R 32 0 R 0 180 R 31 0 R
31 0 R 0 -24 R 31 0 R 32 0 R 0 10 R 31 0 R 31 0 R 0 54 R 31 0 R 32 0 R
0 243 R 31 0 R 31 0 R 0 122 R 32 0 R 31 0 R 0 -456 R 31 0 R 31 0 R 0 -2880 R
32 0 R 31 0 R 0 -2794 R 31 0 R 31 0 R 0 764 R 32 0 R 31 0 R 0 1466 R 31 0 R
31 0 R 0 -3549 R 32 0 R 31 0 R 0 -566 R 31 0 R 31 0 R 0 18 R 32 0 R 31 0 R
0 -37 R 31 0 R 31 0 R 0 -54 R 32 0 R 31 0 R 0 30 R 31 0 R 31 0 R 0 100 R
32 0 R 31 0 R 0 55 R 31 0 R 32 0 R 0 66 R 31 0 R 31 0 R 0 53 R 31 0 R 32 0 R
0 66 R 31 0 R 31 0 R 0 70 R 31 0 R 32 0 R 0 38 R 31 0 R 31 0 R 0 53 R 31 0 R
32 0 R 0 -58 R 31 0 R 31 0 R 0 -26 R 31 0 R 32 0 R 0 56 R 31 0 R 31 0 R
0 -19 R 31 0 R 32 0 R 0 30 R 31 0 R 31 0 R 0 1 R 31 0 R 32 0 R 0 -61 R
31 0 R 31 0 R 0 458 R 32 0 R 31 0 R 0 671 R 31 0 R 31 0 R 0 -1361 R 32 0 R
31 0 R 0 -471 R 31 0 R 31 0 R 0 170 R 32 0 R 31 0 R 0 894 R 31 0 R 31 0 R
0 -714 R 32 0 R 31 0 R 0 -359 R 31 0 R 31 0 R 0 -62 R 32 0 R 31 0 R 0 -13 R
31 0 R 31 0 R 0 -32 R 32 0 R 31 0 R 0 -19 R 31 0 R 31 0 R 0 -42 R 32 0 R
31 0 R 0 29 R 31 0 R 32 0 R 0 28 R 31 0 R 31 0 R 0 47 R 31 0 R 32 0 R 0 -4 R
31 0 R 31 0 R 0 -57 R 31 0 R 32 0 R 0 -24 R 31 0 R 31 0 R 0 -30 R 31 0 R
32 0 R 0 -7 R 31 0 R 31 0 R 0 9 R 31 0 R 32 0 R 0 -41 R 31 0 R 31 0 R 0 12 R
31 0 R 32 0 R 0 -9 R 31 0 R 31 0 R 0 -16 R 31 0 R 32 0 R 0 9 R 31 0 R 31 0 R
0 2 R 32 0 R 31 0 R 0 -11 R 31 0 R 31 0 R 0 -78 R 32 0 R 31 0 R 0 -213 R
31 0 R 31 0 R 0 -227 R 32 0 R 31 0 R 0 -38 R 31 0 R 31 0 R 0 -38 R 32 0 R
31 0 R 0 14 R 31 0 R 31 0 R 0 92 R 32 0 R 31 0 R 0 538 R 31 0 R 31 0 R
0 428 R 32 0 R 31 0 R 0 126 R 31 0 R 32 0 R 0 -294 R 31 0 R 31 0 R 0 -723 R
31 0 R 32 0 R 0 -81 R 31 0 R 31 0 R 0 -4 R 31 0 R 32 0 R 0 5 R 31 0 R 31 0 R
0 -3 R 31 0 R 32 0 R 0 -40 R 31 0 R 31 0 R 0 67 R 31 0 R 32 0 R 0 29 R
31 0 R 31 0 R 0 -107 R 31 0 R 32 0 R 0 106 R 31 0 R 31 0 R 0 66 R 31 0 R
32 0 R 0 372 R 31 0 R 31 0 R 0 916 R 32 0 R 31 0 R 0 2787 R 31 0 R 31 0 R
0 2346 R 32 0 R 31 0 R 0 424 R 31 0 R 31 0 R 0 -265 R 32 0 R 31 0 R 0 -9 R
31 0 R 31 0 R 0 100 R 32 0 R 31 0 R 0 -13 R 31 0 R 31 0 R 0 65 R 32 0 R
31 0 R 0 181 R 31 0 R 31 0 R 0 156 R 32 0 R 31 0 R 0 190 R 31 0 R 31 0 R
0 129 R 32 0 R 31 0 R 0 48 R 31 0 R 32 0 R 0 -113 R 31 0 R 31 0 R 0 229 R
31 0 R 32 0 R 0 114 R 31 0 R 31 0 R 0 422 R 31 0 R 32 0 R 0 194 R 31 0 R
31 0 R 0 127 R 31 0 R 32 0 R 0 -83 R 31 0 R 31 0 R 0 -2701 R 31 0 R 32 0 R
0 -3752 R 31 0 R 31 0 R 0 -593 R 31 0 R 32 0 R 0 916 R 31 0 R 31 0 R 0 170 R
31 0 R 32 0 R 0 1324 R 31 0 R 31 0 R 0 -2415 R 32 0 R 31 0 R 0 -215 R 31 0 R
31 0 R 0 44 R 32 0 R 31 0 R 31 0 R 31 0 R 0 10 R 32 0 R 31 0 R 0 -14 R
31 0 R 31 0 R 0 4 R 32 0 R 31 0 R 31 0 R 31 0 R 0 -83 R 32 0 R 31 0 R
0 -83 R 31 0 R 31 0 R 0 -30 R 32 0 R 31 0 R 31 0 R 31 0 R 0 -40 R 32 0 R
31 0 R 0 -52 R 31 0 R 32 0 R 0 29 R 31 0 R 31 0 R 0 -7 R 31 0 R 32 0 R
0 11 R 31 0 R 31 0 R 0 395 R 31 0 R 32 0 R 0 201 R 31 0 R 31 0 R 0 -437 R
31 0 R 32 0 R 0 365 R 30 0 R D
%%PageTrailer
end
restore
showpage
%%PageResources: font Helvetica
%%Trailer
restore
%%Pages: 1
%%DocumentNeededResources: font Helvetica
%%EOF
