REDO secchi_behind_2007_003_4_00.fin          112961072 (+0.10)		previously done
REDO secchi_behind_2007_006_5_00.fin           73917112 (+0.30)		previously done
REDO secchi_behind_2007_006_6_00.fin           15954920 (+1.00)		previously done
REDO secchi_behind_2007_010_4_00.fin           86580324 (+0.16)		previously done
REDO secchi_behind_2007_010_5_00.fin           73909662 (+0.24)		previously done
REDO secchi_behind_2007_010_6_00.fin           70344092 (+0.44)		previously done
REDO secchi_behind_2007_011_6_00.fin            4287624 (+0.09)		previously done
REDO secchi_behind_2007_045_6_04.fin           78513762 (+0.17)		previously done
REDO secchi_behind_2007_047_4_04.fin           80514534 (+0.02)		previously done
REDO secchi_behind_2007_070_5_05.fin           80164086 (+0.35)		previously done
REDO secchi_behind_2007_070_6_05.fin           88704170 (+0.95)		previously done
REDO secchi_behind_2007_071_1_04.fin          100240048 (+0.22)		PB	RP
REDO secchi_behind_2007_071_2_04.fin           88695528 (+0.00)		PB	RP
REDO secchi_behind_2007_071_3_04.fin           80159616 (+0.00)		PB	RP
REDO secchi_behind_2007_155_6_04.fin          112628802 (+0.08)		PB	RP
REDO secchi_behind_2007_156_2_04.fin          112677674 (+0.23)		PB	RP
REDO secchi_behind_2007_162_5_05.fin          112912200 (+0.00)		PB	RP
REDO secchi_behind_2007_176_3_04.fin          221548696 (+0.16)		PB	RP
REDO secchi_behind_2007_176_5_04.fin          112981932 (+0.12)		PB	RP
REDO secchi_behind_2007_176_6_04.fin          112679164 (+0.13)		PB	RP
REDO secchi_behind_2007_180_3_04.fin          221637202 (+0.03)		PB	RP
REDO secchi_behind_2007_180_4_04.fin          114464184 (+0.67)		PB	RP
REDO secchi_behind_2007_180_5_04.fin          113072822 (+0.44)		PB	RP
REDO secchi_behind_2007_187_3_05.fin          235747800 (+0.31)		PB	RP
REDO secchi_behind_2007_187_4_05.fin          140284096 (+0.01)		PB	RP
REDO secchi_behind_2007_187_5_05.fin          138980346 (+0.16)		PB	RP
REDO secchi_behind_2007_187_6_05.fin          138995544 (+0.10)		PB	RP
REDO secchi_behind_2007_189_6_05.fin          138867404 (+0.32)		PB	RP
REDO secchi_behind_2007_190_6_05.fin          113276952 (+0.28)		PB	RP
REDO secchi_behind_2007_191_6_05.fin          124747568 (+0.81)		PB	RP
REDO secchi_behind_2007_192_4_05.fin          173348388 (+0.10)		PB	RP
REDO secchi_behind_2007_192_5_05.fin          164744830 (+0.31)		PB	RP
REDO secchi_behind_2007_192_6_05.fin          109535860 (+0.17)		PB	RP	
REDO secchi_behind_2007_213_6_03.ptp          237038438 (+0.37)		PB	RP
REDO secchi_behind_2007_217_2_03.ptp          209337848 (+0.66)		PB	RP
REDO secchi_behind_2007_230_5_03.ptp          161952272 (+0.08)		PB	RP
REDO secchi_behind_2007_230_6_03.ptp          113564820 (+0.45)		PB	RP
REDO secchi_behind_2007_205_1_05.fin          205769000 (+0.01)		PB	RP
REDO secchi_behind_2007_205_2_05.fin          232003728 (+0.37)		PB	RP
REDO secchi_behind_2007_243_6_04.ptp          235197990 (+0.03)         PB 	RP 
REDO secchi_behind_2007_244_5_04.ptp           47705330 (+0.40)         PB 	RP 
REDO secchi_behind_2007_254_4_03.ptp          126121646 (+0.30)         PB 	RP
REDO secchi_behind_2007_254_5_03.ptp          201374990 (+0.68)         PB 	RP
REDO secchi_behind_2007_254_6_03.ptp          161123236 (+0.26)         PB 	RP
REDO secchi_behind_2007_260_6_03.ptp          112810284 (+0.39)         PB 	RP
REDO secchi_behind_2007_143_3_05.fin          235187560 (+0.53)         PB 	RP
REDO secchi_behind_2007_143_4_05.fin          138767574 (+0.29)         PB 	RP
REDO secchi_behind_2007_143_5_05.fin          173556094 (+0.00)         PB 	RP
REDO secchi_behind_2007_272_4_03.ptp          193182374 (+0.22)         PB 	RP
REDO secchi_behind_2007_272_5_03.ptp          137725468 (+0.00)         PB 	RP
REDO secchi_behind_2007_282_6_03.ptp          125086096 (+0.58)         PB 	RP
REDO secchi_behind_2007_269_6_04.fin          129493516 (+0.01)         PB 	RP
REDO secchi_behind_2007_339_6_03.ptp          133267984 (+0.10)         PB 	RP
REDO secchi_behind_2007_354_5_03.ptp          182738964 (+0.09)         PB  	RP
REDO secchi_behind_2007_354_6_03.ptp          142731868 (+0.03)         PB 	RP 
REDO secchi_behind_2007_356_4_03.ptp          138516956 (+0.93)         PB 	RP 
REDO secchi_behind_2007_356_5_03.ptp          125817984 (+0.99)         PB 	RP 
REDO secchi_behind_2007_356_6_03.ptp          113133018 (+0.99)         PB  	RP
REDO secchi_behind_2007_357_1_03.ptp          117619408 (+0.11)         PB   	RP
REDO secchi_behind_2007_357_2_03.ptp           87845930 (+0.99)         PB   	RP
REDO secchi_behind_2007_357_6_03.ptp           64822450 (+0.95)         PB   	RP
REDO secchi_behind_2007_358_5_03.ptp           47469016 (+0.26)         PB  	RP
REDO secchi_behind_2007_358_6_03.ptp          154233178 (+0.99)         PB  	RP
REDO secchi_behind_2007_359_2_03.ptp          138594436 (+0.98)         PB  	RP
REDO secchi_behind_2007_359_3_03.ptp           21843102 (+0.96)         PB  	RP
REDO secchi_behind_2007_359_5_03.ptp           90872418 (+0.96)         PB  	RP
REDO secchi_behind_2007_359_6_03.ptp          153338880 (+0.99)         PB  	RP
REDO secchi_behind_2007_360_6_03.ptp          154363106 (+0.65)         PB  	RP
REDO secchi_behind_2007_361_6_03.ptp          133458406 (+0.02)         PB  	RP
