REDO secchi_ahead_2009_069_3_03.ptp           12339286 (+0.06)
REDO secchi_ahead_2009_070_2_03.ptp            1540660 (+1.00)
REDO secchi_ahead_2009_070_3_03.ptp            1536488 (+0.93)
REDO secchi_ahead_2009_070_4_03.ptp           51688398 (+0.00)
REDO secchi_ahead_2009_073_5_03.ptp          166279828 (+0.07)
REDO secchi_ahead_2009_073_6_03.ptp          174088024 (+0.01)
REDO secchi_ahead_2009_075_6_03.ptp          112693468 (+0.04)
REDO secchi_ahead_2009_076_5_03.ptp          140318962 (+0.04)
REDO secchi_ahead_2009_097_6_03.ptp          107888814 (+0.14)
REDO secchi_ahead_2009_069_3_04.fin           12526430 (+0.01)
REDO secchi_ahead_2009_069_4_04.fin            1539468 (+1.00)
REDO secchi_ahead_2009_069_5_04.fin            1547514 (+1.00)
REDO secchi_ahead_2009_069_6_04.fin            1530826 (+1.00)
REDO secchi_ahead_2009_118_6_03.ptp           93312144 (+0.11)
REDO secchi_ahead_2009_119_4_03.ptp           94067574 (+0.84)
REDO secchi_ahead_2009_119_5_03.ptp           79668810 (+0.51)
REDO secchi_ahead_2009_119_6_03.ptp            4946204 (+0.81)
REDO secchi_ahead_2009_133_6_06.ptp           98577506 (+0.04)
REDO secchi_ahead_2009_134_6_06.ptp          116904804 (+0.03)
REDO secchi_ahead_2009_138_5_05.ptp          131088710 (+0.04)
REDO secchi_ahead_2009_138_6_05.ptp          115825746 (+0.13)
REDO secchi_ahead_2009_139_2_04.ptp           79782944 (+0.10)
REDO secchi_ahead_2009_139_3_04.ptp           79785030 (+0.44)
REDO secchi_ahead_2009_104_3_04.fin          121129252 (+0.18)
REDO secchi_ahead_2009_154_6_04.ptp          148840272 (+0.00)
REDO secchi_ahead_2009_156_6_03.ptp          141839060 (+0.01)
REDO secchi_ahead_2009_158_6_03.ptp          135693704 (+0.06)
REDO secchi_ahead_2009_164_5_03.ptp           99150262 (+0.72)
REDO secchi_ahead_2009_164_6_03.ptp          114120888 (+1.00)
REDO secchi_ahead_2009_174_5_03.ptp          133248614 (+0.13)
REDO secchi_ahead_2009_174_6_03.ptp           94477622 (+0.06)
REDO secchi_ahead_2009_175_5_03.ptp          138776216 (+0.16)
REDO secchi_ahead_2009_175_6_03.ptp          154074642 (+0.32)
REDO secchi_ahead_2009_186_6_03.ptp          113052260 (+0.07)
REDO secchi_ahead_2009_174_5_03.ptp          133248614 (+0.13)
REDO secchi_ahead_2009_174_6_03.ptp           94477622 (+0.06)
REDO secchi_ahead_2009_175_5_03.ptp          138776216 (+0.16)
REDO secchi_ahead_2009_175_6_03.ptp          154074642 (+0.32)
REDO secchi_ahead_2009_197_4_03.ptp          105959264 (+0.06)
REDO secchi_ahead_2009_197_5_03.ptp          112386230 (+0.67)
REDO secchi_ahead_2009_197_6_03.ptp          107472508 (+0.20)
REDO secchi_ahead_2009_204_6_03.ptp          112671118 (+0.07)
REDO secchi_ahead_2009_212_6_03.ptp          113084444 (+0.07)
REDO secchi_ahead_2009_221_5_03.ptp           79540074 (+0.58)
REDO secchi_ahead_2009_221_6_03.ptp           79234028 (+1.00)
REDO secchi_ahead_2009_224_6_03.ptp          113587766 (+0.07)
REDO secchi_ahead_2009_235_5_03.ptp          126852044 (+0.68)
REDO secchi_ahead_2009_235_6_03.ptp           90479952 (+0.99)
REDO secchi_ahead_2009_236_6_03.ptp           89806472 (+0.69)
REDO secchi_ahead_2009_237_6_03.ptp           90832188 (+0.08)
REDO secchi_ahead_2009_238_6_03.ptp           89577012 (+0.76)
REDO secchi_ahead_2009_239_6_03.ptp           89244742 (+0.15)
REDO secchi_ahead_2009_240_6_03.ptp           88582586 (+0.28)
REDO secchi_ahead_2009_241_6_03.ptp           89717072 (+0.07)
REDO secchi_ahead_2009_242_5_03.ptp          131661168 (+0.13)
REDO secchi_ahead_2009_242_6_03.ptp          106707840 (+0.22)
REDO secchi_ahead_2009_197_5_04.fin          152090260 (+0.26)
REDO secchi_ahead_2009_197_6_04.fin          138785752 (+0.23)
REDO secchi_ahead_2009_243_1_03.ptp           84352774 (+0.01)
REDO secchi_ahead_2009_243_2_03.ptp           84336384 (+0.01)
REDO secchi_ahead_2009_243_3_03.ptp           84269930 (+0.01)
REDO secchi_ahead_2009_243_4_03.ptp           84291386 (+0.01)
REDO secchi_ahead_2009_243_5_03.ptp           84327742 (+0.01)
REDO secchi_ahead_2009_243_6_03.ptp           43901062 (+0.01)
REDO secchi_ahead_2009_198_1_04.fin          118155808 (+0.00)
REDO secchi_ahead_2009_198_2_04.fin          104971394 (+0.00)
REDO secchi_ahead_2009_202_5_04.fin          131183176 (+0.19)
REDO secchi_ahead_2009_253_3_03.ptp          138821512 (+0.00)
REDO secchi_ahead_2009_253_4_03.ptp          174500158 (+0.00)
REDO secchi_ahead_2009_253_5_03.ptp          121153688 (+0.33)
REDO secchi_ahead_2009_273_3_03.ptp          148587270 (+0.12)
REDO secchi_ahead_2009_273_4_03.ptp          143433360 (+0.09)
REDO secchi_ahead_2009_285_6_03.ptp           89778162 (+0.35)
REDO secchi_ahead_2009_242_6_04.fin          107694220 (+0.01)
REDO secchi_ahead_2009_290_3_03.ptp           91820654 (+0.69)
REDO secchi_ahead_2009_290_4_03.ptp          121830446 (+0.89)
REDO secchi_ahead_2009_290_5_03.ptp          169479156 (+0.92)
REDO secchi_ahead_2009_290_6_03.ptp          116397906 (+0.69)
REDO secchi_ahead_2009_362_5_03.ptp           60543468 (+0.68)
REDO secchi_ahead_2009_362_6_03.ptp             706558 (+1.00)
