REDO secchi_behind_2010_042_5_03.ptp          161089860 (+0.00)
REDO secchi_behind_2010_042_6_03.ptp          148977948 (+0.00)
REDO secchi_behind_2010_042_5_03.ptp          161089860 (+0.00)
REDO secchi_behind_2010_042_6_03.ptp          148977948 (+0.00)
REDO secchi_behind_2010_042_5_03.ptp          161089860 (+0.00)
REDO secchi_behind_2010_042_6_03.ptp          148977948 (+0.00)
REDO secchi_behind_2010_062_6_03.ptp           82362432 (+0.51)
REDO secchi_behind_2010_081_4_03.ptp           83241234 (+0.00)
REDO secchi_behind_2010_081_5_03.ptp           86158952 (+0.01)
REDO secchi_behind_2010_081_6_03.ptp          110133350 (+0.00)
REDO secchi_behind_2010_042_5_04.fin          161089860 (+0.00)
REDO secchi_behind_2010_042_6_04.fin          148977948 (+0.00)
REDO secchi_behind_2010_103_5_03.ptp           82673544 (+0.32)
REDO secchi_behind_2010_103_6_03.ptp           99845496 (+0.83)
REDO secchi_behind_2010_121_6_03.ptp           82841020 (+0.47)
REDO secchi_behind_2010_127_5_03.ptp          101343542 (+0.01)
REDO secchi_behind_2010_127_6_03.ptp           90259134 (+0.01)
REDO secchi_behind_2010_127_5_03.ptp          101343542 (+0.01)
REDO secchi_behind_2010_127_6_03.ptp           90259134 (+0.01)
REDO secchi_behind_2010_145_2_03.ptp           53190020 (+0.33)
REDO secchi_behind_2010_186_6_03.ptp           44849596 (+0.09)
REDO secchi_behind_2010_186_6_04.fin           82381802 (+0.46)
REDO secchi_behind_2010_320_5_03.ptp           82464646 (+0.10)
REDO secchi_behind_2010_320_6_03.ptp           77474338 (+0.98)
REDO secchi_behind_2010_320_5_03.ptp           82464646 (+0.10)
REDO secchi_behind_2010_320_6_03.ptp           77474338 (+0.98)
REDO secchi_behind_2010_319_3_05.ptp           81927352 (+0.07)
REDO secchi_behind_2010_320_5_05.ptp           82464646 (+0.10)
REDO secchi_behind_2010_320_6_05.ptp           82122840 (+0.98)
REDO secchi_behind_2010_321_1_05.ptp           81663920 (+0.14)
REDO secchi_behind_2010_321_2_05.ptp           70947840 (+1.00)
REDO secchi_behind_2010_321_3_05.ptp           60224310 (+0.08)
REDO secchi_behind_2010_337_2_03.ptp           82121052 (+0.01)
REDO secchi_behind_2010_337_3_03.ptp           82538550 (+0.01)
REDO secchi_behind_2010_337_4_03.ptp           93342540 (+0.01)
REDO secchi_behind_2010_337_5_03.ptp           82227140 (+0.01)
REDO secchi_behind_2010_337_6_03.ptp           82429780 (+0.01)
REDO secchi_behind_2010_340_2_03.ptp           81962814 (+0.01)
REDO secchi_behind_2010_340_3_03.ptp           72606210 (+0.00)
REDO secchi_behind_2010_340_4_03.ptp           82535272 (+0.01)
REDO secchi_behind_2010_340_5_03.ptp           82601726 (+0.00)
REDO secchi_behind_2010_340_6_03.ptp           82576992 (+0.01)
REDO secchi_behind_2010_337_2_03.ptp           82121052 (+0.01)
REDO secchi_behind_2010_337_3_03.ptp           82538550 (+0.01)
REDO secchi_behind_2010_337_4_03.ptp           93342540 (+0.01)
REDO secchi_behind_2010_337_5_03.ptp           82227140 (+0.01)
REDO secchi_behind_2010_337_6_03.ptp           82429780 (+0.01)
REDO secchi_behind_2010_340_2_03.ptp           81962814 (+0.01)
REDO secchi_behind_2010_340_3_03.ptp           72606210 (+0.00)
REDO secchi_behind_2010_340_4_03.ptp           82535272 (+0.01)
REDO secchi_behind_2010_340_5_03.ptp           82601726 (+0.00)
REDO secchi_behind_2010_340_6_03.ptp           82576992 (+0.01)
REDO secchi_behind_2010_337_2_03.ptp           82121052 (+0.01)
REDO secchi_behind_2010_337_3_03.ptp           82538550 (+0.01)
REDO secchi_behind_2010_337_4_03.ptp           93342540 (+0.01)
REDO secchi_behind_2010_337_5_03.ptp           82227140 (+0.01)
REDO secchi_behind_2010_337_6_03.ptp           82429780 (+0.01)
REDO secchi_behind_2010_355_5_03.ptp          176944056 (+0.00)
REDO secchi_behind_2010_355_6_03.ptp           82605898 (+0.01)
REDO secchi_behind_2010_340_2_03.ptp           81962814 (+0.01)
REDO secchi_behind_2010_340_3_03.ptp           72606210 (+0.00)
REDO secchi_behind_2010_340_4_03.ptp           82535272 (+0.01)
REDO secchi_behind_2010_340_5_03.ptp           82601726 (+0.00)
REDO secchi_behind_2010_340_6_03.ptp           82576992 (+0.01)
REDO secchi_behind_2010_356_6_03.ptp           91430572 (+0.00)
REDO secchi_behind_2010_355_5_03.ptp          176944056 (+0.00)
REDO secchi_behind_2010_355_6_03.ptp           82605898 (+0.01)
REDO secchi_behind_2010_356_6_03.ptp           91430572 (+0.00)
REDO secchi_behind_2010_319_3_06.fin           81927352 (+0.07)
REDO secchi_behind_2010_320_5_06.fin           82464646 (+0.10)
REDO secchi_behind_2010_320_6_06.fin           82122840 (+0.98)
REDO secchi_behind_2010_321_1_06.fin           81663920 (+0.14)
REDO secchi_behind_2010_321_2_06.fin           70947840 (+1.00)
REDO secchi_behind_2010_321_3_06.fin           60224310 (+0.08)
REDO secchi_behind_2010_355_5_03.ptp          176944056 (+0.00)
REDO secchi_behind_2010_355_6_03.ptp           82605898 (+0.01)
REDO secchi_behind_2010_356_6_03.ptp           91430572 (+0.00)
REDO secchi_behind_2010_337_2_03.ptp           82121052 (+0.01)
REDO secchi_behind_2010_337_3_03.ptp           82538550 (+0.01)
REDO secchi_behind_2010_337_4_03.ptp           93342540 (+0.01)
REDO secchi_behind_2010_337_5_03.ptp           82227140 (+0.01)
REDO secchi_behind_2010_337_6_03.ptp           82429780 (+0.01)
REDO secchi_behind_2010_340_2_03.ptp           81962814 (+0.01)
REDO secchi_behind_2010_340_3_03.ptp           72606210 (+0.00)
REDO secchi_behind_2010_340_4_03.ptp           82535272 (+0.01)
REDO secchi_behind_2010_340_5_03.ptp           82601726 (+0.00)
REDO secchi_behind_2010_340_6_03.ptp           82576992 (+0.01)
