REDO secchi_behind_2011_003_5_03.ptp          100762740 (+0.00)
REDO secchi_behind_2011_003_6_03.ptp          100665592 (+0.01)
REDO secchi_behind_2011_003_5_03.ptp          100762740 (+0.00)
REDO secchi_behind_2011_003_6_03.ptp          100665592 (+0.01)
REDO secchi_behind_2011_003_5_03.ptp          100762740 (+0.00)
REDO secchi_behind_2011_003_6_03.ptp          100665592 (+0.01)
REDO secchi_behind_2011_026_6_04.ptp           81676138 (+0.62)
REDO secchi_behind_2011_033_3_03.ptp           82594574 (+0.01)
REDO secchi_behind_2011_033_4_03.ptp           82668478 (+0.01)
REDO secchi_behind_2011_033_5_03.ptp           82692318 (+0.00)
REDO secchi_behind_2011_033_6_03.ptp           82660134 (+0.01)
REDO secchi_behind_2011_019_6_05.ptp           81643656 (+0.32)
REDO secchi_behind_2011_035_6_03.ptp          100977598 (+0.01)
REDO secchi_behind_2011_020_1_05.ptp           76445642 (+0.71)
REDO secchi_behind_2011_022_5_04.ptp           82225948 (+0.08)
REDO secchi_behind_2011_047_6_03.ptp           82588018 (+0.01)
REDO secchi_behind_2011_004_3_05.fin          100785686 (+0.00)
REDO secchi_behind_2011_004_4_05.fin          100667380 (+0.01)
REDO secchi_behind_2011_006_5_05.fin          185853362 (+0.13)
REDO secchi_behind_2011_046_5_05.ptp           82294190 (+0.20)
REDO secchi_behind_2011_046_6_05.ptp           82133866 (+0.32)
REDO secchi_behind_2011_056_6_03.ptp           82712284 (+0.01)
REDO secchi_behind_2011_058_3_03.ptp           92059054 (+0.02)
REDO secchi_behind_2011_056_6_03.ptp           82712284 (+0.01)
REDO secchi_behind_2011_063_5_04.ptp           82935188 (+0.46)
REDO secchi_behind_2011_063_6_04.ptp           82874396 (+0.06)
REDO secchi_behind_2011_020_1_07.fin           81622200 (+0.06)
REDO secchi_behind_2011_066_5_04.ptp          170403552 (+0.26)
REDO secchi_behind_2011_076_4_03.ptp          158552986 (+0.30)
REDO secchi_behind_2011_084_5_03.ptp          156165410 (+0.00)
REDO secchi_behind_2011_084_6_03.ptp          101609954 (+0.01)
REDO secchi_behind_2011_085_2_03.ptp          196410906 (+0.01)
REDO secchi_behind_2011_086_2_03.ptp          101375726 (+0.01)
REDO secchi_behind_2011_086_3_03.ptp          101743458 (+0.01)
REDO secchi_behind_2011_086_4_03.ptp          101444862 (+0.01)
REDO secchi_behind_2011_086_5_03.ptp          101838520 (+0.00)
REDO secchi_behind_2011_086_6_03.ptp          101715446 (+0.01)
REDO secchi_behind_2011_093_1_03.ptp          189369464 (+0.25)
REDO secchi_behind_2011_093_2_03.ptp          135987830 (+0.02)
REDO secchi_behind_2011_107_4_03.ptp          172596236 (+0.10)
REDO secchi_behind_2011_107_5_03.ptp          124969578 (+0.18)
REDO secchi_behind_2011_113_6_03.ptp          102384158 (+0.00)
REDO secchi_behind_2011_117_3_03.ptp          135655560 (+0.14)
REDO secchi_behind_2011_119_6_03.ptp           83514202 (+0.01)
REDO secchi_behind_2011_119_6_03.ptp           83514202 (+0.01)
REDO secchi_behind_2011_132_6_03.ptp          100456098 (+0.01)
REDO secchi_behind_2011_137_2_03.ptp           83189680 (+0.01)
REDO secchi_behind_2011_137_3_03.ptp           83324674 (+0.01)
REDO secchi_behind_2011_137_4_03.ptp           84580446 (+0.01)
REDO secchi_behind_2011_137_5_03.ptp           97415604 (+0.00)
REDO secchi_behind_2011_137_6_03.ptp           83438808 (+0.01)
REDO secchi_behind_2011_132_6_03.ptp          100456098 (+0.01)
REDO secchi_behind_2011_139_5_03.ptp          129089130 (+0.00)
REDO secchi_behind_2011_139_6_03.ptp           83371162 (+0.01)
REDO secchi_behind_2011_140_6_03.ptp          177964110 (+0.00)
REDO secchi_behind_2011_143_3_03.ptp          100774064 (+0.28)
REDO secchi_behind_2011_143_4_03.ptp          100881642 (+0.12)
REDO secchi_behind_2011_137_2_03.ptp           83189680 (+0.01)
REDO secchi_behind_2011_137_3_03.ptp           83324674 (+0.01)
REDO secchi_behind_2011_137_4_03.ptp           84580446 (+0.01)
REDO secchi_behind_2011_137_5_03.ptp           97415604 (+0.00)
REDO secchi_behind_2011_137_6_03.ptp           83438808 (+0.01)
REDO secchi_behind_2011_139_5_03.ptp          129089130 (+0.00)
REDO secchi_behind_2011_139_6_03.ptp           83371162 (+0.01)
REDO secchi_behind_2011_140_6_04.ptp          177964110 (+0.00)
REDO secchi_behind_2011_132_6_03.ptp          100456098 (+0.01)
REDO secchi_behind_2011_149_2_03.ptp          101398076 (+0.01)
REDO secchi_behind_2011_149_3_03.ptp          176942566 (+0.05)
REDO secchi_behind_2011_149_4_03.ptp          135831678 (+0.26)
REDO secchi_behind_2011_149_5_03.ptp          101460060 (+0.00)
REDO secchi_behind_2011_149_6_03.ptp          101348608 (+0.01)
REDO secchi_behind_2011_143_3_03.ptp          100774064 (+0.28)
REDO secchi_behind_2011_143_4_03.ptp          100881642 (+0.12)
REDO secchi_behind_2011_137_2_03.ptp           83189680 (+0.01)
REDO secchi_behind_2011_137_3_03.ptp           83324674 (+0.01)
REDO secchi_behind_2011_137_4_03.ptp           84580446 (+0.01)
REDO secchi_behind_2011_137_5_03.ptp           97415604 (+0.00)
REDO secchi_behind_2011_137_6_03.ptp           83438808 (+0.01)
REDO secchi_behind_2011_140_6_04.ptp          177964110 (+0.00)
REDO secchi_behind_2011_139_5_03.ptp          129089130 (+0.00)
REDO secchi_behind_2011_139_6_03.ptp           83371162 (+0.01)
REDO secchi_behind_2011_140_6_04.ptp          177964110 (+0.00)
REDO secchi_behind_2011_159_2_03.ptp           82540934 (+0.01)
REDO secchi_behind_2011_159_3_03.ptp           82933102 (+0.01)
REDO secchi_behind_2011_159_4_03.ptp           82906282 (+0.01)
REDO secchi_behind_2011_159_5_03.ptp           99363034 (+0.00)
REDO secchi_behind_2011_159_6_03.ptp           82874098 (+0.01)
REDO secchi_behind_2011_159_2_03.ptp           82540934 (+0.01)
REDO secchi_behind_2011_159_3_03.ptp           82933102 (+0.01)
REDO secchi_behind_2011_159_4_03.ptp           82906282 (+0.01)
REDO secchi_behind_2011_159_5_03.ptp           99363034 (+0.00)
REDO secchi_behind_2011_159_6_03.ptp           82874098 (+0.01)
REDO secchi_behind_2011_171_6_03.ptp           97990744 (+0.07)
REDO secchi_behind_2011_159_2_03.ptp           82540934 (+0.01)
REDO secchi_behind_2011_159_3_03.ptp           82933102 (+0.01)
REDO secchi_behind_2011_159_4_03.ptp           82906282 (+0.01)
REDO secchi_behind_2011_159_5_03.ptp           99363034 (+0.00)
REDO secchi_behind_2011_159_6_03.ptp           82874098 (+0.01)
REDO secchi_behind_2011_175_2_03.ptp          101053886 (+0.01)
REDO secchi_behind_2011_175_3_03.ptp          101230004 (+0.01)
REDO secchi_behind_2011_175_4_03.ptp          100912932 (+0.01)
REDO secchi_behind_2011_175_5_03.ptp          101201992 (+0.01)
REDO secchi_behind_2011_175_6_03.ptp          135239552 (+0.00)
REDO secchi_behind_2011_175_2_03.ptp          101053886 (+0.01)
REDO secchi_behind_2011_175_3_03.ptp          101230004 (+0.01)
REDO secchi_behind_2011_175_4_03.ptp          100912932 (+0.01)
REDO secchi_behind_2011_175_5_03.ptp          101201992 (+0.01)
REDO secchi_behind_2011_175_6_03.ptp          135239552 (+0.00)
REDO secchi_behind_2011_137_2_04.fin           83189680 (+0.01)
REDO secchi_behind_2011_137_3_04.fin           83324674 (+0.01)
REDO secchi_behind_2011_137_4_04.fin           84580446 (+0.01)
REDO secchi_behind_2011_137_5_04.fin           97415604 (+0.00)
REDO secchi_behind_2011_137_6_04.fin           83438808 (+0.01)
REDO secchi_behind_2011_184_2_03.ptp          100648308 (+0.01)
REDO secchi_behind_2011_184_3_03.ptp          101136134 (+0.01)
REDO secchi_behind_2011_184_4_03.ptp          155781288 (+0.00)
REDO secchi_behind_2011_184_6_03.ptp          116812126 (+0.01)
REDO secchi_behind_2011_178_6_03.ptp          197720020 (+0.00)
REDO secchi_behind_2011_139_5_04.fin          129089130 (+0.00)
REDO secchi_behind_2011_139_6_04.fin           83371162 (+0.01)
REDO secchi_behind_2011_140_6_05.fin          177964110 (+0.00)
REDO secchi_behind_2011_186_6_03.ptp          177345462 (+0.00)
REDO secchi_behind_2011_184_2_03.ptp          100648308 (+0.01)
REDO secchi_behind_2011_184_3_03.ptp          101136134 (+0.01)
REDO secchi_behind_2011_184_4_03.ptp          155781288 (+0.00)
REDO secchi_behind_2011_184_6_03.ptp          116812126 (+0.01)
REDO secchi_behind_2011_175_2_03.ptp          101053886 (+0.01)
REDO secchi_behind_2011_175_3_03.ptp          101230004 (+0.01)
REDO secchi_behind_2011_175_4_03.ptp          100912932 (+0.01)
REDO secchi_behind_2011_175_5_03.ptp          101201992 (+0.01)
REDO secchi_behind_2011_175_6_03.ptp          135239552 (+0.00)
REDO secchi_behind_2011_178_6_03.ptp          197720020 (+0.00)
REDO secchi_behind_2011_189_3_03.ptp          128611734 (+0.01)
REDO secchi_behind_2011_189_4_03.ptp          100579768 (+0.01)
REDO secchi_behind_2011_189_5_03.ptp          100885814 (+0.01)
REDO secchi_behind_2011_189_6_03.ptp          113405688 (+0.01)
REDO secchi_behind_2011_184_2_03.ptp          100648308 (+0.01)
REDO secchi_behind_2011_184_3_03.ptp          101136134 (+0.01)
REDO secchi_behind_2011_184_4_03.ptp          155781288 (+0.00)
REDO secchi_behind_2011_184_6_03.ptp          116812126 (+0.01)
REDO secchi_behind_2011_206_5_03.ptp          154127984 (+0.10)
REDO secchi_behind_2011_207_4_03.ptp           81195762 (+0.00)
REDO secchi_behind_2011_207_5_03.ptp           82452130 (+0.01)
REDO secchi_behind_2011_207_6_03.ptp           82367498 (+0.01)
REDO secchi_behind_2011_222_1_05.ptp           84476146 (+0.00)
REDO secchi_behind_2011_222_2_05.ptp           71383218 (+0.09)
REDO secchi_behind_2011_222_3_05.ptp           63999076 (+0.19)
REDO secchi_behind_2011_222_5_05.ptp           87209998 (+0.26)
REDO secchi_behind_2011_222_6_05.ptp           85892838 (+0.81)
REDO secchi_behind_2011_221_4_05.ptp          124075578 (+0.00)
REDO secchi_behind_2011_221_5_05.ptp           52414922 (+0.02)
REDO secchi_behind_2011_221_6_05.ptp           71383814 (+0.01)
REDO secchi_behind_2011_235_2_04.ptp           72330858 (+0.53)
REDO secchi_behind_2011_235_3_04.ptp           27106378 (+0.82)
REDO secchi_behind_2011_235_4_04.ptp           70445710 (+0.00)
REDO secchi_behind_2011_235_5_04.ptp           93281152 (+0.06)
REDO secchi_behind_2011_241_5_03.ptp          109393118 (+0.01)
REDO secchi_behind_2011_241_6_03.ptp           82503386 (+0.01)
REDO secchi_behind_2011_251_6_03.ptp          139112360 (+0.22)
REDO secchi_behind_2011_268_5_03.ptp           82858006 (+0.01)
REDO secchi_behind_2011_268_6_03.ptp           82774864 (+0.01)
REDO secchi_behind_2011_271_6_03.ptp           71666914 (+0.01)
REDO secchi_behind_2011_274_5_03.ptp           82898832 (+0.01)
REDO secchi_behind_2011_274_6_03.ptp          110606574 (+0.00)
REDO secchi_behind_2011_276_5_03.ptp          104466880 (+0.01)
REDO secchi_behind_2011_276_6_03.ptp           52813348 (+0.02)
REDO secchi_behind_2011_239_1_04.fin           88317366 (+0.00)
REDO secchi_behind_2011_295_1_03.ptp          147966238 (+0.21)
REDO secchi_behind_2011_307_6_03.ptp          166063480 (+0.31)
REDO secchi_behind_2011_312_5_03.ptp           95236330 (+0.00)
REDO secchi_behind_2011_322_6_03.ptp          100420040 (+0.56)
REDO secchi_behind_2011_317_3_03.ptp           72031666 (+0.01)
REDO secchi_behind_2011_317_4_03.ptp           97827738 (+0.00)
REDO secchi_behind_2011_317_5_03.ptp          134489486 (+0.21)
REDO secchi_behind_2011_317_6_03.ptp           72266192 (+0.00)
REDO secchi_behind_2011_324_1_03.ptp           71112932 (+0.00)
REDO secchi_behind_2011_324_2_03.ptp           71957166 (+0.01)
REDO secchi_behind_2011_324_3_03.ptp           72029282 (+0.01)
REDO secchi_behind_2011_324_4_03.ptp           87490118 (+0.01)
REDO secchi_behind_2011_324_5_03.ptp           77361992 (+0.06)
REDO secchi_behind_2011_324_6_03.ptp           92998350 (+0.73)
REDO secchi_behind_2011_332_5_03.ptp          128176058 (+0.00)
REDO secchi_behind_2011_332_6_03.ptp           83030250 (+0.01)
REDO secchi_behind_2011_339_5_03.ptp           83040680 (+0.01)
REDO secchi_behind_2011_339_6_03.ptp           84843580 (+0.01)
REDO secchi_behind_2011_295_1_04.fin          151031466 (+0.02)
REDO secchi_behind_2011_342_5_03.ptp           88754234 (+0.01)
REDO secchi_behind_2011_342_6_03.ptp           71820086 (+0.01)
REDO secchi_behind_2011_336_4_03.ptp           82683378 (+0.31)
REDO secchi_behind_2011_336_5_03.ptp          123305248 (+0.02)
REDO secchi_behind_2011_344_3_03.ptp           82906580 (+0.00)
REDO secchi_behind_2011_344_4_03.ptp           82542126 (+0.01)
REDO secchi_behind_2011_344_5_03.ptp           92989708 (+0.00)
REDO secchi_behind_2011_344_6_03.ptp          115156438 (+0.01)
REDO secchi_behind_2011_359_5_03.ptp          177391056 (+0.00)
REDO secchi_behind_2011_322_1_04.fin           88971476 (+0.00)
REDO secchi_behind_2011_323_4_04.fin           63878684 (+0.00)
