REDO secchi_ahead_2013_006_2_03.ptp           52467668 (+0.26)
REDO secchi_ahead_2013_006_3_03.ptp           52439358 (+1.00)
REDO secchi_ahead_2013_006_4_03.ptp           71659464 (+0.71)
REDO secchi_ahead_2013_006_5_03.ptp           53088104 (+0.94)
REDO secchi_ahead_2013_006_6_03.ptp           52514752 (+1.00)
REDO secchi_ahead_2013_005_5_03.ptp           56395606 (+0.75)
REDO secchi_ahead_2013_005_6_03.ptp           52691168 (+0.98)
REDO secchi_ahead_2013_034_6_03.ptp           80926668 (+0.01)
REDO secchi_ahead_2013_034_6_03.ptp           80926668 (+0.01)
REDO secchi_ahead_2013_037_5_03.ptp           77713036 (+0.06)
REDO secchi_ahead_2013_037_5_03.ptp           77713036 (+0.06)
REDO secchi_ahead_2013_041_1_03.ptp           52492700 (+0.00)
REDO secchi_ahead_2013_041_2_03.ptp           53711818 (+0.02)
REDO secchi_ahead_2013_041_3_03.ptp           53665628 (+0.02)
REDO secchi_ahead_2013_041_4_03.ptp           53670992 (+0.01)
REDO secchi_ahead_2013_041_5_03.ptp           53702878 (+0.00)
REDO secchi_ahead_2013_041_6_03.ptp           53699600 (+0.01)
REDO secchi_ahead_2013_034_6_03.ptp           80926668 (+0.01)
REDO secchi_ahead_2013_044_1_03.ptp           73754404 (+0.29)
REDO secchi_ahead_2013_044_3_03.ptp           52634846 (+0.12)
REDO secchi_ahead_2013_044_4_03.ptp           53053834 (+0.96)
REDO secchi_ahead_2013_044_5_03.ptp           52875928 (+0.98)
REDO secchi_ahead_2013_044_6_03.ptp           52635740 (+1.00)
REDO secchi_ahead_2013_043_6_05.ptp          141112834 (+0.54)
REDO secchi_ahead_2013_044_1_04.ptp           73754404 (+0.29)
REDO secchi_ahead_2013_044_3_04.ptp           52634846 (+0.12)
REDO secchi_ahead_2013_044_4_04.ptp           53053834 (+0.96)
REDO secchi_ahead_2013_044_5_04.ptp           52875928 (+0.98)
REDO secchi_ahead_2013_044_6_04.ptp           52635740 (+1.00)
REDO secchi_ahead_2013_034_6_03.ptp           80926668 (+0.01)
REDO secchi_ahead_2013_048_5_04.ptp          165332188 (+0.00)
REDO secchi_ahead_2013_048_6_04.ptp           83448940 (+0.01)
REDO secchi_ahead_2013_034_6_03.ptp           80926668 (+0.01)
REDO secchi_ahead_2013_054_6_03.ptp          176631454 (+0.30)
REDO secchi_ahead_2013_055_1_03.ptp           98135572 (+0.08)
REDO secchi_ahead_2013_054_6_04.ptp          179241040 (+0.01)
REDO secchi_ahead_2013_048_5_04.ptp          165332188 (+0.00)
REDO secchi_ahead_2013_048_6_04.ptp           83448940 (+0.01)
REDO secchi_ahead_2013_059_1_03.ptp           70650436 (+0.00)
REDO secchi_ahead_2013_059_2_03.ptp           72053718 (+0.01)
REDO secchi_ahead_2013_059_3_03.ptp           72211658 (+0.01)
REDO secchi_ahead_2013_059_4_03.ptp           87049078 (+0.01)
REDO secchi_ahead_2013_059_5_03.ptp           83374738 (+0.01)
REDO secchi_ahead_2013_059_6_03.ptp          114431702 (+0.00)
REDO secchi_ahead_2013_060_5_03.ptp           83293682 (+0.00)
REDO secchi_ahead_2013_060_6_03.ptp           83289808 (+0.01)
REDO secchi_ahead_2013_054_6_04.ptp          179241040 (+0.01)
REDO secchi_ahead_2013_048_5_04.ptp          165332188 (+0.00)
REDO secchi_ahead_2013_048_6_04.ptp           83448940 (+0.01)
REDO secchi_ahead_2013_072_1_03.ptp           76667056 (+0.01)
REDO secchi_ahead_2013_072_2_03.ptp           82979292 (+0.01)
REDO secchi_ahead_2013_072_3_03.ptp           82984656 (+0.01)
REDO secchi_ahead_2013_072_4_03.ptp          105228568 (+0.00)
REDO secchi_ahead_2013_072_5_03.ptp           82998662 (+0.01)
REDO secchi_ahead_2013_072_6_03.ptp           82952472 (+0.92)
REDO secchi_ahead_2013_071_6_04.ptp           71391264 (+0.01)
REDO secchi_ahead_2013_054_6_04.ptp          179241040 (+0.01)
REDO secchi_ahead_2013_076_4_03.ptp           98951198 (+0.01)
REDO secchi_ahead_2013_076_5_03.ptp          154217980 (+0.17)
REDO secchi_ahead_2013_080_1_03.ptp           70318762 (+0.00)
REDO secchi_ahead_2013_080_2_03.ptp           71665722 (+0.01)
REDO secchi_ahead_2013_080_3_03.ptp           72996888 (+0.01)
REDO secchi_ahead_2013_080_4_03.ptp          153341562 (+0.00)
REDO secchi_ahead_2013_080_6_03.ptp          148693060 (+0.34)
REDO secchi_ahead_2013_034_6_04.fin           80926668 (+0.01)
REDO secchi_ahead_2013_085_2_03.ptp           86414338 (+0.00)
REDO secchi_ahead_2013_087_5_03.ptp          146532560 (+0.35)
REDO secchi_ahead_2013_087_6_03.ptp          111417432 (+0.08)
REDO secchi_ahead_2013_085_2_04.ptp           86414338 (+0.00)
REDO secchi_ahead_2013_043_6_06.fin          141131012 (+0.00)
REDO secchi_ahead_2013_048_5_05.fin          165332188 (+0.00)
REDO secchi_ahead_2013_048_6_05.fin           83448940 (+0.01)
REDO secchi_ahead_2013_097_4_03.ptp           71964914 (+0.00)
REDO secchi_ahead_2013_097_5_03.ptp           71907400 (+0.01)
REDO secchi_ahead_2013_097_6_03.ptp           71949716 (+0.01)
REDO secchi_ahead_2013_097_4_04.ptp           71964914 (+0.00)
REDO secchi_ahead_2013_097_5_04.ptp           71907400 (+0.01)
REDO secchi_ahead_2013_097_6_04.ptp           71949716 (+0.01)
REDO secchi_ahead_2013_100_2_03.ptp           62102604 (+0.01)
REDO secchi_ahead_2013_100_3_03.ptp           71865084 (+0.01)
REDO secchi_ahead_2013_100_4_03.ptp           86768362 (+0.00)
REDO secchi_ahead_2013_100_5_03.ptp           71896970 (+0.01)
REDO secchi_ahead_2013_100_6_03.ptp           96197678 (+0.01)
REDO secchi_ahead_2013_101_1_03.ptp           75128482 (+0.05)
REDO secchi_ahead_2013_101_2_03.ptp          167678640 (+0.38)
REDO secchi_ahead_2013_054_6_05.fin          179241040 (+0.01)
REDO secchi_ahead_2013_102_6_03.ptp           82930420 (+0.01)
REDO secchi_ahead_2013_100_2_04.ptp           62102604 (+0.01)
REDO secchi_ahead_2013_100_3_04.ptp           71865084 (+0.01)
REDO secchi_ahead_2013_100_4_04.ptp           86768362 (+0.00)
REDO secchi_ahead_2013_100_5_04.ptp           71896970 (+0.01)
REDO secchi_ahead_2013_100_6_04.ptp           96197678 (+0.01)
REDO secchi_ahead_2013_100_2_04.ptp           62102604 (+0.01)
REDO secchi_ahead_2013_100_3_04.ptp           71865084 (+0.01)
REDO secchi_ahead_2013_100_4_04.ptp           86768362 (+0.00)
REDO secchi_ahead_2013_100_5_04.ptp           71896970 (+0.01)
REDO secchi_ahead_2013_100_6_04.ptp           96197678 (+0.01)
REDO secchi_ahead_2013_102_6_04.ptp           82930420 (+0.01)
REDO secchi_ahead_2013_097_4_04.ptp           71964914 (+0.00)
REDO secchi_ahead_2013_097_5_04.ptp           71907400 (+0.01)
REDO secchi_ahead_2013_097_6_04.ptp           71949716 (+0.01)
REDO secchi_ahead_2013_108_5_03.ptp          179203492 (+0.28)
REDO secchi_ahead_2013_108_6_03.ptp           93006992 (+0.11)
REDO secchi_ahead_2013_100_2_04.ptp           62102604 (+0.01)
REDO secchi_ahead_2013_100_3_04.ptp           71865084 (+0.01)
REDO secchi_ahead_2013_100_4_04.ptp           86768362 (+0.00)
REDO secchi_ahead_2013_100_5_04.ptp           71896970 (+0.01)
REDO secchi_ahead_2013_100_6_04.ptp           96197678 (+0.01)
REDO secchi_ahead_2013_102_6_04.ptp           82930420 (+0.01)
REDO secchi_ahead_2013_064_2_05.fin           72086796 (+0.00)
REDO secchi_ahead_2013_113_2_03.ptp           52765370 (+0.01)
REDO secchi_ahead_2013_113_3_03.ptp           81446976 (+0.00)
REDO secchi_ahead_2013_113_4_03.ptp           53047874 (+0.00)
REDO secchi_ahead_2013_113_5_03.ptp           71345968 (+0.01)
REDO secchi_ahead_2013_113_6_03.ptp           71866574 (+0.01)
REDO secchi_ahead_2013_114_1_03.ptp           74748234 (+0.05)
REDO secchi_ahead_2013_114_2_03.ptp          168179578 (+0.34)
REDO secchi_ahead_2013_097_4_04.ptp           71964914 (+0.00)
REDO secchi_ahead_2013_097_5_04.ptp           71907400 (+0.01)
REDO secchi_ahead_2013_097_6_04.ptp           71949716 (+0.01)
REDO secchi_ahead_2013_113_2_04.ptp           52765370 (+0.01)
REDO secchi_ahead_2013_113_3_04.ptp           81446976 (+0.00)
REDO secchi_ahead_2013_113_4_04.ptp           53047874 (+0.00)
REDO secchi_ahead_2013_113_5_04.ptp           71345968 (+0.01)
REDO secchi_ahead_2013_113_6_04.ptp           71866574 (+0.01)
REDO secchi_ahead_2013_117_2_03.ptp          102941418 (+0.00)
REDO secchi_ahead_2013_117_4_03.ptp          150665522 (+0.00)
REDO secchi_ahead_2013_117_5_03.ptp           83044554 (+0.01)
REDO secchi_ahead_2013_117_6_03.ptp           83045448 (+0.01)
REDO secchi_ahead_2013_100_2_04.ptp           62102604 (+0.01)
REDO secchi_ahead_2013_100_3_04.ptp           71865084 (+0.01)
REDO secchi_ahead_2013_100_4_04.ptp           86768362 (+0.00)
REDO secchi_ahead_2013_100_5_04.ptp           71896970 (+0.01)
REDO secchi_ahead_2013_100_6_04.ptp           96197678 (+0.01)
REDO secchi_ahead_2013_117_2_04.ptp          102941418 (+0.00)
REDO secchi_ahead_2013_117_4_04.ptp          150665522 (+0.00)
REDO secchi_ahead_2013_117_5_04.ptp           83044554 (+0.01)
REDO secchi_ahead_2013_117_6_04.ptp           83045448 (+0.01)
REDO secchi_ahead_2013_102_6_04.ptp           82930420 (+0.01)
REDO secchi_ahead_2013_121_1_03.ptp          162477348 (+0.21)
REDO secchi_ahead_2013_113_2_04.ptp           52765370 (+0.01)
REDO secchi_ahead_2013_113_3_04.ptp           81446976 (+0.00)
REDO secchi_ahead_2013_113_4_04.ptp           53047874 (+0.00)
REDO secchi_ahead_2013_113_5_04.ptp           71345968 (+0.01)
REDO secchi_ahead_2013_113_6_04.ptp           71866574 (+0.01)
REDO secchi_ahead_2013_122_1_03.ptp           70613186 (+0.00)
REDO secchi_ahead_2013_122_2_03.ptp           71775386 (+0.00)
REDO secchi_ahead_2013_122_3_03.ptp           71881474 (+0.01)
REDO secchi_ahead_2013_122_4_03.ptp           71908294 (+0.01)
REDO secchi_ahead_2013_122_5_03.ptp           71914552 (+0.01)
REDO secchi_ahead_2013_122_6_03.ptp           71882070 (+0.01)
REDO secchi_ahead_2013_124_5_03.ptp           92927724 (+0.01)
REDO secchi_ahead_2013_124_6_03.ptp           83068692 (+0.01)
REDO secchi_ahead_2013_122_2_04.ptp           71775386 (+0.00)
REDO secchi_ahead_2013_122_3_04.ptp           71881474 (+0.01)
REDO secchi_ahead_2013_122_4_04.ptp           71908294 (+0.01)
REDO secchi_ahead_2013_122_5_04.ptp           71914552 (+0.01)
REDO secchi_ahead_2013_122_6_04.ptp           71882070 (+0.01)
REDO secchi_ahead_2013_117_2_04.ptp          102941418 (+0.00)
REDO secchi_ahead_2013_117_4_04.ptp          150665522 (+0.00)
REDO secchi_ahead_2013_117_5_04.ptp           83044554 (+0.01)
REDO secchi_ahead_2013_117_6_04.ptp           83045448 (+0.01)
REDO secchi_ahead_2013_124_5_04.ptp           92927724 (+0.01)
REDO secchi_ahead_2013_124_6_04.ptp           83068692 (+0.01)
REDO secchi_ahead_2013_128_1_03.ptp           52090698 (+0.01)
REDO secchi_ahead_2013_128_2_03.ptp           92505160 (+0.00)
REDO secchi_ahead_2013_128_3_03.ptp           53069628 (+0.00)
REDO secchi_ahead_2013_128_4_03.ptp           62533214 (+0.01)
REDO secchi_ahead_2013_128_5_03.ptp           71962530 (+0.01)
REDO secchi_ahead_2013_128_6_03.ptp           71974450 (+0.01)
REDO secchi_ahead_2013_124_5_04.ptp           92927724 (+0.01)
REDO secchi_ahead_2013_124_6_04.ptp           83068692 (+0.01)
REDO secchi_ahead_2013_133_1_03.ptp          150457220 (+0.02)
REDO secchi_ahead_2013_117_2_04.ptp          102941418 (+0.00)
REDO secchi_ahead_2013_117_4_04.ptp          150665522 (+0.00)
REDO secchi_ahead_2013_117_5_04.ptp           83044554 (+0.01)
REDO secchi_ahead_2013_117_6_04.ptp           83045448 (+0.01)
REDO secchi_ahead_2013_128_1_04.ptp           52090698 (+0.01)
REDO secchi_ahead_2013_128_2_04.ptp           92505160 (+0.00)
REDO secchi_ahead_2013_128_3_04.ptp           53069628 (+0.00)
REDO secchi_ahead_2013_128_4_04.ptp           62533214 (+0.01)
REDO secchi_ahead_2013_128_5_04.ptp           71962530 (+0.01)
REDO secchi_ahead_2013_128_6_04.ptp           71974450 (+0.01)
REDO secchi_ahead_2013_138_5_03.ptp           52493594 (+0.00)
REDO secchi_ahead_2013_138_6_03.ptp           53192106 (+0.02)
REDO secchi_ahead_2013_122_2_04.ptp           71775386 (+0.00)
REDO secchi_ahead_2013_122_3_04.ptp           71881474 (+0.01)
REDO secchi_ahead_2013_122_4_04.ptp           71908294 (+0.01)
REDO secchi_ahead_2013_122_5_04.ptp           71914552 (+0.01)
REDO secchi_ahead_2013_122_6_04.ptp           71882070 (+0.01)
REDO secchi_ahead_2013_113_2_04.ptp           52765370 (+0.01)
REDO secchi_ahead_2013_113_3_04.ptp           81446976 (+0.00)
REDO secchi_ahead_2013_113_4_04.ptp           53047874 (+0.00)
REDO secchi_ahead_2013_113_5_04.ptp           71345968 (+0.01)
REDO secchi_ahead_2013_113_6_04.ptp           71866574 (+0.01)
REDO secchi_ahead_2013_124_5_04.ptp           92927724 (+0.01)
REDO secchi_ahead_2013_124_6_04.ptp           83068692 (+0.01)
REDO secchi_ahead_2013_142_3_03.ptp          142231824 (+0.11)
REDO secchi_ahead_2013_144_3_03.ptp           83278782 (+0.01)
REDO secchi_ahead_2013_144_4_03.ptp           83302920 (+0.01)
REDO secchi_ahead_2013_144_5_03.ptp           83348514 (+0.01)
REDO secchi_ahead_2013_144_6_03.ptp           83338084 (+0.00)
REDO secchi_ahead_2013_097_4_05.fin           71964914 (+0.00)
REDO secchi_ahead_2013_097_5_05.fin           71907400 (+0.01)
REDO secchi_ahead_2013_097_6_05.fin           71949716 (+0.01)
REDO secchi_ahead_2013_128_1_04.ptp           52090698 (+0.01)
REDO secchi_ahead_2013_128_2_04.ptp           92505160 (+0.00)
REDO secchi_ahead_2013_128_3_04.ptp           53069628 (+0.00)
REDO secchi_ahead_2013_128_4_04.ptp           62533214 (+0.01)
REDO secchi_ahead_2013_128_5_04.ptp           71962530 (+0.01)
REDO secchi_ahead_2013_128_6_04.ptp           71974450 (+0.01)
REDO secchi_ahead_2013_100_2_05.fin           62102604 (+0.01)
REDO secchi_ahead_2013_100_3_05.fin           71865084 (+0.01)
REDO secchi_ahead_2013_100_4_05.fin           86768362 (+0.00)
REDO secchi_ahead_2013_100_5_05.fin           71896970 (+0.01)
REDO secchi_ahead_2013_100_6_05.fin           96197678 (+0.01)
REDO secchi_ahead_2013_155_6_03.ptp          145597138 (+0.24)
REDO secchi_ahead_2013_156_1_03.ptp           60108686 (+0.06)
REDO secchi_ahead_2013_157_4_03.ptp           72193778 (+0.00)
REDO secchi_ahead_2013_157_5_03.ptp           71703568 (+0.00)
REDO secchi_ahead_2013_157_4_04.ptp           72193778 (+0.00)
REDO secchi_ahead_2013_157_5_04.ptp           71703568 (+0.00)
REDO secchi_ahead_2013_162_6_04.ptp          146293564 (+0.00)
REDO secchi_ahead_2013_117_2_05.fin          102941418 (+0.00)
REDO secchi_ahead_2013_117_4_05.fin          150665522 (+0.00)
REDO secchi_ahead_2013_117_5_05.fin           83044554 (+0.01)
REDO secchi_ahead_2013_117_6_05.fin           83045448 (+0.01)
REDO secchi_ahead_2013_157_4_04.ptp           72193778 (+0.00)
REDO secchi_ahead_2013_157_5_04.ptp           71703568 (+0.00)
REDO secchi_ahead_2013_167_4_03.ptp          166748582 (+0.06)
REDO secchi_ahead_2013_170_6_03.ptp           52768350 (+0.83)
REDO secchi_ahead_2013_162_6_04.ptp          146293564 (+0.00)
REDO secchi_ahead_2013_175_1_03.ptp           84636172 (+0.12)
REDO secchi_ahead_2013_128_1_05.fin           52090698 (+0.01)
REDO secchi_ahead_2013_128_2_05.fin           92505160 (+0.00)
REDO secchi_ahead_2013_128_3_05.fin           53069628 (+0.00)
REDO secchi_ahead_2013_128_4_05.fin           62533214 (+0.01)
REDO secchi_ahead_2013_128_5_05.fin           71962530 (+0.01)
REDO secchi_ahead_2013_128_6_05.fin           71974450 (+0.01)
REDO secchi_ahead_2013_176_5_03.ptp           52985294 (+0.67)
REDO secchi_ahead_2013_176_6_03.ptp           53173034 (+0.97)
REDO secchi_ahead_2013_175_1_04.ptp          113609222 (+0.26)
REDO secchi_ahead_2013_175_2_04.ptp           90220096 (+0.15)
REDO secchi_ahead_2013_176_1_04.ptp           52388400 (+0.84)
REDO secchi_ahead_2013_176_5_04.ptp           52985294 (+0.67)
REDO secchi_ahead_2013_176_6_04.ptp           53173034 (+0.97)
REDO secchi_ahead_2013_128_1_05.fin           52090698 (+0.01)
REDO secchi_ahead_2013_128_2_05.fin           92505160 (+0.00)
REDO secchi_ahead_2013_128_3_05.fin           53069628 (+0.00)
REDO secchi_ahead_2013_128_4_05.fin           62533214 (+0.01)
REDO secchi_ahead_2013_128_5_05.fin           71962530 (+0.01)
REDO secchi_ahead_2013_128_6_05.fin           71974450 (+0.01)
REDO secchi_ahead_2013_162_6_04.ptp          146293564 (+0.00)
REDO secchi_ahead_2013_182_5_04.ptp           97098830 (+0.23)
REDO secchi_ahead_2013_182_6_04.ptp           82245318 (+0.36)
REDO secchi_ahead_2013_182_5_04.ptp           97098830 (+0.23)
REDO secchi_ahead_2013_182_6_04.ptp           82245318 (+0.36)
REDO secchi_ahead_2013_157_4_05.fin           72193778 (+0.00)
REDO secchi_ahead_2013_157_5_05.fin           71703568 (+0.00)
REDO secchi_ahead_2013_189_4_03.ptp           99236682 (+0.00)
REDO secchi_ahead_2013_189_5_03.ptp           73072878 (+0.01)
REDO secchi_ahead_2013_189_6_03.ptp           73040098 (+0.01)
REDO secchi_ahead_2013_189_4_04.ptp           99236682 (+0.00)
REDO secchi_ahead_2013_189_5_04.ptp           73072878 (+0.01)
REDO secchi_ahead_2013_189_6_04.ptp           73040098 (+0.01)
REDO secchi_ahead_2013_194_1_03.ptp           53603644 (+0.01)
REDO secchi_ahead_2013_194_2_03.ptp           54320036 (+0.02)
REDO secchi_ahead_2013_194_3_03.ptp           54375166 (+0.02)
REDO secchi_ahead_2013_194_4_03.ptp           85709568 (+0.00)
REDO secchi_ahead_2013_194_6_03.ptp           54326294 (+0.02)
REDO secchi_ahead_2013_155_6_05.fin          154353570 (+0.06)
REDO secchi_ahead_2013_204_5_03.ptp           73242142 (+0.01)
REDO secchi_ahead_2013_204_6_03.ptp           73156318 (+0.88)
REDO secchi_ahead_2013_157_4_05.fin           72193778 (+0.00)
REDO secchi_ahead_2013_157_5_05.fin           71703568 (+0.00)
REDO secchi_ahead_2013_206_5_03.ptp           78722958 (+0.01)
REDO secchi_ahead_2013_206_6_03.ptp           73061256 (+0.74)
REDO secchi_ahead_2013_204_5_04.ptp           73242142 (+0.01)
REDO secchi_ahead_2013_204_6_04.ptp           73156318 (+0.88)
REDO secchi_ahead_2013_189_4_04.ptp           99236682 (+0.00)
REDO secchi_ahead_2013_189_5_04.ptp           73072878 (+0.01)
REDO secchi_ahead_2013_189_6_04.ptp           73040098 (+0.01)
REDO secchi_ahead_2013_208_5_03.ptp           78729812 (+0.00)
REDO secchi_ahead_2013_208_6_03.ptp           84281552 (+0.01)
REDO secchi_ahead_2013_162_6_05.fin          146293564 (+0.00)
REDO secchi_ahead_2013_208_5_04.ptp           78729812 (+0.00)
REDO secchi_ahead_2013_208_6_04.ptp           84281552 (+0.01)
REDO secchi_ahead_2013_211_5_03.ptp           92345432 (+0.01)
REDO secchi_ahead_2013_211_6_03.ptp           72947718 (+0.01)
REDO secchi_ahead_2013_211_5_04.ptp           92345432 (+0.01)
REDO secchi_ahead_2013_211_6_04.ptp           72947718 (+0.01)
REDO secchi_ahead_2013_216_6_04.ptp           52973076 (+0.84)
REDO secchi_ahead_2013_211_5_04.ptp           92345432 (+0.01)
REDO secchi_ahead_2013_211_6_04.ptp           72947718 (+0.01)
REDO secchi_ahead_2013_208_5_04.ptp           78729812 (+0.00)
REDO secchi_ahead_2013_208_6_04.ptp           84281552 (+0.01)
REDO secchi_ahead_2013_211_5_04.ptp           92345432 (+0.01)
REDO secchi_ahead_2013_211_6_04.ptp           72947718 (+0.01)
REDO secchi_ahead_2013_182_6_05.fin          115230938 (+0.29)
REDO secchi_ahead_2013_230_4_03.ptp           62911078 (+0.01)
REDO secchi_ahead_2013_230_5_03.ptp           53492788 (+0.02)
REDO secchi_ahead_2013_230_6_03.ptp           53407858 (+0.02)
REDO secchi_ahead_2013_232_1_03.ptp           78233046 (+0.10)
REDO secchi_ahead_2013_232_4_03.ptp           71377258 (+0.70)
REDO secchi_ahead_2013_232_5_03.ptp           71345968 (+1.00)
REDO secchi_ahead_2013_232_6_03.ptp           71819192 (+0.97)
REDO secchi_ahead_2013_231_6_04.ptp          167291836 (+0.46)
REDO secchi_ahead_2013_232_1_04.ptp           78233046 (+0.10)
REDO secchi_ahead_2013_232_4_04.ptp           71377258 (+0.70)
REDO secchi_ahead_2013_232_5_04.ptp           71345968 (+1.00)
REDO secchi_ahead_2013_232_6_04.ptp           71819192 (+0.97)
REDO secchi_ahead_2013_240_1_04.ptp           75166924 (+0.01)
REDO secchi_ahead_2013_240_2_04.ptp          168291626 (+0.39)
REDO secchi_ahead_2013_240_3_04.ptp           82025692 (+0.01)
REDO secchi_ahead_2013_240_4_04.ptp           72089478 (+0.01)
REDO secchi_ahead_2013_240_5_04.ptp           72134178 (+0.01)
REDO secchi_ahead_2013_240_6_04.ptp           72077558 (+0.01)
REDO secchi_ahead_2013_239_5_04.ptp           71806080 (+0.00)
REDO secchi_ahead_2013_239_6_04.ptp          112148128 (+0.00)
REDO secchi_ahead_2013_239_5_04.ptp           71806080 (+0.00)
REDO secchi_ahead_2013_239_6_04.ptp          112148128 (+0.00)
REDO secchi_ahead_2013_237_4_04.ptp           72205102 (+0.01)
REDO secchi_ahead_2013_237_5_04.ptp           72188712 (+0.01)
REDO secchi_ahead_2013_237_6_04.ptp           72181262 (+0.72)
REDO secchi_ahead_2013_189_4_05.fin           99236682 (+0.00)
REDO secchi_ahead_2013_189_5_05.fin           73072878 (+0.01)
REDO secchi_ahead_2013_189_6_05.fin           73040098 (+0.01)
REDO secchi_ahead_2013_246_3_03.ptp          106061180 (+0.01)
REDO secchi_ahead_2013_246_4_03.ptp           53111348 (+0.02)
REDO secchi_ahead_2013_246_5_03.ptp           53111646 (+0.02)
REDO secchi_ahead_2013_246_6_03.ptp           53159326 (+0.02)
REDO secchi_ahead_2013_247_6_04.ptp           71981602 (+0.01)
REDO secchi_ahead_2013_255_2_03.ptp           53096746 (+0.01)
REDO secchi_ahead_2013_255_3_03.ptp           62468846 (+0.01)
REDO secchi_ahead_2013_255_4_03.ptp           56045456 (+0.00)
REDO secchi_ahead_2013_255_5_03.ptp           40352478 (+0.01)
REDO secchi_ahead_2013_255_6_03.ptp           71842436 (+0.61)
REDO secchi_ahead_2013_253_4_04.ptp          125410916 (+0.43)
REDO secchi_ahead_2013_253_5_04.ptp           52992446 (+0.02)
REDO secchi_ahead_2013_253_6_04.ptp           52987976 (+0.02)
REDO secchi_ahead_2013_247_6_04.ptp           71981602 (+0.01)
REDO secchi_ahead_2013_208_5_05.fin           78729812 (+0.00)
REDO secchi_ahead_2013_208_6_05.fin           84281552 (+0.01)
REDO secchi_ahead_2013_254_2_04.ptp           71709230 (+0.01)
REDO secchi_ahead_2013_254_3_04.ptp           71831410 (+0.01)
REDO secchi_ahead_2013_254_4_04.ptp           71849886 (+0.53)
REDO secchi_ahead_2013_254_5_04.ptp           71840052 (+1.00)
REDO secchi_ahead_2013_254_6_04.ptp           71799524 (+0.94)
REDO secchi_ahead_2013_239_5_04.ptp           71806080 (+0.00)
REDO secchi_ahead_2013_239_6_04.ptp          112148128 (+0.00)
REDO secchi_ahead_2013_211_5_05.fin           92345432 (+0.01)
REDO secchi_ahead_2013_211_6_05.fin           72947718 (+0.01)
REDO secchi_ahead_2013_260_3_04.ptp           99525444 (+0.01)
REDO secchi_ahead_2013_260_4_04.ptp           71904718 (+0.01)
REDO secchi_ahead_2013_260_5_04.ptp           71874918 (+0.01)
REDO secchi_ahead_2013_260_6_04.ptp           71870746 (+0.36)
REDO secchi_ahead_2013_267_5_04.ptp           99806458 (+0.01)
REDO secchi_ahead_2013_267_6_04.ptp           94071150 (+0.45)
REDO secchi_ahead_2013_265_5_04.ptp           52788316 (+0.00)
REDO secchi_ahead_2013_265_6_04.ptp           62292728 (+0.01)
REDO secchi_ahead_2013_272_4_03.ptp           52874140 (+0.02)
REDO secchi_ahead_2013_272_5_03.ptp           80774688 (+0.21)
REDO secchi_ahead_2013_272_6_03.ptp          153734028 (+0.94)
REDO secchi_ahead_2013_270_1_04.ptp           52410750 (+0.02)
REDO secchi_ahead_2013_270_2_04.ptp           52813646 (+0.02)
REDO secchi_ahead_2013_270_3_04.ptp           71013102 (+0.01)
REDO secchi_ahead_2013_270_4_04.ptp           71639796 (+0.01)
REDO secchi_ahead_2013_270_5_04.ptp           71543244 (+0.70)
REDO secchi_ahead_2013_270_6_04.ptp           71674662 (+0.99)
REDO secchi_ahead_2013_269_6_04.ptp           52865498 (+0.02)
REDO secchi_ahead_2013_265_5_05.ptp           52788316 (+0.00)
REDO secchi_ahead_2013_265_6_05.ptp           62292728 (+0.01)
REDO secchi_ahead_2013_269_6_04.ptp           52865498 (+0.02)
REDO secchi_ahead_2013_275_2_03.ptp           52768052 (+0.02)
REDO secchi_ahead_2013_275_3_03.ptp           52854174 (+0.02)
REDO secchi_ahead_2013_275_4_03.ptp           52917648 (+0.02)
REDO secchi_ahead_2013_275_5_03.ptp           52884272 (+0.76)
REDO secchi_ahead_2013_275_6_03.ptp           52961454 (+1.00)
REDO secchi_ahead_2013_269_6_04.ptp           52865498 (+0.02)
REDO secchi_ahead_2013_280_5_03.ptp           52920032 (+0.02)
REDO secchi_ahead_2013_280_6_03.ptp           52847618 (+0.02)
REDO secchi_ahead_2013_282_6_03.ptp           10145410 (+0.08)
REDO secchi_ahead_2013_280_5_04.ptp           52920032 (+0.02)
REDO secchi_ahead_2013_280_6_04.ptp           52847618 (+0.02)
REDO secchi_ahead_2013_265_5_05.ptp           52788316 (+0.00)
REDO secchi_ahead_2013_265_6_05.ptp           62292728 (+0.01)
REDO secchi_ahead_2013_282_6_04.ptp           10145410 (+0.08)
REDO secchi_ahead_2013_285_3_03.ptp          117771984 (+0.00)
REDO secchi_ahead_2013_285_4_03.ptp           71295606 (+0.01)
REDO secchi_ahead_2013_285_5_03.ptp           73109532 (+0.01)
REDO secchi_ahead_2013_285_6_03.ptp           71517616 (+0.01)
REDO secchi_ahead_2013_269_6_04.ptp           52865498 (+0.02)
REDO secchi_ahead_2013_239_5_05.fin           71806080 (+0.00)
REDO secchi_ahead_2013_239_6_05.fin          112148128 (+0.00)
REDO secchi_ahead_2013_289_5_04.ptp           45663732 (+0.82)
REDO secchi_ahead_2013_289_6_04.ptp           44208896 (+1.00)
REDO secchi_ahead_2013_280_5_04.ptp           52920032 (+0.02)
REDO secchi_ahead_2013_280_6_04.ptp           52847618 (+0.02)
REDO secchi_ahead_2013_293_5_03.ptp           73196250 (+0.00)
REDO secchi_ahead_2013_293_6_03.ptp           71490200 (+0.01)
REDO secchi_ahead_2013_285_3_04.ptp          117771984 (+0.00)
REDO secchi_ahead_2013_285_4_04.ptp           71295606 (+0.01)
REDO secchi_ahead_2013_285_5_04.ptp           73109532 (+0.01)
REDO secchi_ahead_2013_285_6_04.ptp           71517616 (+0.01)
REDO secchi_ahead_2013_246_3_05.fin          106061180 (+0.01)
REDO secchi_ahead_2013_246_4_05.fin           53111348 (+0.02)
REDO secchi_ahead_2013_246_5_05.fin           53111646 (+0.02)
REDO secchi_ahead_2013_246_6_05.fin           53159326 (+0.02)
REDO secchi_ahead_2013_247_6_05.fin           71981602 (+0.01)
REDO secchi_ahead_2013_293_5_04.ptp           73196250 (+0.00)
REDO secchi_ahead_2013_293_6_04.ptp           71490200 (+0.01)
REDO secchi_ahead_2013_296_1_03.ptp           52342210 (+0.02)
REDO secchi_ahead_2013_296_2_03.ptp           54198452 (+0.02)
REDO secchi_ahead_2013_296_3_03.ptp           63454630 (+0.01)
REDO secchi_ahead_2013_296_4_03.ptp          118120644 (+0.00)
REDO secchi_ahead_2013_296_5_03.ptp           73017748 (+0.03)
REDO secchi_ahead_2013_296_6_03.ptp           83307390 (+0.80)
REDO secchi_ahead_2013_295_6_04.ptp           51961962 (+0.00)
REDO secchi_ahead_2013_280_5_04.ptp           52920032 (+0.02)
REDO secchi_ahead_2013_280_6_04.ptp           52847618 (+0.02)
REDO secchi_ahead_2013_298_4_03.ptp          178807450 (+0.13)
REDO secchi_ahead_2013_298_5_03.ptp           94227600 (+0.10)
REDO secchi_ahead_2013_295_6_04.ptp           51961962 (+0.00)
REDO secchi_ahead_2013_280_5_04.ptp           52920032 (+0.02)
REDO secchi_ahead_2013_280_6_04.ptp           52847618 (+0.02)
REDO secchi_ahead_2013_299_3_03.ptp           82916712 (+0.01)
REDO secchi_ahead_2013_299_4_03.ptp           82812114 (+0.01)
REDO secchi_ahead_2013_299_5_03.ptp           84349794 (+0.00)
REDO secchi_ahead_2013_299_6_03.ptp           82949492 (+0.00)
REDO secchi_ahead_2013_295_6_04.ptp           51961962 (+0.00)
REDO secchi_ahead_2013_293_5_04.ptp           73196250 (+0.00)
REDO secchi_ahead_2013_293_6_04.ptp           71490200 (+0.01)
REDO secchi_ahead_2013_299_3_04.ptp           82916712 (+0.01)
REDO secchi_ahead_2013_299_4_04.ptp           82812114 (+0.01)
REDO secchi_ahead_2013_299_5_04.ptp           84349794 (+0.00)
REDO secchi_ahead_2013_299_6_04.ptp           82949492 (+0.00)
REDO secchi_ahead_2013_293_5_04.ptp           73196250 (+0.00)
REDO secchi_ahead_2013_293_6_04.ptp           71490200 (+0.01)
REDO secchi_ahead_2013_302_6_03.ptp           76051388 (+0.25)
REDO secchi_ahead_2013_285_3_04.ptp          117771984 (+0.00)
REDO secchi_ahead_2013_285_4_04.ptp           71295606 (+0.01)
REDO secchi_ahead_2013_285_5_04.ptp           73109532 (+0.01)
REDO secchi_ahead_2013_285_6_04.ptp           71517616 (+0.01)
REDO secchi_ahead_2013_304_1_03.ptp           44879992 (+0.01)
REDO secchi_ahead_2013_304_2_03.ptp           49894736 (+0.01)
REDO secchi_ahead_2013_304_3_03.ptp           53021352 (+0.43)
REDO secchi_ahead_2013_304_4_03.ptp           53076482 (+1.00)
REDO secchi_ahead_2013_304_5_03.ptp           54485128 (+1.00)
REDO secchi_ahead_2013_304_6_03.ptp           19653696 (+1.00)
REDO secchi_ahead_2013_302_6_04.ptp           95159148 (+0.40)
REDO secchi_ahead_2013_303_5_04.ptp           45860114 (+0.41)
REDO secchi_ahead_2013_303_6_04.ptp           44835888 (+0.94)
REDO secchi_ahead_2013_299_3_04.ptp           82916712 (+0.01)
REDO secchi_ahead_2013_299_4_04.ptp           82812114 (+0.01)
REDO secchi_ahead_2013_299_5_04.ptp           84349794 (+0.00)
REDO secchi_ahead_2013_299_6_04.ptp           82949492 (+0.00)
REDO secchi_ahead_2013_309_5_04.ptp           46014776 (+0.67)
REDO secchi_ahead_2013_309_6_04.ptp           44471434 (+1.00)
REDO secchi_ahead_2013_293_5_04.ptp           73196250 (+0.00)
REDO secchi_ahead_2013_293_6_04.ptp           71490200 (+0.01)
REDO secchi_ahead_2013_309_5_04.ptp           46014776 (+0.67)
REDO secchi_ahead_2013_309_6_04.ptp           44471434 (+1.00)
REDO secchi_ahead_2013_295_6_04.ptp           51961962 (+0.00)
REDO secchi_ahead_2013_265_5_06.fin           52788316 (+0.00)
REDO secchi_ahead_2013_265_6_06.fin           62292728 (+0.01)
REDO secchi_ahead_2013_314_1_03.ptp           52803514 (+0.02)
REDO secchi_ahead_2013_314_2_03.ptp           58237544 (+0.01)
REDO secchi_ahead_2013_314_3_03.ptp           66725180 (+0.40)
REDO secchi_ahead_2013_314_4_03.ptp           52828248 (+1.00)
REDO secchi_ahead_2013_314_5_03.ptp           54598964 (+1.00)
REDO secchi_ahead_2013_314_6_03.ptp           52993042 (+1.00)
REDO secchi_ahead_2013_306_6_04.ptp           66998446 (+0.01)
REDO secchi_ahead_2013_313_6_04.ptp           54933916 (+0.01)
REDO secchi_ahead_2013_316_2_04.ptp          125424624 (+0.12)
REDO secchi_ahead_2013_316_3_04.ptp          129937834 (+0.08)
REDO secchi_ahead_2013_316_5_04.ptp           46638192 (+0.02)
REDO secchi_ahead_2013_316_6_04.ptp           45260836 (+0.02)
REDO secchi_ahead_2013_299_3_04.ptp           82916712 (+0.01)
REDO secchi_ahead_2013_299_4_04.ptp           82812114 (+0.01)
REDO secchi_ahead_2013_299_5_04.ptp           84349794 (+0.00)
REDO secchi_ahead_2013_299_6_04.ptp           82949492 (+0.00)
REDO secchi_ahead_2013_269_6_05.fin           52865498 (+0.02)
REDO secchi_ahead_2013_313_6_04.ptp           54933916 (+0.01)
REDO secchi_ahead_2013_321_3_04.ptp           81469326 (+0.01)
REDO secchi_ahead_2013_321_4_04.ptp           45220010 (+0.01)
REDO secchi_ahead_2013_321_5_04.ptp           46574718 (+0.02)
REDO secchi_ahead_2013_321_6_04.ptp           45238486 (+0.02)
REDO secchi_ahead_2013_313_6_04.ptp           54933916 (+0.01)
REDO secchi_ahead_2013_324_3_04.ptp           49893246 (+0.00)
REDO secchi_ahead_2013_324_4_04.ptp           45348746 (+0.02)
REDO secchi_ahead_2013_324_5_04.ptp           46951688 (+0.02)
REDO secchi_ahead_2013_324_6_04.ptp           45452152 (+0.02)
REDO secchi_ahead_2013_280_5_05.fin           52920032 (+0.02)
REDO secchi_ahead_2013_280_6_05.fin           52847618 (+0.02)
REDO secchi_ahead_2013_321_3_04.ptp           81469326 (+0.01)
REDO secchi_ahead_2013_321_4_04.ptp           45220010 (+0.01)
REDO secchi_ahead_2013_321_5_04.ptp           46574718 (+0.02)
REDO secchi_ahead_2013_321_6_04.ptp           45238486 (+0.02)
REDO secchi_ahead_2013_313_6_04.ptp           54933916 (+0.01)
REDO secchi_ahead_2013_331_6_03.ptp          184164894 (+0.06)
REDO secchi_ahead_2013_324_3_04.ptp           49893246 (+0.00)
REDO secchi_ahead_2013_324_4_04.ptp           45348746 (+0.02)
REDO secchi_ahead_2013_324_5_04.ptp           46951688 (+0.02)
REDO secchi_ahead_2013_324_6_04.ptp           45452152 (+0.02)
REDO secchi_ahead_2013_285_3_05.fin          117771984 (+0.00)
REDO secchi_ahead_2013_285_4_05.fin           71295606 (+0.01)
REDO secchi_ahead_2013_285_5_05.fin           73109532 (+0.01)
REDO secchi_ahead_2013_285_6_05.fin           71517616 (+0.01)
REDO secchi_ahead_2013_331_6_04.ptp          184164894 (+0.06)
REDO secchi_ahead_2013_336_4_03.ptp           83589596 (+0.01)
REDO secchi_ahead_2013_336_5_03.ptp           57834946 (+0.02)
REDO secchi_ahead_2013_336_6_03.ptp           57904082 (+0.02)
REDO secchi_ahead_2013_338_1_03.ptp           51077200 (+0.01)
REDO secchi_ahead_2013_338_2_03.ptp           75371054 (+0.43)
REDO secchi_ahead_2013_338_3_03.ptp           86141966 (+0.88)
REDO secchi_ahead_2013_338_4_03.ptp           90783018 (+0.82)
REDO secchi_ahead_2013_338_5_03.ptp           76823506 (+1.00)
REDO secchi_ahead_2013_338_6_03.ptp           76804732 (+1.00)
REDO secchi_ahead_2013_336_4_04.ptp           83589596 (+0.01)
REDO secchi_ahead_2013_336_5_04.ptp           57834946 (+0.02)
REDO secchi_ahead_2013_336_6_04.ptp           57904082 (+0.02)
REDO secchi_ahead_2013_321_3_04.ptp           81469326 (+0.01)
REDO secchi_ahead_2013_321_4_04.ptp           45220010 (+0.01)
REDO secchi_ahead_2013_321_5_04.ptp           46574718 (+0.02)
REDO secchi_ahead_2013_321_6_04.ptp           45238486 (+0.02)
REDO secchi_ahead_2013_339_2_03.ptp           90357772 (+0.17)
REDO secchi_ahead_2013_339_3_03.ptp          171543700 (+0.39)
REDO secchi_ahead_2013_339_6_03.ptp           65562086 (+0.34)
REDO secchi_ahead_2013_337_5_04.ptp           76720696 (+0.00)
REDO secchi_ahead_2013_337_6_04.ptp           76414054 (+0.01)
REDO secchi_ahead_2013_331_6_04.ptp          184164894 (+0.06)
REDO secchi_ahead_2013_295_6_05.fin           51961962 (+0.00)
REDO secchi_ahead_2013_337_5_04.ptp           76720696 (+0.00)
REDO secchi_ahead_2013_337_6_04.ptp           76414054 (+0.01)
REDO secchi_ahead_2013_313_6_05.fin           54933916 (+0.01)
REDO secchi_ahead_2013_336_4_04.ptp           83589596 (+0.01)
REDO secchi_ahead_2013_336_5_04.ptp           57834946 (+0.02)
REDO secchi_ahead_2013_336_6_04.ptp           57904082 (+0.02)
REDO secchi_ahead_2013_346_2_03.ptp           87544950 (+0.00)
REDO secchi_ahead_2013_346_3_03.ptp           85408886 (+0.27)
REDO secchi_ahead_2013_346_4_03.ptp           58156786 (+0.39)
REDO secchi_ahead_2013_346_5_03.ptp           57080112 (+1.00)
REDO secchi_ahead_2013_346_6_03.ptp           53563116 (+1.00)
REDO secchi_ahead_2013_299_3_05.fin           82916712 (+0.01)
REDO secchi_ahead_2013_299_4_05.fin           82812114 (+0.01)
REDO secchi_ahead_2013_299_5_05.fin           84349794 (+0.00)
REDO secchi_ahead_2013_299_6_05.fin           82949492 (+0.00)
REDO secchi_ahead_2013_337_5_04.ptp           76720696 (+0.00)
REDO secchi_ahead_2013_337_6_04.ptp           76414054 (+0.01)
REDO secchi_ahead_2013_336_4_04.ptp           83589596 (+0.01)
REDO secchi_ahead_2013_336_5_04.ptp           57834946 (+0.02)
REDO secchi_ahead_2013_336_6_04.ptp           57904082 (+0.02)
REDO secchi_ahead_2013_352_5_03.ptp           71480366 (+0.36)
REDO secchi_ahead_2013_352_6_03.ptp           71420468 (+1.00)
REDO secchi_ahead_2013_351_6_04.ptp           52629482 (+0.04)
REDO secchi_ahead_2013_336_4_04.ptp           83589596 (+0.01)
REDO secchi_ahead_2013_336_5_04.ptp           57834946 (+0.02)
REDO secchi_ahead_2013_336_6_04.ptp           57904082 (+0.02)
REDO secchi_ahead_2013_306_6_05.fin           66998446 (+0.01)
REDO secchi_ahead_2013_337_5_04.ptp           76720696 (+0.00)
REDO secchi_ahead_2013_337_6_04.ptp           76414054 (+0.01)
REDO secchi_ahead_2013_358_5_04.ptp          101123320 (+0.04)
REDO secchi_ahead_2013_358_6_04.ptp           53532422 (+1.00)
REDO secchi_ahead_2013_313_6_05.fin           54933916 (+0.01)
REDO secchi_ahead_2013_362_4_03.ptp           37754812 (+0.46)
REDO secchi_ahead_2013_362_5_03.ptp           33522318 (+1.00)
REDO secchi_ahead_2013_321_3_05.fin           81469326 (+0.01)
REDO secchi_ahead_2013_321_4_05.fin           45220010 (+0.01)
REDO secchi_ahead_2013_321_5_05.fin           46574718 (+0.02)
REDO secchi_ahead_2013_321_6_05.fin           45238486 (+0.02)
REDO secchi_ahead_2013_362_4_03.ptp           37754812 (+0.46)
REDO secchi_ahead_2013_362_5_03.ptp           33522318 (+1.00)
REDO secchi_ahead_2013_324_3_05.fin           49893246 (+0.00)
REDO secchi_ahead_2013_324_4_05.fin           45348746 (+0.02)
REDO secchi_ahead_2013_324_5_05.fin           46951688 (+0.02)
REDO secchi_ahead_2013_324_6_05.fin           45452152 (+0.02)
REDO secchi_ahead_2013_362_4_03.ptp           37754812 (+0.46)
REDO secchi_ahead_2013_362_5_03.ptp           33522318 (+1.00)
REDO secchi_ahead_2013_336_4_04.ptp           83589596 (+0.01)
REDO secchi_ahead_2013_336_5_04.ptp           57834946 (+0.02)
REDO secchi_ahead_2013_336_6_04.ptp           57904082 (+0.02)
REDO secchi_ahead_2013_337_5_04.ptp           76720696 (+0.00)
REDO secchi_ahead_2013_337_6_04.ptp           76414054 (+0.01)
REDO secchi_ahead_2013_362_4_03.ptp           37754812 (+0.46)
REDO secchi_ahead_2013_362_5_03.ptp           33522318 (+1.00)
