REDO secchi_behind_2014_002_1_03.ptp           44001786 (+1.00)
REDO secchi_behind_2014_002_2_03.ptp           36896274 (+1.00)
REDO secchi_behind_2014_002_3_03.ptp           36878990 (+1.00)
REDO secchi_behind_2014_002_4_03.ptp           37384994 (+0.93)
REDO secchi_behind_2014_002_5_03.ptp           37724714 (+0.98)
REDO secchi_behind_2014_002_6_03.ptp           36889718 (+1.00)
REDO secchi_behind_2014_001_1_04.ptp           40386152 (+1.00)
REDO secchi_behind_2014_001_2_04.ptp           36920710 (+1.00)
REDO secchi_behind_2014_001_3_04.ptp           36922796 (+1.00)
REDO secchi_behind_2014_001_4_04.ptp           36912962 (+1.00)
REDO secchi_behind_2014_001_5_04.ptp           36990144 (+0.97)
REDO secchi_behind_2014_001_6_04.ptp           37518796 (+0.91)
REDO secchi_behind_2014_001_1_04.ptp           40386152 (+1.00)
REDO secchi_behind_2014_001_2_04.ptp           36920710 (+1.00)
REDO secchi_behind_2014_001_3_04.ptp           36922796 (+1.00)
REDO secchi_behind_2014_001_4_04.ptp           36912962 (+1.00)
REDO secchi_behind_2014_001_5_04.ptp           36990144 (+0.97)
REDO secchi_behind_2014_001_6_04.ptp           37518796 (+0.91)
REDO secchi_behind_2014_005_3_03.ptp           52552896 (+0.00)
REDO secchi_behind_2014_005_4_03.ptp           50342034 (+0.02)
REDO secchi_behind_2014_005_5_03.ptp           53094064 (+0.01)
REDO secchi_behind_2014_005_6_03.ptp           53122672 (+0.01)
REDO secchi_behind_2014_007_2_03.ptp           79360082 (+0.12)
REDO secchi_behind_2014_005_3_04.ptp           52552896 (+0.00)
REDO secchi_behind_2014_005_4_04.ptp           50342034 (+0.02)
REDO secchi_behind_2014_005_5_04.ptp           53094064 (+0.01)
REDO secchi_behind_2014_005_6_04.ptp           53122672 (+0.01)
REDO secchi_behind_2014_009_2_03.ptp           37197552 (+0.19)
REDO secchi_behind_2014_009_3_03.ptp           37438932 (+0.98)
REDO secchi_behind_2014_009_4_03.ptp           37487804 (+1.00)
REDO secchi_behind_2014_009_5_03.ptp           37520882 (+1.00)
REDO secchi_behind_2014_009_6_03.ptp           37311686 (+1.00)
REDO secchi_behind_2014_007_2_04.ptp          102731030 (+0.32)
REDO secchi_behind_2014_008_5_04.ptp           48309376 (+0.66)
REDO secchi_behind_2014_008_6_04.ptp           44759898 (+0.94)
REDO secchi_behind_2014_017_1_04.ptp           91993792 (+0.69)
REDO secchi_behind_2014_017_2_04.ptp           36419176 (+1.00)
REDO secchi_behind_2014_017_3_04.ptp           36524668 (+1.00)
REDO secchi_behind_2014_017_4_04.ptp           36323220 (+1.00)
REDO secchi_behind_2014_017_5_04.ptp           37221094 (+0.89)
REDO secchi_behind_2014_017_6_04.ptp           36981800 (+0.93)
REDO secchi_behind_2014_015_1_04.ptp           43802424 (+0.70)
REDO secchi_behind_2014_015_2_04.ptp           43997018 (+1.00)
REDO secchi_behind_2014_015_3_04.ptp           44164494 (+1.00)
REDO secchi_behind_2014_015_4_04.ptp           54444600 (+0.76)
REDO secchi_behind_2014_015_5_04.ptp           44099232 (+1.00)
REDO secchi_behind_2014_015_6_04.ptp           44136780 (+1.00)
REDO secchi_behind_2014_018_2_03.ptp           36401594 (+0.09)
REDO secchi_behind_2014_018_3_03.ptp           36583672 (+0.98)
REDO secchi_behind_2014_018_4_03.ptp           37234802 (+0.88)
REDO secchi_behind_2014_018_5_03.ptp           36993124 (+0.93)
REDO secchi_behind_2014_018_6_03.ptp           37359962 (+0.88)
REDO secchi_behind_2014_016_1_04.ptp           43762194 (+1.00)
REDO secchi_behind_2014_016_2_04.ptp           57060146 (+0.59)
REDO secchi_behind_2014_016_3_04.ptp           36507384 (+1.00)
REDO secchi_behind_2014_016_4_04.ptp           47872210 (+0.72)
REDO secchi_behind_2014_016_5_04.ptp           36738632 (+0.97)
REDO secchi_behind_2014_016_6_04.ptp           98005644 (+0.73)
REDO secchi_behind_2014_014_3_04.ptp           44170752 (+0.23)
REDO secchi_behind_2014_014_4_04.ptp           43952914 (+1.00)
REDO secchi_behind_2014_014_5_04.ptp           44256278 (+0.99)
REDO secchi_behind_2014_014_6_04.ptp           59083268 (+0.70)
REDO secchi_behind_2014_022_3_04.ptp           36498146 (+0.35)
REDO secchi_behind_2014_022_4_04.ptp           50394184 (+0.68)
REDO secchi_behind_2014_022_5_04.ptp           36703766 (+0.97)
REDO secchi_behind_2014_022_6_04.ptp           98098620 (+0.59)
REDO secchi_behind_2014_023_1_04.ptp           91897538 (+0.36)
REDO secchi_behind_2014_023_4_04.ptp           36431990 (+0.10)
REDO secchi_behind_2014_023_5_04.ptp           36566388 (+0.98)
REDO secchi_behind_2014_023_6_04.ptp           37298872 (+0.88)
REDO secchi_behind_2014_030_4_07.ptp          116730474 (+0.63)
REDO secchi_behind_2014_030_5_07.ptp           66183416 (+0.98)
REDO secchi_behind_2014_030_6_07.ptp           44662750 (+0.90)
REDO secchi_behind_2014_030_5_08.ptp           80954084 (+0.18)
REDO secchi_behind_2014_025_2_05.ptp           36332756 (+0.05)
REDO secchi_behind_2014_037_5_03.ptp           86495394 (+0.01)
REDO secchi_behind_2014_037_6_03.ptp           82831782 (+0.01)
REDO secchi_behind_2014_039_4_03.ptp          125782820 (+0.00)
REDO secchi_behind_2014_039_5_03.ptp           82617222 (+0.01)
REDO secchi_behind_2014_039_6_03.ptp          101083984 (+0.00)
REDO secchi_behind_2014_037_5_04.ptp           86495394 (+0.01)
REDO secchi_behind_2014_037_6_04.ptp           82831782 (+0.01)
REDO secchi_behind_2014_041_4_03.ptp          151004646 (+0.00)
REDO secchi_behind_2014_041_5_03.ptp           82776056 (+0.01)
REDO secchi_behind_2014_041_6_03.ptp           82725396 (+0.01)
REDO secchi_behind_2014_039_4_04.ptp          125782820 (+0.00)
REDO secchi_behind_2014_039_5_04.ptp           82617222 (+0.01)
REDO secchi_behind_2014_039_6_04.ptp          101083984 (+0.00)
REDO secchi_behind_2014_044_6_03.ptp           51964346 (+0.64)
REDO secchi_behind_2014_037_5_04.ptp           86495394 (+0.01)
REDO secchi_behind_2014_037_6_04.ptp           82831782 (+0.01)
REDO secchi_behind_2014_041_4_04.ptp          151004646 (+0.00)
REDO secchi_behind_2014_041_5_04.ptp           82776056 (+0.01)
REDO secchi_behind_2014_041_6_04.ptp           82725396 (+0.01)
REDO secchi_behind_2014_047_1_03.ptp           51534332 (+0.00)
REDO secchi_behind_2014_047_2_03.ptp           52367242 (+0.02)
REDO secchi_behind_2014_047_3_03.ptp           52403598 (+0.02)
REDO secchi_behind_2014_047_4_03.ptp           52390486 (+0.64)
REDO secchi_behind_2014_047_5_03.ptp           52493594 (+0.97)
REDO secchi_behind_2014_047_6_03.ptp           81272348 (+0.59)
REDO secchi_behind_2014_039_4_04.ptp          125782820 (+0.00)
REDO secchi_behind_2014_039_5_04.ptp           82617222 (+0.01)
REDO secchi_behind_2014_039_6_04.ptp          101083984 (+0.00)
REDO secchi_behind_2014_046_5_04.ptp           81022028 (+0.25)
REDO secchi_behind_2014_046_6_04.ptp           55800798 (+0.86)
REDO secchi_behind_2014_037_5_04.ptp           86495394 (+0.01)
REDO secchi_behind_2014_037_6_04.ptp           82831782 (+0.01)
REDO secchi_behind_2014_049_1_03.ptp          138962764 (+0.12)
REDO secchi_behind_2014_041_4_04.ptp          151004646 (+0.00)
REDO secchi_behind_2014_041_5_04.ptp           82776056 (+0.01)
REDO secchi_behind_2014_041_6_04.ptp           82725396 (+0.01)
REDO secchi_behind_2014_051_6_03.ptp           69254008 (+0.02)
REDO secchi_behind_2014_049_1_04.ptp          138962764 (+0.12)
REDO secchi_behind_2014_052_5_03.ptp           88340908 (+0.12)
REDO secchi_behind_2014_052_6_03.ptp           52397638 (+0.01)
REDO secchi_behind_2014_051_6_04.ptp           69254008 (+0.02)
REDO secchi_behind_2014_051_6_04.ptp           69254008 (+0.02)
REDO secchi_behind_2014_037_5_04.ptp           86495394 (+0.01)
REDO secchi_behind_2014_037_6_04.ptp           82831782 (+0.01)
REDO secchi_behind_2014_056_4_03.ptp           52392870 (+0.00)
REDO secchi_behind_2014_056_5_03.ptp           52337442 (+0.02)
REDO secchi_behind_2014_056_6_03.ptp           52399724 (+0.00)
REDO secchi_behind_2014_039_4_04.ptp          125782820 (+0.00)
REDO secchi_behind_2014_039_5_04.ptp           82617222 (+0.01)
REDO secchi_behind_2014_039_6_04.ptp          101083984 (+0.00)
REDO secchi_behind_2014_056_4_04.ptp           52392870 (+0.00)
REDO secchi_behind_2014_056_5_04.ptp           52337442 (+0.02)
REDO secchi_behind_2014_056_6_04.ptp           52399724 (+0.00)
REDO secchi_behind_2014_041_4_04.ptp          151004646 (+0.00)
REDO secchi_behind_2014_041_5_04.ptp           82776056 (+0.01)
REDO secchi_behind_2014_041_6_04.ptp           82725396 (+0.01)
REDO secchi_behind_2014_051_6_04.ptp           69254008 (+0.02)
REDO secchi_behind_2014_063_5_03.ptp          119569520 (+0.35)
REDO secchi_behind_2014_064_3_04.ptp           71331962 (+0.00)
REDO secchi_behind_2014_064_4_04.ptp           71299182 (+0.00)
REDO secchi_behind_2014_064_5_04.ptp           71280706 (+0.01)
REDO secchi_behind_2014_064_6_04.ptp           71325406 (+0.01)
REDO secchi_behind_2014_056_4_04.ptp           52392870 (+0.00)
REDO secchi_behind_2014_056_5_04.ptp           52337442 (+0.02)
REDO secchi_behind_2014_056_6_04.ptp           52399724 (+0.00)
REDO secchi_behind_2014_063_5_04.ptp          154531476 (+0.23)
REDO secchi_behind_2014_051_6_04.ptp           69254008 (+0.02)
REDO secchi_behind_2014_070_5_03.ptp           52097850 (+0.01)
REDO secchi_behind_2014_070_6_03.ptp           52293934 (+0.02)
REDO secchi_behind_2014_071_3_03.ptp           52354130 (+0.01)
REDO secchi_behind_2014_071_4_03.ptp           79029600 (+0.00)
REDO secchi_behind_2014_071_5_03.ptp           52260260 (+0.01)
REDO secchi_behind_2014_071_6_03.ptp           67767882 (+0.01)
REDO secchi_behind_2014_070_5_04.ptp           52097850 (+0.01)
REDO secchi_behind_2014_070_6_04.ptp           52293934 (+0.02)
REDO secchi_behind_2014_064_3_04.ptp           71331962 (+0.00)
REDO secchi_behind_2014_064_4_04.ptp           71299182 (+0.00)
REDO secchi_behind_2014_064_5_04.ptp           71280706 (+0.01)
REDO secchi_behind_2014_064_6_04.ptp           71325406 (+0.01)
REDO secchi_behind_2014_071_3_04.ptp           52354130 (+0.01)
REDO secchi_behind_2014_071_4_04.ptp           79029600 (+0.00)
REDO secchi_behind_2014_071_5_04.ptp           52260260 (+0.01)
REDO secchi_behind_2014_071_6_04.ptp           67767882 (+0.01)
REDO secchi_behind_2014_056_4_04.ptp           52392870 (+0.00)
REDO secchi_behind_2014_056_5_04.ptp           52337442 (+0.02)
REDO secchi_behind_2014_056_6_04.ptp           52399724 (+0.00)
REDO secchi_behind_2014_051_6_04.ptp           69254008 (+0.02)
REDO secchi_behind_2014_077_5_03.ptp           53712712 (+0.03)
REDO secchi_behind_2014_077_6_03.ptp           70346178 (+0.58)
REDO secchi_behind_2014_030_4_09.fin          116771598 (+0.00)
REDO secchi_behind_2014_078_5_03.ptp           52958474 (+0.05)
REDO secchi_behind_2014_078_6_03.ptp           68158262 (+0.59)
REDO secchi_behind_2014_070_5_04.ptp           52097850 (+0.01)
REDO secchi_behind_2014_070_6_04.ptp           52293934 (+0.02)
REDO secchi_behind_2014_079_3_03.ptp           51938122 (+0.59)
REDO secchi_behind_2014_079_4_03.ptp           79588052 (+0.60)
REDO secchi_behind_2014_079_5_03.ptp          151755010 (+0.68)
REDO secchi_behind_2014_079_6_03.ptp           62576722 (+0.98)
REDO secchi_behind_2014_071_3_04.ptp           52354130 (+0.01)
REDO secchi_behind_2014_071_4_04.ptp           79029600 (+0.00)
REDO secchi_behind_2014_071_5_04.ptp           52260260 (+0.01)
REDO secchi_behind_2014_071_6_04.ptp           67767882 (+0.01)
REDO secchi_behind_2014_030_4_09.fin          116771598 (+0.00)
REDO secchi_behind_2014_070_5_04.ptp           52097850 (+0.01)
REDO secchi_behind_2014_070_6_04.ptp           52293934 (+0.02)
REDO secchi_behind_2014_064_3_04.ptp           71331962 (+0.00)
REDO secchi_behind_2014_064_4_04.ptp           71299182 (+0.00)
REDO secchi_behind_2014_064_5_04.ptp           71280706 (+0.01)
REDO secchi_behind_2014_064_6_04.ptp           71325406 (+0.01)
REDO secchi_behind_2014_037_5_05.fin           86495394 (+0.01)
REDO secchi_behind_2014_037_6_05.fin           82831782 (+0.01)
REDO secchi_behind_2014_086_5_03.ptp           51533438 (+0.97)
REDO secchi_behind_2014_086_6_03.ptp           51236630 (+1.00)
REDO secchi_behind_2014_039_4_05.fin          125782820 (+0.00)
REDO secchi_behind_2014_039_5_05.fin           82617222 (+0.01)
REDO secchi_behind_2014_039_6_05.fin          101083984 (+0.00)
REDO secchi_behind_2014_070_5_04.ptp           52097850 (+0.01)
REDO secchi_behind_2014_070_6_04.ptp           52293934 (+0.02)
REDO secchi_behind_2014_071_3_04.ptp           52354130 (+0.01)
REDO secchi_behind_2014_071_4_04.ptp           79029600 (+0.00)
REDO secchi_behind_2014_071_5_04.ptp           52260260 (+0.01)
REDO secchi_behind_2014_071_6_04.ptp           67767882 (+0.01)
REDO secchi_behind_2014_041_4_05.fin          151004646 (+0.00)
REDO secchi_behind_2014_041_5_05.fin           82776056 (+0.01)
REDO secchi_behind_2014_041_6_05.fin           82725396 (+0.01)
REDO secchi_behind_2014_093_2_03.ptp          113473632 (+0.28)
REDO secchi_behind_2014_051_6_05.fin           69254008 (+0.02)
REDO secchi_behind_2014_102_1_03.ptp           75627036 (+0.00)
REDO secchi_behind_2014_102_2_03.ptp           82252768 (+0.01)
REDO secchi_behind_2014_102_3_03.ptp           82568648 (+0.01)
REDO secchi_behind_2014_102_4_03.ptp           82453620 (+0.01)
REDO secchi_behind_2014_102_5_03.ptp          120407198 (+0.00)
REDO secchi_behind_2014_102_6_03.ptp           82526630 (+0.00)
REDO secchi_behind_2014_056_4_05.fin           52392870 (+0.00)
REDO secchi_behind_2014_056_5_05.fin           52337442 (+0.02)
REDO secchi_behind_2014_056_6_05.fin           52399724 (+0.00)
REDO secchi_behind_2014_102_1_04.ptp           75627036 (+0.00)
REDO secchi_behind_2014_102_2_04.ptp           82252768 (+0.01)
REDO secchi_behind_2014_102_3_04.ptp           82568648 (+0.01)
REDO secchi_behind_2014_102_4_04.ptp           82453620 (+0.01)
REDO secchi_behind_2014_102_5_04.ptp          120407198 (+0.00)
REDO secchi_behind_2014_102_6_04.ptp           82526630 (+0.00)
REDO secchi_behind_2014_107_4_04.ptp          101589094 (+0.01)
REDO secchi_behind_2014_107_5_04.ptp          101156398 (+0.00)
REDO secchi_behind_2014_107_6_04.ptp           82493254 (+0.01)
REDO secchi_behind_2014_102_1_04.ptp           75627036 (+0.00)
REDO secchi_behind_2014_102_2_04.ptp           82252768 (+0.01)
REDO secchi_behind_2014_102_3_04.ptp           82568648 (+0.01)
REDO secchi_behind_2014_102_4_04.ptp           82453620 (+0.01)
REDO secchi_behind_2014_102_5_04.ptp          120407198 (+0.00)
REDO secchi_behind_2014_102_6_04.ptp           82526630 (+0.00)
REDO secchi_behind_2014_111_5_03.ptp           81756002 (+0.01)
REDO secchi_behind_2014_111_6_03.ptp           71541456 (+0.01)
REDO secchi_behind_2014_064_3_05.fin           71331962 (+0.00)
REDO secchi_behind_2014_064_4_05.fin           71299182 (+0.00)
REDO secchi_behind_2014_064_5_05.fin           71280706 (+0.01)
REDO secchi_behind_2014_064_6_05.fin           71325406 (+0.01)
REDO secchi_behind_2014_111_5_04.ptp           81756002 (+0.01)
REDO secchi_behind_2014_111_6_04.ptp           71541456 (+0.01)
REDO secchi_behind_2014_107_4_04.ptp          101589094 (+0.01)
REDO secchi_behind_2014_107_5_04.ptp          101156398 (+0.00)
REDO secchi_behind_2014_107_6_04.ptp           82493254 (+0.01)
REDO secchi_behind_2014_070_5_05.fin           52097850 (+0.01)
REDO secchi_behind_2014_070_6_05.fin           52293934 (+0.02)
REDO secchi_behind_2014_071_3_05.fin           52354130 (+0.01)
REDO secchi_behind_2014_071_4_05.fin           79029600 (+0.00)
REDO secchi_behind_2014_071_5_05.fin           52260260 (+0.01)
REDO secchi_behind_2014_071_6_05.fin           67767882 (+0.01)
REDO secchi_behind_2014_111_5_04.ptp           81756002 (+0.01)
REDO secchi_behind_2014_111_6_04.ptp           71541456 (+0.01)
REDO secchi_behind_2014_102_1_04.ptp           75627036 (+0.00)
REDO secchi_behind_2014_102_2_04.ptp           82252768 (+0.01)
REDO secchi_behind_2014_102_3_04.ptp           82568648 (+0.01)
REDO secchi_behind_2014_102_4_04.ptp           82453620 (+0.01)
REDO secchi_behind_2014_102_5_04.ptp          120407198 (+0.00)
REDO secchi_behind_2014_102_6_04.ptp           82526630 (+0.00)
REDO secchi_behind_2014_107_4_04.ptp          101589094 (+0.01)
REDO secchi_behind_2014_107_5_04.ptp          101156398 (+0.00)
REDO secchi_behind_2014_107_6_04.ptp           82493254 (+0.01)
REDO secchi_behind_2014_126_5_04.ptp          153986136 (+0.21)
REDO secchi_behind_2014_126_6_04.ptp           54268780 (+0.92)
REDO secchi_behind_2014_111_5_04.ptp           81756002 (+0.01)
REDO secchi_behind_2014_111_6_04.ptp           71541456 (+0.01)
REDO secchi_behind_2014_129_1_03.ptp           70988070 (+0.95)
REDO secchi_behind_2014_129_2_03.ptp           70830726 (+0.13)
REDO secchi_behind_2014_129_2_05.ptp           70830726 (+0.13)
REDO secchi_behind_2014_137_1_03.ptp          148700510 (+0.00)
REDO secchi_behind_2014_137_2_03.ptp           82843106 (+0.01)
REDO secchi_behind_2014_137_3_03.ptp          105623120 (+0.01)
REDO secchi_behind_2014_137_4_03.ptp          176070320 (+0.00)
REDO secchi_behind_2014_137_5_03.ptp          179843000 (+0.00)
REDO secchi_behind_2014_137_6_03.ptp          170197038 (+0.00)
REDO secchi_behind_2014_129_2_05.ptp           70830726 (+0.13)
REDO secchi_behind_2014_139_4_03.ptp          130591348 (+0.00)
REDO secchi_behind_2014_139_5_03.ptp           72036434 (+0.01)
REDO secchi_behind_2014_139_6_03.ptp           72074280 (+0.01)
REDO secchi_behind_2014_137_1_04.ptp          148700510 (+0.00)
REDO secchi_behind_2014_137_2_04.ptp           82843106 (+0.01)
REDO secchi_behind_2014_137_3_04.ptp          105623120 (+0.01)
REDO secchi_behind_2014_137_4_04.ptp          176070320 (+0.00)
REDO secchi_behind_2014_137_5_04.ptp          179843000 (+0.00)
REDO secchi_behind_2014_137_6_04.ptp          170197038 (+0.00)
REDO secchi_behind_2014_141_6_03.ptp          158589044 (+0.00)
REDO secchi_behind_2014_139_4_04.ptp          130591348 (+0.00)
REDO secchi_behind_2014_139_5_04.ptp           72036434 (+0.01)
REDO secchi_behind_2014_139_6_04.ptp           72074280 (+0.01)
REDO secchi_behind_2014_141_6_04.ptp          158589044 (+0.00)
REDO secchi_behind_2014_144_1_03.ptp          110283542 (+0.01)
REDO secchi_behind_2014_144_2_03.ptp           82949492 (+0.00)
REDO secchi_behind_2014_144_3_03.ptp          169351910 (+0.00)
REDO secchi_behind_2014_144_4_03.ptp          163691102 (+0.00)
REDO secchi_behind_2014_144_5_03.ptp          180301622 (+0.00)
REDO secchi_behind_2014_144_6_03.ptp          156937230 (+0.00)
REDO secchi_behind_2014_143_6_04.ptp          108842116 (+0.00)
REDO secchi_behind_2014_137_1_04.ptp          148700510 (+0.00)
REDO secchi_behind_2014_137_2_04.ptp           82843106 (+0.01)
REDO secchi_behind_2014_137_3_04.ptp          105623120 (+0.01)
REDO secchi_behind_2014_137_4_04.ptp          176070320 (+0.00)
REDO secchi_behind_2014_137_5_04.ptp          179843000 (+0.00)
REDO secchi_behind_2014_137_6_04.ptp          170197038 (+0.00)
REDO secchi_behind_2014_144_1_04.ptp          110283542 (+0.01)
REDO secchi_behind_2014_144_2_04.ptp           82949492 (+0.00)
REDO secchi_behind_2014_144_3_04.ptp          169351910 (+0.00)
REDO secchi_behind_2014_144_4_04.ptp          163691102 (+0.00)
REDO secchi_behind_2014_144_5_04.ptp          180301622 (+0.00)
REDO secchi_behind_2014_144_6_04.ptp          156937230 (+0.00)
REDO secchi_behind_2014_139_4_04.ptp          130591348 (+0.00)
REDO secchi_behind_2014_139_5_04.ptp           72036434 (+0.01)
REDO secchi_behind_2014_139_6_04.ptp           72074280 (+0.01)
REDO secchi_behind_2014_148_6_03.ptp           52102916 (+0.09)
REDO secchi_behind_2014_149_2_03.ptp           72728390 (+0.28)
REDO secchi_behind_2014_149_3_03.ptp          141959750 (+0.45)
REDO secchi_behind_2014_141_6_04.ptp          158589044 (+0.00)
REDO secchi_behind_2014_102_1_05.fin           75627036 (+0.00)
REDO secchi_behind_2014_102_2_05.fin           82252768 (+0.01)
REDO secchi_behind_2014_102_3_05.fin           82568648 (+0.01)
REDO secchi_behind_2014_102_4_05.fin           82453620 (+0.01)
REDO secchi_behind_2014_102_5_05.fin          120407198 (+0.00)
REDO secchi_behind_2014_102_6_05.fin           82526630 (+0.00)
REDO secchi_behind_2014_139_4_04.ptp          130591348 (+0.00)
REDO secchi_behind_2014_139_5_04.ptp           72036434 (+0.01)
REDO secchi_behind_2014_139_6_04.ptp           72074280 (+0.01)
REDO secchi_behind_2014_143_6_04.ptp          108842116 (+0.00)
REDO secchi_behind_2014_144_1_04.ptp          110283542 (+0.01)
REDO secchi_behind_2014_144_2_04.ptp           82949492 (+0.00)
REDO secchi_behind_2014_144_3_04.ptp          169351910 (+0.00)
REDO secchi_behind_2014_144_4_04.ptp          163691102 (+0.00)
REDO secchi_behind_2014_144_5_04.ptp          180301622 (+0.00)
REDO secchi_behind_2014_144_6_04.ptp          156937230 (+0.00)
REDO secchi_behind_2014_137_1_04.ptp          148700510 (+0.00)
REDO secchi_behind_2014_137_2_04.ptp           82843106 (+0.01)
REDO secchi_behind_2014_137_3_04.ptp          105623120 (+0.01)
REDO secchi_behind_2014_137_4_04.ptp          176070320 (+0.00)
REDO secchi_behind_2014_137_5_04.ptp          179843000 (+0.00)
REDO secchi_behind_2014_137_6_04.ptp          170197038 (+0.00)
REDO secchi_behind_2014_107_4_05.fin          101589094 (+0.01)
REDO secchi_behind_2014_107_5_05.fin          101156398 (+0.00)
REDO secchi_behind_2014_107_6_05.fin           82493254 (+0.01)
REDO secchi_behind_2014_156_4_03.ptp           71175214 (+0.04)
REDO secchi_behind_2014_156_5_03.ptp           71168062 (+1.00)
REDO secchi_behind_2014_156_6_03.ptp           71200842 (+1.00)
REDO secchi_behind_2014_139_4_04.ptp          130591348 (+0.00)
REDO secchi_behind_2014_139_5_04.ptp           72036434 (+0.01)
REDO secchi_behind_2014_139_6_04.ptp           72074280 (+0.01)
REDO secchi_behind_2014_155_3_04.ptp          117718046 (+0.00)
REDO secchi_behind_2014_155_4_04.ptp           73993698 (+0.09)
REDO secchi_behind_2014_155_5_04.ptp          134583058 (+0.91)
REDO secchi_behind_2014_155_6_04.ptp           52306450 (+0.97)
REDO secchi_behind_2014_155_3_04.ptp          117718046 (+0.00)
REDO secchi_behind_2014_155_4_04.ptp           73993698 (+0.09)
REDO secchi_behind_2014_155_5_04.ptp          134583058 (+0.91)
REDO secchi_behind_2014_155_6_04.ptp           52306450 (+0.97)
REDO secchi_behind_2014_137_1_04.ptp          148700510 (+0.00)
REDO secchi_behind_2014_137_2_04.ptp           82843106 (+0.01)
REDO secchi_behind_2014_137_3_04.ptp          105623120 (+0.01)
REDO secchi_behind_2014_137_4_04.ptp          176070320 (+0.00)
REDO secchi_behind_2014_137_5_04.ptp          179843000 (+0.00)
REDO secchi_behind_2014_137_6_04.ptp          170197038 (+0.00)
REDO secchi_behind_2014_107_4_05.fin          101589094 (+0.01)
REDO secchi_behind_2014_107_5_05.fin          101156398 (+0.00)
REDO secchi_behind_2014_107_6_05.fin           82493254 (+0.01)
REDO secchi_behind_2014_158_4_03.ptp           62413120 (+0.01)
REDO secchi_behind_2014_158_5_03.ptp           41918766 (+0.00)
REDO secchi_behind_2014_158_6_03.ptp           83268054 (+0.01)
REDO secchi_behind_2014_141_6_04.ptp          158589044 (+0.00)
REDO secchi_behind_2014_111_5_05.fin           81756002 (+0.01)
REDO secchi_behind_2014_111_6_05.fin           71541456 (+0.01)
REDO secchi_behind_2014_160_4_03.ptp           99431276 (+0.01)
REDO secchi_behind_2014_160_5_03.ptp           72194970 (+0.01)
REDO secchi_behind_2014_160_6_03.ptp           72367512 (+0.01)
REDO secchi_behind_2014_158_4_04.ptp           62413120 (+0.01)
REDO secchi_behind_2014_158_5_04.ptp           41918766 (+0.00)
REDO secchi_behind_2014_158_6_04.ptp           83268054 (+0.01)
REDO secchi_behind_2014_143_6_04.ptp          108842116 (+0.00)
REDO secchi_behind_2014_160_4_03.ptp           99431276 (+0.01)
REDO secchi_behind_2014_160_5_03.ptp           72194970 (+0.01)
REDO secchi_behind_2014_160_6_03.ptp           72367512 (+0.01)
REDO secchi_behind_2014_158_4_04.ptp           62413120 (+0.01)
REDO secchi_behind_2014_158_5_04.ptp           41918766 (+0.00)
REDO secchi_behind_2014_158_6_04.ptp           83268054 (+0.01)
REDO secchi_behind_2014_143_6_04.ptp          108842116 (+0.00)
REDO secchi_behind_2014_160_4_03.ptp           99431276 (+0.01)
REDO secchi_behind_2014_160_5_03.ptp           72194970 (+0.01)
REDO secchi_behind_2014_160_6_03.ptp           72367512 (+0.01)
REDO secchi_behind_2014_158_4_04.ptp           62413120 (+0.01)
REDO secchi_behind_2014_158_5_04.ptp           41918766 (+0.00)
REDO secchi_behind_2014_158_6_04.ptp           83268054 (+0.01)
REDO secchi_behind_2014_143_6_04.ptp          108842116 (+0.00)
REDO secchi_behind_2014_160_4_03.ptp           99431276 (+0.01)
REDO secchi_behind_2014_160_5_03.ptp           72194970 (+0.01)
REDO secchi_behind_2014_160_6_03.ptp           72367512 (+0.01)
REDO secchi_behind_2014_158_4_04.ptp           62413120 (+0.01)
REDO secchi_behind_2014_158_5_04.ptp           41918766 (+0.00)
REDO secchi_behind_2014_158_6_04.ptp           83268054 (+0.01)
REDO secchi_behind_2014_143_6_04.ptp          108842116 (+0.00)
REDO secchi_behind_2014_160_4_03.ptp           99431276 (+0.01)
REDO secchi_behind_2014_160_5_03.ptp           72194970 (+0.01)
REDO secchi_behind_2014_160_6_03.ptp           72367512 (+0.01)
REDO secchi_behind_2014_158_4_04.ptp           62413120 (+0.01)
REDO secchi_behind_2014_158_5_04.ptp           41918766 (+0.00)
REDO secchi_behind_2014_158_6_04.ptp           83268054 (+0.01)
REDO secchi_behind_2014_143_6_04.ptp          108842116 (+0.00)
REDO secchi_behind_2014_160_4_03.ptp           99431276 (+0.01)
REDO secchi_behind_2014_160_5_03.ptp           72194970 (+0.01)
REDO secchi_behind_2014_160_6_03.ptp           72367512 (+0.01)
REDO secchi_behind_2014_158_4_04.ptp           62413120 (+0.01)
REDO secchi_behind_2014_158_5_04.ptp           41918766 (+0.00)
REDO secchi_behind_2014_158_6_04.ptp           83268054 (+0.01)
REDO secchi_behind_2014_143_6_04.ptp          108842116 (+0.00)
REDO secchi_behind_2014_160_4_03.ptp           99431276 (+0.01)
REDO secchi_behind_2014_160_5_03.ptp           72194970 (+0.01)
REDO secchi_behind_2014_160_6_03.ptp           72367512 (+0.01)
REDO secchi_behind_2014_158_4_04.ptp           62413120 (+0.01)
REDO secchi_behind_2014_158_5_04.ptp           41918766 (+0.00)
REDO secchi_behind_2014_158_6_04.ptp           83268054 (+0.01)
REDO secchi_behind_2014_143_6_04.ptp          108842116 (+0.00)
REDO secchi_behind_2014_160_4_03.ptp           99431276 (+0.01)
REDO secchi_behind_2014_160_5_03.ptp           72194970 (+0.01)
REDO secchi_behind_2014_160_6_03.ptp           72367512 (+0.01)
REDO secchi_behind_2014_158_4_04.ptp           62413120 (+0.01)
REDO secchi_behind_2014_158_5_04.ptp           41918766 (+0.00)
REDO secchi_behind_2014_158_6_04.ptp           83268054 (+0.01)
REDO secchi_behind_2014_143_6_04.ptp          108842116 (+0.00)
REDO secchi_behind_2014_160_4_03.ptp           99431276 (+0.01)
REDO secchi_behind_2014_160_5_03.ptp           72194970 (+0.01)
REDO secchi_behind_2014_160_6_03.ptp           72367512 (+0.01)
REDO secchi_behind_2014_158_4_04.ptp           62413120 (+0.01)
REDO secchi_behind_2014_158_5_04.ptp           41918766 (+0.00)
REDO secchi_behind_2014_158_6_04.ptp           83268054 (+0.01)
REDO secchi_behind_2014_143_6_04.ptp          108842116 (+0.00)
REDO secchi_behind_2014_160_4_03.ptp           99431276 (+0.01)
REDO secchi_behind_2014_160_5_03.ptp           72194970 (+0.01)
REDO secchi_behind_2014_160_6_03.ptp           72367512 (+0.01)
REDO secchi_behind_2014_158_4_04.ptp           62413120 (+0.01)
REDO secchi_behind_2014_158_5_04.ptp           41918766 (+0.00)
REDO secchi_behind_2014_158_6_04.ptp           83268054 (+0.01)
REDO secchi_behind_2014_143_6_04.ptp          108842116 (+0.00)
REDO secchi_behind_2014_160_4_03.ptp           99431276 (+0.01)
REDO secchi_behind_2014_160_5_03.ptp           72194970 (+0.01)
REDO secchi_behind_2014_160_6_03.ptp           72367512 (+0.01)
REDO secchi_behind_2014_158_4_04.ptp           62413120 (+0.01)
REDO secchi_behind_2014_158_5_04.ptp           41918766 (+0.00)
REDO secchi_behind_2014_158_6_04.ptp           83268054 (+0.01)
REDO secchi_behind_2014_143_6_04.ptp          108842116 (+0.00)
REDO secchi_behind_2014_160_4_03.ptp           99431276 (+0.01)
REDO secchi_behind_2014_160_5_03.ptp           72194970 (+0.01)
REDO secchi_behind_2014_160_6_03.ptp           72367512 (+0.01)
REDO secchi_behind_2014_158_4_04.ptp           62413120 (+0.01)
REDO secchi_behind_2014_158_5_04.ptp           41918766 (+0.00)
REDO secchi_behind_2014_158_6_04.ptp           83268054 (+0.01)
REDO secchi_behind_2014_143_6_04.ptp          108842116 (+0.00)
REDO secchi_behind_2014_160_4_03.ptp           99431276 (+0.01)
REDO secchi_behind_2014_160_5_03.ptp           72194970 (+0.01)
REDO secchi_behind_2014_160_6_03.ptp           72367512 (+0.01)
REDO secchi_behind_2014_158_4_04.ptp           62413120 (+0.01)
REDO secchi_behind_2014_158_5_04.ptp           41918766 (+0.00)
REDO secchi_behind_2014_158_6_04.ptp           83268054 (+0.01)
REDO secchi_behind_2014_143_6_04.ptp          108842116 (+0.00)
REDO secchi_behind_2014_160_4_03.ptp           99431276 (+0.01)
REDO secchi_behind_2014_160_5_03.ptp           72194970 (+0.01)
REDO secchi_behind_2014_160_6_03.ptp           72367512 (+0.01)
REDO secchi_behind_2014_158_4_04.ptp           62413120 (+0.01)
REDO secchi_behind_2014_158_5_04.ptp           41918766 (+0.00)
REDO secchi_behind_2014_158_6_04.ptp           83268054 (+0.01)
REDO secchi_behind_2014_143_6_04.ptp          108842116 (+0.00)
REDO secchi_behind_2014_160_4_03.ptp           99431276 (+0.01)
REDO secchi_behind_2014_160_5_03.ptp           72194970 (+0.01)
REDO secchi_behind_2014_160_6_03.ptp           72367512 (+0.01)
REDO secchi_behind_2014_158_4_04.ptp           62413120 (+0.01)
REDO secchi_behind_2014_158_5_04.ptp           41918766 (+0.00)
REDO secchi_behind_2014_158_6_04.ptp           83268054 (+0.01)
REDO secchi_behind_2014_143_6_04.ptp          108842116 (+0.00)
REDO secchi_behind_2014_160_4_03.ptp           99431276 (+0.01)
REDO secchi_behind_2014_160_5_03.ptp           72194970 (+0.01)
REDO secchi_behind_2014_160_6_03.ptp           72367512 (+0.01)
REDO secchi_behind_2014_158_4_04.ptp           62413120 (+0.01)
REDO secchi_behind_2014_158_5_04.ptp           41918766 (+0.00)
REDO secchi_behind_2014_158_6_04.ptp           83268054 (+0.01)
REDO secchi_behind_2014_143_6_04.ptp          108842116 (+0.00)
REDO secchi_behind_2014_161_3_03.ptp          140887546 (+0.23)
REDO secchi_behind_2014_144_1_04.ptp          110283542 (+0.01)
REDO secchi_behind_2014_144_2_04.ptp           82949492 (+0.00)
REDO secchi_behind_2014_144_3_04.ptp          169351910 (+0.00)
REDO secchi_behind_2014_144_4_04.ptp          163691102 (+0.00)
REDO secchi_behind_2014_144_5_04.ptp          180301622 (+0.00)
REDO secchi_behind_2014_144_6_04.ptp          156937230 (+0.00)
REDO secchi_behind_2014_160_4_04.ptp           99431276 (+0.01)
REDO secchi_behind_2014_160_5_04.ptp           72194970 (+0.01)
REDO secchi_behind_2014_160_6_04.ptp           72367512 (+0.01)
REDO secchi_behind_2014_161_3_04.ptp          140887546 (+0.23)
REDO secchi_behind_2014_165_4_03.ptp           72757594 (+0.01)
REDO secchi_behind_2014_165_5_03.ptp           72804976 (+0.01)
REDO secchi_behind_2014_165_6_03.ptp           72832094 (+0.01)
REDO secchi_behind_2014_158_4_04.ptp           62413120 (+0.01)
REDO secchi_behind_2014_158_5_04.ptp           41918766 (+0.00)
REDO secchi_behind_2014_158_6_04.ptp           83268054 (+0.01)
REDO secchi_behind_2014_169_6_03.ptp           52765966 (+0.30)
REDO secchi_behind_2014_168_2_04.ptp          100136344 (+0.05)
REDO secchi_behind_2014_168_3_04.ptp          115350138 (+0.54)
REDO secchi_behind_2014_168_6_04.ptp           52827652 (+0.47)
REDO secchi_behind_2014_165_4_04.ptp           72757594 (+0.01)
REDO secchi_behind_2014_165_5_04.ptp           72804976 (+0.01)
REDO secchi_behind_2014_165_6_04.ptp           72832094 (+0.01)
REDO secchi_behind_2014_160_4_04.ptp           99431276 (+0.01)
REDO secchi_behind_2014_160_5_04.ptp           72194970 (+0.01)
REDO secchi_behind_2014_160_6_04.ptp           72367512 (+0.01)
REDO secchi_behind_2014_172_2_03.ptp           72281390 (+0.01)
REDO secchi_behind_2014_172_3_03.ptp           69069546 (+0.01)
REDO secchi_behind_2014_172_4_03.ptp           62481958 (+0.01)
REDO secchi_behind_2014_172_6_03.ptp           72932222 (+0.00)
REDO secchi_behind_2014_175_2_04.ptp          167584174 (+0.00)
REDO secchi_behind_2014_158_4_04.ptp           62413120 (+0.01)
REDO secchi_behind_2014_158_5_04.ptp           41918766 (+0.00)
REDO secchi_behind_2014_158_6_04.ptp           83268054 (+0.01)
REDO secchi_behind_2014_175_2_04.ptp          167584174 (+0.00)
REDO secchi_behind_2014_160_4_04.ptp           99431276 (+0.01)
REDO secchi_behind_2014_160_5_04.ptp           72194970 (+0.01)
REDO secchi_behind_2014_160_6_04.ptp           72367512 (+0.01)
REDO secchi_behind_2014_165_4_04.ptp           72757594 (+0.01)
REDO secchi_behind_2014_165_5_04.ptp           72804976 (+0.01)
REDO secchi_behind_2014_165_6_04.ptp           72832094 (+0.01)
REDO secchi_behind_2014_172_2_04.ptp           72281390 (+0.01)
REDO secchi_behind_2014_172_3_04.ptp           69069546 (+0.01)
REDO secchi_behind_2014_172_4_04.ptp           62481958 (+0.01)
REDO secchi_behind_2014_172_6_04.ptp           72932222 (+0.00)
REDO secchi_behind_2014_179_4_04.ptp           73100294 (+0.01)
REDO secchi_behind_2014_179_6_04.ptp           65048334 (+0.01)
REDO secchi_behind_2014_181_4_03.ptp           73115492 (+0.47)
REDO secchi_behind_2014_181_5_03.ptp           86354738 (+0.83)
REDO secchi_behind_2014_181_6_03.ptp           78371020 (+0.97)
REDO secchi_behind_2014_179_4_04.ptp           73100294 (+0.01)
REDO secchi_behind_2014_179_6_04.ptp           65048334 (+0.01)
REDO secchi_behind_2014_181_4_04.ptp           73115492 (+0.47)
REDO secchi_behind_2014_181_5_04.ptp           86354738 (+0.83)
REDO secchi_behind_2014_181_6_04.ptp           78371020 (+0.97)
REDO secchi_behind_2014_137_1_05.fin          148700510 (+0.00)
REDO secchi_behind_2014_137_2_05.fin           82843106 (+0.01)
REDO secchi_behind_2014_137_3_05.fin          105623120 (+0.01)
REDO secchi_behind_2014_137_4_05.fin          176070320 (+0.00)
REDO secchi_behind_2014_137_5_05.fin          179843000 (+0.00)
REDO secchi_behind_2014_137_6_05.fin          170197038 (+0.00)
REDO secchi_behind_2014_139_4_05.fin          130591348 (+0.00)
REDO secchi_behind_2014_139_5_05.fin           72036434 (+0.01)
REDO secchi_behind_2014_139_6_05.fin           72074280 (+0.01)
REDO secchi_behind_2014_179_4_04.ptp           73100294 (+0.01)
REDO secchi_behind_2014_179_6_04.ptp           65048334 (+0.01)
REDO secchi_behind_2014_172_2_04.ptp           72281390 (+0.01)
REDO secchi_behind_2014_172_3_04.ptp           69069546 (+0.01)
REDO secchi_behind_2014_172_4_04.ptp           62481958 (+0.01)
REDO secchi_behind_2014_172_6_04.ptp           72932222 (+0.00)
REDO secchi_behind_2014_189_4_03.ptp          113117820 (+0.01)
REDO secchi_behind_2014_172_2_04.ptp           72281390 (+0.01)
REDO secchi_behind_2014_172_3_04.ptp           69069546 (+0.01)
REDO secchi_behind_2014_172_4_04.ptp           62481958 (+0.01)
REDO secchi_behind_2014_172_6_04.ptp           72932222 (+0.00)
REDO secchi_behind_2014_191_6_04.ptp           52450384 (+0.59)
REDO secchi_behind_2014_189_4_04.ptp          113117820 (+0.01)
REDO secchi_behind_2014_144_1_05.fin          110283542 (+0.01)
REDO secchi_behind_2014_144_2_05.fin           82949492 (+0.00)
REDO secchi_behind_2014_144_3_05.fin          169351910 (+0.00)
REDO secchi_behind_2014_144_4_05.fin          163691102 (+0.00)
REDO secchi_behind_2014_144_5_05.fin          180301622 (+0.00)
REDO secchi_behind_2014_144_6_05.fin          156937230 (+0.00)
REDO secchi_behind_2014_179_4_04.ptp           73100294 (+0.01)
REDO secchi_behind_2014_179_6_04.ptp           65048334 (+0.01)
REDO secchi_behind_2014_197_6_03.ptp           82536762 (+0.35)
REDO secchi_behind_2014_189_4_04.ptp          113117820 (+0.01)
REDO secchi_behind_2014_179_4_04.ptp           73100294 (+0.01)
REDO secchi_behind_2014_179_6_04.ptp           65048334 (+0.01)
REDO secchi_behind_2014_155_5_05.fin          141657280 (+0.05)
REDO secchi_behind_2014_204_6_03.ptp           72218810 (+0.01)
REDO secchi_behind_2014_158_4_05.fin           62413120 (+0.01)
REDO secchi_behind_2014_158_5_05.fin           41918766 (+0.00)
REDO secchi_behind_2014_158_6_05.fin           83268054 (+0.01)
REDO secchi_behind_2014_204_6_04.ptp           72218810 (+0.01)
REDO secchi_behind_2014_189_4_04.ptp          113117820 (+0.01)
REDO secchi_behind_2014_207_4_03.ptp          146426770 (+0.36)
REDO secchi_behind_2014_207_5_03.ptp          130153586 (+0.06)
REDO secchi_behind_2014_207_6_03.ptp           83358348 (+0.01)
REDO secchi_behind_2014_160_4_05.fin           99431276 (+0.01)
REDO secchi_behind_2014_160_5_05.fin           72194970 (+0.01)
REDO secchi_behind_2014_160_6_05.fin           72367512 (+0.01)
REDO secchi_behind_2014_191_6_04.ptp           52450384 (+0.59)
REDO secchi_behind_2014_204_6_04.ptp           72218810 (+0.01)
REDO secchi_behind_2014_189_4_04.ptp          113117820 (+0.01)
REDO secchi_behind_2014_143_6_05.fin          108842116 (+0.00)
REDO secchi_behind_2014_211_1_03.ptp           52571074 (+0.00)
REDO secchi_behind_2014_211_2_03.ptp           52979036 (+0.81)
REDO secchi_behind_2014_211_3_03.ptp           75158878 (+0.65)
REDO secchi_behind_2014_211_4_03.ptp           52912582 (+1.00)
REDO secchi_behind_2014_211_5_03.ptp           52923608 (+1.00)
REDO secchi_behind_2014_211_6_03.ptp           52874140 (+1.00)
REDO secchi_behind_2014_210_5_04.ptp           51958386 (+0.24)
REDO secchi_behind_2014_210_6_04.ptp           52557366 (+1.00)
REDO secchi_behind_2014_204_6_04.ptp           72218810 (+0.01)
REDO secchi_behind_2014_165_4_05.fin           72757594 (+0.01)
REDO secchi_behind_2014_165_5_05.fin           72804976 (+0.01)
REDO secchi_behind_2014_165_6_05.fin           72832094 (+0.01)
REDO secchi_behind_2014_217_4_03.ptp          179089954 (+0.00)
REDO secchi_behind_2014_217_5_03.ptp          163269730 (+0.00)
REDO secchi_behind_2014_217_6_03.ptp           71836178 (+0.01)
REDO secchi_behind_2014_217_4_04.ptp          179089954 (+0.00)
REDO secchi_behind_2014_217_5_04.ptp          163269730 (+0.00)
REDO secchi_behind_2014_217_6_04.ptp           71836178 (+0.01)
REDO secchi_behind_2014_172_2_05.fin           72281390 (+0.01)
REDO secchi_behind_2014_172_3_05.fin           69069546 (+0.01)
REDO secchi_behind_2014_172_4_05.fin           62481958 (+0.01)
REDO secchi_behind_2014_172_6_05.fin           72932222 (+0.00)
REDO secchi_behind_2014_204_6_04.ptp           72218810 (+0.01)
REDO secchi_behind_2014_222_2_03.ptp           71453248 (+0.01)
REDO secchi_behind_2014_222_3_03.ptp           71873130 (+0.01)
REDO secchi_behind_2014_222_4_03.ptp           71870448 (+0.01)
REDO secchi_behind_2014_222_5_03.ptp           93411378 (+0.00)
REDO secchi_behind_2014_222_6_03.ptp           71892500 (+0.01)
REDO secchi_behind_2014_224_6_03.ptp          147648868 (+0.30)
REDO secchi_behind_2014_222_2_04.ptp           71453248 (+0.01)
REDO secchi_behind_2014_222_3_04.ptp           71873130 (+0.01)
REDO secchi_behind_2014_222_4_04.ptp           71870448 (+0.01)
REDO secchi_behind_2014_222_5_04.ptp           93411378 (+0.00)
REDO secchi_behind_2014_222_6_04.ptp           71892500 (+0.01)
REDO secchi_behind_2014_226_3_03.ptp           71716978 (+0.19)
REDO secchi_behind_2014_226_4_03.ptp           71240476 (+0.12)
REDO secchi_behind_2014_226_5_03.ptp           71522682 (+0.96)
REDO secchi_behind_2014_226_6_03.ptp           70930258 (+1.00)
REDO secchi_behind_2014_224_6_04.ptp          153503972 (+0.33)
REDO secchi_behind_2014_179_4_05.fin           73100294 (+0.01)
REDO secchi_behind_2014_179_6_05.fin           65048334 (+0.01)
REDO secchi_behind_2014_217_4_04.ptp          179089954 (+0.00)
REDO secchi_behind_2014_217_5_04.ptp          163269730 (+0.00)
REDO secchi_behind_2014_217_6_04.ptp           71836178 (+0.01)
REDO secchi_behind_2014_231_4_03.ptp           90974930 (+0.01)
REDO secchi_behind_2014_231_5_03.ptp           71848396 (+0.01)
REDO secchi_behind_2014_231_6_03.ptp           71879686 (+0.81)
REDO secchi_behind_2014_217_4_04.ptp          179089954 (+0.00)
REDO secchi_behind_2014_217_5_04.ptp          163269730 (+0.00)
REDO secchi_behind_2014_217_6_04.ptp           71836178 (+0.01)
REDO secchi_behind_2014_189_4_05.fin          113117820 (+0.01)
REDO secchi_behind_2014_239_4_03.ptp          116801398 (+0.00)
REDO secchi_behind_2014_239_5_03.ptp           82899130 (+0.01)
REDO secchi_behind_2014_239_6_03.ptp           82937572 (+0.01)
REDO secchi_behind_2014_222_2_04.ptp           71453248 (+0.01)
REDO secchi_behind_2014_222_3_04.ptp           71873130 (+0.01)
REDO secchi_behind_2014_222_4_04.ptp           71870448 (+0.01)
REDO secchi_behind_2014_222_5_04.ptp           93411378 (+0.00)
REDO secchi_behind_2014_222_6_04.ptp           71892500 (+0.01)
REDO secchi_behind_2014_240_4_03.ptp          122249732 (+0.30)
REDO secchi_behind_2014_240_5_03.ptp          153455100 (+0.10)
REDO secchi_behind_2014_240_6_03.ptp           82821352 (+0.00)
REDO secchi_behind_2014_239_4_04.ptp          116801398 (+0.00)
REDO secchi_behind_2014_239_5_04.ptp           82899130 (+0.01)
REDO secchi_behind_2014_239_6_04.ptp           82937572 (+0.01)
REDO secchi_behind_2014_239_4_04.ptp          116801398 (+0.00)
REDO secchi_behind_2014_239_5_04.ptp           82899130 (+0.01)
REDO secchi_behind_2014_239_6_04.ptp           82937572 (+0.01)
REDO secchi_behind_2014_222_2_04.ptp           71453248 (+0.01)
REDO secchi_behind_2014_222_3_04.ptp           71873130 (+0.01)
REDO secchi_behind_2014_222_4_04.ptp           71870448 (+0.01)
REDO secchi_behind_2014_222_5_04.ptp           93411378 (+0.00)
REDO secchi_behind_2014_222_6_04.ptp           71892500 (+0.01)
REDO secchi_behind_2014_247_1_03.ptp           51269410 (+0.49)
REDO secchi_behind_2014_247_2_03.ptp           51806108 (+0.99)
REDO secchi_behind_2014_247_3_03.ptp           52248042 (+0.93)
REDO secchi_behind_2014_247_4_03.ptp           91276208 (+0.56)
REDO secchi_behind_2014_247_5_03.ptp           30523544 (+1.00)
REDO secchi_behind_2014_247_6_03.ptp            1543342 (+1.00)
REDO secchi_behind_2014_245_5_04.ptp           89054320 (+0.06)
REDO secchi_behind_2014_245_6_04.ptp           83140808 (+0.54)
REDO secchi_behind_2014_239_4_04.ptp          116801398 (+0.00)
REDO secchi_behind_2014_239_5_04.ptp           82899130 (+0.01)
REDO secchi_behind_2014_239_6_04.ptp           82937572 (+0.01)
REDO secchi_behind_2014_248_6_03.ptp           69725444 (+0.17)
REDO secchi_behind_2014_246_1_04.ptp           51702404 (+0.14)
REDO secchi_behind_2014_246_2_04.ptp           52021264 (+0.99)
REDO secchi_behind_2014_246_3_04.ptp           52596106 (+0.92)
REDO secchi_behind_2014_246_4_04.ptp           51765580 (+0.98)
REDO secchi_behind_2014_246_5_04.ptp           51639824 (+1.00)
REDO secchi_behind_2014_246_6_04.ptp           51725648 (+1.00)
REDO secchi_behind_2014_239_4_04.ptp          116801398 (+0.00)
REDO secchi_behind_2014_239_5_04.ptp           82899130 (+0.01)
REDO secchi_behind_2014_239_6_04.ptp           82937572 (+0.01)
REDO secchi_behind_2014_253_4_04.ptp           85271508 (+0.41)
REDO secchi_behind_2014_253_5_04.ptp          127634294 (+1.00)
REDO secchi_behind_2014_253_6_04.ptp           51429436 (+1.00)
REDO secchi_behind_2014_252_5_04.ptp           50241310 (+0.54)
REDO secchi_behind_2014_252_6_04.ptp           51331394 (+1.00)
REDO secchi_behind_2014_204_6_05.fin           72218810 (+0.01)
REDO secchi_behind_2014_239_4_04.ptp          116801398 (+0.00)
REDO secchi_behind_2014_239_5_04.ptp           82899130 (+0.01)
REDO secchi_behind_2014_239_6_04.ptp           82937572 (+0.01)
REDO secchi_behind_2014_260_3_03.ptp           66089248 (+0.10)
REDO secchi_behind_2014_260_4_03.ptp           70205224 (+0.72)
REDO secchi_behind_2014_260_5_03.ptp           52080566 (+0.94)
REDO secchi_behind_2014_260_6_03.ptp           51480394 (+1.00)
REDO secchi_behind_2014_264_4_03.ptp           68812968 (+0.29)
REDO secchi_behind_2014_264_5_03.ptp           52205428 (+0.95)
REDO secchi_behind_2014_264_6_03.ptp           51551020 (+1.00)
REDO secchi_behind_2014_217_4_05.fin          179089954 (+0.00)
REDO secchi_behind_2014_217_5_05.fin          163269730 (+0.00)
REDO secchi_behind_2014_217_6_05.fin           71836178 (+0.01)
REDO secchi_behind_2014_263_6_04.ptp           51481288 (+0.63)
REDO secchi_behind_2014_267_6_03.ptp           51788824 (+0.29)
