REDO secchi_ahead_2017_002_6_03.ptp           76176548 (+0.01)
REDO secchi_ahead_2017_003_6_03.ptp           72439628 (+0.01)
REDO secchi_ahead_2017_005_1_03.ptp           71692840 (+0.01)
REDO secchi_ahead_2017_005_2_03.ptp           72274834 (+0.01)
REDO secchi_ahead_2017_005_3_03.ptp           72650314 (+0.01)
REDO secchi_ahead_2017_005_4_03.ptp           73822646 (+0.01)
REDO secchi_ahead_2017_005_5_03.ptp           85416038 (+0.01)
REDO secchi_ahead_2017_005_6_03.ptp           72413404 (+0.01)
REDO secchi_ahead_2017_003_6_04.ptp           72439628 (+0.01)
REDO secchi_ahead_2017_004_5_04.ptp           72478964 (+0.00)
REDO secchi_ahead_2017_004_6_04.ptp           72453932 (+0.01)
REDO secchi_ahead_2017_016_5_03.ptp          107484428 (+0.01)
REDO secchi_ahead_2017_016_6_03.ptp           53071714 (+0.02)
REDO secchi_ahead_2017_018_5_04.ptp          106381232 (+0.01)
REDO secchi_ahead_2017_018_6_04.ptp           71961040 (+0.01)
REDO secchi_ahead_2017_022_4_03.ptp          125632628 (+0.00)
REDO secchi_ahead_2017_022_5_03.ptp           71838562 (+0.01)
REDO secchi_ahead_2017_022_6_03.ptp           71823662 (+0.70)
REDO secchi_ahead_2017_016_5_04.ptp          107484428 (+0.01)
REDO secchi_ahead_2017_016_6_04.ptp           53071714 (+0.02)
REDO secchi_ahead_2017_032_6_04.ptp           71929750 (+0.11)
REDO secchi_ahead_2017_085_5_04.ptp           71930942 (+0.01)
REDO secchi_ahead_2017_085_6_04.ptp           71924386 (+0.01)
REDO secchi_ahead_2017_085_5_04.ptp           71930942 (+0.01)
REDO secchi_ahead_2017_085_6_04.ptp           71924386 (+0.01)
REDO secchi_ahead_2017_085_5_04.ptp           71930942 (+0.01)
REDO secchi_ahead_2017_085_6_04.ptp           71924386 (+0.01)
REDO secchi_ahead_2017_125_5_05.ptp          160882154 (+0.00)
REDO secchi_ahead_2017_125_6_05.ptp          103271900 (+0.01)
REDO secchi_ahead_2017_126_5_05.ptp          185000784 (+0.12)
REDO secchi_ahead_2017_085_5_05.fin           71930942 (+0.01)
REDO secchi_ahead_2017_085_6_05.fin           71924386 (+0.01)
REDO secchi_ahead_2017_125_5_06.ptp          160882154 (+0.00)
REDO secchi_ahead_2017_125_6_06.ptp          103271900 (+0.01)
REDO secchi_ahead_2017_125_5_06.ptp          160882154 (+0.00)
REDO secchi_ahead_2017_125_6_06.ptp          103271900 (+0.01)
REDO secchi_ahead_2017_172_1_03.ptp          113799644 (+0.01)
REDO secchi_ahead_2017_172_2_03.ptp           99183042 (+0.01)
REDO secchi_ahead_2017_172_3_03.ptp           99353498 (+0.01)
REDO secchi_ahead_2017_172_4_03.ptp           99357968 (+0.01)
REDO secchi_ahead_2017_172_5_03.ptp          121425762 (+0.00)
REDO secchi_ahead_2017_171_6_04.ptp           91123036 (+0.01)
REDO secchi_ahead_2017_179_1_03.ptp          108165358 (+0.00)
REDO secchi_ahead_2017_179_2_03.ptp           83475462 (+0.01)
REDO secchi_ahead_2017_179_3_03.ptp           83530890 (+0.01)
REDO secchi_ahead_2017_179_4_03.ptp          112255706 (+0.01)
REDO secchi_ahead_2017_179_5_03.ptp           99174102 (+0.00)
REDO secchi_ahead_2017_179_6_03.ptp           99112714 (+0.01)
REDO secchi_ahead_2017_179_1_04.ptp          108165358 (+0.00)
REDO secchi_ahead_2017_179_2_04.ptp           83475462 (+0.01)
REDO secchi_ahead_2017_179_3_04.ptp           83530890 (+0.01)
REDO secchi_ahead_2017_179_4_04.ptp          112255706 (+0.01)
REDO secchi_ahead_2017_179_5_04.ptp           99174102 (+0.00)
REDO secchi_ahead_2017_179_6_04.ptp           99112714 (+0.01)
REDO secchi_ahead_2017_185_4_03.ptp           77272890 (+0.00)
REDO secchi_ahead_2017_185_5_03.ptp           83525526 (+0.01)
REDO secchi_ahead_2017_185_6_03.ptp           83495726 (+0.01)
REDO secchi_ahead_2017_185_4_04.ptp           77272890 (+0.00)
REDO secchi_ahead_2017_185_5_04.ptp           83525526 (+0.01)
REDO secchi_ahead_2017_185_6_04.ptp           83495726 (+0.01)
REDO secchi_ahead_2017_179_1_04.ptp          108165358 (+0.00)
REDO secchi_ahead_2017_179_2_04.ptp           83475462 (+0.01)
REDO secchi_ahead_2017_179_3_04.ptp           83530890 (+0.01)
REDO secchi_ahead_2017_179_4_04.ptp          112255706 (+0.01)
REDO secchi_ahead_2017_179_5_04.ptp           99174102 (+0.00)
REDO secchi_ahead_2017_179_6_04.ptp           99112714 (+0.01)
REDO secchi_ahead_2017_185_4_04.ptp           77272890 (+0.00)
REDO secchi_ahead_2017_185_5_04.ptp           83525526 (+0.01)
REDO secchi_ahead_2017_185_6_04.ptp           83495726 (+0.01)
REDO secchi_ahead_2017_179_1_04.ptp          108165358 (+0.00)
REDO secchi_ahead_2017_179_2_04.ptp           83475462 (+0.01)
REDO secchi_ahead_2017_179_3_04.ptp           83530890 (+0.01)
REDO secchi_ahead_2017_179_4_04.ptp          112255706 (+0.01)
REDO secchi_ahead_2017_179_5_04.ptp           99174102 (+0.00)
REDO secchi_ahead_2017_179_6_04.ptp           99112714 (+0.01)
REDO secchi_ahead_2017_214_2_03.ptp          121151006 (+0.00)
REDO secchi_ahead_2017_214_3_03.ptp           83332124 (+0.01)
REDO secchi_ahead_2017_214_4_03.ptp           83062434 (+0.01)
REDO secchi_ahead_2017_214_5_03.ptp          105411540 (+0.00)
REDO secchi_ahead_2017_214_6_03.ptp           98775974 (+0.01)
REDO secchi_ahead_2017_214_2_04.ptp          121151006 (+0.00)
REDO secchi_ahead_2017_214_3_04.ptp           83332124 (+0.01)
REDO secchi_ahead_2017_214_4_04.ptp           83062434 (+0.01)
REDO secchi_ahead_2017_214_5_04.ptp          105411540 (+0.00)
REDO secchi_ahead_2017_214_6_04.ptp           98775974 (+0.01)
REDO secchi_ahead_2017_247_6_04.ptp          145634686 (+0.00)
REDO secchi_ahead_2017_247_6_04.ptp          145634686 (+0.00)
REDO secchi_ahead_2017_247_6_04.ptp          145634686 (+0.00)
REDO secchi_ahead_2017_279_5_04.ptp          138354546 (+0.00)
REDO secchi_ahead_2017_279_6_04.ptp           82799002 (+0.01)
REDO secchi_ahead_2017_282_2_03.ptp          148449296 (+0.24)
REDO secchi_ahead_2017_282_3_03.ptp          160207482 (+0.26)
REDO secchi_ahead_2017_282_4_03.ptp           63688262 (+0.01)
REDO secchi_ahead_2017_282_5_03.ptp           82849960 (+0.01)
REDO secchi_ahead_2017_282_6_03.ptp           82757878 (+0.01)
REDO secchi_ahead_2017_283_1_03.ptp           80000484 (+0.06)
REDO secchi_ahead_2017_283_2_03.ptp           82809134 (+0.09)
REDO secchi_ahead_2017_282_2_04.ptp          149717286 (+0.25)
REDO secchi_ahead_2017_282_3_04.ptp          160207482 (+0.26)
REDO secchi_ahead_2017_282_4_04.ptp           63688262 (+0.01)
REDO secchi_ahead_2017_282_5_04.ptp           82849960 (+0.01)
REDO secchi_ahead_2017_282_6_04.ptp           82757878 (+0.01)
REDO secchi_ahead_2017_286_5_03.ptp          149890126 (+0.00)
REDO secchi_ahead_2017_286_6_03.ptp           98584062 (+0.01)
REDO secchi_ahead_2017_279_5_04.ptp          138354546 (+0.00)
REDO secchi_ahead_2017_279_6_04.ptp           82799002 (+0.01)
REDO secchi_ahead_2017_286_5_04.ptp          149890126 (+0.00)
REDO secchi_ahead_2017_286_6_04.ptp           98584062 (+0.01)
REDO secchi_ahead_2017_282_2_05.ptp          150748366 (+0.01)
REDO secchi_ahead_2017_291_2_03.ptp          158486234 (+0.14)
REDO secchi_ahead_2017_291_3_03.ptp           94410572 (+0.07)
REDO secchi_ahead_2017_291_5_03.ptp           72023322 (+0.00)
REDO secchi_ahead_2017_291_6_03.ptp           71980410 (+0.00)
REDO secchi_ahead_2017_283_1_05.ptp           89899150 (+0.11)
REDO secchi_ahead_2017_292_3_03.ptp           71961636 (+0.00)
REDO secchi_ahead_2017_292_4_03.ptp           72007528 (+0.01)
REDO secchi_ahead_2017_292_5_03.ptp           77254712 (+0.01)
REDO secchi_ahead_2017_292_6_03.ptp           83020416 (+0.01)
REDO secchi_ahead_2017_294_5_03.ptp           83213818 (+0.00)
REDO secchi_ahead_2017_294_6_03.ptp           72005442 (+0.01)
REDO secchi_ahead_2017_286_5_04.ptp          149890126 (+0.00)
REDO secchi_ahead_2017_286_6_04.ptp           98584062 (+0.01)
REDO secchi_ahead_2017_247_6_05.fin          145634686 (+0.00)
REDO secchi_ahead_2017_282_2_05.ptp          150748366 (+0.01)
REDO secchi_ahead_2017_286_5_04.ptp          149890126 (+0.00)
REDO secchi_ahead_2017_286_6_04.ptp           98584062 (+0.01)
REDO secchi_ahead_2017_305_6_03.ptp           80904914 (+0.40)
REDO secchi_ahead_2017_305_6_04.ptp           80904914 (+0.40)
REDO secchi_ahead_2017_311_6_03.ptp          103097272 (+0.35)
REDO secchi_ahead_2017_294_5_04.ptp           83213818 (+0.00)
REDO secchi_ahead_2017_294_6_04.ptp           72005442 (+0.01)
REDO secchi_ahead_2017_312_3_03.ptp           83795514 (+0.01)
REDO secchi_ahead_2017_312_4_03.ptp           83798792 (+0.01)
REDO secchi_ahead_2017_312_5_03.ptp           85812378 (+0.01)
REDO secchi_ahead_2017_312_6_03.ptp          102596930 (+0.00)
REDO secchi_ahead_2017_313_3_03.ptp           83991300 (+0.01)
REDO secchi_ahead_2017_313_4_03.ptp          102848144 (+0.00)
REDO secchi_ahead_2017_313_5_03.ptp           85880918 (+0.00)
REDO secchi_ahead_2017_313_6_03.ptp          103373816 (+0.12)
REDO secchi_ahead_2017_311_6_04.ptp          103097272 (+0.35)
REDO secchi_ahead_2017_314_3_03.ptp          180491448 (+0.14)
REDO secchi_ahead_2017_314_4_03.ptp           93074042 (+0.11)
REDO secchi_ahead_2017_312_3_04.ptp           83795514 (+0.01)
REDO secchi_ahead_2017_312_4_04.ptp           83798792 (+0.01)
REDO secchi_ahead_2017_312_5_04.ptp           85812378 (+0.01)
REDO secchi_ahead_2017_312_6_04.ptp          102596930 (+0.00)
REDO secchi_ahead_2017_322_5_03.ptp          116060570 (+0.01)
REDO secchi_ahead_2017_322_6_03.ptp           84023484 (+0.01)
REDO secchi_ahead_2017_324_1_03.ptp           91415374 (+0.01)
REDO secchi_ahead_2017_324_2_03.ptp          100476958 (+0.00)
REDO secchi_ahead_2017_324_3_03.ptp           83965076 (+0.01)
REDO secchi_ahead_2017_324_4_03.ptp           84039576 (+0.01)
REDO secchi_ahead_2017_324_5_03.ptp           83279080 (+0.00)
REDO secchi_ahead_2017_324_6_03.ptp          104205534 (+0.01)
REDO secchi_ahead_2017_322_5_04.ptp          116060570 (+0.01)
REDO secchi_ahead_2017_322_6_04.ptp           84023484 (+0.01)
REDO secchi_ahead_2017_325_1_03.ptp           94614106 (+0.00)
REDO secchi_ahead_2017_325_2_03.ptp           83816076 (+0.01)
REDO secchi_ahead_2017_325_3_03.ptp          100956440 (+0.00)
REDO secchi_ahead_2017_325_4_03.ptp           97292828 (+0.01)
REDO secchi_ahead_2017_325_5_03.ptp           83657838 (+0.00)
REDO secchi_ahead_2017_325_6_03.ptp           99261118 (+0.01)
REDO secchi_ahead_2017_323_5_04.ptp           97236804 (+0.00)
REDO secchi_ahead_2017_323_6_04.ptp          100634600 (+0.00)
REDO secchi_ahead_2017_325_1_04.ptp           94614106 (+0.00)
REDO secchi_ahead_2017_325_2_04.ptp           83816076 (+0.01)
REDO secchi_ahead_2017_325_3_04.ptp          100956440 (+0.00)
REDO secchi_ahead_2017_325_4_04.ptp           97292828 (+0.01)
REDO secchi_ahead_2017_325_5_04.ptp           83657838 (+0.00)
REDO secchi_ahead_2017_325_6_04.ptp           99261118 (+0.01)
REDO secchi_ahead_2017_326_3_04.ptp           99482830 (+0.01)
REDO secchi_ahead_2017_326_4_04.ptp           99600838 (+0.01)
REDO secchi_ahead_2017_326_5_04.ptp           99515312 (+0.01)
REDO secchi_ahead_2017_326_6_04.ptp          114062778 (+0.00)
REDO secchi_ahead_2017_282_2_06.fin          150748366 (+0.01)
REDO secchi_ahead_2017_338_4_04.ptp          110225134 (+0.00)
REDO secchi_ahead_2017_338_5_04.ptp           99198538 (+0.01)
REDO secchi_ahead_2017_338_6_04.ptp          114369122 (+0.00)
REDO secchi_ahead_2017_341_3_03.ptp           83619396 (+0.01)
REDO secchi_ahead_2017_341_4_03.ptp           83624760 (+0.01)
REDO secchi_ahead_2017_341_5_03.ptp           83562180 (+0.01)
REDO secchi_ahead_2017_341_6_03.ptp           91192768 (+0.01)
REDO secchi_ahead_2017_294_5_05.fin           83213818 (+0.00)
REDO secchi_ahead_2017_294_6_05.fin           72005442 (+0.01)
REDO secchi_ahead_2017_342_5_03.ptp           80346462 (+0.01)
REDO secchi_ahead_2017_342_6_03.ptp           98067032 (+0.00)
REDO secchi_ahead_2017_341_3_04.ptp           83619396 (+0.01)
REDO secchi_ahead_2017_341_4_04.ptp           83624760 (+0.01)
REDO secchi_ahead_2017_341_5_04.ptp           83562180 (+0.01)
REDO secchi_ahead_2017_341_6_04.ptp           91192768 (+0.01)
REDO secchi_ahead_2017_342_5_04.ptp           80346462 (+0.01)
REDO secchi_ahead_2017_342_6_04.ptp           98067032 (+0.00)
REDO secchi_ahead_2017_338_4_04.ptp          110225134 (+0.00)
REDO secchi_ahead_2017_338_5_04.ptp           99198538 (+0.01)
REDO secchi_ahead_2017_338_6_04.ptp          114369122 (+0.00)
REDO secchi_ahead_2017_341_3_04.ptp           83619396 (+0.01)
REDO secchi_ahead_2017_341_4_04.ptp           83624760 (+0.01)
REDO secchi_ahead_2017_341_5_04.ptp           83562180 (+0.01)
REDO secchi_ahead_2017_341_6_04.ptp           91192768 (+0.01)
REDO secchi_ahead_2017_352_3_03.ptp           87167682 (+0.01)
REDO secchi_ahead_2017_352_4_03.ptp          100547882 (+0.00)
REDO secchi_ahead_2017_352_5_03.ptp           83249876 (+0.01)
REDO secchi_ahead_2017_352_6_03.ptp           83305602 (+0.01)
REDO secchi_ahead_2017_350_5_04.ptp           83376228 (+0.00)
REDO secchi_ahead_2017_350_6_04.ptp           98743790 (+0.01)
REDO secchi_ahead_2017_352_3_04.ptp           87167682 (+0.01)
REDO secchi_ahead_2017_352_4_04.ptp          100547882 (+0.00)
REDO secchi_ahead_2017_352_5_04.ptp           83249876 (+0.01)
REDO secchi_ahead_2017_352_6_04.ptp           83305602 (+0.01)
REDO secchi_ahead_2017_338_4_04.ptp          110225134 (+0.00)
REDO secchi_ahead_2017_338_5_04.ptp           99198538 (+0.01)
REDO secchi_ahead_2017_338_6_04.ptp          114369122 (+0.00)
REDO secchi_ahead_2017_350_5_04.ptp           83376228 (+0.00)
REDO secchi_ahead_2017_350_6_04.ptp           98743790 (+0.01)
REDO secchi_ahead_2017_341_3_04.ptp           83619396 (+0.01)
REDO secchi_ahead_2017_341_4_04.ptp           83624760 (+0.01)
REDO secchi_ahead_2017_341_5_04.ptp           83562180 (+0.01)
REDO secchi_ahead_2017_341_6_04.ptp           91192768 (+0.01)
REDO secchi_ahead_2017_342_5_04.ptp           80346462 (+0.01)
REDO secchi_ahead_2017_342_6_04.ptp           98067032 (+0.00)
REDO secchi_ahead_2017_352_3_04.ptp           87167682 (+0.01)
REDO secchi_ahead_2017_352_4_04.ptp          100547882 (+0.00)
REDO secchi_ahead_2017_352_5_04.ptp           83249876 (+0.01)
REDO secchi_ahead_2017_352_6_04.ptp           83305602 (+0.01)
REDO secchi_ahead_2017_350_5_04.ptp           83376228 (+0.00)
REDO secchi_ahead_2017_350_6_04.ptp           98743790 (+0.01)
REDO secchi_ahead_2017_352_3_04.ptp           87167682 (+0.01)
REDO secchi_ahead_2017_352_4_04.ptp          100547882 (+0.00)
REDO secchi_ahead_2017_352_5_04.ptp           83249876 (+0.01)
REDO secchi_ahead_2017_352_6_04.ptp           83305602 (+0.01)
REDO secchi_ahead_2017_331_2_05.fin          195817886 (+0.03)
REDO secchi_ahead_2017_338_4_04.ptp          110225134 (+0.00)
REDO secchi_ahead_2017_338_5_04.ptp           99198538 (+0.01)
REDO secchi_ahead_2017_338_6_04.ptp          114369122 (+0.00)
REDO secchi_ahead_2017_341_3_04.ptp           83619396 (+0.01)
REDO secchi_ahead_2017_341_4_04.ptp           83624760 (+0.01)
REDO secchi_ahead_2017_341_5_04.ptp           83562180 (+0.01)
REDO secchi_ahead_2017_341_6_04.ptp           91192768 (+0.01)
REDO secchi_ahead_2017_342_5_04.ptp           80346462 (+0.01)
REDO secchi_ahead_2017_342_6_04.ptp           98067032 (+0.00)
REDO secchi_ahead_2017_350_5_04.ptp           83376228 (+0.00)
REDO secchi_ahead_2017_350_6_04.ptp           98743790 (+0.01)
REDO secchi_ahead_2017_352_3_04.ptp           87167682 (+0.01)
REDO secchi_ahead_2017_352_4_04.ptp          100547882 (+0.00)
REDO secchi_ahead_2017_352_5_04.ptp           83249876 (+0.01)
REDO secchi_ahead_2017_352_6_04.ptp           83305602 (+0.01)
