%!PS-Adobe-3.0
%%BoundingBox: 54 54 558 738
%%Title: Graphics produced by IDL
%%For: secchia@iapetus, 
%%      /net/cronus/data/opt/local/idl_nrl_lib/secchi/data/statistics
%%Creator: IDL Version 6.2 (linux x86 m32)
%%CreationDate: Tue Oct 21 08:27:59 2008
%%DocumentData: Clean7bit
%%Requirements: color
%%LanguageLevel: 1
%%PageOrder: Ascend
%%Pages: (atend)
%%DocumentNeededResources: (atend)
%%EndComments
%%BeginProlog
save
%+ prolog.ps -- Prolog for IDL generated PostScript files
%+ Copyright (c) 1988-2005 Research Systems, Inc. All Rights Reserved.
%v 5
/$IDL_DICT 40 dict def $IDL_DICT begin /bdef { bind def } bind def /C
{currentpoint newpath moveto} bdef /CP {currentpoint} bdef /D {currentpoint
stroke moveto} bdef /F {closepath fill} bdef /K { setgray } bdef /M {moveto}
bdef /N {rmoveto} bdef /P {lineto} bdef /R {rlineto} bdef /S {gsave show
grestore} bdef /X {currentpoint pop} bdef /Z {gsave currentpoint lineto 20
setlinewidth 1 setlinecap stroke grestore} bdef /L0 {[] 0 setdash} bdef /L1
{[40 100] 0 setdash} bdef /L2 {[200 200] 0 setdash} bdef /L3 {[200 100 50
100] 0 setdash} bdef /L4 {[300 100 50 100 50 100 50 100] 0 setdash} bdef /L5
{[400 200] 0 setdash} bdef /STDFONT { findfont exch scalefont setfont } bdef
/ISOFONT { findfont dup length dict begin { 1 index /FID ne {def} {pop pop}
ifelse } forall /Encoding ISOLatin1Encoding def currentdict end /idltmpfont
exch definefont exch scalefont setfont } bdef /ISOBULLET { gsave /Helvetica
findfont exch scalefont setfont (\267) show currentpoint grestore moveto}
bdef /MITERLIMIT { 2.5 setmiterlimit } bdef end
%%EndProlog
%%Page: 0 1
%%PageRequirements: color
%%PageResources: (atend)
%%PageOrientation: Landscape
%%PageBoundingBox: 54 54 558 738
%%BeginPageSetup
save
$IDL_DICT begin 54 738 translate 0.0283465 dup scale 270 rotate MITERLIMIT
%%IncludeResource: font Helvetica
423.333 /Helvetica STDFONT
%%EndPageSetup
0.000 0.000 0.000 setrgbcolor gsave 12842 17287 translate 0 0 M
1.25 dup scale -3834.98 0 N
(A  2008-10 SSR2 PACKETS RECEIVED) show grestore 10 setlinewidth L0
2220 1408 M 21244 0 R D 2220 1408 M 0 313 R D gsave 2220 880 translate 0 0 M
-117.687 0 N
(0) show grestore 3105 1408 M 0 313 R D gsave 3105 880 translate 0 0 M
-117.687 0 N
(1) show grestore 3990 1408 M 0 313 R D gsave 3990 880 translate 0 0 M
-117.687 0 N
(2) show grestore 4876 1408 M 0 313 R D gsave 4876 880 translate 0 0 M
-117.687 0 N
(3) show grestore 5761 1408 M 0 313 R D gsave 5761 880 translate 0 0 M
-117.687 0 N
(4) show grestore 6646 1408 M 0 313 R D gsave 6646 880 translate 0 0 M
-117.687 0 N
(5) show grestore 7531 1408 M 0 313 R D gsave 7531 880 translate 0 0 M
-117.687 0 N
(6) show grestore 8416 1408 M 0 313 R D gsave 8416 880 translate 0 0 M
-117.687 0 N
(7) show grestore 9301 1408 M 0 313 R D gsave 9301 880 translate 0 0 M
-117.687 0 N
(8) show grestore 10187 1408 M 0 313 R D gsave 10187 880 translate 0 0 M
-117.687 0 N
(9) show grestore 11072 1408 M 0 313 R D gsave 11072 880 translate 0 0 M
-235.373 0 N
(10) show grestore 11957 1408 M 0 313 R D gsave 11957 880 translate 0 0 M
-235.373 0 N
(11) show grestore 12842 1408 M 0 313 R D gsave 12842 880 translate 0 0 M
-235.373 0 N
(12) show grestore 13727 1408 M 0 313 R D gsave 13727 880 translate 0 0 M
-235.373 0 N
(13) show grestore 14612 1408 M 0 313 R D gsave 14612 880 translate 0 0 M
-235.373 0 N
(14) show grestore 15498 1408 M 0 313 R D gsave 15498 880 translate 0 0 M
-235.373 0 N
(15) show grestore 16383 1408 M 0 313 R D gsave 16383 880 translate 0 0 M
-235.373 0 N
(16) show grestore 17268 1408 M 0 313 R D gsave 17268 880 translate 0 0 M
-235.373 0 N
(17) show grestore 18153 1408 M 0 313 R D gsave 18153 880 translate 0 0 M
-235.373 0 N
(18) show grestore 19038 1408 M 0 313 R D gsave 19038 880 translate 0 0 M
-235.373 0 N
(19) show grestore 19923 1408 M 0 313 R D gsave 19923 880 translate 0 0 M
-235.373 0 N
(20) show grestore 20809 1408 M 0 313 R D gsave 20809 880 translate 0 0 M
-235.373 0 N
(21) show grestore 21694 1408 M 0 313 R D gsave 21694 880 translate 0 0 M
-235.373 0 N
(22) show grestore 22579 1408 M 0 313 R D gsave 22579 880 translate 0 0 M
-235.373 0 N
(23) show grestore 23464 1408 M 0 313 R D gsave 23464 880 translate 0 0 M
-235.373 0 N
(24) show grestore gsave 12842 422 translate 0 0 M -529.378 0 N
(hours) show grestore 2220 17076 M 21244 0 R D 2220 17076 M 0 -313 R D
3105 17076 M 0 -313 R D 3990 17076 M 0 -313 R D 4876 17076 M 0 -313 R D
5761 17076 M 0 -313 R D 6646 17076 M 0 -313 R D 7531 17076 M 0 -313 R D
8416 17076 M 0 -313 R D 9301 17076 M 0 -313 R D 10187 17076 M 0 -313 R D
11072 17076 M 0 -313 R D 11957 17076 M 0 -313 R D 12842 17076 M 0 -313 R D
13727 17076 M 0 -313 R D 14612 17076 M 0 -313 R D 15498 17076 M 0 -313 R D
16383 17076 M 0 -313 R D 17268 17076 M 0 -313 R D 18153 17076 M 0 -313 R D
19038 17076 M 0 -313 R D 19923 17076 M 0 -313 R D 20809 17076 M 0 -313 R D
21694 17076 M 0 -313 R D 22579 17076 M 0 -313 R D 23464 17076 M 0 -313 R D
2220 1408 M 0 15668 R D L1 2220 1408 M 21244 0 R D
gsave 2109 1408 translate 0 0 M -117.687 0 N
( ) show grestore 2220 1914 M 21244 0 R D gsave 2109 1773 translate 0 0 M
-470.747 0 N
(31) show grestore 2220 2419 M 21244 0 R D gsave 2109 2278 translate 0 0 M
-470.747 0 N
(30) show grestore 2220 2924 M 21244 0 R D gsave 2109 2784 translate 0 0 M
-470.747 0 N
(29) show grestore 2220 3430 M 21244 0 R D gsave 2109 3289 translate 0 0 M
-470.747 0 N
(28) show grestore 2220 3935 M 21244 0 R D gsave 2109 3794 translate 0 0 M
-470.747 0 N
(27) show grestore 2220 4441 M 21244 0 R D gsave 2109 4300 translate 0 0 M
-470.747 0 N
(26) show grestore 2220 4946 M 21244 0 R D gsave 2109 4805 translate 0 0 M
-470.747 0 N
(25) show grestore 2220 5451 M 21244 0 R D gsave 2109 5311 translate 0 0 M
-470.747 0 N
(24) show grestore 2220 5957 M 21244 0 R D gsave 2109 5816 translate 0 0 M
-470.747 0 N
(23) show grestore 2220 6462 M 21244 0 R D gsave 2109 6321 translate 0 0 M
-470.747 0 N
(22) show grestore 2220 6968 M 21244 0 R D gsave 2109 6827 translate 0 0 M
-470.747 0 N
(21) show grestore 2220 7473 M 21244 0 R D gsave 2109 7332 translate 0 0 M
-470.747 0 N
(20) show grestore 2220 7979 M 21244 0 R D gsave 2109 7838 translate 0 0 M
-470.747 0 N
(19) show grestore 2220 8484 M 21244 0 R D gsave 2109 8343 translate 0 0 M
-470.747 0 N
(18) show grestore 2220 8989 M 21244 0 R D gsave 2109 8849 translate 0 0 M
-470.747 0 N
(17) show grestore 2220 9495 M 21244 0 R D gsave 2109 9354 translate 0 0 M
-470.747 0 N
(16) show grestore 2220 10000 M 21244 0 R D gsave 2109 9859 translate 0 0 M
-470.747 0 N
(15) show grestore 2220 10506 M 21244 0 R D gsave 2109 10365 translate 0 0 M
-470.747 0 N
(14) show grestore 2220 11011 M 21244 0 R D gsave 2109 10870 translate 0 0 M
-470.747 0 N
(13) show grestore 2220 11516 M 21244 0 R D gsave 2109 11376 translate 0 0 M
-470.747 0 N
(12) show grestore 2220 12022 M 21244 0 R D gsave 2109 11881 translate 0 0 M
-470.747 0 N
(11) show grestore 2220 12527 M 21244 0 R D gsave 2109 12387 translate 0 0 M
-470.747 0 N
(10) show grestore 2220 13033 M 21244 0 R D gsave 2109 12892 translate 0 0 M
-353.06 0 N
( 9) show grestore 2220 13538 M 21244 0 R D gsave 2109 13397 translate 0 0 M
-353.06 0 N
( 8) show grestore 2220 14044 M 21244 0 R D gsave 2109 13903 translate 0 0 M
-353.06 0 N
( 7) show grestore 2220 14549 M 21244 0 R D gsave 2109 14408 translate 0 0 M
-353.06 0 N
( 6) show grestore 2220 15054 M 21244 0 R D gsave 2109 14914 translate 0 0 M
-353.06 0 N
( 5) show grestore 2220 15560 M 21244 0 R D gsave 2109 15419 translate 0 0 M
-353.06 0 N
( 4) show grestore 2220 16065 M 21244 0 R D gsave 2109 15924 translate 0 0 M
-353.06 0 N
( 3) show grestore 2220 16571 M 21244 0 R D gsave 2109 16430 translate 0 0 M
-353.06 0 N
( 2) show grestore 2220 17076 M 21244 0 R D gsave 2109 16830 translate 0 0 M
-353.06 0 N
( 1) show grestore gsave 1306 9242 translate 0 0 M 90 rotate -1223.65 0 N
(day of month) show grestore L0 23464 1408 M 0 15668 R D L1 23464 1408 M
-21244 0 R D 23464 1914 M -21244 0 R D 23464 2419 M -21244 0 R D
23464 2924 M -21244 0 R D 23464 3430 M -21244 0 R D 23464 3935 M -21244 0 R
D 23464 4441 M -21244 0 R D 23464 4946 M -21244 0 R D 23464 5451 M
-21244 0 R D 23464 5957 M -21244 0 R D 23464 6462 M -21244 0 R D
23464 6968 M -21244 0 R D 23464 7473 M -21244 0 R D 23464 7979 M -21244 0 R
D 23464 8484 M -21244 0 R D 23464 8989 M -21244 0 R D 23464 9495 M
-21244 0 R D 23464 10000 M -21244 0 R D 23464 10506 M -21244 0 R D
23464 11011 M -21244 0 R D 23464 11516 M -21244 0 R D 23464 12022 M
-21244 0 R D 23464 12527 M -21244 0 R D 23464 13033 M -21244 0 R D
23464 13538 M -21244 0 R D 23464 14044 M -21244 0 R D 23464 14549 M
-21244 0 R D 23464 15054 M -21244 0 R D 23464 15560 M -21244 0 R D
23464 16065 M -21244 0 R D 23464 16571 M -21244 0 R D 23464 17076 M
-21244 0 R D 50 setlinewidth L0 18454 15459 M 3133 0 R D 18789 10405 M
2798 0 R D 14625 9394 M 1651 0 R D 18790 8888 M 2796 0 R D 18790 8383 M
2797 0 R D gsave 3105 -107 translate 0 0 M
(COR1) show grestore 1.000 0.000 0.000 setrgbcolor
gsave 4876 -107 translate 0 0 M
(COR2) show grestore 0.000 1.000 0.000 setrgbcolor 18178 16773 M 3541 0 R D
18177 16267 M 3542 0 R D 18178 15762 M 3541 0 R D 18451 15257 M 3269 0 R D
18178 14751 M 3542 0 R D 18178 14246 M 3542 0 R D 18177 13740 M 3543 0 R D
18178 13235 M 3541 0 R D 18178 12729 M 3541 0 R D 18178 12224 M 3542 0 R D
14689 11719 M 7030 0 R D 18178 11213 M 3542 0 R D 18178 10708 M 3542 0 R D
18781 10202 M 2939 0 R D 18178 9697 M 1694 0 R D 21635 9697 M 85 0 R D
14638 9192 M 3542 0 R D 18783 8686 M 2937 0 R D 18634 8181 M 3086 0 R D
gsave 6646 -107 translate 0 0 M
(EUVI) show grestore
%%PageTrailer
end
restore
showpage
%%PageResources: font Helvetica
%%Trailer
restore
%%Pages: 1
%%DocumentNeededResources: font Helvetica
%%EOF
