REDO secchi_ahead_2007_006_6_00.fin           20293502 (+0.84)
REDO secchi_ahead_2007_107_1_05.fin          123377960 (+0.00)
REDO secchi_ahead_2007_107_2_05.fin          113250430 (+0.01)
REDO secchi_ahead_2007_107_4_05.fin          134693020 (+0.01)
REDO secchi_ahead_2007_115_3_05.ptp           74371264 (+0.09)
REDO secchi_ahead_2007_115_6_05.ptp           92436918 (+0.37)
REDO secchi_ahead_2007_116_1_05.ptp          151257648 (+0.53)
REDO secchi_ahead_2007_116_2_05.ptp          138831644 (+0.01)
REDO secchi_ahead_2007_116_3_05.ptp          231036420 (+0.00)
