A_SSR1_2016_01.txt
2016-01-10-13:50 - 2016-01-11-00:12      10.4 hours                   0 Missing Packets
2016-01-15-21:18 - 2016-01-15-21:29       0.2 hours                4165 Missing Packets
A_SSR1_2016_02.txt
2016-02-08-23:40 - 2016-02-08-23:57       0.3 hours                  36 Missing Packets
2016-02-09-03:21 - 2016-02-09-03:27       0.1 hours                 163 Missing Packets
2016-02-09-18:24 - 2016-02-09-18:50       0.4 hours                3315 Missing Packets
2016-02-23-17:25 - 2016-02-23-17:55       0.5 hours                7193 Missing Packets
2016-02-23-23:35 - 2016-02-23-23:40       0.1 hours                 312 Missing Packets
2016-02-26-15:21 - 2016-02-26-15:32       0.2 hours                1125 Missing Packets
A_SSR1_2016_03.txt
2016-03-06-23:40 - 2016-03-07-07:40       8.0 hours              512804 Missing Packets
2016-03-11-00:24 - 2016-03-11-18:28      18.0 hours             1164809 Missing Packets
A_SSR1_2016_04.txt
2016-04-08-19:07 - 2016-04-08-19:13       0.1 hours                   4 Missing Packets
2016-04-08-19:40 - 2016-04-08-21:39       2.0 hours               43564 Missing Packets
2016-04-09-23:10 - 2016-04-09-23:26       0.2 hours                  57 Missing Packets
2016-04-09-23:35 - 2016-04-09-23:42       0.1 hours                   2 Missing Packets
2016-04-16-10:11 - 2016-04-16-10:36       0.4 hours                5133 Missing Packets
2016-04-20-11:35 - 2016-04-20-11:46       0.2 hours                2406 Missing Packets
A_SSR1_2016_05.txt
2016-05-01-00:05 - 2016-05-01-00:17       0.2 hours                 187 Missing Packets
2016-05-02-00:04 - 2016-05-02-00:26       0.3 hours                1695 Missing Packets
2016-05-02-00:35 - 2016-05-02-00:54       0.3 hours                1237 Missing Packets
2016-05-08-04:21 - 2016-05-08-04:41       0.3 hours                 968 Missing Packets
2016-05-08-19:24 - 2016-05-08-21:30       2.1 hours               33362 Missing Packets
2016-05-08-22:21 - 2016-05-08-22:55       0.6 hours               20513 Missing Packets
2016-05-29-16:40 - 2016-05-29-17:13       0.6 hours                5578 Missing Packets
A_SSR1_2016_06.txt
2016-06-01-05:49 - 2016-06-02-00:11      18.4 hours                   0 Missing Packets
2016-06-27-18:11 - 2016-06-27-18:25       0.2 hours                  41 Missing Packets
A_SSR1_2016_07.txt
2016-07-21-18:11 - 2016-07-21-18:42       0.5 hours                1136 Missing Packets
2016-07-21-18:49 - 2016-07-21-19:08       0.3 hours                  24 Missing Packets
A_SSR1_2016_08.txt
2016-08-19-20:41 - 2016-08-19-21:12       0.5 hours                8459 Missing Packets
2016-08-26-03:40 - 2016-08-26-04:11       0.5 hours               13955 Missing Packets
2016-08-30-19:41 - 2016-08-30-19:55       0.2 hours                 391 Missing Packets
A_SSR1_2016_09.txt
2016-09-03-02:24 - 2016-09-03-02:40       0.3 hours                   2 Missing Packets
2016-09-09-07:24 - 2016-09-10-20:11      36.8 hours                   0 Missing Packets
2016-09-20-15:49 - 2016-09-20-16:54       1.1 hours               16780 Missing Packets
A_SSR1_2016_10.txt
2016-10-07-07:26 - 2016-10-07-20:12      12.8 hours                   0 Missing Packets
2016-10-16-18:55 - 2016-10-17-00:18       5.4 hours                   0 Missing Packets
A_SSR1_2016_11.txt
2016-11-04-21:00 - 2016-11-04-21:12       0.2 hours                1231 Missing Packets
2016-11-04-22:24 - 2016-11-04-23:12       0.8 hours               20344 Missing Packets
2016-11-04-23:16 - 2016-11-04-23:54       0.6 hours                7778 Missing Packets
A_SSR1_2016_12.txt
2016-12-15-06:50 - 2016-12-15-12:11       5.4 hours              352590 Missing Packets
