20061120_000709_m7c2B.fts
20061120_003909_m7c2B.fts
20061120_004742_s4c2B.fts
20061120_010709_m7c2B.fts
20061120_011542_s4c2B.fts
20061120_214958_s4c2B.fts
20061120_215008_s4c2B.fts
20061120_215018_s4c2B.fts
20061120_215858_s4c2B.fts
20061120_215908_s4c2B.fts
20061120_215918_s4c2B.fts
20061120_220758_s4c2B.fts
20061120_220808_s4c2B.fts
20061120_220818_s4c2B.fts
