The following data files appear to be duplicated
 
duplicate 20070119_161138_s4h1A.fts 20070119_161538_s4h1A.fts 
duplicate 20090519_092847_s4h1A.fts 20090519_092901_s4h1A.fts 
duplicate 20090415_012901_s4h1B.fts 20090415_012925_s4h1B.fts 
duplicate 20070423_121059_s4h2B.fts 20070423_121120_s4h2B.fts 
duplicate 20090415_000921_s4h2B.fts 20090415_000945_s4h2B.fts

-

rm $secchi/lz/L0/a/img/hi_1/20070119/20070119_161538_s4h1A.fts
rm $secchi/lz/L0/a/img/hi_1/20090519/20090519_092847_s4h1A.fts
rm $secchi/lz/L0/b/img/hi_2/20070423/20070423_121120_s4h2B.fts
rm $secchi/lz/L0/b/img/hi_1/20090415/20090415_012925_s4h1B.fts
rm $secchi/lz/L0/b/img/hi_2/20090415/20090415_000945_s4h2B.fts


rm $secchi/lz/L0/a/img/euvi/20090303/core
rm $secchi/lz/L0/a/img/hi_1/20090529/core
rm $secchi/lz/L0/a/img/hi_1/20090605/core
rm $secchi/lz/L0/a/img/hi_1/20090607/core
rm $secchi/lz/L0/b/img/euvi/20080125/core
rm $secchi/lz/L0/b/img/hi_1/20070720/core
rm $secchi/lz/L0/b/img/hi_1/20090211/core
rm $secchi/lz/L0/b/seq/cor2/20090407/core
rm $secchi/lz/L0/b/img/euvi/20080108/core
