﻿20070304_205713_s4c2A.png
20070316_182713_s4c2A.png
20070322_195713_s4c2A.png
20070329_205243_s4c2A.png
20070401_202256_s4c2A.png
20070423_000730_d4c2A.png
20070521_140730_d4c2A.png
20070523_003730_d4c2A.png
20070603_000730_d4c2A.png
20070607_172243_s4c2A.png
20070617_083730_d4c2A.png
20070617_220730_d4c2A.png
20070618_032243_s4c2A.png
20070708_135243_s4c2A.png
20070711_055256_s4c2A.png
20070712_095243_s4c2A.png
20070727_133730_d4c2A.png
20070813_000730_d4c2A.png
20070824_045243_s4c2A.png
20070917_015230_s4c2A.png
20071012_125243_s4c2A.png
20071012_182256_s4c2A.png
20071013_072243_s4c2A.png
20071014_043730_d4c2A.png
20071014_132243_s4c2A.png
20071019_192243_s4c2A.png
20071104_185250_n4c2A.png
20080308_225250_n4c2A.png
20080408_002220_n4c2A.png
20080513_215220_n4c2A.png
20080520_135220_n4c2A.png
20080730_055320_n4c2A.png
20081012_102220_n4c2A.png
20081118_045320_n4c2A.png
20081120_152220_n4c2A.png
20081222_115320_n4c2A.png
20090107_153730_d4c2A.png
20090127_202230_n4c2A.png
20090215_035200_n4c2A.png
20090224_045200_n4c2A.png
20090224_052200_n4c2A.png
20090224_052300_n4c2A.png
20090224_053730_d4c2A.png
20090224_055200_n4c2A.png
20090224_055230_n4c2A.png
20090224_055300_n4c2A.png
20090224_060730_d4c2A.png
20090224_062200_n4c2A.png
20090224_072300_n4c2A.png
20090224_075200_n4c2A.png
20090224_075230_n4c2A.png
20090224_080730_d4c2A.png
20090224_082230_n4c2A.png
20090411_155230_n4c2A.png
20090414_012200_n4c2A.png
20090414_012300_n4c2A.png
20090512_145000_s4c2A.png
20090512_145015_s4c2A.png
20090512_145030_s4c2A.png
20090512_145045_s4c2A.png
20090512_145100_s4c2A.png
20090512_145115_s4c2A.png
20090512_145130_s4c2A.png
20090512_145145_s4c2A.png
20090512_145200_s4c2A.png
20090512_145215_s4c2A.png
20090512_145230_s4c2A.png
20090512_145245_s4c2A.png
20090512_145300_s4c2A.png
20090512_145315_s4c2A.png
20090512_145330_s4c2A.png
20090512_145345_s4c2A.png
20090512_145400_s4c2A.png
20090512_145415_s4c2A.png
20090512_145430_s4c2A.png
20090512_145445_s4c2A.png
20090512_145500_s4c2A.png
20090512_145515_s4c2A.png
20090512_145530_s4c2A.png
20090512_145545_s4c2A.png
20090528_022230_n4c2A.png
20090627_030730_d4c2A.png
20090627_045230_n4c2A.png
20090627_155200_n4c2A.png
20090704_175230_n4c2A.png
20090704_185300_n4c2A.png
20090704_190730_d4c2A.png
20090720_152300_n4c2A.png
20090807_172230_n4c2A.png
20090807_195200_n4c2A.png
20090807_195230_n4c2A.png
20090807_195300_n4c2A.png
20090807_200730_d4c2A.png
20090811_090730_d4c2A.png
20090811_103730_d4c2A.png
20090824_040845_n4c2A.png
20090824_150845_n4c2A.png
20090831_000915_n4c2A.png
20090831_005400_d4c2A.png
20090910_065400_d4c2A.png
20091021_045400_d4c2A.png
20091021_050815_n4c2A.png
20091021_055400_d4c2A.png
20091210_120845_n4c2A.png
20091212_110815_n4c2A.png
20091221_102400_d4c2A.png
20091221_112400_d4c2A.png
20091221_123900_d4c2A.png
20091221_125400_d4c2A.png
20091221_172400_d4c2A.png
20091221_173900_d4c2A.png
20091221_193900_d4c2A.png
20091222_060915_n4c2A.png
20091222_065400_d4c2A.png
20091222_070845_n4c2A.png
20091222_070915_n4c2A.png
20091222_080815_n4c2A.png
20091222_080915_n4c2A.png
20091222_082400_d4c2A.png
20091222_085400_d4c2A.png
20091222_090815_n4c2A.png
20091222_090845_n4c2A.png
20091222_090915_n4c2A.png
20091222_092400_d4c2A.png
20091222_100915_n4c2A.png
20091222_102400_d4c2A.png
20100109_023900_d4c2A.png
20100220_200915_n4c2A.png
20100330_190915_n4c2A.png
20100330_200815_n4c2A.png
20100418_185400_d4c2A.png
20100504_222400_d4c2A.png
20100504_223900_d4c2A.png
20100527_070845_n4c2A.png
20100529_145400_d4c2A.png
20100530_000915_n4c2A.png
20100530_063912_d4c2A.png
