﻿20070302_001200_d4c2A.png
20070303_062713_s4c2A.png
20070303_062726_s4c2A.png
20070307_071200_d4c2A.png
20070307_092713_s4c2A.png
20070307_092726_s4c2A.png
20070316_075700_s4c2A.png
20070316_142700_s4c2A.png
20070319_231200_d4c2A.png
20070320_072713_s4c2A.png
20070321_172700_s4c2A.png
20070321_172726_s4c2A.png
20070324_082700_s4c2A.png
20070324_082713_s4c2A.png
20070324_082726_s4c2A.png
20070325_015726_s4c2A.png
20070325_034200_d4c2A.png
20070325_141200_d4c2A.png
20070325_232700_s4c2A.png
20070326_211200_d4c2A.png
20070328_112230_s4c2A.png
20070328_112243_s4c2A.png
20070328_112256_s4c2A.png
20070329_060730_d4c2A.png
20070329_090730_d4c2A.png
20070329_182230_s4c2A.png
20070329_182243_s4c2A.png
20070329_182256_s4c2A.png
20070330_025256_s4c2A.png
20070330_123730_d4c2A.png
20070331_225230_s4c2A.png
20070401_132256_s4c2A.png
20070401_172230_s4c2A.png
20070401_172243_s4c2A.png
20070401_172256_s4c2A.png
20070402_183730_d4c2A.png
20070402_195230_s4c2A.png
20070402_195243_s4c2A.png
20070402_195256_s4c2A.png
20070403_015243_s4c2A.png
20070403_232230_s4c2A.png
20070403_232243_s4c2A.png
20070403_232256_s4c2A.png
20070404_043730_d4c2A.png
20070404_113730_d4c2A.png
20070405_085230_s4c2A.png
20070405_085243_s4c2A.png
20070405_085256_s4c2A.png
20070408_190730_d4c2A.png
20070409_205230_s4c2A.png
20070410_020730_d4c2A.png
20070411_010730_d4c2A.png
20070411_062243_s4c2A.png
20070411_062256_s4c2A.png
20070413_225230_s4c2A.png
20070413_225243_s4c2A.png
20070413_225256_s4c2A.png
20070414_113730_d4c2A.png
20070415_190730_d4c2A.png
20070417_153730_d4c2A.png
20070418_022230_s4c2A.png
20070418_022243_s4c2A.png
20070418_022256_s4c2A.png
20070418_030730_d4c2A.png
20070418_213730_d4c2A.png
20070419_032230_s4c2A.png
20070419_032243_s4c2A.png
20070419_032256_s4c2A.png
20070419_045230_s4c2A.png
20070419_045243_s4c2A.png
20070419_045256_s4c2A.png
20070420_013730_d4c2A.png
20070420_142230_s4c2A.png
20070421_015230_s4c2A.png
20070421_030730_d4c2A.png
20070422_045230_s4c2A.png
20070422_045243_s4c2A.png
20070422_045256_s4c2A.png
20070423_062256_s4c2A.png
20070423_063730_d4c2A.png
20070423_073730_d4c2A.png
20070423_102230_s4c2A.png
20070423_102243_s4c2A.png
20070423_102256_s4c2A.png
20070423_120730_d4c2A.png
20070424_015230_s4c2A.png
20070424_015243_s4c2A.png
20070424_090730_d4c2A.png
20070424_130730_d4c2A.png
20070425_052230_s4c2A.png
20070425_052243_s4c2A.png
20070425_052256_s4c2A.png
20070425_145243_s4c2A.png
20070425_173730_d4c2A.png
20070426_172230_s4c2A.png
20070426_172243_s4c2A.png
20070426_172256_s4c2A.png
20070427_102243_s4c2A.png
20070427_175230_s4c2A.png
20070427_175243_s4c2A.png
20070427_175256_s4c2A.png
20070428_162243_s4c2A.png
20070428_162256_s4c2A.png
20070428_180730_d4c2A.png
20070429_132230_s4c2A.png
20070429_132243_s4c2A.png
20070429_132256_s4c2A.png
20070429_133730_d4c2A.png
20070430_082243_s4c2A.png
20070501_055230_s4c2A.png
20070501_055243_s4c2A.png
20070501_055256_s4c2A.png
20070501_182256_s4c2A.png
20070502_180730_d4c2A.png
20070503_053730_d4c2A.png
20070503_115230_s4c2A.png
20070503_115243_s4c2A.png
20070503_115256_s4c2A.png
20070503_203730_d4c2A.png
20070504_000730_d4c2A.png
20070504_050730_d4c2A.png
20070504_090730_d4c2A.png
20070504_113730_d4c2A.png
20070507_163730_d4c2A.png
20070508_060730_d4c2A.png
20070508_185230_s4c2A.png
20070508_185243_s4c2A.png
20070508_185256_s4c2A.png
20070510_040730_d4c2A.png
20070511_213730_d4c2A.png
20070512_115243_s4c2A.png
20070513_042230_s4c2A.png
20070513_042243_s4c2A.png
20070513_042256_s4c2A.png
20070513_142230_s4c2A.png
20070513_142243_s4c2A.png
20070513_142256_s4c2A.png
20070513_185243_s4c2A.png
20070514_032256_s4c2A.png
20070514_172230_s4c2A.png
20070514_172243_s4c2A.png
20070514_172256_s4c2A.png
20070514_223730_d4c2A.png
20070516_072230_s4c2A.png
20070516_072243_s4c2A.png
20070516_072256_s4c2A.png
20070516_175230_s4c2A.png
20070516_175243_s4c2A.png
20070517_025256_s4c2A.png
20070517_042230_s4c2A.png
20070517_042243_s4c2A.png
20070517_042256_s4c2A.png
20070517_205256_s4c2A.png
20070518_013730_d4c2A.png
20070518_222230_s4c2A.png
20070518_222243_s4c2A.png
20070518_222256_s4c2A.png
20070519_065230_s4c2A.png
20070519_065243_s4c2A.png
20070519_065256_s4c2A.png
20070519_125230_s4c2A.png
20070519_125243_s4c2A.png
20070519_125256_s4c2A.png
20070519_150730_d4c2A.png
20070520_003730_d4c2A.png
20070520_013730_d4c2A.png
20070520_025230_s4c2A.png
20070520_025243_s4c2A.png
20070520_025256_s4c2A.png
20070520_052243_s4c2A.png
20070520_052256_s4c2A.png
20070520_082230_s4c2A.png
20070520_082243_s4c2A.png
20070520_082256_s4c2A.png
20070520_103730_d4c2A.png
20070520_135230_s4c2A.png
20070520_135243_s4c2A.png
20070520_135256_s4c2A.png
20070520_195256_s4c2A.png
20070521_012256_s4c2A.png
20070522_025230_s4c2A.png
20070522_025243_s4c2A.png
20070522_025256_s4c2A.png
20070522_032230_s4c2A.png
20070522_032243_s4c2A.png
20070522_032256_s4c2A.png
20070522_073730_d4c2A.png
20070522_122230_s4c2A.png
20070522_122243_s4c2A.png
20070522_122256_s4c2A.png
20070523_033730_d4c2A.png
20070523_160730_d4c2A.png
20070523_193730_d4c2A.png
20070523_223730_d4c2A.png
20070524_092230_s4c2A.png
20070524_092243_s4c2A.png
20070525_030730_d4c2A.png
20070525_123730_d4c2A.png
20070526_095243_s4c2A.png
20070527_112230_s4c2A.png
20070527_112243_s4c2A.png
20070527_112256_s4c2A.png
20070527_165230_s4c2A.png
20070527_165243_s4c2A.png
20070527_165256_s4c2A.png
20070528_175230_s4c2A.png
20070528_175243_s4c2A.png
20070528_175256_s4c2A.png
20070530_152230_s4c2A.png
20070530_152243_s4c2A.png
20070530_152256_s4c2A.png
20070531_023730_d4c2A.png
20070531_063730_d4c2A.png
20070531_165230_s4c2A.png
20070531_165243_s4c2A.png
20070531_165256_s4c2A.png
20070601_095256_s4c2A.png
20070601_132230_s4c2A.png
20070602_020730_d4c2A.png
20070602_232230_s4c2A.png
20070602_232243_s4c2A.png
20070602_232256_s4c2A.png
20070603_013730_d4c2A.png
20070603_090730_d4c2A.png
20070604_045230_s4c2A.png
20070604_045243_s4c2A.png
20070604_045256_s4c2A.png
20070604_082243_s4c2A.png
20070604_145230_s4c2A.png
20070604_145243_s4c2A.png
20070604_145256_s4c2A.png
20070604_175230_s4c2A.png
20070604_175243_s4c2A.png
20070604_185230_s4c2A.png
20070604_185243_s4c2A.png
20070604_185256_s4c2A.png
20070605_035230_s4c2A.png
20070605_035243_s4c2A.png
20070605_035256_s4c2A.png
20070605_050730_d4c2A.png
20070605_062256_s4c2A.png
20070605_143730_d4c2A.png
20070605_193730_d4c2A.png
20070605_202230_s4c2A.png
20070605_202243_s4c2A.png
20070605_202256_s4c2A.png
20070605_215230_s4c2A.png
20070606_092230_s4c2A.png
20070606_092243_s4c2A.png
20070606_092256_s4c2A.png
20070606_105230_s4c2A.png
20070606_105243_s4c2A.png
20070606_105256_s4c2A.png
20070607_022230_s4c2A.png
20070607_022243_s4c2A.png
20070607_022256_s4c2A.png
20070607_073730_d4c2A.png
20070609_022230_s4c2A.png
20070609_022243_s4c2A.png
20070609_022256_s4c2A.png
20070609_050730_d4c2A.png
20070609_072243_s4c2A.png
20070609_072256_s4c2A.png
20070609_165230_s4c2A.png
20070609_165243_s4c2A.png
20070609_165256_s4c2A.png
20070609_182256_s4c2A.png
20070610_015230_s4c2A.png
20070610_015243_s4c2A.png
20070610_015256_s4c2A.png
20070610_050730_d4c2A.png
20070610_195256_s4c2A.png
20070611_032243_s4c2A.png
20070611_060730_d4c2A.png
20070611_170730_d4c2A.png
20070612_042230_s4c2A.png
20070612_042243_s4c2A.png
20070612_042256_s4c2A.png
20070612_163730_d4c2A.png
20070613_220730_d4c2A.png
20070614_050730_d4c2A.png
20070614_060730_d4c2A.png
20070614_115230_s4c2A.png
20070614_115243_s4c2A.png
20070614_212230_s4c2A.png
20070614_212243_s4c2A.png
20070614_212256_s4c2A.png
20070615_015230_s4c2A.png
20070615_015256_s4c2A.png
20070615_095243_s4c2A.png
20070615_095256_s4c2A.png
20070615_113730_d4c2A.png
20070615_132230_s4c2A.png
20070615_132243_s4c2A.png
20070615_132256_s4c2A.png
20070615_190730_d4c2A.png
20070615_192230_s4c2A.png
20070615_192243_s4c2A.png
20070615_192256_s4c2A.png
20070616_010730_d4c2A.png
20070616_053730_d4c2A.png
20070616_082230_s4c2A.png
20070616_082243_s4c2A.png
20070616_082256_s4c2A.png
20070617_152256_s4c2A.png
20070618_015243_s4c2A.png
20070618_015256_s4c2A.png
20070618_073730_d4c2A.png
20070618_120730_d4c2A.png
20070618_185243_s4c2A.png
20070618_185256_s4c2A.png
20070618_223730_d4c2A.png
20070619_093730_d4c2A.png
20070619_110730_d4c2A.png
20070620_010730_d4c2A.png
20070620_012230_s4c2A.png
20070620_053730_d4c2A.png
20070620_090730_d4c2A.png
20070620_155230_s4c2A.png
20070620_155243_s4c2A.png
20070620_155256_s4c2A.png
20070620_232230_s4c2A.png
20070620_232243_s4c2A.png
20070620_232256_s4c2A.png
20070621_010730_d4c2A.png
20070621_162243_s4c2A.png
20070621_162256_s4c2A.png
20070622_115243_s4c2A.png
20070622_132230_s4c2A.png
20070622_132243_s4c2A.png
20070622_132256_s4c2A.png
20070623_012230_s4c2A.png
20070623_012243_s4c2A.png
20070623_012256_s4c2A.png
20070623_015230_s4c2A.png
20070623_015243_s4c2A.png
20070623_015256_s4c2A.png
20070623_055230_s4c2A.png
20070623_055243_s4c2A.png
20070623_055256_s4c2A.png
20070624_032243_s4c2A.png
20070624_032256_s4c2A.png
20070625_185256_s4c2A.png
20070625_225230_s4c2A.png
20070626_115243_s4c2A.png
20070626_115256_s4c2A.png
20070627_163730_d4c2A.png
20070627_192230_s4c2A.png
20070627_192243_s4c2A.png
20070627_192256_s4c2A.png
20070627_195256_s4c2A.png
20070627_215256_s4c2A.png
20070628_032230_s4c2A.png
20070628_032243_s4c2A.png
20070628_032256_s4c2A.png
20070628_105256_s4c2A.png
20070628_142243_s4c2A.png
20070628_142256_s4c2A.png
20070628_222243_s4c2A.png
20070628_222256_s4c2A.png
20070629_202243_s4c2A.png
20070629_202256_s4c2A.png
20070630_005230_s4c2A.png
20070630_005243_s4c2A.png
20070630_005256_s4c2A.png
20070630_213730_d4c2A.png
20070630_233730_d4c2A.png
20070701_032230_s4c2A.png
20070701_032243_s4c2A.png
20070701_040730_d4c2A.png
20070701_083730_d4c2A.png
20070701_122243_s4c2A.png
20070701_122256_s4c2A.png
20070702_012230_s4c2A.png
20070702_012243_s4c2A.png
20070702_012256_s4c2A.png
20070702_085230_s4c2A.png
20070702_085243_s4c2A.png
20070702_085256_s4c2A.png
20070702_090730_d4c2A.png
20070702_100730_d4c2A.png
20070702_162243_s4c2A.png
20070702_162256_s4c2A.png
20070702_170730_d4c2A.png
20070703_042230_s4c2A.png
20070703_042243_s4c2A.png
20070703_042256_s4c2A.png
20070703_065243_s4c2A.png
20070703_065256_s4c2A.png
20070703_132230_s4c2A.png
20070703_132243_s4c2A.png
20070703_220730_d4c2A.png
20070704_002230_s4c2A.png
20070704_002243_s4c2A.png
20070704_155230_s4c2A.png
20070704_155243_s4c2A.png
20070704_155256_s4c2A.png
20070704_220730_d4c2A.png
20070705_012230_s4c2A.png
20070705_050730_d4c2A.png
20070705_053730_d4c2A.png
20070705_192230_s4c2A.png
20070705_215256_s4c2A.png
20070705_235243_s4c2A.png
20070706_115256_s4c2A.png
20070706_132243_s4c2A.png
20070706_132256_s4c2A.png
20070707_103730_d4c2A.png
20070707_142230_s4c2A.png
20070707_142243_s4c2A.png
20070707_142256_s4c2A.png
20070707_225256_s4c2A.png
20070707_235243_s4c2A.png
20070708_140730_d4c2A.png
20070709_070730_d4c2A.png
20070709_072230_s4c2A.png
20070709_072243_s4c2A.png
20070709_072256_s4c2A.png
20070709_105243_s4c2A.png
20070709_105256_s4c2A.png
20070709_163730_d4c2A.png
20070710_022230_s4c2A.png
20070710_022243_s4c2A.png
20070710_022256_s4c2A.png
20070710_062230_s4c2A.png
20070710_062243_s4c2A.png
20070710_062256_s4c2A.png
20070710_092256_s4c2A.png
20070711_185230_s4c2A.png
20070711_185243_s4c2A.png
20070711_185256_s4c2A.png
20070712_003730_d4c2A.png
20070712_005256_s4c2A.png
20070712_055243_s4c2A.png
20070712_055256_s4c2A.png
20070712_150730_d4c2A.png
20070712_182230_s4c2A.png
20070712_182243_s4c2A.png
20070712_182256_s4c2A.png
20070712_193730_d4c2A.png
20070713_040730_d4c2A.png
20070713_093730_d4c2A.png
20070713_103730_d4c2A.png
20070713_175256_s4c2A.png
20070714_042230_s4c2A.png
20070714_152230_s4c2A.png
20070714_152243_s4c2A.png
20070714_152256_s4c2A.png
20070715_003730_d4c2A.png
20070715_040730_d4c2A.png
20070715_052230_s4c2A.png
20070715_052243_s4c2A.png
20070715_122230_s4c2A.png
20070715_122243_s4c2A.png
20070715_125230_s4c2A.png
20070715_125243_s4c2A.png
20070715_125256_s4c2A.png
20070715_145230_s4c2A.png
20070715_145243_s4c2A.png
20070715_145256_s4c2A.png
20070715_225230_s4c2A.png
20070716_003730_d4c2A.png
20070716_155230_s4c2A.png
20070716_155243_s4c2A.png
20070716_155256_s4c2A.png
20070716_165256_s4c2A.png
20070716_182230_s4c2A.png
20070716_182243_s4c2A.png
20070716_182256_s4c2A.png
20070717_005243_s4c2A.png
20070717_005256_s4c2A.png
20070717_162230_s4c2A.png
20070717_162243_s4c2A.png
20070717_162256_s4c2A.png
20070718_003730_d4c2A.png
20070718_072230_s4c2A.png
20070718_072243_s4c2A.png
20070718_072256_s4c2A.png
20070718_092256_s4c2A.png
20070718_115243_s4c2A.png
20070718_115256_s4c2A.png
20070718_125243_s4c2A.png
20070718_125256_s4c2A.png
20070718_143730_d4c2A.png
20070718_152230_s4c2A.png
20070718_152243_s4c2A.png
20070718_152256_s4c2A.png
20070718_192230_s4c2A.png
20070718_192243_s4c2A.png
20070718_192256_s4c2A.png
20070719_033730_d4c2A.png
20070719_083730_d4c2A.png
20070719_193730_d4c2A.png
20070719_203730_d4c2A.png
20070720_135230_s4c2A.png
20070720_135243_s4c2A.png
20070720_165256_s4c2A.png
20070721_035230_s4c2A.png
20070721_100730_d4c2A.png
20070721_130730_d4c2A.png
20070723_050730_d4c2A.png
20070723_173730_d4c2A.png
20070723_222230_s4c2A.png
20070723_222243_s4c2A.png
20070724_062230_s4c2A.png
20070724_062243_s4c2A.png
20070724_062256_s4c2A.png
20070724_123730_d4c2A.png
20070724_152230_s4c2A.png
20070724_152243_s4c2A.png
20070724_152256_s4c2A.png
20070724_195230_s4c2A.png
20070724_195243_s4c2A.png
20070724_220730_d4c2A.png
20070724_235230_s4c2A.png
20070725_032230_s4c2A.png
20070725_032243_s4c2A.png
20070725_032256_s4c2A.png
20070725_062256_s4c2A.png
20070725_082243_s4c2A.png
20070725_082256_s4c2A.png
20070725_085230_s4c2A.png
20070725_085243_s4c2A.png
20070725_085256_s4c2A.png
20070725_165230_s4c2A.png
20070725_212230_s4c2A.png
20070725_212243_s4c2A.png
20070725_212256_s4c2A.png
20070726_113730_d4c2A.png
20070726_160730_d4c2A.png
20070726_212230_s4c2A.png
20070726_212243_s4c2A.png
20070726_212256_s4c2A.png
20070727_075256_s4c2A.png
20070727_082230_s4c2A.png
20070727_082243_s4c2A.png
20070727_082256_s4c2A.png
20070727_205230_s4c2A.png
20070727_205243_s4c2A.png
20070727_205256_s4c2A.png
20070728_020730_d4c2A.png
20070728_052243_s4c2A.png
20070728_145230_s4c2A.png
20070728_145243_s4c2A.png
20070728_145256_s4c2A.png
20070728_190730_d4c2A.png
20070729_013730_d4c2A.png
20070729_180730_d4c2A.png
20070730_083730_d4c2A.png
20070730_212230_s4c2A.png
20070730_232230_s4c2A.png
20070730_232243_s4c2A.png
20070731_023730_d4c2A.png
20070731_042256_s4c2A.png
20070731_152230_s4c2A.png
20070731_152243_s4c2A.png
20070731_152256_s4c2A.png
20070731_212243_s4c2A.png
20070731_213730_d4c2A.png
20070801_072230_s4c2A.png
20070801_072243_s4c2A.png
20070801_072256_s4c2A.png
20070801_075256_s4c2A.png
20070801_085230_s4c2A.png
20070801_085243_s4c2A.png
20070801_085256_s4c2A.png
20070801_225230_s4c2A.png
20070801_225243_s4c2A.png
20070801_225256_s4c2A.png
20070802_122256_s4c2A.png
20070802_142230_s4c2A.png
20070802_142243_s4c2A.png
20070802_142256_s4c2A.png
20070802_165230_s4c2A.png
20070802_165243_s4c2A.png
20070802_165256_s4c2A.png
20070802_210730_d4c2A.png
20070802_222243_s4c2A.png
20070802_222256_s4c2A.png
20070802_223730_d4c2A.png
20070803_033730_d4c2A.png
20070805_052256_s4c2A.png
20070805_185230_d4c2A.png
20070805_205230_d4c2A.png
20070807_193730_d4c2A.png
20070808_010730_d4c2A.png
20070808_062230_s4c2A.png
20070808_085230_s4c2A.png
20070808_085243_s4c2A.png
20070808_085256_s4c2A.png
20070809_033730_d4c2A.png
20070809_115230_s4c2A.png
20070809_115243_s4c2A.png
20070809_115256_s4c2A.png
20070809_170730_d4c2A.png
20070809_205256_s4c2A.png
20070810_025230_s4c2A.png
20070810_025243_s4c2A.png
20070810_025256_s4c2A.png
20070810_132256_s4c2A.png
20070810_235230_s4c2A.png
20070812_090730_d4c2A.png
20070812_173730_d4c2A.png
20070812_222243_s4c2A.png
20070813_080730_d4c2A.png
20070813_225243_s4c2A.png
20070814_002256_s4c2A.png
20070814_005230_s4c2A.png
20070814_005243_s4c2A.png
20070814_005256_s4c2A.png
20070814_072230_s4c2A.png
20070814_072243_s4c2A.png
20070814_072256_s4c2A.png
20070814_075243_s4c2A.png
20070814_075256_s4c2A.png
20070814_212230_s4c2A.png
20070815_000730_d4c2A.png
20070815_005256_s4c2A.png
20070815_190730_d4c2A.png
20070815_230730_d4c2A.png
20070816_075256_s4c2A.png
20070817_042243_s4c2A.png
20070817_050730_d4c2A.png
20070818_103730_d4c2A.png
20070819_222243_s4c2A.png
20070820_040730_d4c2A.png
20070820_072256_s4c2A.png
20070820_100730_d4c2A.png
20070821_073730_d4c2A.png
20070822_040730_d4c2A.png
20070823_045256_s4c2A.png
20070823_070730_d4c2A.png
20070823_170730_d4c2A.png
20070823_175230_s4c2A.png
20070824_005230_s4c2A.png
20070825_170730_d4c2A.png
20070825_210730_d4c2A.png
20070826_013730_d4c2A.png
20070826_153730_d4c2A.png
20070826_225230_s4c2A.png
20070826_225243_s4c2A.png
20070826_225256_s4c2A.png
20070827_180730_d4c2A.png
20070827_182230_s4c2A.png
20070828_022256_s4c2A.png
20070828_052243_s4c2A.png
20070828_060730_d4c2A.png
20070828_115230_s4c2A.png
20070828_115243_s4c2A.png
20070828_115256_s4c2A.png
20070828_140730_d4c2A.png
20070828_220730_d4c2A.png
20070830_000730_d4c2A.png
20070830_060730_d4c2A.png
20070831_043730_d4c2A.png
20070831_150730_d4c2A.png
20070831_162230_s4c2A.png
20070831_162243_s4c2A.png
20070831_162256_s4c2A.png
20070831_235230_s4c2A.png
20070831_235243_s4c2A.png
20070831_235256_s4c2A.png
20070901_095256_s4c2A.png
20070902_063730_d4c2A.png
20070902_150730_d4c2A.png
20070904_070730_d4c2A.png
20070904_173730_d4c2A.png
20070904_183730_d4c2A.png
20070904_235230_s4c2A.png
20070904_235243_s4c2A.png
20070904_235256_s4c2A.png
20070905_033730_d4c2A.png
20070905_150730_d4c2A.png
20070905_233730_d4c2A.png
20070906_062230_s4c2A.png
20070906_062243_s4c2A.png
20070906_062256_s4c2A.png
20070906_140730_d4c2A.png
20070907_012230_s4c2A.png
20070907_012243_s4c2A.png
20070907_012256_s4c2A.png
20070907_025230_s4c2A.png
20070907_025243_s4c2A.png
20070907_030730_d4c2A.png
20070907_190730_d4c2A.png
20070908_072256_s4c2A.png
20070908_125230_s4c2A.png
20070908_155230_s4c2A.png
20070908_160730_d4c2A.png
20070908_185230_s4c2A.png
20070908_185243_s4c2A.png
20070908_185256_s4c2A.png
20070908_225230_s4c2A.png
20070908_225243_s4c2A.png
20070908_225256_s4c2A.png
20070909_005230_s4c2A.png
20070909_023730_d4c2A.png
20070909_212243_s4c2A.png
20070910_212230_s4c2A.png
20070910_212243_s4c2A.png
20070910_212256_s4c2A.png
20070911_040730_d4c2A.png
20070911_142230_s4c2A.png
20070911_142243_s4c2A.png
20070911_142256_s4c2A.png
20070911_192230_s4c2A.png
20070911_192243_s4c2A.png
20070911_192256_s4c2A.png
20070912_105243_s4c2A.png
20070912_105256_s4c2A.png
20070912_145230_s4c2A.png
20070912_145243_s4c2A.png
20070913_033730_d4c2A.png
20070913_072230_s4c2A.png
20070913_072243_s4c2A.png
20070913_072256_s4c2A.png
20070915_105230_s4c2A.png
20070915_105243_s4c2A.png
20070915_105256_s4c2A.png
20070915_160730_d4c2A.png
20070915_173730_d4c2A.png
20070916_233730_d4c2A.png
20070917_050730_d4c2A.png
20070917_233730_d4c2A.png
20070918_015230_s4c2A.png
20070918_015243_s4c2A.png
20070918_103730_d4c2A.png
20070919_000730_d4c2A.png
20070919_145230_s4c2A.png
20070919_145243_s4c2A.png
20070919_145256_s4c2A.png
20070919_233730_d4c2A.png
20070920_140730_d4c2A.png
20070921_032230_s4c2A.png
20070921_032243_s4c2A.png
20070921_032256_s4c2A.png
20070921_095256_s4c2A.png
20070921_145230_s4c2A.png
20070921_145243_s4c2A.png
20070921_160730_d4c2A.png
20070921_165230_s4c2A.png
20070921_165243_s4c2A.png
20070921_165256_s4c2A.png
20070922_065230_s4c2A.png
20070924_005256_s4c2A.png
20070924_163730_d4c2A.png
20070924_175256_s4c2A.png
20070924_195230_s4c2A.png
20070924_195243_s4c2A.png
20070924_195256_s4c2A.png
20070925_173730_d4c2A.png
20070925_213730_d4c2A.png
20070926_063730_d4c2A.png
20070926_145243_s4c2A.png
20070926_145256_s4c2A.png
20070927_065256_s4c2A.png
20070927_075230_s4c2A.png
20070927_075243_s4c2A.png
20070927_075256_s4c2A.png
20070927_160730_d4c2A.png
20070929_070730_d4c2A.png
20070929_225230_d4c2A.png
20070930_045230_s4c2A.png
20070930_045243_s4c2A.png
20070930_103730_d4c2A.png
20071001_072230_s4c2A.png
20071001_072243_s4c2A.png
20071001_072256_s4c2A.png
20071002_022230_s4c2A.png
20071002_022243_s4c2A.png
20071002_022256_s4c2A.png
20071002_045243_s4c2A.png
20071002_093730_d4c2A.png
20071002_102243_s4c2A.png
20071002_102256_s4c2A.png
20071002_110730_d4c2A.png
20071002_122256_s4c2A.png
20071002_215243_s4c2A.png
20071002_215256_s4c2A.png
20071003_150730_d4c2A.png
20071003_152243_s4c2A.png
20071003_152256_s4c2A.png
20071003_223730_d4c2A.png
20071004_022230_s4c2A.png
20071004_022243_s4c2A.png
20071004_022256_s4c2A.png
20071004_145230_s4c2A.png
20071004_145243_s4c2A.png
20071004_145256_s4c2A.png
20071004_180730_d4c2A.png
20071005_032256_s4c2A.png
20071005_065243_s4c2A.png
20071005_065256_s4c2A.png
20071005_142230_s4c2A.png
20071005_142243_s4c2A.png
20071005_190730_d4c2A.png
20071005_205256_s4c2A.png
20071006_033730_d4c2A.png
20071006_063730_d4c2A.png
20071006_235243_s4c2A.png
20071007_002230_s4c2A.png
20071007_002243_s4c2A.png
20071007_002256_s4c2A.png
20071007_052230_s4c2A.png
20071007_125230_s4c2A.png
20071007_125243_s4c2A.png
20071007_125256_s4c2A.png
20071007_165230_s4c2A.png
20071007_165243_s4c2A.png
20071007_165256_s4c2A.png
20071007_200730_d4c2A.png
20071008_002243_s4c2A.png
20071008_002256_s4c2A.png
20071008_070730_d4c2A.png
20071008_103730_d4c2A.png
20071008_232256_s4c2A.png
20071009_183730_d4c2A.png
20071009_215230_s4c2A.png
20071009_215243_s4c2A.png
20071009_215256_s4c2A.png
20071010_225243_s4c2A.png
20071010_225256_s4c2A.png
20071011_012250_n4c2A.png
20071011_012320_n4c2A.png
20071011_012350_n4c2A.png
20071011_145350_n4c2A.png
20071011_232350_n4c2A.png
20071014_152230_s4c2A.png
20071014_152243_s4c2A.png
20071014_152256_s4c2A.png
20071016_050730_d4c2A.png
20071016_172230_s4c2A.png
20071016_172243_s4c2A.png
20071016_172256_s4c2A.png
20071017_212230_s4c2A.png
20071017_212243_s4c2A.png
20071017_212256_s4c2A.png
20071017_225243_s4c2A.png
20071018_022230_s4c2A.png
20071018_022243_s4c2A.png
20071018_022256_s4c2A.png
20071018_033730_d4c2A.png
20071019_045256_s4c2A.png
20071019_103730_d4c2A.png
20071019_200730_d4c2A.png
20071020_130730_d4c2A.png
20071020_150730_d4c2A.png
20071020_163730_d4c2A.png
20071020_173730_d4c2A.png
20071020_230730_d4c2A.png
20071021_035243_s4c2A.png
20071021_062230_s4c2A.png
20071021_062243_s4c2A.png
20071021_062256_s4c2A.png
20071021_083730_d4c2A.png
20071021_112230_s4c2A.png
20071021_112243_s4c2A.png
20071021_112256_s4c2A.png
20071021_215230_s4c2A.png
20071021_215243_s4c2A.png
20071021_215256_s4c2A.png
20071022_040730_d4c2A.png
20071022_095230_s4c2A.png
20071022_095243_s4c2A.png
20071022_112243_s4c2A.png
20071022_112256_s4c2A.png
20071022_140730_d4c2A.png
20071022_175230_s4c2A.png
20071023_035250_n4c2A.png
20071025_142230_s4c2A.png
20071025_215243_s4c2A.png
20071025_233730_d4c2A.png
20071026_032220_n4c2A.png
20071026_032250_n4c2A.png
20071026_032320_n4c2A.png
20071026_105220_n4c2A.png
20071027_013754_d4c2A.png
20071027_053754_d4c2A.png
20071027_172320_n4c2A.png
20071028_052220_n4c2A.png
20071028_052250_n4c2A.png
20071028_052320_n4c2A.png
20071028_075320_n4c2A.png
20071028_140754_d4c2A.png
20071028_142320_n4c2A.png
20071029_070754_d4c2A.png
20071029_103754_d4c2A.png
20071029_125220_n4c2A.png
20071029_125250_n4c2A.png
20071029_125320_n4c2A.png
20071029_140754_d4c2A.png
20071029_220754_d4c2A.png
20071030_035220_n4c2A.png
20071030_035250_n4c2A.png
20071030_035320_n4c2A.png
20071030_095220_n4c2A.png
20071030_163754_d4c2A.png
20071031_102320_n4c2A.png
20071031_190754_d4c2A.png
20071101_045250_n4c2A.png
20071101_045320_n4c2A.png
20071101_062220_n4c2A.png
20071101_062250_n4c2A.png
20071101_062320_n4c2A.png
20071101_125320_n4c2A.png
20071101_235320_n4c2A.png
20071102_055250_n4c2A.png
20071102_055320_n4c2A.png
20071102_082250_n4c2A.png
20071102_215250_n4c2A.png
20071103_115220_n4c2A.png
20071103_132220_n4c2A.png
20071103_132250_n4c2A.png
20071103_132320_n4c2A.png
20071103_160754_d4c2A.png
20071103_223754_d4c2A.png
20071104_055220_n4c2A.png
20071104_055250_n4c2A.png
20071104_055320_n4c2A.png
20071104_132220_n4c2A.png
20071104_132250_n4c2A.png
20071104_150754_d4c2A.png
20071105_023754_d4c2A.png
20071105_095250_n4c2A.png
20071105_095320_n4c2A.png
20071105_112220_n4c2A.png
20071105_112250_n4c2A.png
20071106_145220_n4c2A.png
20071106_145250_n4c2A.png
20071106_145320_n4c2A.png
20071106_155220_n4c2A.png
20071106_155250_n4c2A.png
20071106_155320_n4c2A.png
20071107_045220_n4c2A.png
20071107_045250_n4c2A.png
20071107_045320_n4c2A.png
20071107_130754_d4c2A.png
20071107_135250_n4c2A.png
20071107_145220_n4c2A.png
20071107_145250_n4c2A.png
20071107_145320_n4c2A.png
20071107_163754_d4c2A.png
20071108_130754_d4c2A.png
20071109_053754_d4c2A.png
20071109_213754_d4c2A.png
20071110_010754_d4c2A.png
20071111_200754_d4c2A.png
20071113_025250_n4c2A.png
20071113_025320_n4c2A.png
20071113_062250_n4c2A.png
20071113_062320_n4c2A.png
20071114_100754_d4c2A.png
20071114_162320_n4c2A.png
20071114_165320_n4c2A.png
20071115_053754_d4c2A.png
20071116_125250_n4c2A.png
20071116_125320_n4c2A.png
20071116_225220_n4c2A.png
20071116_230754_d4c2A.png
20071117_015320_n4c2A.png
20071117_022250_n4c2A.png
20071117_035220_n4c2A.png
20071117_035250_n4c2A.png
20071117_035320_n4c2A.png
20071117_165220_n4c2A.png
20071117_165250_n4c2A.png
20071117_212320_n4c2A.png
20071118_032250_n4c2A.png
20071118_032320_n4c2A.png
20071118_133754_d4c2A.png
20071118_145220_n4c2A.png
20071118_145250_n4c2A.png
20071118_145320_n4c2A.png
20071118_225220_n4c2A.png
20071118_225250_n4c2A.png
20071118_225320_n4c2A.png
20071119_125220_n4c2A.png
20071119_162320_n4c2A.png
20071120_182220_n4c2A.png
20071120_182250_n4c2A.png
20071120_182320_n4c2A.png
20071120_202320_n4c2A.png
20071120_215250_n4c2A.png
20071120_215320_n4c2A.png
20071121_085220_n4c2A.png
20071121_235220_n4c2A.png
20071121_235250_n4c2A.png
20071122_002220_n4c2A.png
20071122_002250_n4c2A.png
20071122_002320_n4c2A.png
20071122_232220_n4c2A.png
20071122_232250_n4c2A.png
20071122_232320_n4c2A.png
20071123_023754_d4c2A.png
20071123_112320_n4c2A.png
20071124_032220_n4c2A.png
20071124_032250_n4c2A.png
20071124_032320_n4c2A.png
20071124_083754_d4c2A.png
20071124_220754_d4c2A.png
20071125_030754_d4c2A.png
20071125_215250_n4c2A.png
20071125_215320_n4c2A.png
20071126_025320_n4c2A.png
20071126_030754_d4c2A.png
20071126_075220_n4c2A.png
20071126_075250_n4c2A.png
20071126_075320_n4c2A.png
20071126_095250_n4c2A.png
20071126_115220_n4c2A.png
20071126_115250_n4c2A.png
20071126_140754_d4c2A.png
20071126_182220_n4c2A.png
20071126_182250_n4c2A.png
20071126_182320_n4c2A.png
20071126_183754_d4c2A.png
20071127_203754_d4c2A.png
20071127_212250_n4c2A.png
20071128_040754_d4c2A.png
20071128_213754_d4c2A.png
20071129_040754_d4c2A.png
20071129_072250_n4c2A.png
20071129_072320_n4c2A.png
20071129_105320_n4c2A.png
20071129_195320_n4c2A.png
20071129_202250_n4c2A.png
20071129_202320_n4c2A.png
20071129_205220_n4c2A.png
20071129_205250_n4c2A.png
20071129_205320_n4c2A.png
20071130_092220_n4c2A.png
20071130_183754_d4c2A.png
20071130_220754_d4c2A.png
20071201_055220_n4c2A.png
20071201_122320_n4c2A.png
20071201_165220_n4c2A.png
20071201_165250_n4c2A.png
20071201_165320_n4c2A.png
20071202_025220_n4c2A.png
20071202_025250_n4c2A.png
20071202_025320_n4c2A.png
20071202_103754_d4c2A.png
20071202_120754_d4c2A.png
20071203_195220_n4c2A.png
20071204_000754_d4c2A.png
20071204_015220_n4c2A.png
20071204_015250_n4c2A.png
20071204_120754_d4c2A.png
20071204_232220_n4c2A.png
20071204_232250_n4c2A.png
20071204_232320_n4c2A.png
20071205_042220_n4c2A.png
20071205_042250_n4c2A.png
20071205_042320_n4c2A.png
20071205_055220_n4c2A.png
20071205_095320_n4c2A.png
20071205_122220_n4c2A.png
20071205_195220_n4c2A.png
20071205_195250_n4c2A.png
20071205_220754_d4c2A.png
20071206_010754_d4c2A.png
20071206_065220_n4c2A.png
20071206_065250_n4c2A.png
20071206_065320_n4c2A.png
20071206_070754_d4c2A.png
20071206_225320_n4c2A.png
20071207_013754_d4c2A.png
20071207_170754_d4c2A.png
20071207_213754_d4c2A.png
20071208_203754_d4c2A.png
20071209_123754_d4c2A.png
20071210_052220_n4c2A.png
20071210_052250_n4c2A.png
20071210_135220_n4c2A.png
20071210_175220_n4c2A.png
20071211_012250_n4c2A.png
20071211_012320_n4c2A.png
20071211_023754_d4c2A.png
20071213_173754_d4c2A.png
20071214_145220_n4c2A.png
20071214_145250_n4c2A.png
20071214_152250_n4c2A.png
20071214_152320_n4c2A.png
20071214_160754_d4c2A.png
20071215_022220_n4c2A.png
20071215_022250_n4c2A.png
20071217_022320_n4c2A.png
20071217_093754_d4c2A.png
20071217_105220_n4c2A.png
20071217_105250_n4c2A.png
20071217_105320_n4c2A.png
20071217_132220_n4c2A.png
20071217_132250_n4c2A.png
20071217_132320_n4c2A.png
20071217_173754_d4c2A.png
20071217_180754_d4c2A.png
20071218_080754_d4c2A.png
20071218_122320_n4c2A.png
20071218_163754_d4c2A.png
20071218_202220_n4c2A.png
20071218_202250_n4c2A.png
20071219_035220_n4c2A.png
20071219_035250_n4c2A.png
20071219_035320_n4c2A.png
20071219_143754_d4c2A.png
20071219_192220_n4c2A.png
20071219_192250_n4c2A.png
20071219_192320_n4c2A.png
20071220_102220_n4c2A.png
20071220_102250_n4c2A.png
20071220_102320_n4c2A.png
20071221_052220_n4c2A.png
20071221_052250_n4c2A.png
20071221_052320_n4c2A.png
20071221_215320_n4c2A.png
20071221_232220_n4c2A.png
20071221_232250_n4c2A.png
20071221_232320_n4c2A.png
20071222_022250_n4c2A.png
20071222_022320_n4c2A.png
20071222_105220_n4c2A.png
20071222_105250_n4c2A.png
20071222_105320_n4c2A.png
20071222_215250_n4c2A.png
20071223_003754_d4c2A.png
20071223_095320_n4c2A.png
20071223_120754_d4c2A.png
20071223_143754_d4c2A.png
20071223_145250_n4c2A.png
20071223_145320_n4c2A.png
20071224_030754_d4c2A.png
20071224_095220_n4c2A.png
20071224_095250_n4c2A.png
20071224_095320_n4c2A.png
20071224_133754_d4c2A.png
20071224_195220_n4c2A.png
20071224_195250_n4c2A.png
20071224_195320_n4c2A.png
20071224_200754_d4c2A.png
20071224_202220_n4c2A.png
20071224_202250_n4c2A.png
20071224_202320_n4c2A.png
20071224_210754_d4c2A.png
20071225_005220_n4c2A.png
20071225_005250_n4c2A.png
20071225_005320_n4c2A.png
20071225_032250_n4c2A.png
20071225_032320_n4c2A.png
20071225_173754_d4c2A.png
20071225_182250_n4c2A.png
20071225_182320_n4c2A.png
20071226_140754_d4c2A.png
20071227_073754_d4c2A.png
20071227_075220_n4c2A.png
20071227_093754_d4c2A.png
20071227_165220_n4c2A.png
20071227_165250_n4c2A.png
20071228_070754_d4c2A.png
20071228_083754_d4c2A.png
20071229_070754_d4c2A.png
20071229_202320_n4c2A.png
20071230_035220_n4c2A.png
20071230_035250_n4c2A.png
20071230_035320_n4c2A.png
20080101_112250_n4c2A.png
20080101_113754_d4c2A.png
20080101_132220_n4c2A.png
20080101_132250_n4c2A.png
20080101_132320_n4c2A.png
20080101_213754_d4c2A.png
20080101_233754_d4c2A.png
20080102_055220_n4c2A.png
20080102_055250_n4c2A.png
20080102_055320_n4c2A.png
20080103_032320_n4c2A.png
20080104_202220_n4c2A.png
20080104_202250_n4c2A.png
20080104_202320_n4c2A.png
20080104_213754_d4c2A.png
20080104_233754_d4c2A.png
20080105_043754_d4c2A.png
20080105_045220_n4c2A.png
20080105_045250_n4c2A.png
20080105_045320_n4c2A.png
20080105_195220_n4c2A.png
20080105_195250_n4c2A.png
20080105_195320_n4c2A.png
20080106_035320_n4c2A.png
20080106_112220_n4c2A.png
20080106_112320_n4c2A.png
20080107_010754_d4c2A.png
20080107_013754_d4c2A.png
20080107_040754_d4c2A.png
20080107_062220_n4c2A.png
20080107_062250_n4c2A.png
20080107_062320_n4c2A.png
20080107_185220_n4c2A.png
20080107_185250_n4c2A.png
20080107_185320_n4c2A.png
20080107_202320_n4c2A.png
20080108_053754_d4c2A.png
20080108_133754_d4c2A.png
20080109_043754_d4c2A.png
20080109_143754_d4c2A.png
20080109_183754_d4c2A.png
20080109_185250_n4c2A.png
20080109_185320_n4c2A.png
20080109_222250_n4c2A.png
20080110_003754_d4c2A.png
20080111_045220_n4c2A.png
20080111_045250_n4c2A.png
20080111_115250_n4c2A.png
20080111_115320_n4c2A.png
20080111_143754_d4c2A.png
20080111_170754_d4c2A.png
20080112_153754_d4c2A.png
20080113_012250_n4c2A.png
20080113_012320_n4c2A.png
20080113_053754_d4c2A.png
20080113_072320_n4c2A.png
20080113_123754_d4c2A.png
20080114_085220_n4c2A.png
20080114_085250_n4c2A.png
20080114_143754_d4c2A.png
20080114_225220_n4c2A.png
20080114_225250_n4c2A.png
20080114_225320_n4c2A.png
20080115_120754_d4c2A.png
20080115_125220_n4c2A.png
20080115_125250_n4c2A.png
20080115_125320_n4c2A.png
20080115_193754_d4c2A.png
20080116_035220_n4c2A.png
20080116_035250_n4c2A.png
20080116_035320_n4c2A.png
20080116_103754_d4c2A.png
20080116_132220_n4c2A.png
20080116_132250_n4c2A.png
20080117_005250_n4c2A.png
20080117_005320_n4c2A.png
20080117_060754_d4c2A.png
20080117_140754_d4c2A.png
20080117_142220_n4c2A.png
20080117_142250_n4c2A.png
20080117_142320_n4c2A.png
20080117_193754_d4c2A.png
20080118_182220_n4c2A.png
20080118_182250_n4c2A.png
20080118_182320_n4c2A.png
20080118_215320_n4c2A.png
20080119_033754_d4c2A.png
20080119_112320_n4c2A.png
20080119_213754_d4c2A.png
20080119_235220_n4c2A.png
20080119_235250_n4c2A.png
20080119_235320_n4c2A.png
20080120_072320_n4c2A.png
20080120_162250_n4c2A.png
20080120_162320_n4c2A.png
20080121_052250_n4c2A.png
20080121_052320_n4c2A.png
20080121_072220_n4c2A.png
20080121_072250_n4c2A.png
20080121_072320_n4c2A.png
20080121_115220_n4c2A.png
20080121_115250_n4c2A.png
20080121_115320_n4c2A.png
20080121_142320_n4c2A.png
20080123_063754_d4c2A.png
20080123_120754_d4c2A.png
20080123_132250_n4c2A.png
20080123_143754_d4c2A.png
20080123_150754_d4c2A.png
20080123_172320_n4c2A.png
20080123_190754_d4c2A.png
20080123_192320_n4c2A.png
20080125_032250_n4c2A.png
20080125_032320_n4c2A.png
20080125_033754_d4c2A.png
20080125_125250_n4c2A.png
20080125_125320_n4c2A.png
20080125_133754_d4c2A.png
20080125_225220_n4c2A.png
20080125_225250_n4c2A.png
20080125_225320_n4c2A.png
20080126_002320_n4c2A.png
20080126_053754_d4c2A.png
20080126_062220_n4c2A.png
20080126_062250_n4c2A.png
20080126_062320_n4c2A.png
20080126_125220_n4c2A.png
20080126_132250_n4c2A.png
20080126_132320_n4c2A.png
20080126_162250_n4c2A.png
20080126_162320_n4c2A.png
20080127_120754_d4c2A.png
20080128_042220_n4c2A.png
20080128_065250_n4c2A.png
20080128_083754_d4c2A.png
20080128_085220_n4c2A.png
20080128_085250_n4c2A.png
20080128_085320_n4c2A.png
20080128_133754_d4c2A.png
20080128_140754_d4c2A.png
20080128_172220_n4c2A.png
20080128_172250_n4c2A.png
20080128_172320_n4c2A.png
20080129_103754_d4c2A.png
20080129_120754_d4c2A.png
20080130_032220_n4c2A.png
20080130_032250_n4c2A.png
20080130_032320_n4c2A.png
20080131_065250_n4c2A.png
20080131_065320_n4c2A.png
20080131_072220_n4c2A.png
20080131_075250_n4c2A.png
20080131_075320_n4c2A.png
20080131_082220_n4c2A.png
20080131_082250_n4c2A.png
20080131_082320_n4c2A.png
20080131_100754_d4c2A.png
20080131_172220_n4c2A.png
20080131_172250_n4c2A.png
20080131_172320_n4c2A.png
20080131_173754_d4c2A.png
20080131_192220_n4c2A.png
20080131_192250_n4c2A.png
20080131_192320_n4c2A.png
20080201_022250_n4c2A.png
20080201_092220_n4c2A.png
20080201_092250_n4c2A.png
20080201_092320_n4c2A.png
20080201_152220_n4c2A.png
20080201_152250_n4c2A.png
20080201_152320_n4c2A.png
20080201_183754_d4c2A.png
20080202_082220_n4c2A.png
20080202_082250_n4c2A.png
20080202_082320_n4c2A.png
20080202_200754_d4c2A.png
20080202_215250_n4c2A.png
20080202_215320_n4c2A.png
20080203_062250_n4c2A.png
20080203_070754_d4c2A.png
20080203_192220_n4c2A.png
20080203_192250_n4c2A.png
20080203_192320_n4c2A.png
20080204_003754_d4c2A.png
20080204_025250_n4c2A.png
20080204_193754_d4c2A.png
20080205_093754_d4c2A.png
20080205_160754_d4c2A.png
20080206_035320_n4c2A.png
20080206_090754_d4c2A.png
20080206_190754_d4c2A.png
20080207_093754_d4c2A.png
20080207_182320_n4c2A.png
20080207_232320_n4c2A.png
20080208_120754_d4c2A.png
20080209_185250_n4c2A.png
20080209_185320_n4c2A.png
20080209_192220_n4c2A.png
20080209_192250_n4c2A.png
20080209_192320_n4c2A.png
20080209_205220_n4c2A.png
20080209_205250_n4c2A.png
20080209_205320_n4c2A.png
20080209_232220_n4c2A.png
20080209_232250_n4c2A.png
20080209_232320_n4c2A.png
20080210_140754_d4c2A.png
20080210_142220_n4c2A.png
20080210_142250_n4c2A.png
20080210_142320_n4c2A.png
20080210_143754_d4c2A.png
20080210_165220_n4c2A.png
20080210_165250_n4c2A.png
20080210_165320_n4c2A.png
20080211_192220_n4c2A.png
20080211_192250_n4c2A.png
20080211_192320_n4c2A.png
20080211_200754_d4c2A.png
20080211_232250_n4c2A.png
20080211_232320_n4c2A.png
20080213_000754_d4c2A.png
20080213_013754_d4c2A.png
20080213_022220_n4c2A.png
20080213_022250_n4c2A.png
20080213_030754_d4c2A.png
20080213_073754_d4c2A.png
20080213_095250_n4c2A.png
20080213_095320_n4c2A.png
20080213_133754_d4c2A.png
20080213_155220_n4c2A.png
20080213_155250_n4c2A.png
20080214_045250_n4c2A.png
20080214_045320_n4c2A.png
20080214_052220_n4c2A.png
20080214_052250_n4c2A.png
20080214_052320_n4c2A.png
20080214_063754_d4c2A.png
20080214_150754_d4c2A.png
20080214_215250_n4c2A.png
20080214_215320_n4c2A.png
20080214_233754_d4c2A.png
20080215_055220_n4c2A.png
20080215_055250_n4c2A.png
20080215_055320_n4c2A.png
20080215_073754_d4c2A.png
20080215_092220_n4c2A.png
20080215_092250_n4c2A.png
20080215_092320_n4c2A.png
20080215_115220_n4c2A.png
20080215_115250_n4c2A.png
20080215_170754_d4c2A.png
20080215_192220_n4c2A.png
20080215_192320_n4c2A.png
20080215_195220_n4c2A.png
20080216_160754_d4c2A.png
20080217_083754_d4c2A.png
20080217_130754_d4c2A.png
20080217_150754_d4c2A.png
20080217_162220_n4c2A.png
20080217_162250_n4c2A.png
20080217_213754_d4c2A.png
20080218_065220_n4c2A.png
20080218_065320_n4c2A.png
20080218_105220_n4c2A.png
20080218_115320_n4c2A.png
20080218_152220_n4c2A.png
20080218_152250_n4c2A.png
20080218_152320_n4c2A.png
20080218_183754_d4c2A.png
20080219_055320_n4c2A.png
20080219_190754_d4c2A.png
20080220_033754_d4c2A.png
20080220_050754_d4c2A.png
20080220_073754_d4c2A.png
20080220_155220_n4c2A.png
20080220_155250_n4c2A.png
20080220_155320_n4c2A.png
20080220_202220_n4c2A.png
20080220_202250_n4c2A.png
20080221_023754_d4c2A.png
20080221_025220_n4c2A.png
20080221_162250_n4c2A.png
20080221_162320_n4c2A.png
20080221_195220_n4c2A.png
20080221_195250_n4c2A.png
20080221_202220_n4c2A.png
20080221_205220_n4c2A.png
20080221_210754_d4c2A.png
20080221_225320_n4c2A.png
20080222_220754_d4c2A.png
20080223_075320_n4c2A.png
20080223_082220_n4c2A.png
20080223_082250_n4c2A.png
20080223_082320_n4c2A.png
20080223_132220_n4c2A.png
20080223_132250_n4c2A.png
20080223_132320_n4c2A.png
20080223_225220_n4c2A.png
20080224_100754_d4c2A.png
20080224_125250_n4c2A.png
20080225_135250_n4c2A.png
20080225_180754_d4c2A.png
20080226_002220_n4c2A.png
20080226_002250_n4c2A.png
20080226_002320_n4c2A.png
20080226_065250_n4c2A.png
20080226_075320_n4c2A.png
20080226_142250_n4c2A.png
20080226_152250_n4c2A.png
20080227_065320_n4c2A.png
20080227_103754_d4c2A.png
20080227_183754_d4c2A.png
20080229_020754_d4c2A.png
20080229_063754_d4c2A.png
20080229_182320_n4c2A.png
20080301_030754_d4c2A.png
20080301_043754_d4c2A.png
20080301_120754_d4c2A.png
20080301_152250_n4c2A.png
20080302_020754_d4c2A.png
20080302_162250_n4c2A.png
20080302_162320_n4c2A.png
20080302_225220_n4c2A.png
20080302_225250_n4c2A.png
20080303_113754_d4c2A.png
20080303_165250_n4c2A.png
20080303_165320_n4c2A.png
20080303_175250_n4c2A.png
20080303_175320_n4c2A.png
20080304_045220_n4c2A.png
20080305_113754_d4c2A.png
20080305_213754_d4c2A.png
20080306_122220_n4c2A.png
20080306_122250_n4c2A.png
20080306_122320_n4c2A.png
20080306_130754_d4c2A.png
20080306_140754_d4c2A.png
20080306_173754_d4c2A.png
20080307_052220_n4c2A.png
20080307_052250_n4c2A.png
20080307_052320_n4c2A.png
20080309_025220_n4c2A.png
20080309_025250_n4c2A.png
20080309_025320_n4c2A.png
20080309_083754_d4c2A.png
20080309_165320_n4c2A.png
20080310_063754_d4c2A.png
20080311_000754_d4c2A.png
20080311_050754_d4c2A.png
20080311_080754_d4c2A.png
20080311_112250_n4c2A.png
20080311_112320_n4c2A.png
20080311_172220_n4c2A.png
20080311_172250_n4c2A.png
20080311_172320_n4c2A.png
20080312_122220_n4c2A.png
20080312_220754_d4c2A.png
20080313_223754_d4c2A.png
20080314_043754_d4c2A.png
20080314_080754_d4c2A.png
20080315_153754_d4c2A.png
20080315_233754_d4c2A.png
20080316_055250_n4c2A.png
20080316_092220_n4c2A.png
20080316_092250_n4c2A.png
20080316_092320_n4c2A.png
20080316_142320_n4c2A.png
20080316_215220_n4c2A.png
20080317_122320_n4c2A.png
20080317_202220_n4c2A.png
20080318_025320_n4c2A.png
20080318_055250_n4c2A.png
20080319_182220_n4c2A.png
20080319_182250_n4c2A.png
20080319_182320_n4c2A.png
20080320_042250_n4c2A.png
20080320_042320_n4c2A.png
20080320_093754_d4c2A.png
20080321_000754_d4c2A.png
20080321_133754_d4c2A.png
20080321_143754_d4c2A.png
20080321_183754_d4c2A.png
20080321_222220_n4c2A.png
20080321_222250_n4c2A.png
20080322_032220_n4c2A.png
20080322_032250_n4c2A.png
20080322_032320_n4c2A.png
20080322_035220_n4c2A.png
20080322_035250_n4c2A.png
20080322_035320_n4c2A.png
20080322_050754_d4c2A.png
20080322_125220_n4c2A.png
20080322_125250_n4c2A.png
20080322_125320_n4c2A.png
20080322_192220_n4c2A.png
20080323_032250_n4c2A.png
20080323_032320_n4c2A.png
20080323_115320_n4c2A.png
20080323_225220_n4c2A.png
20080323_225250_n4c2A.png
20080323_225320_n4c2A.png
20080324_052220_n4c2A.png
20080324_052250_n4c2A.png
20080324_052320_n4c2A.png
20080325_202220_n4c2A.png
20080326_025220_n4c2A.png
20080326_165320_n4c2A.png
20080327_130754_d4c2A.png
20080327_180754_d4c2A.png
20080328_162220_n4c2A.png
20080328_162250_n4c2A.png
20080328_195220_n4c2A.png
20080328_195250_n4c2A.png
20080328_195320_n4c2A.png
20080329_043754_d4c2A.png
20080329_082220_n4c2A.png
20080329_082250_n4c2A.png
20080329_082320_n4c2A.png
20080330_150754_d4c2A.png
20080330_185220_n4c2A.png
20080330_185250_n4c2A.png
20080330_185320_n4c2A.png
20080331_105220_n4c2A.png
20080331_105250_n4c2A.png
20080331_105320_n4c2A.png
20080331_115250_n4c2A.png
20080331_192220_n4c2A.png
20080331_233754_d4c2A.png
20080401_013754_d4c2A.png
20080401_020754_d4c2A.png
20080401_025320_n4c2A.png
20080401_053754_d4c2A.png
20080401_060754_d4c2A.png
20080401_090754_d4c2A.png
20080401_182320_n4c2A.png
20080403_015220_n4c2A.png
20080403_015250_n4c2A.png
20080403_142220_n4c2A.png
20080403_142250_n4c2A.png
20080403_142320_n4c2A.png
20080403_215220_n4c2A.png
20080403_215250_n4c2A.png
20080403_215320_n4c2A.png
20080404_132220_n4c2A.png
20080405_052220_n4c2A.png
20080405_052250_n4c2A.png
20080405_052320_n4c2A.png
20080405_133754_d4c2A.png
20080405_205250_n4c2A.png
20080405_205320_n4c2A.png
20080405_225220_n4c2A.png
20080405_225250_n4c2A.png
20080405_225320_n4c2A.png
20080406_133754_d4c2A.png
20080408_040754_d4c2A.png
20080408_043754_d4c2A.png
20080408_062320_n4c2A.png
20080408_105220_n4c2A.png
20080408_105250_n4c2A.png
20080408_105320_n4c2A.png
20080408_112220_n4c2A.png
20080408_192220_n4c2A.png
20080408_192250_n4c2A.png
20080408_192320_n4c2A.png
20080408_215220_n4c2A.png
20080409_142250_n4c2A.png
20080409_142320_n4c2A.png
20080409_165220_n4c2A.png
20080409_165250_n4c2A.png
20080409_205220_n4c2A.png
20080409_205250_n4c2A.png
20080409_205320_n4c2A.png
20080410_080754_d4c2A.png
20080410_142220_n4c2A.png
20080410_142250_n4c2A.png
20080410_142320_n4c2A.png
20080410_160754_d4c2A.png
20080410_193754_d4c2A.png
20080411_045250_n4c2A.png
20080411_045320_n4c2A.png
20080411_130754_d4c2A.png
20080411_160754_d4c2A.png
20080412_165250_n4c2A.png
20080413_143754_d4c2A.png
20080413_203754_d4c2A.png
20080414_012320_n4c2A.png
20080414_143754_d4c2A.png
20080414_200754_d4c2A.png
20080415_140754_d4c2A.png
20080415_215220_n4c2A.png
20080415_215250_n4c2A.png
20080415_215320_n4c2A.png
20080416_035250_n4c2A.png
20080416_035320_n4c2A.png
20080416_080754_d4c2A.png
20080417_130754_d4c2A.png
20080418_083754_d4c2A.png
20080418_095220_n4c2A.png
20080418_095250_n4c2A.png
20080418_123754_d4c2A.png
20080418_215320_n4c2A.png
20080419_052220_n4c2A.png
20080419_052250_n4c2A.png
20080419_052320_n4c2A.png
20080419_065220_n4c2A.png
20080419_065250_n4c2A.png
20080419_065320_n4c2A.png
20080419_152220_n4c2A.png
20080419_152250_n4c2A.png
20080419_152320_n4c2A.png
20080419_162220_n4c2A.png
20080419_162250_n4c2A.png
20080419_162320_n4c2A.png
20080419_195220_n4c2A.png
20080419_195250_n4c2A.png
20080419_195320_n4c2A.png
20080420_072320_n4c2A.png
20080420_165320_n4c2A.png
20080421_055220_n4c2A.png
20080421_172250_n4c2A.png
20080422_000754_d4c2A.png
20080422_113754_d4c2A.png
20080422_160754_d4c2A.png
20080422_205320_n4c2A.png
20080423_125220_n4c2A.png
20080423_125250_n4c2A.png
20080423_165320_n4c2A.png
20080424_215250_n4c2A.png
20080425_012220_n4c2A.png
20080425_012250_n4c2A.png
20080425_012320_n4c2A.png
20080425_225250_n4c2A.png
20080426_042220_n4c2A.png
20080426_042250_n4c2A.png
20080426_042320_n4c2A.png
20080426_143754_d4c2A.png
20080427_092220_n4c2A.png
20080427_202250_n4c2A.png
20080427_202320_n4c2A.png
20080429_090754_d4c2A.png
20080429_095220_n4c2A.png
20080429_095250_n4c2A.png
20080429_095320_n4c2A.png
20080501_002220_n4c2A.png
20080501_062220_n4c2A.png
20080501_062250_n4c2A.png
20080501_062320_n4c2A.png
20080502_043754_d4c2A.png
20080503_040754_d4c2A.png
20080503_062250_n4c2A.png
20080503_062320_n4c2A.png
20080503_185320_n4c2A.png
20080504_002220_n4c2A.png
20080504_052250_n4c2A.png
20080504_052320_n4c2A.png
20080504_213754_d4c2A.png
20080505_062220_n4c2A.png
20080505_062250_n4c2A.png
20080505_062320_n4c2A.png
20080505_205220_n4c2A.png
20080505_205250_n4c2A.png
20080505_205320_n4c2A.png
20080505_220754_d4c2A.png
20080505_222250_n4c2A.png
20080506_142320_n4c2A.png
20080508_183754_d4c2A.png
20080509_025320_n4c2A.png
20080509_042220_n4c2A.png
20080509_042250_n4c2A.png
20080509_042320_n4c2A.png
20080509_080754_d4c2A.png
20080509_115320_n4c2A.png
20080510_160754_d4c2A.png
20080510_162220_n4c2A.png
20080510_192320_n4c2A.png
20080511_010754_d4c2A.png
20080511_052220_n4c2A.png
20080511_052250_n4c2A.png
20080511_052320_n4c2A.png
20080512_132220_n4c2A.png
20080512_163654_d4c2A.png
20080514_045220_n4c2A.png
20080514_045250_n4c2A.png
20080514_053754_d4c2A.png
20080514_055250_n4c2A.png
20080514_055320_n4c2A.png
20080514_202250_n4c2A.png
20080514_202320_n4c2A.png
20080516_030754_d4c2A.png
20080516_075320_n4c2A.png
20080516_085220_n4c2A.png
20080516_085250_n4c2A.png
20080516_100754_d4c2A.png
20080516_165250_n4c2A.png
20080516_202250_n4c2A.png
20080516_205220_n4c2A.png
20080517_145220_n4c2A.png
20080517_145250_n4c2A.png
20080517_145320_n4c2A.png
20080518_030754_d4c2A.png
20080518_140754_d4c2A.png
20080518_195220_n4c2A.png
20080521_000754_d4c2A.png
20080521_082220_n4c2A.png
20080523_020754_d4c2A.png
20080523_063754_d4c2A.png
20080523_092220_n4c2A.png
20080523_092250_n4c2A.png
20080523_092320_n4c2A.png
20080525_020754_d4c2A.png
20080525_165250_n4c2A.png
20080525_165320_n4c2A.png
20080527_003754_d4c2A.png
20080527_052220_n4c2A.png
20080527_202320_n4c2A.png
20080528_010754_d4c2A.png
20080528_203754_d4c2A.png
20080529_235220_n4c2A.png
20080530_002220_n4c2A.png
20080530_090754_d4c2A.png
20080530_125320_n4c2A.png
20080531_060754_d4c2A.png
20080531_092220_n4c2A.png
20080531_092250_n4c2A.png
20080531_092320_n4c2A.png
20080602_000754_d4c2A.png
20080602_112250_n4c2A.png
20080602_130754_d4c2A.png
20080604_052220_n4c2A.png
20080604_105220_n4c2A.png
20080605_025320_n4c2A.png
20080605_223754_d4c2A.png
20080605_225250_n4c2A.png
20080605_225320_n4c2A.png
20080606_153754_d4c2A.png
20080606_235220_n4c2A.png
20080606_235250_n4c2A.png
20080606_235320_n4c2A.png
20080607_170754_d4c2A.png
20080609_132320_n4c2A.png
20080609_180754_d4c2A.png
20080610_102320_n4c2A.png
20080612_020754_d4c2A.png
20080613_095220_n4c2A.png
20080613_152220_n4c2A.png
20080613_152250_n4c2A.png
20080613_152320_n4c2A.png
20080613_212220_n4c2A.png
20080613_212250_n4c2A.png
20080613_212320_n4c2A.png
20080615_062250_n4c2A.png
20080615_062320_n4c2A.png
20080615_072220_n4c2A.png
20080615_072250_n4c2A.png
20080615_072320_n4c2A.png
20080615_225220_n4c2A.png
20080616_002220_n4c2A.png
20080616_002250_n4c2A.png
20080616_110754_d4c2A.png
20080616_235320_n4c2A.png
20080618_165220_n4c2A.png
20080618_165250_n4c2A.png
20080618_165320_n4c2A.png
20080619_102320_n4c2A.png
20080619_103754_d4c2A.png
20080620_223754_d4c2A.png
20080620_225250_n4c2A.png
20080621_145220_n4c2A.png
20080621_145250_n4c2A.png
20080621_145320_n4c2A.png
20080621_183754_d4c2A.png
20080622_065320_n4c2A.png
20080622_070754_d4c2A.png
20080622_072220_n4c2A.png
20080622_072250_n4c2A.png
20080622_235320_n4c2A.png
20080623_015220_n4c2A.png
20080623_015250_n4c2A.png
20080623_015320_n4c2A.png
20080624_102220_n4c2A.png
20080624_102250_n4c2A.png
20080624_102320_n4c2A.png
20080625_062250_n4c2A.png
20080625_182320_n4c2A.png
20080626_092320_n4c2A.png
20080626_114320_n4c2A.png
20080626_140754_d4c2A.png
20080627_152320_n4c2A.png
20080627_165220_n4c2A.png
20080627_165250_n4c2A.png
20080627_205220_n4c2A.png
20080627_205250_n4c2A.png
20080627_230754_d4c2A.png
20080629_123754_d4c2A.png
20080629_162220_n4c2A.png
20080629_232220_n4c2A.png
20080629_232250_n4c2A.png
20080629_232320_n4c2A.png
20080701_063754_d4c2A.png
20080701_135220_n4c2A.png
20080701_135250_n4c2A.png
20080701_135320_n4c2A.png
20080701_183754_d4c2A.png
20080704_213754_d4c2A.png
20080706_140754_d4c2A.png
20080710_042220_n4c2A.png
20080710_042250_n4c2A.png
20080710_042320_n4c2A.png
20080710_085220_n4c2A.png
20080710_085250_n4c2A.png
20080710_085320_n4c2A.png
20080711_140754_d4c2A.png
20080711_175250_n4c2A.png
20080711_210754_d4c2A.png
20080712_025220_n4c2A.png
20080712_025250_n4c2A.png
20080712_025320_n4c2A.png
20080712_035220_n4c2A.png
20080712_035250_n4c2A.png
20080712_035320_n4c2A.png
20080714_015220_n4c2A.png
20080714_015250_n4c2A.png
20080714_015320_n4c2A.png
20080716_032250_n4c2A.png
20080716_032320_n4c2A.png
20080717_222320_n4c2A.png
20080718_102250_n4c2A.png
20080719_012220_n4c2A.png
20080719_012250_n4c2A.png
20080719_012320_n4c2A.png
20080719_132220_n4c2A.png
20080719_132250_n4c2A.png
20080719_132320_n4c2A.png
20080719_163754_d4c2A.png
20080721_235220_n4c2A.png
20080721_235250_n4c2A.png
20080721_235320_n4c2A.png
20080722_045220_n4c2A.png
20080722_170754_d4c2A.png
20080723_235220_n4c2A.png
20080723_235250_n4c2A.png
20080723_235320_n4c2A.png
20080730_060754_d4c2A.png
20080731_085220_n4c2A.png
20080731_085250_n4c2A.png
20080731_085320_n4c2A.png
20080802_112220_n4c2A.png
20080802_192220_n4c2A.png
20080804_020754_d4c2A.png
20080804_045220_n4c2A.png
20080804_045250_n4c2A.png
20080806_212320_n4c2A.png
20080809_125220_n4c2A.png
20080809_125250_n4c2A.png
20080809_125320_n4c2A.png
20080810_012220_n4c2A.png
20080810_130754_d4c2A.png
20080812_130754_d4c2A.png
20080813_162220_n4c2A.png
20080815_235220_n4c2A.png
20080815_235250_n4c2A.png
20080815_235320_n4c2A.png
20080817_000754_d4c2A.png
20080817_043754_d4c2A.png
20080819_073754_d4c2A.png
20080819_092220_n4c2A.png
20080819_182220_n4c2A.png
20080819_182250_n4c2A.png
20080819_182320_n4c2A.png
20080821_160754_d4c2A.png
20080822_195220_n4c2A.png
20080822_195250_n4c2A.png
20080822_195320_n4c2A.png
20080823_172220_n4c2A.png
20080824_145250_n4c2A.png
20080824_202220_n4c2A.png
20080824_202250_n4c2A.png
20080824_202320_n4c2A.png
20080826_090754_d4c2A.png
20080829_022220_n4c2A.png
20080829_022250_n4c2A.png
20080829_022320_n4c2A.png
20080831_172250_n4c2A.png
20080901_060754_d4c2A.png
20080902_032320_n4c2A.png
20080903_070754_d4c2A.png
20080903_100754_d4c2A.png
20080903_152320_n4c2A.png
20080903_165250_n4c2A.png
20080904_172220_n4c2A.png
20080905_002320_n4c2A.png
20080906_030754_d4c2A.png
20080907_025250_n4c2A.png
20080907_222320_n4c2A.png
20080909_032220_n4c2A.png
20080909_032250_n4c2A.png
20080909_033754_d4c2A.png
20080909_180754_d4c2A.png
20080911_192220_n4c2A.png
20080911_192250_n4c2A.png
20080911_192320_n4c2A.png
20080913_042220_n4c2A.png
20080913_045220_n4c2A.png
20080913_045250_n4c2A.png
20080913_045320_n4c2A.png
20080913_145250_n4c2A.png
20080913_185250_n4c2A.png
20080913_192250_n4c2A.png
20080913_192320_n4c2A.png
20080915_012220_n4c2A.png
20080915_012250_n4c2A.png
20080915_012320_n4c2A.png
20080915_042220_n4c2A.png
20080915_042250_n4c2A.png
20080915_042320_n4c2A.png
20080915_120754_d4c2A.png
20080917_125320_n4c2A.png
20080918_090754_d4c2A.png
20080918_185250_n4c2A.png
20080921_062250_n4c2A.png
20080921_062320_n4c2A.png
20080921_172220_n4c2A.png
20080922_045220_n4c2A.png
20080922_045250_n4c2A.png
20080922_045320_n4c2A.png
20080922_115220_n4c2A.png
20080922_115250_n4c2A.png
20080922_115320_n4c2A.png
20080923_185220_n4c2A.png
20080923_185250_n4c2A.png
20080923_185320_n4c2A.png
20080923_210754_d4c2A.png
20080925_235220_n4c2A.png
20080925_235250_n4c2A.png
20080925_235320_n4c2A.png
20080926_155320_n4c2A.png
20080927_185220_n4c2A.png
20080927_185250_n4c2A.png
20080927_212220_n4c2A.png
20080927_212250_n4c2A.png
20080927_212320_n4c2A.png
20080927_233754_d4c2A.png
20080928_052220_n4c2A.png
20081001_232220_n4c2A.png
20081002_122220_n4c2A.png
20081003_142220_n4c2A.png
20081003_142250_n4c2A.png
20081003_142320_n4c2A.png
20081005_025250_n4c2A.png
20081005_025320_n4c2A.png
20081005_090754_d4c2A.png
20081005_130754_d4c2A.png
20081006_192220_n4c2A.png
20081006_192250_n4c2A.png
20081006_192320_n4c2A.png
20081006_232320_n4c2A.png
20081007_103754_d4c2A.png
20081007_113754_d4c2A.png
20081010_085220_n4c2A.png
20081010_085250_n4c2A.png
20081011_145220_n4c2A.png
20081011_145250_n4c2A.png
20081011_145320_n4c2A.png
20081011_155220_n4c2A.png
20081011_155250_n4c2A.png
20081011_155320_n4c2A.png
20081012_070754_d4c2A.png
20081012_212250_n4c2A.png
20081014_222220_n4c2A.png
20081014_222250_n4c2A.png
20081014_222320_n4c2A.png
20081014_232220_n4c2A.png
20081014_232250_n4c2A.png
20081014_232320_n4c2A.png
20081015_162220_n4c2A.png
20081015_162250_n4c2A.png
20081015_162320_n4c2A.png
20081015_203754_d4c2A.png
20081018_055220_n4c2A.png
20081018_055250_n4c2A.png
20081018_055320_n4c2A.png
20081018_070754_d4c2A.png
20081018_143754_d4c2A.png
20081018_212320_n4c2A.png
20081019_202220_n4c2A.png
20081019_202250_n4c2A.png
20081019_202320_n4c2A.png
20081020_153754_d4c2A.png
20081022_140754_d4c2A.png
20081022_155220_n4c2A.png
20081023_052220_n4c2A.png
20081026_162220_n4c2A.png
20081026_162250_n4c2A.png
20081026_162320_n4c2A.png
20081028_022220_n4c2A.png
20081028_202220_n4c2A.png
20081028_202250_n4c2A.png
20081028_202320_n4c2A.png
20081029_080754_d4c2A.png
20081030_073754_d4c2A.png
20081030_085254_d4c2A.png
20081102_085220_n4c2A.png
20081102_095220_n4c2A.png
20081102_095250_n4c2A.png
20081102_132220_n4c2A.png
20081102_132250_n4c2A.png
20081102_132320_n4c2A.png
20081103_172250_n4c2A.png
20081103_172320_n4c2A.png
20081105_032220_n4c2A.png
20081105_032250_n4c2A.png
20081105_032320_n4c2A.png
20081105_170754_d4c2A.png
20081105_202220_n4c2A.png
20081106_110754_d4c2A.png
20081106_133754_d4c2A.png
20081107_195220_n4c2A.png
20081107_195250_n4c2A.png
20081107_195320_n4c2A.png
20081111_232320_n4c2A.png
20081113_102320_n4c2A.png
20081113_222220_n4c2A.png
20081113_222250_n4c2A.png
20081113_222320_n4c2A.png
20081115_135220_n4c2A.png
20081115_135250_n4c2A.png
20081115_135320_n4c2A.png
20081117_225250_n4c2A.png
20081118_075220_n4c2A.png
20081118_075250_n4c2A.png
20081118_075320_n4c2A.png
20081121_175254_d4c2A.png
20081122_040754_d4c2A.png
20081122_052250_n4c2A.png
20081123_000754_d4c2A.png
20081126_032250_n4c2A.png
20081126_032320_n4c2A.png
20081127_182220_n4c2A.png
20081127_182250_n4c2A.png
20081127_182320_n4c2A.png
20081127_223754_d4c2A.png
20081128_193754_d4c2A.png
20081130_105220_n4c2A.png
20081130_105250_n4c2A.png
20081130_105320_n4c2A.png
20081202_173820_n4c2A.png
20081203_162250_n4c2A.png
20081204_002220_n4c2A.png
20081204_002250_n4c2A.png
20081204_002320_n4c2A.png
20081204_182220_n4c2A.png
20081204_182250_n4c2A.png
20081207_152220_n4c2A.png
20081207_152250_n4c2A.png
20081207_152320_n4c2A.png
20081208_075254_d4c2A.png
20081208_213754_d4c2A.png
20081208_232250_n4c2A.png
20081208_232320_n4c2A.png
20081209_053754_d4c2A.png
20081210_072220_n4c2A.png
20081210_072320_n4c2A.png
20081210_133754_d4c2A.png
20081212_070754_d4c2A.png
20081213_072220_n4c2A.png
20081215_065220_n4c2A.png
20081216_235220_n4c2A.png
20081216_235250_n4c2A.png
20081216_235320_n4c2A.png
20081217_230754_d4c2A.png
20081223_012220_n4c2A.png
20081223_012250_n4c2A.png
20081223_012320_n4c2A.png
20081225_033754_d4c2A.png
20081225_132220_n4c2A.png
20081225_132250_n4c2A.png
20081226_030754_d4c2A.png
20081226_083754_d4c2A.png
20081226_155320_n4c2A.png
20081226_190754_d4c2A.png
20081228_222220_n4c2A.png
20081228_222250_n4c2A.png
20081228_222320_n4c2A.png
20081231_125250_n4c2A.png
20081231_125320_n4c2A.png
20090101_142220_n4c2A.png
20090101_142250_n4c2A.png
20090101_142320_n4c2A.png
20090101_173754_d4c2A.png
20090102_022220_n4c2A.png
20090104_212250_n4c2A.png
20090104_212320_n4c2A.png
20090105_140754_d4c2A.png
20090107_033730_d4c2A.png
20090108_035230_n4c2A.png
20090108_120730_d4c2A.png
20090109_032200_n4c2A.png
20090109_032230_n4c2A.png
20090109_032300_n4c2A.png
20090109_120730_d4c2A.png
20090110_012230_n4c2A.png
20090110_012300_n4c2A.png
20090110_062200_n4c2A.png
20090110_062230_n4c2A.png
20090111_092200_n4c2A.png
20090111_092230_n4c2A.png
20090111_170730_d4c2A.png
20090112_083730_d4c2A.png
20090117_140730_d4c2A.png
20090119_165230_d4c2A.png
20090127_195200_n4c2A.png
20090127_195230_n4c2A.png
20090127_215200_n4c2A.png
20090128_085230_n4c2A.png
20090128_153730_d4c2A.png
20090129_092230_n4c2A.png
20090202_050730_d4c2A.png
20090202_063730_d4c2A.png
20090203_045300_n4c2A.png
20090203_100730_d4c2A.png
20090204_215300_n4c2A.png
20090209_003730_d4c2A.png
20090210_170730_d4c2A.png
20090212_072200_n4c2A.png
20090212_072230_n4c2A.png
20090212_072300_n4c2A.png
20090212_183730_d4c2A.png
20090216_070730_d4c2A.png
20090217_202300_n4c2A.png
20090220_002200_n4c2A.png
20090220_002230_n4c2A.png
20090220_083730_d4c2A.png
20090221_105230_d4c2A.png
20090221_153730_d4c2A.png
20090222_110730_d4c2A.png
20090223_165230_n4c2A.png
20090225_045200_n4c2A.png
20090225_045230_n4c2A.png
20090225_082230_n4c2A.png
20090225_082300_n4c2A.png
20090225_195200_n4c2A.png
20090225_195230_n4c2A.png
20090225_195300_n4c2A.png
20090227_102200_n4c2A.png
20090227_102230_n4c2A.png
20090227_152200_n4c2A.png
20090227_152230_n4c2A.png
20090227_152300_n4c2A.png
20090227_202200_n4c2A.png
20090227_202230_n4c2A.png
20090227_202300_n4c2A.png
20090228_223730_d4c2A.png
20090303_002300_n4c2A.png
20090303_073730_d4c2A.png
20090303_225230_d4c2A.png
20090304_150730_d4c2A.png
20090305_130730_d4c2A.png
20090307_030730_d4c2A.png
20090312_183730_d4c2A.png
20090314_002300_n4c2A.png
20090314_200730_d4c2A.png
20090315_132200_n4c2A.png
20090315_132230_n4c2A.png
20090315_132300_n4c2A.png
20090316_052200_n4c2A.png
20090316_052230_n4c2A.png
20090316_052300_n4c2A.png
20090316_090730_d4c2A.png
20090316_112200_n4c2A.png
20090317_162230_n4c2A.png
20090321_185200_n4c2A.png
20090321_185230_n4c2A.png
20090321_185300_n4c2A.png
20090323_185230_d4c2A.png
20090324_053730_d4c2A.png
20090325_195200_n4c2A.png
20090325_195230_n4c2A.png
20090325_195300_n4c2A.png
20090326_172200_n4c2A.png
20090326_172230_n4c2A.png
20090326_172300_n4c2A.png
20090327_175230_d4c2A.png
20090328_052200_n4c2A.png
20090328_052230_n4c2A.png
20090328_052300_n4c2A.png
20090328_182230_n4c2A.png
20090328_182300_n4c2A.png
20090330_095230_d4c2A.png
20090330_123730_d4c2A.png
20090330_125230_d4c2A.png
20090330_212200_n4c2A.png
20090330_212230_n4c2A.png
20090330_212300_n4c2A.png
20090402_102200_n4c2A.png
20090402_102230_n4c2A.png
20090402_102300_n4c2A.png
20090402_132230_n4c2A.png
20090403_165230_d4c2A.png
20090404_015230_d4c2A.png
20090406_060730_d4c2A.png
20090407_142200_n4c2A.png
20090408_022200_n4c2A.png
20090408_022230_n4c2A.png
20090408_035230_d4c2A.png
20090408_175230_d4c2A.png
20090410_215200_n4c2A.png
20090410_215230_n4c2A.png
20090410_215300_n4c2A.png
20090411_142200_n4c2A.png
20090411_142230_n4c2A.png
20090411_142300_n4c2A.png
20090411_175200_n4c2A.png
20090412_000730_d4c2A.png
20090415_142200_n4c2A.png
20090421_000730_d4c2A.png
20090423_053730_d4c2A.png
20090423_122200_n4c2A.png
20090423_135230_d4c2A.png
20090423_140730_d4c2A.png
20090424_000730_d4c2A.png
20090425_012200_n4c2A.png
20090425_012230_n4c2A.png
20090425_012300_n4c2A.png
20090425_130730_d4c2A.png
20090426_105230_n4c2A.png
20090427_162300_n4c2A.png
20090428_055300_n4c2A.png
20090501_212230_n4c2A.png
20090501_212300_n4c2A.png
20090502_155230_d4c2A.png
20090503_155230_n4c2A.png
20090503_155300_n4c2A.png
20090506_092200_n4c2A.png
20090510_012200_n4c2A.png
20090510_052200_n4c2A.png
20090510_052230_n4c2A.png
20090510_052300_n4c2A.png
20090512_023730_d4c2A.png
20090513_235230_d4c2A.png
20090517_083730_d4c2A.png
20090519_050730_d4c2A.png
20090521_132300_n4c2A.png
20090521_162300_n4c2A.png
20090521_182200_n4c2A.png
20090528_162230_n4c2A.png
20090528_162300_n4c2A.png
20090603_140730_d4c2A.png
20090605_113730_d4c2A.png
20090605_120730_d4c2A.png
20090605_123730_d4c2A.png
20090606_102200_n4c2A.png
20090606_102230_n4c2A.png
20090606_102300_n4c2A.png
20090608_215200_n4c2A.png
20090608_215230_n4c2A.png
20090608_215300_n4c2A.png
20090613_053730_d4c2A.png
20090613_105200_n4c2A.png
20090615_140730_d4c2A.png
20090615_195200_n4c2A.png
20090615_195230_n4c2A.png
20090615_195300_n4c2A.png
20090615_205200_n4c2A.png
20090615_205230_n4c2A.png
20090615_205300_n4c2A.png
20090616_203730_d4c2A.png
20090619_100730_d4c2A.png
20090619_213730_d4c2A.png
20090622_040730_d4c2A.png
20090626_020730_d4c2A.png
20090626_035300_n4c2A.png
20090626_072200_n4c2A.png
20090626_072230_n4c2A.png
20090626_072300_n4c2A.png
20090626_160730_d4c2A.png
20090627_062300_n4c2A.png
20090628_025300_n4c2A.png
20090628_102200_n4c2A.png
20090628_102230_n4c2A.png
20090628_102300_n4c2A.png
20090628_150730_d4c2A.png
20090630_045230_n4c2A.png
20090630_045300_n4c2A.png
20090701_170730_d4c2A.png
20090702_020730_d4c2A.png
20090702_023730_d4c2A.png
20090702_215230_n4c2A.png
20090702_215300_n4c2A.png
20090703_100730_d4c2A.png
20090704_215200_n4c2A.png
20090704_215230_n4c2A.png
20090705_170730_d4c2A.png
20090708_102230_n4c2A.png
20090710_172300_n4c2A.png
20090710_232200_n4c2A.png
20090710_232230_n4c2A.png
20090710_232300_n4c2A.png
20090711_085200_n4c2A.png
20090711_085230_n4c2A.png
20090711_085300_n4c2A.png
20090711_190730_d4c2A.png
20090712_025200_n4c2A.png
20090712_025230_n4c2A.png
20090712_025300_n4c2A.png
20090712_083730_d4c2A.png
20090712_193730_d4c2A.png
20090715_193730_d4c2A.png
20090715_225300_n4c2A.png
20090719_060730_d4c2A.png
20090720_213730_d4c2A.png
20090721_063730_d4c2A.png
20090721_192200_n4c2A.png
20090725_105200_n4c2A.png
20090725_105230_n4c2A.png
20090725_112230_n4c2A.png
20090725_112300_n4c2A.png
20090725_150730_d4c2A.png
20090725_205200_n4c2A.png
20090725_205230_n4c2A.png
20090725_205300_n4c2A.png
20090726_105200_n4c2A.png
20090726_105230_n4c2A.png
20090726_105300_n4c2A.png
20090726_210730_d4c2A.png
20090729_185200_n4c2A.png
20090729_185230_n4c2A.png
20090729_185300_n4c2A.png
20090729_190730_d4c2A.png
20090729_215200_n4c2A.png
20090729_215230_n4c2A.png
20090729_215300_n4c2A.png
20090730_040730_d4c2A.png
20090730_115200_n4c2A.png
20090730_115230_n4c2A.png
20090730_115300_n4c2A.png
20090801_110730_d4c2A.png
20090803_205230_d4c2A.png
20090803_213730_d4c2A.png
20090804_035230_d4c2A.png
20090804_042200_n4c2A.png
20090807_150730_d4c2A.png
20090810_012230_n4c2A.png
20090810_212200_n4c2A.png
20090810_212230_n4c2A.png
20090810_212300_n4c2A.png
20090811_022200_n4c2A.png
20090811_022230_n4c2A.png
20090811_022300_n4c2A.png
20090812_062200_n4c2A.png
20090812_062230_n4c2A.png
20090812_062300_n4c2A.png
20090816_042200_n4c2A.png
20090816_042230_n4c2A.png
20090816_042300_n4c2A.png
20090819_180845_n4c2A.png
20090819_180915_n4c2A.png
20090821_172400_d4c2A.png
20090822_000815_n4c2A.png
20090822_000845_n4c2A.png
20090822_000915_n4c2A.png
20090822_100915_n4c2A.png
20090822_103900_d4c2A.png
20090822_195400_d4c2A.png
20090823_220845_n4c2A.png
20090824_143900_d4c2A.png
20090825_010845_n4c2A.png
20090828_020915_n4c2A.png
20090829_043900_d4c2A.png
20090831_025400_d4c2A.png
20090831_115400_d4c2A.png
20090831_120815_n4c2A.png
20090909_175400_d4c2A.png
20090909_180815_n4c2A.png
20090909_180845_n4c2A.png
20090911_103900_d4c2A.png
20090912_072400_d4c2A.png
20090912_103900_d4c2A.png
20090914_133900_d4c2A.png
20090914_232400_d4c2A.png
20090915_032400_d4c2A.png
20090915_060815_n4c2A.png
20090915_060845_n4c2A.png
20090916_145400_d4c2A.png
20090918_042400_d4c2A.png
20090920_000815_n4c2A.png
20090920_010815_n4c2A.png
20090920_010845_n4c2A.png
20090920_010915_n4c2A.png
20090921_165400_d4c2A.png
20090923_150815_n4c2A.png
20090923_150845_n4c2A.png
20090923_150915_n4c2A.png
20090926_020815_n4c2A.png
20091002_230815_n4c2A.png
20091005_060815_n4c2A.png
20091005_060845_n4c2A.png
20091005_060915_n4c2A.png
20091007_203900_d4c2A.png
20091009_015400_d4c2A.png
20091011_002400_d4c2A.png
20091011_080815_n4c2A.png
20091011_080845_n4c2A.png
20091011_080915_n4c2A.png
20091013_045400_d4c2A.png
20091018_110915_n4c2A.png
20091018_152400_d4c2A.png
20091019_132400_d4c2A.png
20091022_210915_n4c2A.png
20091026_210815_n4c2A.png
20091026_210845_n4c2A.png
20091026_210915_n4c2A.png
20091026_230915_n4c2A.png
20091027_130915_n4c2A.png
20091029_232400_d4c2A.png
20091101_203900_d4c2A.png
20091102_045400_d4c2A.png
20091105_180815_n4c2A.png
20091105_180845_n4c2A.png
20091105_180915_n4c2A.png
20091105_230845_n4c2A.png
20091106_080815_n4c2A.png
20091106_080845_n4c2A.png
20091117_103900_d4c2A.png
20091119_100915_n4c2A.png
20091119_172400_d4c2A.png
20091125_192400_d4c2A.png
20091202_033900_d4c2A.png
20091202_212400_d4c2A.png
20091203_205400_d4c2A.png
20091204_020815_n4c2A.png
20091204_020845_n4c2A.png
20091204_020915_n4c2A.png
20091205_010915_n4c2A.png
20091210_215400_d4c2A.png
20091210_220845_n4c2A.png
20091215_133900_d4c2A.png
20091216_150845_n4c2A.png
20091216_150915_n4c2A.png
20091224_010815_n4c2A.png
20091224_010845_n4c2A.png
20091224_010915_n4c2A.png
20091226_150845_n4c2A.png
20091226_150915_n4c2A.png
20100103_002400_d4c2A.png
20100109_010815_n4c2A.png
20100109_010845_n4c2A.png
20100109_010915_n4c2A.png
20100112_025400_d4c2A.png
20100115_012400_d4c2A.png
20100120_060815_n4c2A.png
20100120_060845_n4c2A.png
20100120_060915_n4c2A.png
20100120_143900_d4c2A.png
20100120_185400_d4c2A.png
20100121_000815_n4c2A.png
20100121_000845_n4c2A.png
20100121_000915_n4c2A.png
20100121_015400_d4c2A.png
20100122_160800_d4c2A.png
20100122_160815_n4c2A.png
20100122_160845_n4c2A.png
20100127_045400_d4c2A.png
20100128_015400_d4c2A.png
20100128_020845_n4c2A.png
20100128_020915_n4c2A.png
20100128_065400_d4c2A.png
20100128_083900_d4c2A.png
20100201_070815_n4c2A.png
20100201_070845_n4c2A.png
20100201_070915_n4c2A.png
20100206_200845_n4c2A.png
20100206_200915_n4c2A.png
20100207_063900_d4c2A.png
20100210_000815_n4c2A.png
20100210_000845_n4c2A.png
20100210_000915_n4c2A.png
20100212_010815_n4c2A.png
20100212_010845_n4c2A.png
20100212_010915_n4c2A.png
20100213_185400_d4c2A.png
20100215_213900_d4c2A.png
20100217_030845_n4c2A.png
20100217_030915_n4c2A.png
20100217_190845_n4c2A.png
20100218_235400_d4c2A.png
20100221_192400_d4c2A.png
20100221_200800_d4c2A.png
20100221_200815_n4c2A.png
20100221_200845_n4c2A.png
20100222_125400_d4c2A.png
20100225_100815_n4c2A.png
20100225_100845_n4c2A.png
20100225_100915_n4c2A.png
20100228_212400_d4c2A.png
20100301_220815_n4c2A.png
20100301_220845_n4c2A.png
20100301_220915_n4c2A.png
20100309_120845_n4c2A.png
20100309_185400_d4c2A.png
20100313_035400_d4c2A.png
20100313_093900_d4c2A.png
20100313_210815_n4c2A.png
20100315_210815_n4c2A.png
20100315_210845_n4c2A.png
20100315_210915_n4c2A.png
20100316_120815_n4c2A.png
20100316_120845_n4c2A.png
20100316_120915_n4c2A.png
20100318_120845_n4c2A.png
20100318_120915_n4c2A.png
20100318_153900_d4c2A.png
20100321_070845_n4c2A.png
20100321_070915_n4c2A.png
20100322_015400_d4c2A.png
20100326_010845_n4c2A.png
20100326_010915_n4c2A.png
20100327_095400_d4c2A.png
20100328_025400_d4c2A.png
20100329_085400_d4c2A.png
20100401_233900_d4c2A.png
20100405_200800_d4c2A.png
20100405_200815_n4c2A.png
20100405_200845_n4c2A.png
20100405_200915_n4c2A.png
20100406_040800_d4c2A.png
20100406_040815_n4c2A.png
20100406_040845_n4c2A.png
20100406_040915_n4c2A.png
20100406_112400_d4c2A.png
20100406_160845_n4c2A.png
20100406_160915_n4c2A.png
20100406_193900_d4c2A.png
20100408_120800_d4c2A.png
20100408_120815_n4c2A.png
20100408_120845_n4c2A.png
20100408_120915_n4c2A.png
20100409_223900_d4c2A.png
20100411_132400_d4c2A.png
20100413_183900_d4c2A.png
20100415_055400_d4c2A.png
20100415_152400_d4c2A.png
20100416_175400_d4c2A.png
20100418_220815_n4c2A.png
20100418_220845_n4c2A.png
20100418_220915_n4c2A.png
20100420_015400_d4c2A.png
20100420_095400_d4c2A.png
20100421_013900_d4c2A.png
20100421_105400_d4c2A.png
20100423_050800_d4c2A.png
20100423_050815_n4c2A.png
20100425_062400_d4c2A.png
20100429_033900_d4c2A.png
20100501_080815_n4c2A.png
20100501_080845_n4c2A.png
20100501_080915_n4c2A.png
20100503_013900_d4c2A.png
20100503_052400_d4c2A.png
20100504_005400_d4c2A.png
20100506_035400_d4c2A.png
20100507_043900_d4c2A.png
20100509_083900_d4c2A.png
20100511_072400_d4c2A.png
20100511_132400_d4c2A.png
20100511_192400_d4c2A.png
20100514_215330_d4c2A.png
20100517_105400_d4c2A.png
20100519_133900_d4c2A.png
20100520_230815_n4c2A.png
20100520_230845_n4c2A.png
20100523_073900_d4c2A.png
20100524_143900_d4c2A.png
20100524_220815_n4c2A.png
20100524_220845_n4c2A.png
20100524_220915_n4c2A.png
20100527_023900_d4c2A.png
20100527_130915_n4c2A.png
20100527_173900_d4c2A.png
20100528_195400_d4c2A.png
20100601_132400_d4c2A.png
20100601_195400_d4c2A.png
20100601_233900_d4c2A.png
20100605_142400_d4c2A.png
20100606_230815_n4c2A.png
20100606_230845_n4c2A.png
20100606_230915_n4c2A.png
20100607_145400_d4c2A.png
20100610_075400_d4c2A.png
20100610_200915_n4c2A.png
20100611_200815_n4c2A.png
20100611_200845_n4c2A.png
20100611_200915_n4c2A.png
20100614_102400_d4c2A.png
20100615_120845_n4c2A.png
20100616_105400_d4c2A.png
20100619_073900_d4c2A.png
20100621_042400_d4c2A.png
20100622_075400_d4c2A.png
20100622_222400_d4c2A.png
20100623_220815_n4c2A.png
20100624_083900_d4c2A.png
20100625_042400_d4c2A.png
20100625_063900_d4c2A.png
20100625_222400_d4c2A.png
20100626_110815_n4c2A.png
20100626_110845_n4c2A.png
20100626_110915_n4c2A.png
20100626_113900_d4c2A.png
20100627_055400_d4c2A.png
20100627_232400_d4c2A.png
20100629_002400_d4c2A.png
20100630_025400_d4c2A.png
20100630_120815_n4c2A.png
20100630_120845_n4c2A.png
20100630_120915_n4c2A.png
20100630_170815_n4c2A.png
20100630_210815_n4c2A.png
