; $Id: hi2a_bad.txt,v 1.16 2016/11/21 15:11:07 crothers Exp $
20061207_161412_s4h2A.fts	ovr
20061207_161812_s4h2A.fts	ovr
20061207_162012_s4h2A.fts	ovr
20061207_162612_s4h2A.fts	ovr
20061207_163812_s4h2A.fts	ovr
20061207_164012_s4h2A.fts	ovr
20061207_164012_s7h2A.fts	ovr
20061207_164312_s4h2A.fts	ovr
20061207_164412_s4h2A.fts	ovr
20061213_132324_n3h2A.fts	ovr
20061213_133010_n3h2A.fts	ovr
20061213_134801_n3h2A.fts	ovr
20061213_140329_n3h2A.fts	ovr
20061213_141711_n3h2A.fts	ovr
20061213_142558_n3h2A.fts	ovr
20061213_143930_n3h2A.fts	ovr
20061213_144245_s4h2A.fts	ovr
20061213_151301_n3h2A.fts	ovr
20061213_152143_n3h2A.fts	ovr
20061213_153306_n3h2A.fts	ovr
20061214_162747_n4h2A.fts	ovr
20061214_163325_n4h2A.fts	ovr
20061215_000230_n4h2A.fts	ovr
20061215_000530_n4h2A.fts	ovr
20061215_000830_n4h2A.fts	ovr
20061215_001130_n4h2A.fts	ovr
20061215_001430_n4h2A.fts	ovr
20061215_001730_n4h2A.fts	ovr
20061215_002030_n4h2A.fts	ovr
20061215_002330_n4h2A.fts	ovr
20061215_002630_n4h2A.fts	ovr
20061215_002930_n4h2A.fts	ovr
20061215_003230_n4h2A.fts	ovr
20061215_003530_n4h2A.fts	ovr
20061215_003830_n4h2A.fts	ovr
20061215_004130_n4h2A.fts	ovr
20061215_004630_n4h2A.fts	ovr
20061215_004930_n4h2A.fts	ovr
20061215_005230_n4h2A.fts	ovr
20061215_005530_n4h2A.fts	ovr
20061215_011520_s4h2A.fts	ovr
20061215_020000_s4h2A.fts	ovr
20061215_031520_s4h2A.fts	ovr
20061215_040000_s4h2A.fts	ovr
20061215_203900_n3h2A.fts	ovr
20061215_204510_n3h2A.fts	ovr
20061215_211153_n3h2A.fts	ovr
20061215_211627_n3h2A.fts	ovr
20061215_213040_n3h2A.fts	ovr
20061215_213701_n3h2A.fts	ovr
20061215_215021_n3h2A.fts	ovr
20061215_215500_n3h2A.fts	ovr
20061215_215855_n3h2A.fts	ovr
20061215_220139_n4h2A.fts	ovr
20061215_220439_n3h2A.fts	ovr
20061215_220744_n3h2A.fts	ovr
20061215_221229_n3h2A.fts	ovr
20061215_221720_n3h2A.fts	ovr
20061215_222325_n3h2A.fts	ovr
20061215_222952_n3h2A.fts	ovr
20061215_223921_n3h2A.fts	ovr
20061215_224411_n3h2A.fts	ovr
20061215_224848_n3h2A.fts	ovr
20061215_225316_n3h2A.fts	ovr
20061215_225616_n3h2A.fts	ovr
20061215_230005_n3h2A.fts	ovr
20061216_000830_s4h2A.fts	ovr	
20061216_010830_s4h2A.fts	ovr
20061216_020830_s4h2A.fts	ovr
20061216_030830_s4h2A.fts	ovr
20061216_040830_s4h2A.fts	ovr
20061216_050830_s4h2A.fts	ovr
20061216_060830_s4h2A.fts	ovr	
20061217_000830_s4h2A.fts	ovr
20061217_010830_s4h2A.fts	ovr
20061217_020830_s4h2A.fts	ovr
20061217_030830_s4h2A.fts	ovr
20061217_040830_s4h2A.fts	ovr
20061217_050830_s4h2A.fts	ovr	
20061217_060830_s4h2A.fts	ovr
20061218_065230_n4h2A.fts	roll
20061218_065730_n4h2A.fts	roll
20061218_070230_n4h2A.fts	roll
20061218_070730_n4h2A.fts	roll
20061218_071230_n4h2A.fts	roll
20061218_071730_n4h2A.fts	roll
20061218_072230_n4h2A.fts	roll
20061218_072730_n4h2A.fts	roll
20061218_073230_n4h2A.fts	roll
20061218_073730_n4h2A.fts	roll
20061218_074230_n4h2A.fts	roll
20061218_074730_n4h2A.fts	roll
20061218_105000_n4h2A.fts	roll
20061218_105500_n4h2A.fts	roll
20061218_110000_n4h2A.fts	roll
20061218_110500_n4h2A.fts	roll
20061218_111000_n4h2A.fts	roll
20061218_111500_n4h2A.fts	roll
20061218_112000_n4h2A.fts	roll
20061218_112500_n4h2A.fts	roll
20061218_113000_n4h2A.fts	roll
20061218_113500_n4h2A.fts	roll
20061218_114000_n4h2A.fts	roll
20061218_114500_n4h2A.fts	roll
20061220_072230_n4h2A.fts	roll
20061220_072730_n4h2A.fts	roll
20061220_073230_n4h2A.fts	roll
20061220_073730_n4h2A.fts	roll
20061220_074230_n4h2A.fts	roll
20061220_074730_n4h2A.fts	roll
20061220_075230_n4h2A.fts	roll
20061220_075730_n4h2A.fts	roll
20061220_080230_n4h2A.fts	roll
20061220_080730_n4h2A.fts	roll
20061220_081230_n4h2A.fts	roll
20061220_081730_n4h2A.fts	roll
20061220_112000_n4h2A.fts	roll
20061220_112500_n4h2A.fts	roll
20061220_113000_n4h2A.fts	roll
20061220_113500_n4h2A.fts	roll
20061220_114000_n4h2A.fts	roll
20061220_114500_n4h2A.fts	roll
20061220_115000_n4h2A.fts	roll
20061220_115500_n4h2A.fts	roll
20061220_120000_n4h2A.fts	roll
20061220_120500_n4h2A.fts	roll
20061220_121000_n4h2A.fts	roll
20061220_121500_n4h2A.fts	roll
20061220_211654_s4h2A.fts	cal
20061223_043230_n4h2A.fts	roll
20061223_043730_n4h2A.fts	roll
20061223_044230_n4h2A.fts	roll
20061223_044730_n4h2A.fts	roll
20061223_045230_n4h2A.fts	roll
20061223_045730_n4h2A.fts	roll
20061223_050230_n4h2A.fts	roll
20061223_050730_n4h2A.fts	roll
20061223_051230_n4h2A.fts	roll
20061223_051730_n4h2A.fts	roll
20061223_052230_n4h2A.fts	roll
20061223_052730_n4h2A.fts	roll
20061223_083000_n4h2A.fts	roll
20061223_083500_n4h2A.fts	roll
20061223_084000_n4h2A.fts	roll
20061223_084500_n4h2A.fts	roll
20061223_085000_n4h2A.fts	roll
20061223_085500_n4h2A.fts	roll
20061223_090000_n4h2A.fts	roll
20061223_090500_n4h2A.fts	roll
20061223_091000_n4h2A.fts	roll
20061223_091500_n4h2A.fts	roll
20061223_092000_n4h2A.fts	roll
20061223_092500_n4h2A.fts	roll
20061223_120040_s4h2A.fts	roll
20061223_130040_s4h2A.fts	roll
20061223_140040_s4h2A.fts	roll
20061226_110040_s4h2A.fts	tmb
20070201_191319_s4h2A.fts	hlw
20070208_002200_n4h2A.fts	bad
20070220_143000_s4h2A.fts	cal
20070220_145000_s4h2A.fts	cal
20070220_151000_s4h2A.fts	cal
20070220_153000_s4h2A.fts	cal
20070220_155000_s4h2A.fts	cal
20070220_161000_s4h2A.fts	cal	
20070220_163000_s4h2A.fts	cal
20070220_165000_s4h2A.fts	cal
20070220_171000_s4h2A.fts	cal
20070302_000125_s4h2A.fts	mix
20070302_020125_s4h2A.fts	mix
20070302_040125_s4h2A.fts	mix
20070302_060125_s4h2A.fts	mix
20070302_080125_s4h2A.fts	mix
20070302_100125_s4h2A.fts	mix
20070302_120125_s4h2A.fts	mix
20070302_140125_s4h2A.fts	mix
20070302_160125_s4h2A.fts	mix
20070302_180125_s4h2A.fts	mix
20070302_200125_s4h2A.fts	mix
20070302_220125_s4h2A.fts	mix
20070303_000125_s4h2A.fts	mix
20070303_020125_s4h2A.fts	mix
20070303_040125_s4h2A.fts	mix
20070303_060125_s4h2A.fts	mix
20070303_080125_s4h2A.fts	mix
20070303_100125_s4h2A.fts	mix
20070303_120125_s4h2A.fts	mix
20070303_140125_s4h2A.fts	mix
20070303_160125_s4h2A.fts	mix
20070303_180125_s4h2A.fts	mix
20070303_200125_s4h2A.fts	mix
20070303_220125_s4h2A.fts	mix
20070304_000125_s4h2A.fts	mix
20070304_020125_s4h2A.fts	mix
20070304_040125_s4h2A.fts	mix
20070304_060125_s4h2A.fts	mix
20070304_080125_s4h2A.fts	mix
20070304_100125_s4h2A.fts	mix
20070304_120125_s4h2A.fts	mix
20070304_140125_s4h2A.fts	mix
20070304_160125_s4h2A.fts	mix
20070304_180125_s4h2A.fts	mix
20070304_200125_s4h2A.fts	mix
20070304_220125_s4h2A.fts	mix
20070305_000125_s4h2A.fts	mix
20070305_020125_s4h2A.fts	mix
20070305_040125_s4h2A.fts	mix
20070305_060125_s4h2A.fts	mix
20070305_080125_s4h2A.fts	mix
20070305_100125_s4h2A.fts	mix
20070305_120125_s4h2A.fts	mix
20070305_140125_s4h2A.fts	mix
20070305_160125_s4h2A.fts	mix
20070305_180125_s4h2A.fts	mix
20070305_200125_s4h2A.fts	mix
20070305_220125_s4h2A.fts	mix
20070306_000125_s4h2A.fts	mix
20070306_020125_s4h2A.fts	mix
20070306_040125_s4h2A.fts	mix
20070306_060125_s4h2A.fts	mix
20070306_080125_s4h2A.fts	mix
20070306_100125_s4h2A.fts	mix
20070306_120125_s4h2A.fts	mix
20070306_140125_s4h2A.fts	mix
20070306_160125_s4h2A.fts	mix
20070306_180125_s4h2A.fts	mix
20070306_200125_s4h2A.fts	mix
20070306_220125_s4h2A.fts	mix
20070307_000125_s4h2A.fts	mix
20070307_020125_s4h2A.fts	mix
20070307_040125_s4h2A.fts	mix
20070307_060125_s4h2A.fts	mix
20070307_080125_s4h2A.fts	mix
20070307_100125_s4h2A.fts	mix
20070307_120125_s4h2A.fts	mix
20070307_140125_s4h2A.fts	mix
20070307_160125_s4h2A.fts	mix
20070307_180125_s4h2A.fts	mix
20070307_200125_s4h2A.fts	mix
20070307_220125_s4h2A.fts	mix
20070314_160125_s4h2A.fts	cal
20070314_173925_s7h2A.fts	cal
20070331_001020_s4h2A.fts	mix
20070403_181020_s4h2A.fts	cal
20070403_194820_s7h2A.fts	cal
20070412_183500_k4h2A.fts	bad
20070421_001020_s4h2A.fts	mix
20070422_001020_s4h2A.fts	mix
20070423_001020_s4h2A.fts	mix
20070424_001020_s4h2A.fts	mix
20070427_081020_s4h2A.fts	mix
20070430_081020_s4h2A.fts	mix
20070430_101020_s4h2A.fts	mix
20070501_081020_s4h2A.fts	mix
20070501_101020_s4h2A.fts	mix
20070502_081020_s4h2A.fts	mix
20070502_101020_s4h2A.fts	mix
20070519_081020_s4h2A.fts	mix
20070519_094820_s7h2A.fts	mix
20070519_101020_s4h2A.fts	mix
20070519_114820_s7h2A.fts	mix
20070520_081020_s4h2A.fts	mix
20070520_094820_s7h2A.fts	mix
20070520_101020_s4h2A.fts	mix
20070521_081020_s4h2A.fts	mix
20070521_101020_s4h2A.fts	mix
20070522_081020_s4h2A.fts	mix
20070522_101020_s4h2A.fts	mix
20070523_081020_s4h2A.fts	mix
20070523_101020_s4h2A.fts	mix
20070524_080920_s4h2A.fts	mix
20070524_100920_s4h2A.fts	mix
20070525_080920_s4h2A.fts	mix
20070525_094720_s7h2A.fts	mix
20070525_100920_s4h2A.fts	mix
20070525_114720_s7h2A.fts	mix
20070526_080920_s4h2A.fts	mix
20070526_094720_s7h2A.fts	mix
20070526_100920_s4h2A.fts	mix
20070526_114720_s7h2A.fts	mix
20070530_100920_s4h2A.fts	mix
20070530_120920_s4h2A.fts	mix
20070530_122402_s4h2A.fts	mix
20070530_140919_s4h2A.fts	mix
20070609_040920_s4h2A.fts	tmb
20070618_000800_n4h2A.fts	tmb
20070618_040920_s4h2A.fts	tmb
20070618_074720_s7h2A.fts	bad    
20070711_120920_s4h2A.fts	cal
20070711_134720_s7h2A.fts	cal
20070906_180920_s4h2A.fts	roll
20071022_060920_s4h2A.fts	roll
20080402_140921_s4h2A.fts	cal
20080402_160921_s4h2A.fts	cal
20080709_140921_s4h2A.fts	cal
20080816_080921_s4h2A.fts	roll
20090312_040921_s4h2A.fts	roll
20090408_100921_s4h2A.fts	roll
20090429_020921_s4h2A.fts	roll
20090820_160921_s4h2A.fts	tmb
20090910_160921_s4h2A.fts	roll
20090910_180921_s4h2A.fts	roll
20101015_063011_14h2A.fts	mix
20161116_160921_s4h2A.fts	mix
20161116_180921_s4h2A.fts	mix
20161116_200921_s4h2A.fts	mix
