XRT N-S vs UFSS-A
      241.018
    -0.330280
     0.627732
     0.291696
     0.179602
    0.0349823
     0.273734
XRT N-S vs UFSS-B
      204.196
     0.597737
    -0.187711
     0.145925
    0.0450478
   -0.0676617
     0.114591
XRT E-W vs UFSS-A
      3958.68
    -0.333862
     -1.05743
    0.0329226
     0.170577
   0.00576410
   -0.0215481
XRT E-W vs UFSS-B
      3965.56
    -0.455053
    -0.902893
     0.215653
     0.245430
    0.0991126
    0.0438691
SOT N-S vs UFSS-A
      101.682
    -0.369519
     0.722847
     0.211025
     0.205018
    0.0451916
     0.178808
SOT N-S vs UFSS-B
      63.6513
     0.544775
    -0.146681
    0.0778205
    0.0309978
   -0.0207980
    0.0737128
SOT E-W vs UFSS-A
      190.773
    -0.301901
     -1.10557
   -0.0354865
     0.151799
   0.00869013
   -0.0354063
SOT E-W vs UFSS-B
      197.985
    -0.450034
    -0.990947
     0.120820
     0.179861
    0.0262823
   -0.0161357
