deg,XRT_AX,XRT_BX,XRT_AY,XRT_BY,SOT_AX,SOT_BX,SOT_AY,SOT_BY
valid,1,1,1,1,1,1,1,1,revB
offset,91.063876,92.291759,1991.8651,1981.2973,18.154642,19.238189,113.43263,102.28858
0,0.0000000,0.0000000,0.0000000,0.0000000,0.0000000,0.0000000,0.0000000,0.0000000
1,0.064168234,0.0051343433,-0.018014830,0.025681729,0.070520223,0.011579519,-0.039624452,0.00067152772
2,0.13039352,0.012240953,-0.028178171,0.057608260,0.14222682,0.025315489,-0.079825099,0.00099679977
3,0.19852457,0.021277052,-0.030915510,0.095370138,0.21498138,0.041103460,-0.12051851,0.00099666969
4,0.26840947,0.032197231,-0.026660277,0.13855374,0.28864688,0.058837933,-0.16162224,0.00069238727
5,0.33989608,0.044953560,-0.015852536,0.18674242,0.36308793,0.078412636,-0.20305497,0.00010552665
6,0.41283231,0.059495714,0.0010623146,0.23951771,0.43817105,0.099720793,-0.24473672,-0.00074208504
7,0.48706647,0.075771092,0.023634844,0.29646042,0.51376492,0.12265539,-0.28658897,-0.0018284384
8,0.56244754,0.093724951,0.051412890,0.35715180,0.58974060,0.14710943,-0.32853487,-0.0031314112
9,0.63882554,0.11330054,0.083942847,0.42117466,0.66597178,0.17297622,-0.37049933,-0.0046288372
10,0.71605180,0.13443922,0.12077095,0.48811450,0.74233502,0.20014960,-0.41240925,-0.0062985732
11,0.79397928,0.15708064,0.16144453,0.55756055,0.81870993,0.22852419,-0.45419358,-0.0081185645
12,0.87246284,0.18116283,0.20551328,0.62910688,0.89497939,0.25799566,-0.49578348,-0.010066909
13,0.95135954,0.20662239,0.25253046,0.70235342,0.97102976,0.28846093,-0.53711248,-0.012121920
14,1.0305289,0.23339461,0.30205411,0.77690696,1.0467511,0.31981845,-0.57811652,-0.014262185
15,1.1098333,0.26141363,0.35364822,0.85238217,1.1220371,0.35196837,-0.61873414,-0.016466623
16,1.1891379,0.29061260,0.40688387,0.92840249,1.1967857,0.38481278,-0.65890652,-0.018714543
17,1.2683114,0.32092378,0.46134036,1.0046011,1.2708989,0.41825594,-0.69857761,-0.020985693
18,1.3472258,0.35227878,0.51660624,1.0806218,1.3442828,0.45220441,-0.73769416,-0.023260312
19,1.4257569,0.38460863,0.57228041,1.1561197,1.4168482,0.48656730,-0.77620587,-0.025519181
20,1.5037845,0.41784396,0.62797303,1.2307622,1.4885101,0.52125643,-0.81406539,-0.027743659
21,1.5811924,0.45191516,0.68330654,1.3042298,1.5591884,0.55618648,-0.85122840,-0.029915735
22,1.6578689,0.48675255,0.73791653,1.3762164,1.6288075,0.59127515,-0.88765364,-0.032018058
23,1.7337067,0.52228646,0.79145258,1.4464304,1.6972968,0.62644332,-0.92330298,-0.034033978
24,1.8086034,0.55844745,0.84357910,1.5145951,1.7645903,0.66161519,-0.95814142,-0.035947575
25,1.8824614,0.59516643,0.89397604,1.5804493,1.8306270,0.69671836,-0.99213712,-0.037743691
26,1.9551878,0.63237479,0.94233960,1.6437477,1.8953509,0.73168398,-1.0252614,-0.039407951
27,2.0266953,0.67000454,0.98838289,1.7042617,1.9587110,0.76644686,-1.0574887,-0.040926790
28,2.0969016,0.70798848,1.0318365,1.7617792,2.0206612,0.80094549,-1.0887967,-0.042287468
29,2.1657296,0.74626030,1.0724489,1.8161057,2.0811602,0.83512219,-1.1191662,-0.043478087
30,2.2331079,0.78475475,1.1099873,1.8670637,2.1401720,0.86892313,-1.1485811,-0.044487603
31,2.2989705,0.82340771,1.1442374,1.9144939,2.1976655,0.90229840,-1.1770283,-0.045305833
32,2.3632569,0.86215637,1.1750045,1.9582547,2.2536141,0.93520202,-1.2044979,-0.045923462
33,2.4259123,0.90093932,1.2021130,1.9982226,2.3079966,0.96759199,-1.2309828,-0.046332042
34,2.4868875,0.93969666,1.2254072,2.0342921,2.3607964,0.99943030,-1.2564789,-0.046523993
35,2.5461389,0.97837013,1.2447514,2.0663759,2.4120014,1.0306829,-1.2809850,-0.046492594
36,2.6036287,1.0169032,1.2600296,2.0944048,2.4616044,1.0613198,-1.3045027,-0.046231979
37,2.6593246,1.0552412,1.2711458,2.1183277,2.5096029,1.0913149,-1.3270362,-0.045737120
38,2.7131998,1.0933313,1.2780242,2.1381112,2.5559984,1.1206460,-1.3485924,-0.045003819
39,2.7652333,1.1311228,1.2806087,2.1537397,2.6007972,1.1492948,-1.3691806,-0.044028682
40,2.8154096,1.1685670,1.2788628,2.1652149,2.6440096,1.1772469,-1.3888127,-0.042809107
41,2.8637185,1.2056174,1.2727697,2.1725556,2.6856499,1.2044915,-1.4075028,-0.041343250
42,2.9101552,1.2422298,1.2623317,2.1757975,2.7257367,1.2310215,-1.4252672,-0.039630010
43,2.9547203,1.2783622,1.2475702,2.1749925,2.7642922,1.2568335,-1.4421242,-0.037668991
44,2.9974194,1.3139750,1.2285249,2.1702087,2.8013421,1.2819276,-1.4580943,-0.035460473
45,3.0382632,1.3490311,1.2052536,2.1615293,2.8369160,1.3063070,-1.4731997,-0.033005381
46,3.0772674,1.3834958,1.1778320,2.1490526,2.8710464,1.3299786,-1.4874642,-0.030305246
47,3.1144525,1.4173367,1.1463525,2.1328912,2.9037693,1.3529520,-1.5009134,-0.027362167
48,3.1498434,1.4505243,1.1109241,2.1131716,2.9351235,1.3752402,-1.5135741,-0.024178773
49,3.1834698,1.4830313,1.0716717,2.0900330,2.9651507,1.3968588,-1.5254747,-0.020758177
50,3.2153654,1.5148331,1.0287353,2.0636273,2.9938952,1.4178262,-1.5366444,-0.017103940
51,3.2455683,1.5459077,0.98226946,2.0341180,3.0214036,1.4381634,-1.5471138,-0.013220018
52,3.2741203,1.5762356,0.93244218,2.0016795,3.0477250,1.4578938,-1.5569142,-0.0091107215
53,3.3010672,1.6058000,0.87943450,1.9664965,3.0729102,1.4770430,-1.5660775,-0.0047806685
54,3.3264582,1.6345866,0.82343948,1.9287629,3.0970120,1.4956389,-1.5746364,-0.00023473394
55,3.3503457,1.6625835,0.76466137,1.8886813,3.1200850,1.5137109,-1.5826241,0.0045219967
56,3.3727856,1.6897816,0.70331469,1.8464619,3.1421850,1.5312905,-1.5900739,0.0094842768
57,3.3938363,1.7161740,0.63962334,1.8023217,3.1633691,1.5484105,-1.5970194,0.014646747
58,3.4135592,1.7417565,0.57381966,1.7564839,3.1836954,1.5651053,-1.6034943,0.020003986
59,3.4320180,1.7665272,0.50614346,1.7091767,3.2032231,1.5814102,-1.6095321,0.025550558
60,3.4492787,1.7904866,0.43684105,1.6606324,3.2220118,1.5973618,-1.6151661,0.031281063
61,3.4654093,1.8136375,0.36616422,1.6110867,3.2401215,1.6129974,-1.6204292,0.037190182
62,3.4804795,1.8359851,0.29436930,1.5607777,3.2576126,1.6283547,-1.6253538,0.043272729
63,3.4945605,1.8575366,0.22171611,1.5099451,3.2745456,1.6434722,-1.6299718,0.049523696
64,3.5077250,1.8783014,0.14846693,1.4588290,3.2909808,1.6583884,-1.6343142,0.055938296
65,3.5200466,1.8982911,0.074885538,1.4076695,3.3069781,1.6731420,-1.6384113,0.062512013
66,3.5315998,1.9175192,0.0012361840,1.3567053,3.3225973,1.6877717,-1.6422924,0.069240639
67,3.5424595,1.9360009,-0.072217436,1.3061732,3.3378971,1.7023157,-1.6459856,0.076120322
68,3.5527012,1.9537535,-0.14521315,1.2563069,3.3529357,1.7168118,-1.6495181,0.083147599
69,3.5624004,1.9707960,-0.21749131,1.2073366,3.3677703,1.7312973,-1.6529155,0.090319441
70,3.5716327,1.9871490,-0.28879574,1.1594877,3.3824567,1.7458088,-1.6562023,0.097633281
71,3.5804730,2.0028345,-0.35887470,1.1129804,3.3970499,1.7603815,-1.6594015,0.10508706
72,3.5889961,2.0178761,-0.42748181,1.0680287,3.4116030,1.7750501,-1.6625346,0.11267923
73,3.5972758,2.0322987,-0.49437696,1.0248396,3.4261681,1.7898477,-1.6656215,0.12040884
74,3.6053850,2.0461285,-0.55932718,0.98361248,3.4407951,1.8048061,-1.6686805,0.12827549
75,3.6133954,2.0593928,-0.62210749,0.94453840,3.4555324,1.8199555,-1.6717282,0.13627941
76,3.6213776,2.0721199,-0.68250172,0.90779942,3.4704266,1.8353248,-1.6747794,0.14442146
77,3.6294005,2.0843391,-0.74030327,0.87356793,3.4855221,1.8509407,-1.6778472,0.15270313
78,3.6375311,2.0960805,-0.79531590,0.84200614,3.5008613,1.8668283,-1.6809429,0.16112660
79,3.6458350,2.1073747,-0.84735439,0.81326541,3.5164846,1.8830107,-1.6840759,0.16969472
80,3.6543754,2.1182533,-0.89624523,0.78748586,3.5324300,1.8995089,-1.6872537,0.17841101
81,3.6632133,2.1287480,-0.94182722,0.76479581,3.5487332,1.9163417,-1.6904820,0.18727971
82,3.6724077,2.1388911,-0.98395207,0.74531136,3.5654276,1.9335259,-1.6937647,0.19630571
83,3.6820148,2.1487151,-1.0224849,0.72913606,3.5825442,1.9510759,-1.6971038,0.20549463
84,3.6920884,2.1582528,-1.0573047,0.71636050,3.6001117,1.9690036,-1.7004994,0.21485276
85,3.7026795,2.1675367,-1.0883050,0.70706207,3.6181562,1.9873188,-1.7039498,0.22438707
86,3.7138364,2.1765997,-1.1153936,0.70130466,3.6367013,2.0060286,-1.7074515,0.23410521
87,3.7256045,2.1854742,-1.1384937,0.69913851,3.6557682,2.0251381,-1.7109991,0.24401547
88,3.7380260,2.1941926,-1.1575438,0.70060005,3.6753757,2.0446494,-1.7145858,0.25412679
89,3.7511404,2.2027867,-1.1724977,0.70571175,3.6955401,2.0645625,-1.7182028,0.26444871
90,3.7649839,2.2112880,-1.1833250,0.71448215,3.7162750,2.0848750,-1.7218399,0.27499139
91,3.7795896,2.2197274,-1.1900111,0.72690578,3.7375920,2.1055817,-1.7254852,0.28576552
92,3.7949872,2.2281354,-1.1925571,0.74296324,3.7595000,2.1266754,-1.7291254,0.29678236
93,3.8112036,2.2365413,-1.1909800,0.76262132,3.7820057,2.1481463,-1.7327458,0.30805363
94,3.8282621,2.2449741,-1.1853127,0.78583308,3.8051134,2.1699822,-1.7363302,0.31959156
95,3.8461828,2.2534616,-1.1756035,0.81253811,3.8288254,2.1921689,-1.7398613,0.33140877
96,3.8649828,2.2620308,-1.1619162,0.84266272,3.8531417,2.2146898,-1.7433207,0.34351828
97,3.8846758,2.2707075,-1.1443300,0.87612026,3.8780601,2.2375262,-1.7466889,0.35593344
98,3.9052722,2.2795167,-1.1229389,0.91281143,3.9035766,2.2606573,-1.7499452,0.36866789
99,3.9267796,2.2884819,-1.0978514,0.95262466,3.9296853,2.2840604,-1.7530685,0.38173553
100,3.9492021,2.2976255,-1.0691905,0.99543656,3.9563782,2.3077110,-1.7560366,0.39515041
101,3.9725410,2.3069688,-1.0370928,1.0411123,3.9836458,2.3315827,-1.7588268,0.40892676
102,3.9967946,2.3165317,-1.0017081,1.0895064,4.0114770,2.3556476,-1.7614159,0.42307886
103,4.0219582,2.3263325,-0.96319900,1.1404626,4.0398592,2.3798762,-1.7637802,0.43762100
104,4.0480243,2.3363884,-0.92174033,1.1938154,4.0687783,2.4042376,-1.7658959,0.45256747
105,4.0749827,2.3467150,-0.87751834,1.2493899,4.0982189,2.4286996,-1.7677390,0.46793241
106,4.1028205,2.3573267,-0.83073015,1.3070026,4.1281645,2.4532292,-1.7692854,0.48372984
107,4.1315226,2.3682359,-0.78158299,1.3664626,4.1585977,2.4777920,-1.7705112,0.49997352
108,4.1610710,2.3794541,-0.73029346,1.4275715,4.1895000,2.5023530,-1.7713925,0.51667693
109,4.1914458,2.3909908,-0.67708673,1.4901249,4.2208522,2.5268766,-1.7719061,0.53385320
110,4.2226249,2.4028544,-0.62219571,1.5539125,4.2526344,2.5513267,-1.7720292,0.55151503
111,4.2545841,2.4150513,-0.56586022,1.6187195,4.2848263,2.5756666,-1.7717393,0.56967462
112,4.2872973,2.4275869,-0.50832605,1.6843271,4.3174071,2.5998598,-1.7710149,0.58834363
113,4.3207368,2.4404647,-0.44984410,1.7505130,4.3503558,2.6238695,-1.7698355,0.60753309
114,4.3548733,2.4536868,-0.39066943,1.8170531,4.3836511,2.6476593,-1.7681813,0.62725334
115,4.3896760,2.4672540,-0.33106029,1.8837214,4.4172721,2.6711929,-1.7660337,0.64751398
116,4.4251130,2.4811655,-0.27127714,1.9502917,4.4511975,2.6944348,-1.7633753,0.66832377
117,4.4611512,2.4954191,-0.21158170,2.0165377,4.4854068,2.7173499,-1.7601901,0.68969060
118,4.4977565,2.5100112,-0.15223592,2.0822346,4.5198794,2.7399041,-1.7564634,0.71162141
119,4.5348941,2.5249368,-0.093500971,2.1471594,4.5545956,2.7620642,-1.7521823,0.73412215
120,4.5725287,2.5401896,-0.035636267,2.2110920,4.5895359,2.7837984,-1.7473352,0.75719769
121,4.6106244,2.5557623,0.021101590,2.2738164,4.6246819,2.8050761,-1.7419125,0.78085177
122,4.6491451,2.5716460,0.076459795,2.3351208,4.6600158,2.8258681,-1.7359065,0.80508696
123,4.6880545,2.5878308,0.13019036,2.3947993,4.6955210,2.8461472,-1.7293110,0.82990459
124,4.7273165,2.6043057,0.18205110,2.4526520,4.7311815,2.8658876,-1.7221224,0.85530473
125,4.7668950,2.6210588,0.23180664,2.5084865,4.7669829,2.8850658,-1.7143386,0.88128608
126,4.8067545,2.6380769,0.27922938,2.5621181,4.8029118,2.9036603,-1.7059601,0.90784598
127,4.8468599,2.6553462,0.32410043,2.6133712,4.8389560,2.9216518,-1.6969894,0.93498036
128,4.8871767,2.6728518,0.36621060,2.6620794,4.8751049,2.9390234,-1.6874312,0.96268364
129,4.9276714,2.6905782,0.40536125,2.7080868,4.9113492,2.9557608,-1.6772926,0.99094880
130,4.9683112,2.7085092,0.44136521,2.7512484,4.9476811,2.9718523,-1.6665831,1.0197672
131,5.0090648,2.7266279,0.47404766,2.7914311,4.9840946,2.9872887,-1.6553146,1.0491288
132,5.0499017,2.7449169,0.50324688,2.8285137,5.0205849,3.0020640,-1.6435012,1.0790218
133,5.0907931,2.7633582,0.52881512,2.8623885,5.0571492,3.0161749,-1.6311596,1.1094329
134,5.1317114,2.7819337,0.55061930,2.8929608,5.0937861,3.0296211,-1.6183089,1.1403470
135,5.1726307,2.8006247,0.56854176,2.9201505,5.1304962,3.0424055,-1.6049707,1.1717476
136,5.2135269,2.8194124,0.58248088,2.9438915,5.1672814,3.0545339,-1.5911689,1.2036164
137,5.2543775,2.8382780,0.59235174,2.9641333,5.2041459,3.0660157,-1.5769299,1.2359335
138,5.2951620,2.8572023,0.59808670,2.9808404,5.2410949,3.0768633,-1.5622825,1.2686772
139,5.3358619,2.8761663,0.59963589,2.9939933,5.2781360,3.0870923,-1.5472578,1.3018243
140,5.3764605,2.8951513,0.59696773,3.0035887,5.3152780,3.0967217,-1.5318892,1.3353498
141,5.4169435,2.9141384,0.59006933,3.0096395,5.3525315,3.1057739,-1.5162124,1.3692273
142,5.4572984,2.9331092,0.57894686,3.0121754,5.3899089,3.1142746,-1.5002655,1.4034286
143,5.4975153,2.9520456,0.56362584,3.0112428,5.4274238,3.1222526,-1.4840885,1.4379237
144,5.5375862,2.9709298,0.54415143,3.0069050,5.4650917,3.1297403,-1.4677235,1.4726815
145,5.5775054,2.9897446,0.52058864,2.9992423,5.5029294,3.1367731,-1.4512147,1.5076689
146,5.6172696,3.0084733,0.49302238,2.9883520,5.5409550,3.1433896,-1.4346082,1.5428516
147,5.6568777,3.0270998,0.46155763,2.9743484,5.5791880,3.1496318,-1.4179518,1.5781936
148,5.6963309,3.0456088,0.42631940,2.9573624,5.6176493,3.1555447,-1.4012953,1.6136576
149,5.7356324,3.0639855,0.38745271,2.9375420,5.6563607,3.1611761,-1.3846897,1.6492049
150,5.7747881,3.0822161,0.34512243,2.9150515,5.6953451,3.1665769,-1.3681878,1.6847953
151,5.8138056,3.1002877,0.29951317,2.8900713,5.7346263,3.1718009,-1.3518437,1.7203876
152,5.8526951,3.1181883,0.25082901,2.8627980,5.7742292,3.1769045,-1.3357126,1.7559391
153,5.8914685,3.1359067,0.19929320,2.8334436,5.8141790,3.1819467,-1.3198510,1.7914061
154,5.9301399,3.1534328,0.14514782,2.8022355,5.8545017,3.1869890,-1.3043163,1.8267439
155,5.9687255,3.1707577,0.088653326,2.7694155,5.8952239,3.1920952,-1.2891665,1.8619066
156,6.0072432,3.1878733,0.030088115,2.7352399,5.9363721,3.1973313,-1.2744607,1.8968474
157,6.0457127,3.2047730,-0.030252055,2.6999784,5.9779734,3.2027654,-1.2602582,1.9315188
158,6.0841554,3.2214511,-0.092054643,2.6639138,6.0200546,3.2084671,-1.2466186,1.9658722
159,6.1225944,3.2379029,-0.15499099,2.6273413,6.0626427,3.2145082,-1.2336021,1.9998585
160,6.1610540,3.2541254,-0.21871702,2.5905678,6.1057643,3.2209616,-1.2212685,2.0334282
161,6.1995601,3.2701164,-0.28287402,2.5539109,6.1494454,3.2279016,-1.2096777,2.0665308
162,6.2381397,3.2858750,-0.34708946,2.5176987,6.1937117,3.2354036,-1.1988892,2.0991159
163,6.2768208,3.3014017,-0.41097783,2.4822682,6.2385882,3.2435440,-1.1889621,2.1311324
164,6.3156326,3.3166980,-0.47414159,2.4479652,6.2840986,3.2523996,-1.1799548,2.1625290
165,6.3546047,3.3317667,-0.53617214,2.4151428,6.3302661,3.2620481,-1.1719248,2.1932546
166,6.3937676,3.3466118,-0.59665077,2.3841608,6.3771123,3.2725669,-1.1649289,2.2232576
167,6.4331522,3.3612386,-0.65514979,2.3553848,6.4246575,3.2840338,-1.1590224,2.2524869
168,6.4727895,3.3756535,-0.71123355,2.3291848,6.4729207,3.2965264,-1.1542594,2.2808914
169,6.5127110,3.3898640,-0.76445958,2.3059347,6.5219190,3.3101215,-1.1506926,2.3084202
170,6.5529478,3.4038788,-0.81437977,2.2860109,6.5716676,3.3248956,-1.1483728,2.3350229
171,6.5935310,3.4177076,-0.86054151,2.2697913,6.6221800,3.3409240,-1.1473490,2.3606497
172,6.6344912,3.4313612,-0.90248897,2.2576545,6.6734674,3.3582810,-1.1476684,2.3852513
173,6.6758583,3.4448515,-0.93976424,2.2499782,6.7255385,3.3770394,-1.1493757,2.4087789
174,6.7176618,3.4581912,-0.97190869,2.2471388,6.7783999,3.3972704,-1.1525136,2.4311851
175,6.7599299,3.4713940,-0.99846417,2.2495094,6.8320554,3.4190432,-1.1571221,2.4524227
176,6.8026898,3.4844745,-1.0189743,2.2574597,6.8865064,3.4424252,-1.1632385,2.4724462
177,6.8459674,3.4974479,-1.0329859,2.2713539,6.9417511,3.4674811,-1.1708976,2.4912109
178,6.8897871,3.5103304,-1.0400501,2.2915504,6.9977849,3.4942731,-1.1801309,2.5086733
179,6.9341717,3.5231386,-1.0397236,2.3184002,7.0546002,3.5228606,-1.1909672,2.5247915
180,6.9791420,3.5358899,-1.0315704,2.3522459,7.1121861,3.5533000,-1.2034319,2.5395247
181,7.0247169,3.5486021,-1.0151626,2.3934208,7.1705286,3.5856444,-1.2175472,2.5528340
182,7.0709131,3.5612935,-0.99008196,2.4422475,7.2296102,3.6199434,-1.2333319,2.5646820
183,7.1177449,3.5739828,-0.95592125,2.4990370,7.2894098,3.6562429,-1.2508010,2.5750328
184,7.1652242,3.5866889,-0.91228528,2.5640878,7.3499032,3.6945850,-1.2699663,2.5838528
185,7.2133602,3.5994310,-0.85879233,2.6376847,7.4110621,3.7350077,-1.2908355,2.5911099
186,7.2621591,3.6122282,-0.79507536,2.7200978,7.4728549,3.7775445,-1.3134129,2.5967742
187,7.3116244,3.6251000,-0.72078316,2.8115815,7.5352461,3.8222248,-1.3376986,2.6008178
188,7.3617563,3.6380655,-0.63558159,2.9123738,7.5981965,3.8690731,-1.3636888,2.6032149
189,7.4125519,3.6511438,-0.53915469,3.0226951,7.6616633,3.9181094,-1.3913760,2.6039422
190,7.4640050,3.6643538,-0.43120581,3.1427476,7.7255995,3.9693483,-1.4207483,2.6029783
191,7.5161059,3.6777140,-0.31145867,3.2727140,7.7899548,4.0227999,-1.4517899,2.6003045
192,7.5688411,3.6912424,-0.17965841,3.4127575,7.8546747,4.0784688,-1.4844811,2.5959042
193,7.6221939,3.7049567,-0.035572559,3.5630203,7.9197012,4.1363543,-1.5187976,2.5897636
194,7.6761435,3.7188739,0.12100801,3.7236233,7.9849723,4.1964503,-1.5547115,2.5818713
195,7.7306654,3.7330102,0.29026821,3.8946653,8.0504224,4.2587452,-1.5921905,2.5722183
196,7.7857313,3.7473811,0.47236788,4.0762226,8.1159822,4.3232219,-1.6311982,2.5607984
197,7.8413090,3.7620012,0.66744099,4.2683482,8.1815788,4.3898576,-1.6716942,2.5476080
198,7.8973622,3.7768843,0.87559498,4.4710713,8.2471359,4.4586238,-1.7136341,2.5326463
199,7.9538506,3.7920430,1.0969100,4.6843972,8.3125733,4.5294861,-1.7569695,2.5159149
200,8.0107301,3.8074887,1.3314385,4.9083066,8.3778080,4.6024047,-1.8016480,2.4974184
201,8.0679523,3.8232318,1.5792043,5.1427553,8.4427532,4.6773336,-1.8476134,2.4771640
202,8.1254650,3.8392812,1.8402027,5.3876743,8.5073193,4.7542215,-1.8948055,2.4551617
203,8.1832120,3.8556447,2.1143995,5.6429691,8.5714135,4.8330109,-1.9431607,2.4314241
204,8.2411328,3.8723284,2.4017310,5.9085197,8.6349402,4.9136388,-1.9926117,2.4059669
205,8.2991636,3.8893371,2.7021037,6.1841808,8.6978009,4.9960365,-2.0430876,2.3788081
206,8.3572360,3.9066739,3.0153941,6.4697815,8.7598947,5.0801298,-2.0945141,2.3499686
207,8.4152785,3.9243403,3.3414483,6.7651256,8.8211181,5.1658388,-2.1468137,2.3194721
208,8.4732154,3.9423362,3.6800825,7.0699913,8.8813655,5.2530781,-2.1999059,2.2873447
209,8.5309674,3.9606597,4.0310826,7.3841319,8.9405290,5.3417572,-2.2537071,2.2536155
210,8.5884520,3.9793070,4.3942045,7.7072757,8.9984990,5.4317802,-2.3081307,2.2183159
211,8.6455830,3.9982727,4.7691741,8.0391264,9.0551643,5.5230462,-2.3630876,2.1814800
212,8.7022710,4.0175494,5.1556878,8.3793635,9.1104119,5.6154492,-2.4184864,2.1431443
213,8.7584234,4.0371278,5.5534125,8.7276426,9.1641280,5.7088787,-2.4742329,2.1033479
214,8.8139447,4.0569966,5.9619865,9.0835962,9.2161974,5.8032192,-2.5302311,2.0621321
215,8.8687365,4.0771428,6.3810193,9.4468340,9.2665042,5.8983512,-2.5863830,2.0195406
216,8.9226977,4.0975512,6.8100928,9.8169434,9.3149320,5.9941507,-2.6425887,1.9756196
217,8.9757250,4.1182047,7.2487615,10.193491,9.3613642,6.0904898,-2.6987469,1.9304170
218,9.0277124,4.1390842,7.6965535,10.576021,9.4056838,6.1872366,-2.7547547,1.8839832
219,9.0785520,4.1601685,8.1529707,10.964060,9.4477742,6.2842559,-2.8105084,1.8363706
220,9.1281342,4.1814347,8.6174905,11.357115,9.4875193,6.3814090,-2.8659031,1.7876332
221,9.1763475,4.2028576,9.0895658,11.754673,9.5248035,6.4785543,-2.9208333,1.7378271
222,9.2230790,4.2244104,9.5686266,12.156205,9.5595122,6.5755473,-2.9751929,1.6870102
223,9.2682149,4.2460640,10.054081,12.561167,9.5915322,6.6722409,-3.0288758,1.6352419
224,9.3116400,4.2677877,10.545315,12.968998,9.6207515,6.7684858,-3.0817756,1.5825831
225,9.3532387,4.2895487,11.041695,13.379124,9.6470601,6.8641309,-3.1337861,1.5290963
226,9.3928950,4.3113127,11.542571,13.790956,9.6703498,6.9590231,-3.1848018,1.4748450
227,9.4304925,4.3330432,12.047272,14.203897,9.6905148,7.0530083,-3.2347176,1.4198943
228,9.4659152,4.3547024,12.555114,14.617337,9.7074519,7.1459312,-3.2834293,1.3643101
229,9.4990471,4.3762505,13.065395,15.030656,9.7210604,7.2376356,-3.3308340,1.3081594
230,9.5297732,4.3976463,13.577401,15.443226,9.7312430,7.3279651,-3.3768300,1.2515100
231,9.5579791,4.4188470,14.090407,15.854415,9.7379056,7.4167632,-3.4213173,1.1944305
232,9.5835517,4.4398084,14.603677,16.263583,9.7409576,7.5038734,-3.4641975,1.1369898
233,9.6063795,4.4604849,15.116464,16.670085,9.7403122,7.5891399,-3.5053745,1.0792577
234,9.6263526,4.4808295,15.628015,17.073277,9.7358868,7.6724079,-3.5447542,1.0213040
235,9.6433631,4.5007943,16.137571,17.472509,9.7276028,7.7535235,-3.5822452,0.96319893
236,9.6573056,4.5203300,16.644369,17.867134,9.7153865,7.8323346,-3.6177587,0.90501273
237,9.6680771,4.5393863,17.147641,18.256506,9.6991686,7.9086908,-3.6512086,0.84681560
238,9.6755776,4.5579124,17.646620,18.639981,9.6788849,7.9824440,-3.6825122,0.78867757
239,9.6797102,4.5758562,18.140539,19.016919,9.6544764,8.0534485,-3.7115899,0.73066839
240,9.6803813,4.5931652,18.628631,19.386687,9.6258894,8.1215615,-3.7383657,0.67285736
241,9.6775011,4.6097864,19.110134,19.748657,9.5930756,8.1866433,-3.7627670,0.61531326
242,9.6709838,4.6256661,19.584293,20.102210,9.5559927,8.2485577,-3.7847254,0.55810419
243,9.6607477,4.6407506,20.050356,20.446738,9.5146041,8.3071722,-3.8041763,0.50129745
244,9.6467155,4.6549857,20.507582,20.781643,9.4688791,8.3623582,-3.8210592,0.44495940
245,9.6288146,4.6683172,20.955240,21.106339,9.4187936,8.4139919,-3.8353181,0.38915541
246,9.6069774,4.6806913,21.392609,21.420253,9.3643295,8.4619536,-3.8469013,0.33394964
247,9.5811413,4.6920538,21.818983,21.722829,9.3054752,8.5061289,-3.8557619,0.27940502
248,9.5512492,4.7023514,22.233669,22.013525,9.2422256,8.5464083,-3.8618573,0.22558309
249,9.5172496,4.7115308,22.635992,22.291819,9.1745824,8.5826879,-3.8651502,0.17254388
250,9.4790964,4.7195396,23.025294,22.557205,9.1025538,8.6148693,-3.8656080,0.12034584
251,9.4367500,4.7263259,23.400934,22.809199,9.0261551,8.6428602,-3.8632030,0.069045715
252,9.3901763,4.7318388,23.762295,23.047335,8.9454081,8.6665743,-3.8579129,0.018698467
253,9.3393481,4.7360283,24.108780,23.271172,8.8603416,8.6859316,-3.8497204,-0.030642845
254,9.2842441,4.7388457,24.439814,23.480289,8.7709916,8.7008587,-3.8386133,-0.078927137
255,9.2248499,4.7402432,24.754850,23.674293,8.6774005,8.7112889,-3.8245850,-0.12610539
256,9.1611576,4.7401748,25.053363,23.852810,8.5796180,8.7171623,-3.8076339,-0.17213074
257,9.0931662,4.7385958,25.334857,24.015497,8.4777006,8.7184263,-3.7877639,-0.21695853
258,9.0208815,4.7354631,25.598862,24.162035,8.3717116,8.7150351,-3.7649842,-0.26054640
259,8.9443165,4.7307354,25.844940,24.292132,8.2617213,8.7069504,-3.7393094,-0.30285436
260,8.8634908,4.7243734,26.072680,24.405525,8.1478064,8.6941415,-3.7107594,-0.34384484
261,8.7784315,4.7163397,26.281703,24.501978,8.0300508,8.6765849,-3.6793594,-0.38348273
262,8.6891726,4.7065991,26.471662,24.581286,7.9085444,8.6542648,-3.6451398,-0.42173545
263,8.5957554,4.6951186,26.642241,24.643272,7.7833841,8.6271731,-3.6081364,-0.45857302
264,8.4982282,4.6818674,26.793159,24.687790,7.6546729,8.5953093,-3.5683901,-0.49396802
265,8.3966466,4.6668175,26.924168,24.714724,7.5225200,8.5586809,-3.5259468,-0.52789573
266,8.2910730,4.6499431,27.035054,24.723988,7.3870408,8.5173028,-3.4808576,-0.56033405
267,8.1815773,4.6312212,27.125637,24.715527,7.2483565,8.4711978,-3.4331785,-0.59126360
268,8.0682360,4.6106316,27.195775,24.689320,7.1065943,8.4203965,-3.3829701,-0.62066772
269,7.9511329,4.5881567,27.245358,24.645372,6.9618866,8.3649370,-3.3302979,-0.64853244
270,7.8303583,4.5637821,27.274315,24.583723,6.8143714,8.3048653,-3.2752320,-0.67484653
271,7.7060095,4.5374960,27.282608,24.504443,6.6641917,8.2402346,-3.2178470,-0.69960149
272,7.5781904,4.5092901,27.270237,24.407632,6.5114956,8.1711059,-3.1582215,-0.72279153
273,7.4470111,4.4791587,27.237237,24.293423,6.3564356,8.0975476,-3.0964386,-0.74441356
274,7.3125885,4.4470997,27.183678,24.161977,6.1991691,8.0196350,-3.0325852,-0.76446716
275,7.1750452,4.4131138,27.109668,24.013486,6.0398571,7.9374510,-2.9667521,-0.78295461
276,7.0345100,4.3772052,27.015349,23.848173,5.8786649,7.8510851,-2.8990336,-0.79988079
277,6.8911176,4.3393813,26.900898,23.666289,5.7157614,7.7606339,-2.8295275,-0.81525319
278,6.7450082,4.2996528,26.766528,23.468114,5.5513188,7.6662004,-2.7583350,-0.82908184
279,6.5963272,4.2580337,26.612483,23.253957,5.3855122,7.5678943,-2.6855601,-0.84137930
280,6.4452253,4.2145414,26.439045,23.024153,5.2185198,7.4658313,-2.6113098,-0.85216058
281,6.2918581,4.1691965,26.246527,22.779064,5.0505220,7.3601334,-2.5356936,-0.86144309
282,6.1363857,4.1220230,26.035273,22.519081,4.8817013,7.2509282,-2.4588235,-0.86924660
283,5.9789727,4.0730483,25.805661,22.244615,4.7122423,7.1383489,-2.3808136,-0.87559315
284,5.8197876,4.0223031,25.558098,21.956106,4.5423309,7.0225340,-2.3017800,-0.88050698
285,5.6590029,3.9698211,25.293022,21.654014,4.3721542,6.9036271,-2.2218403,-0.88401449
286,5.4967945,3.9156397,25.010899,21.338824,4.2019001,6.7817764,-2.1411138,-0.88614412
287,5.3333412,3.8597990,24.712222,21.011040,4.0317571,6.6571348,-2.0597210,-0.88692629
288,5.1688252,3.8023428,24.397512,20.671187,3.8619138,6.5298591,-1.9777831,-0.88639332
289,5.0034308,3.7433175,24.067316,20.319810,3.6925588,6.4001102,-1.8954224,-0.88457934
290,4.8373448,3.6827730,23.722204,19.957470,3.5238800,6.2680525,-1.8127614,-0.88152018
291,4.6707555,3.6207617,23.362770,19.584747,3.3560646,6.1338536,-1.7299229,-0.87725330
292,4.5038531,3.5573393,22.989627,19.202234,3.1892986,5.9976839,-1.6470298,-0.87181767
293,4.3368288,3.4925641,22.603412,18.810539,3.0237664,5.8597166,-1.5642047,-0.86525369
294,4.1698747,3.4264973,22.204780,18.410284,2.8596509,5.7201270,-1.4815695,-0.85760308
295,4.0031833,3.3592024,21.794401,18.002100,2.6971325,5.5790925,-1.3992456,-0.84890878
296,3.8369474,3.2907458,21.372964,17.586631,2.5363893,5.4367917,-1.3173532,-0.83921484
297,3.6713593,3.2211960,20.941171,17.164526,2.3775966,5.2934048,-1.2360114,-0.82856630
298,3.5066109,3.1506241,20.499737,16.736446,2.2209265,5.1491127,-1.1553378,-0.81700912
299,3.3428931,3.0791033,20.049390,16.303055,2.0665478,5.0040967,-1.0754484,-0.80459004
300,3.1803956,3.0067086,19.590865,15.865020,1.9146256,4.8585386,-0.99645694,-0.79135647
301,3.0193064,2.9335173,19.124907,15.423015,1.7653209,4.7126197,-0.91847542,-0.77735640
302,2.8598113,2.8596083,18.652268,14.977712,1.6187906,4.5665210,-0.84161322,-0.76263827
303,2.7020941,2.7850621,18.173704,14.529787,1.4751869,4.4204225,-0.76597723,-0.74725087
304,2.5463356,2.7099610,17.689975,14.079911,1.3346572,4.2745032,-0.69167154,-0.73124325
305,2.3927138,2.6343882,17.201843,13.628755,1.1973440,4.1289403,-0.61879727,-0.71466456
306,2.2414033,2.5584286,16.710068,13.176985,1.0633842,3.9839094,-0.54745238,-0.69756400
307,2.0925748,2.4821679,16.215412,12.725262,0.93290943,3.8395838,-0.47773146,-0.67999067
308,1.9463954,2.4056927,15.718632,12.274240,0.80604538,3.6961343,-0.40972563,-0.66199350
309,1.8030275,2.3290905,15.220480,11.824565,0.68291184,3.5537287,-0.34352226,-0.64362111
310,1.6626291,2.2524491,14.721702,11.376873,0.56362243,3.4125321,-0.27920494,-0.62492175
311,1.5253534,2.1758570,14.223037,10.931792,0.44828442,3.2727057,-0.21685324,-0.60594315
312,1.3913482,2.0994030,13.725215,10.489935,0.33699854,3.1344074,-0.15654261,-0.58673250
313,1.2607560,2.0231756,13.228954,10.051903,0.22985887,2.9977910,-0.098344270,-0.56733625
314,1.1337135,1.9472636,12.734961,9.6182839,0.12695265,2.8630058,-0.042325055,-0.54780012
315,1.0103516,1.8717554,12.243929,9.1896481,0.028360199,2.7301969,0.011452661,-0.52816896
316,0.89079493,1.7967391,11.756536,8.7665508,-0.065845239,2.5995046,0.062931072,-0.50848665
317,0.77516170,1.7223021,11.273443,8.3495294,-0.15559756,2.4710642,0.11205702,-0.48879607
318,0.66356358,1.6485310,10.795296,7.9391025,-0.24083792,2.3450056,0.15878209,-0.46913899
319,0.55610541,1.5755119,10.322718,7.5357695,-0.32151474,2.2214536,0.20306261,-0.44955599
320,0.45288508,1.5033293,9.8563160,7.1400090,-0.39758384,2.1005272,0.24485980,-0.43008638
321,0.35399334,1.4320669,9.3966740,6.7522786,-0.46900841,1.9823397,0.28413972,-0.41076820
322,0.25951366,1.3618067,8.9443544,6.3730136,-0.53575905,1.8669985,0.32087335,-0.39163806
323,0.16952210,1.2926294,8.4998961,6.0026267,-0.59781380,1.7546046,0.35503659,-0.37273115
324,0.084087199,1.2246140,8.0638143,5.6415068,-0.65515811,1.6452532,0.38661027,-0.35408118
325,0.0032698664,1.1578375,7.6365988,5.2900190,-0.70778479,1.5390328,0.41558015,-0.33572030
326,-0.072876689,1.0923751,7.2187141,4.9485035,-0.75569404,1.4360255,0.44193689,-0.31767906
327,-0.14430703,1.0282998,6.8105978,4.6172754,-0.79889332,1.3363070,0.46567605,-0.29998641
328,-0.21098355,0.96568237,6.4126606,4.2966242,-0.83739732,1.2399463,0.48679800,-0.28266961
329,-0.27287649,0.90459116,6.0252850,3.9868136,-0.87122788,1.1470054,0.50530794,-0.26575424
330,-0.32996396,0.84509206,5.6488257,3.6880808,-0.90041387,1.0575399,0.52121577,-0.24926414
331,-0.38223194,0.78724832,5.2836081,3.4006367,-0.92499109,0.97159860,0.53453608,-0.23322142
332,-0.42967427,0.73112046,4.9299288,3.1246653,-0.94500214,0.88922332,0.54528804,-0.21764642
333,-0.47229261,0.67676614,4.5880547,2.8603240,-0.96049630,0.81044920,0.55349529,-0.20255771
334,-0.51009637,0.62424006,4.2582231,2.6077435,-0.97152931,0.73530459,0.55918588,-0.18797206
335,-0.54310268,0.57359389,3.9406413,2.3670275,-0.97816332,0.66381107,0.56239217,-0.17390447
336,-0.57133627,0.52487616,3.6354866,2.1382531,-0.98046657,0.59598356,0.56315064,-0.16036815
337,-0.59482942,0.47813217,3.3429065,1.9214708,-0.97851334,0.53183028,0.56150184,-0.14737453
338,-0.61362178,0.43340395,3.0630183,1.7167051,-0.97238363,0.47135294,0.55749021,-0.13493327
339,-0.62776029,0.39073013,2.7959098,1.5239540,-0.96216305,0.41454674,0.55116397,-0.12305227
340,-0.63729902,0.35014596,2.5416389,1.3431902,-0.94794250,0.36140050,0.54257494,-0.11173771
341,-0.64229900,0.31168320,2.3002344,1.1743609,-0.92981804,0.31189682,0.53177840,-0.10099403
342,-0.64282806,0.27537006,2.0716960,1.0173886,-0.90789054,0.26601213,0.51883291,-0.090824017
343,-0.63896065,0.24123123,1.8559949,0.87217148,-0.88226554,0.22371690,0.50380017,-0.081228773
344,-0.63077762,0.20928780,1.6530742,0.73858395,-0.85305292,0.18497577,0.48674481,-0.072207798
345,-0.61836601,0.17955721,1.4628494,0.61647738,-0.82036664,0.14974771,0.46773424,-0.063759002
346,-0.60181882,0.15205333,1.2852092,0.50568070,-0.78432450,0.11798619,0.44683842,-0.055878761
347,-0.58123481,0.12678635,1.1200161,0.40600119,-0.74504787,0.089639422,0.42412975,-0.048561952
348,-0.55671819,0.10376285,0.96710680,0.31722519,-0.70266136,0.064650488,0.39968277,-0.041802010
349,-0.52837843,0.082985757,0.82629358,0.23911900,-0.65729256,0.042957597,0.37357407,-0.035590974
350,-0.49632992,0.064454419,0.69736470,0.17142969,-0.60907177,0.024494282,0.34588201,-0.029919542
351,-0.46069177,0.048164579,0.58008547,0.11388601,-0.55813167,0.0091896351,0.31668656,-0.024777131
352,-0.42158743,0.034108431,0.47419916,0.066199369,-0.50460706,-0.0030314647,0.28606909,-0.020151934
353,-0.37914451,0.022274653,0.37942800,0.028064782,-0.44863453,-0.012248106,0.25411216,-0.016030981
354,-0.33349438,0.012648452,0.29547422,-0.00083810914,-0.39035218,-0.018543100,0.22089931,-0.012400207
355,-0.28477192,0.0052116218,0.22202112,-0.020843999,-0.32989932,-0.022002726,0.18651488,-0.0092445111
356,-0.23311518,-5.7398282e-05,0.15873421,-0.032300851,-0.26741616,-0.022716474,0.15104379,-0.0065478282
357,-0.17866509,-0.0031834558,0.10526230,-0.035568808,-0.20304354,-0.020776781,0.11457133,-0.0042931963
358,-0.12156512,-0.0041946101,0.061238757,-0.031019087,-0.13692261,-0.016278766,0.077182968,-0.0024628262
359,-0.061960950,-0.0031220511,0.026282664,-0.019032849,-0.069194522,-0.0093199583,0.038964151,-0.0010381718
360,-1.7593713e-07,-1.1530219e-08,6.1574838e-08,-6.2533900e-08,-1.9487550e-07,-2.9188648e-08,1.0961885e-07,-2.3745486e-09
