deg,XRT_AX,XRT_BX,XRT_AY,XRT_BY,SOT_AX,SOT_BX,SOT_AY,SOT_BY
valid,1,1,1,1,1,1,1,1,revB
offset,87.548666,75.277153,1988.8817,1977.7311,12.914215,0.47713296,110.06234,98.176504
0,0.0000000,0.0000000,0.0000000,0.0000000,0.0000000,0.0000000,0.0000000,0.0000000
1,0.068196506,0.017723635,-0.024505803,0.023095985,0.099011511,0.031079721,-0.035533868,0.012794639
2,0.13374762,0.035687764,-0.047762728,0.045463351,0.19600614,0.061762292,-0.070171054,0.025972409
3,0.19673003,0.053898478,-0.069802029,0.067072694,0.29091122,0.092039886,-0.10389742,0.039480447
4,0.25722512,0.072362049,-0.090657545,0.087897027,0.38366025,0.12190605,-0.13670112,0.053266648
5,0.31531863,0.091084885,-0.11036556,0.10791181,0.47419295,0.15135568,-0.16857257,0.067279782
6,0.37110027,0.11007348,-0.12896463,0.12709500,0.56245528,0.18038498,-0.19950443,0.081469619
7,0.42466338,0.12933437,-0.14649549,0.14542701,0.64839941,0.20899144,-0.22949156,0.095787043
8,0.47610450,0.14887409,-0.16300081,0.16289081,0.73198371,0.23717382,-0.25853101,0.11018416
9,0.52552306,0.16869912,-0.17852511,0.17947185,0.81317272,0.26493205,-0.28662199,0.12461442
10,0.57302094,0.18881583,-0.19311456,0.19515812,0.89193712,0.29226727,-0.31376577,0.13903270
11,0.61870214,0.20923047,-0.20681679,0.20994014,0.96825364,0.31918174,-0.33996570,0.15339542
12,0.66267235,0.22994907,-0.21968076,0.22381091,1.0421050,0.34567881,-0.36522711,0.16766064
13,0.70503858,0.25097746,-0.23175658,0.23676593,1.1134799,0.37176287,-0.38955729,0.18178811
14,0.74590883,0.27232115,-0.24309532,0.24880319,1.1823726,0.39743931,-0.41296538,0.19573942
15,0.78539164,0.29398537,-0.25374881,0.25992309,1.2487835,0.42271447,-0.43546234,0.20947800
16,0.82359578,0.31597496,-0.26376954,0.27012847,1.3127181,0.44759558,-0.45706090,0.22296928
17,0.86062983,0.33829436,-0.27321041,0.27942453,1.3741876,0.47209074,-0.47777542,0.23618067
18,0.89660189,0.36094758,-0.28212458,0.28781879,1.4332085,0.49620881,-0.49762189,0.24908167
19,0.93161916,0.38393814,-0.29056531,0.29532107,1.4898023,0.51995943,-0.51661780,0.26164392
20,0.96578764,0.40726904,-0.29858578,0.30194341,1.5439956,0.54335291,-0.53478206,0.27384123
21,0.99921179,0.43094275,-0.30623890,0.30770001,1.5958196,0.56640020,-0.55213495,0.28564963
22,1.0319942,0.45496113,-0.31357715,0.31260719,1.6453104,0.58911283,-0.56869802,0.29704742
23,1.0642352,0.47932545,-0.32065244,0.31668332,1.6925082,0.61150287,-0.58449397,0.30801516
24,1.0960328,0.50403634,-0.32751592,0.31994870,1.7374578,0.63358282,-0.59954659,0.31853575
25,1.1274820,0.52909375,-0.33421782,0.32242555,1.7802075,0.65536566,-0.61388068,0.32859439
26,1.1586751,0.55449695,-0.34080732,0.32413791,1.8208099,0.67686467,-0.62752190,0.33817860
27,1.1897007,0.58024450,-0.34733237,0.32511154,1.8593208,0.69809348,-0.64049676,0.34727826
28,1.2206442,0.60633422,-0.35383959,0.32537383,1.8957996,0.71906596,-0.65283244,0.35588556
29,1.2515870,0.63276320,-0.36037406,0.32495376,1.9303087,0.73979617,-0.66455675,0.36399501
30,1.2826066,0.65952775,-0.36697928,0.32388176,1.9629134,0.76029834,-0.67569801,0.37160343
31,1.3137763,0.68662343,-0.37369696,0.32218961,1.9936816,0.78058678,-0.68628497,0.37870991
32,1.3451649,0.71404501,-0.38056695,0.31991038,2.0226838,0.80067585,-0.69634670,0.38531578
33,1.3768369,0.74178646,-0.38762710,0.31707833,2.0499925,0.82057992,-0.70591250,0.39142462
34,1.4088520,0.76984097,-0.39491317,0.31372878,2.0756822,0.84031331,-0.71501180,0.39704213
35,1.4412650,0.79820096,-0.40245875,0.30989800,2.0998290,0.85989021,-0.72367409,0.40217617
36,1.4741261,0.82685801,-0.41029510,0.30562318,2.1225107,0.87932472,-0.73192880,0.40683666
37,1.5074801,0.85580297,-0.41845115,0.30094223,2.1438061,0.89863072,-0.73980523,0.41103555
38,1.5413671,0.88502588,-0.42695339,0.29589375,2.1637950,0.91782189,-0.74733246,0.41478672
39,1.5758218,0.91451601,-0.43582578,0.29051689,2.1825579,0.93691161,-0.75453924,0.41810595
40,1.6108738,0.94426189,-0.44508972,0.28485125,2.2001760,0.95591299,-0.76145396,0.42101083
41,1.6465476,0.97425129,-0.45476401,0.27893676,2.2167306,0.97483879,-0.76810451,0.42352066
42,1.6828626,1.0044713,-0.46486479,0.27281364,2.2323031,0.99370141,-0.77451822,0.42565642
43,1.7198328,1.0349082,-0.47540550,0.26652220,2.2469747,1.0125128,-0.78072182,0.42744064
44,1.7574674,1.0655477,-0.48639688,0.26010281,2.2608263,1.0312846,-0.78674133,0.42889735
45,1.7957702,1.0963749,-0.49784696,0.25359579,2.2739380,1.0500278,-0.79260199,0.43005192
46,1.8347403,1.1273740,-0.50976101,0.24704127,2.2863894,1.0687532,-0.79832822,0.43093106
47,1.8743719,1.1585289,-0.52214160,0.24047913,2.2982589,1.0874707,-0.80394354,0.43156262
48,1.9146542,1.1898228,-0.53498857,0.23394890,2.3096236,1.1061899,-0.80947053,0.43197557
49,1.9555720,1.2212384,-0.54829908,0.22748966,2.3205596,1.1249200,-0.81493073,0.43219985
50,1.9971054,1.2527579,-0.56206762,0.22113994,2.3311410,1.1436694,-0.82034467,0.43226629
51,2.0392304,1.2843629,-0.57628606,0.21493763,2.3414406,1.1624461,-0.82573174,0.43220647
52,2.0819184,1.3160347,-0.59094369,0.20891994,2.3515291,1.1812573,-0.83111022,0.43205265
53,2.1251373,1.3477544,-0.60602727,0.20312325,2.3614751,1.2001098,-0.83649718,0.43183763
54,2.1688507,1.3795023,-0.62152111,0.19758307,2.3713454,1.2190098,-0.84190850,0.43159465
55,2.2130191,1.4112588,-0.63740711,0.19233398,2.3812040,1.2379628,-0.84735881,0.43135729
56,2.2575993,1.4430039,-0.65366490,0.18740949,2.3911129,1.2569738,-0.85286147,0.43115934
57,2.3025450,1.4747173,-0.67027182,0.18284207,2.4011315,1.2760472,-0.85842858,0.43103470
58,2.3478071,1.5063788,-0.68720314,0.17866301,2.4113165,1.2951868,-0.86407092,0.43101728
59,2.3933338,1.5379679,-0.70443203,0.17490236,2.4217220,1.3143957,-0.86979796,0.43114085
60,2.4390709,1.5694639,-0.72192977,0.17158893,2.4323991,1.3336766,-0.87561789,0.43143899
61,2.4849622,1.6008465,-0.73966580,0.16875021,2.4433963,1.3530315,-0.88153755,0.43194494
62,2.5309496,1.6320949,-0.75760787,0.16641228,2.4547591,1.3724619,-0.88756249,0.43269151
63,2.5769733,1.6631888,-0.77572212,0.16459983,2.4665301,1.3919688,-0.89369695,0.43371098
64,2.6229725,1.6941079,-0.79397326,0.16333611,2.4787488,1.4115526,-0.89994389,0.43503499
65,2.6688850,1.7248320,-0.81232465,0.16264285,2.4914517,1.4312131,-0.90630497,0.43669446
66,2.7146484,1.7553412,-0.83073848,0.16254029,2.5046725,1.4509499,-0.91278063,0.43871947
67,2.7601996,1.7856160,-0.84917588,0.16304711,2.5184416,1.4707619,-0.91937007,0.44113920
68,2.8054753,1.8156369,-0.86759705,0.16418045,2.5327864,1.4906475,-0.92607129,0.44398181
69,2.8504126,1.8453852,-0.88596145,0.16595587,2.5477316,1.5106050,-0.93288112,0.44727438
70,2.8949488,1.8748422,-0.90422791,0.16838731,2.5632985,1.5306319,-0.93979527,0.45104281
71,2.9390223,1.9039900,-0.92235477,0.17148717,2.5795057,1.5507255,-0.94680835,0.45531176
72,2.9825723,1.9328110,-0.94030008,0.17526623,2.5963689,1.5708829,-0.95391394,0.46010458
73,3.0255393,1.9612883,-0.95802170,0.17973367,2.6139009,1.5911007,-0.96110459,0.46544323
74,3.0678654,1.9894055,-0.97547747,0.18489710,2.6321118,1.6113751,-0.96837194,0.47134822
75,3.1094947,2.0171469,-0.99262536,0.19076256,2.6510089,1.6317024,-0.97570669,0.47783856
76,3.1503732,2.0444975,-1.0094236,0.19733453,2.6705968,1.6520784,-0.98309874,0.48493168
77,3.1904494,2.0714429,-1.0258309,0.20461597,2.6908778,1.6724986,-0.99053717,0.49264345
78,3.2296744,2.0979695,-1.0418066,0.21260831,2.7118515,1.6929585,-0.99801035,0.50098805
79,3.2680021,2.1240646,-1.0573105,0.22131151,2.7335154,1.7134536,-1.0055060,0.50997800
80,3.3053894,2.1497162,-1.0723036,0.23072410,2.7558646,1.7339788,-1.0130112,0.51962409
81,3.3417967,2.1749132,-1.0867477,0.24084316,2.7788921,1.7545295,-1.0205125,0.52993538
82,3.3771877,2.1996453,-1.1006058,0.25166442,2.8025889,1.7751006,-1.0279961,0.54091917
83,3.4115296,2.2239032,-1.1138423,0.26318228,2.8269441,1.7956870,-1.0354477,0.55258097
84,3.4447938,2.2476785,-1.1264227,0.27538987,2.8519451,1.8162840,-1.0428525,0.56492452
85,3.4769553,2.2709637,-1.1383143,0.28827905,2.8775777,1.8368864,-1.0501958,0.57795176
86,3.5079936,2.2937522,-1.1494861,0.30184052,2.9038262,1.8574894,-1.0574625,0.59166286
87,3.5378922,2.3160385,-1.1599086,0.31606386,2.9306734,1.8780881,-1.0646374,0.60605618
88,3.5666391,2.3378181,-1.1695544,0.33093757,2.9581012,1.8986779,-1.0717052,0.62112836
89,3.5942266,2.3590873,-1.1783981,0.34644912,2.9860901,1.9192540,-1.0786507,0.63687425
90,3.6206517,2.3798437,-1.1864161,0.36258507,3.0146199,1.9398120,-1.0854587,0.65328701
91,3.6459160,2.4000855,-1.1935872,0.37933105,3.0436696,1.9603477,-1.0921144,0.67035809
92,3.6700255,2.4198124,-1.1998925,0.39667190,3.0732175,1.9808569,-1.0986029,0.68807730
93,3.6929914,2.4390246,-1.2053153,0.41459167,3.1032414,2.0013358,-1.1049098,0.70643280
94,3.7148289,2.4577237,-1.2098413,0.43307375,3.1337188,2.0217806,-1.1110210,0.72541121
95,3.7355585,2.4759120,-1.2134587,0.45210090,3.1646270,2.0421879,-1.1169228,0.74499762
96,3.7552050,2.4935929,-1.2161582,0.47165530,3.1959432,2.0625546,-1.1226020,0.76517565
97,3.7737979,2.5107709,-1.2179331,0.49171867,3.2276447,2.0828777,-1.1280460,0.78592749
98,3.7913711,2.5274512,-1.2187793,0.51227232,3.2597091,2.1031545,-1.1332426,0.80723401
99,3.8079633,2.5436400,-1.2186951,0.53329717,3.2921140,2.1233828,-1.1381805,0.82907478
100,3.8236173,2.5593444,-1.2176817,0.55477390,3.3248378,2.1435603,-1.1428491,0.85142817
101,3.8383801,2.5745726,-1.2157429,0.57668296,3.3578593,2.1636854,-1.1472382,0.87427142
102,3.8523032,2.5893332,-1.2128851,0.59900467,3.3911581,2.1837566,-1.1513389,0.89758069
103,3.8654415,2.6036361,-1.2091174,0.62171924,3.4247145,2.2037725,-1.1551428,0.92133118
104,3.8778543,2.6174917,-1.2044514,0.64480690,3.4585097,2.2237324,-1.1586425,0.94549720
105,3.8896042,2.6309111,-1.1989016,0.66824791,3.4925260,2.2436356,-1.1618316,0.97005222
106,3.9007572,2.6439064,-1.1924847,0.69202266,3.5267467,2.2634818,-1.1647044,0.99496903
107,3.9113828,2.6564901,-1.1852204,0.71611168,3.5611564,2.2832708,-1.1672565,1.0202198
108,3.9215532,2.6686754,-1.1771305,0.74049577,3.5957409,2.3030030,-1.1694842,1.0457760
109,3.9313435,2.6804762,-1.1682394,0.76515599,3.6304872,2.3226787,-1.1713852,1.0716090
110,3.9408314,2.6919069,-1.1585739,0.79007374,3.6653838,2.3422987,-1.1729579,1.0976894
111,3.9500967,2.7029822,-1.1481631,0.81523083,3.7004207,2.3618638,-1.1742019,1.1239879
112,3.9592212,2.7137175,-1.1370382,0.84060950,3.7355893,2.3813752,-1.1751180,1.1504749
113,3.9682886,2.7241285,-1.1252326,0.86619247,3.7708825,2.4008342,-1.1757079,1.1771206
114,3.9773837,2.7342313,-1.1127820,0.89196300,3.8062948,2.4202423,-1.1759743,1.2038955
115,3.9865925,2.7440420,-1.0997236,0.91790492,3.8418223,2.4396011,-1.1759213,1.2307700
116,3.9960019,2.7535773,-1.0860967,0.94400264,3.8774627,2.4589122,-1.1755539,1.2577149
117,4.0056992,2.7628539,-1.0719423,0.97024124,3.9132151,2.4781776,-1.1748779,1.2847011
118,4.0157717,2.7718886,-1.0573029,0.99660645,3.9490804,2.4973992,-1.1739007,1.3117002
119,4.0263066,2.7806983,-1.0422226,1.0230847,3.9850609,2.5165788,-1.1726302,1.3386841
120,4.0373907,2.7893000,-1.0267466,1.0496631,4.0211606,2.5357184,-1.1710756,1.3656253
121,4.0491098,2.7977104,-1.0109217,1.0763296,4.0573848,2.5548199,-1.1692470,1.3924970
122,4.0615484,2.8059464,-0.99479542,1.1030729,4.0937403,2.5738852,-1.1671554,1.4192732
123,4.0747897,2.8140244,-0.97841627,1.1298822,4.1302355,2.5929160,-1.1648128,1.4459288
124,4.0889148,2.8219608,-0.96183359,1.1567477,4.1668800,2.6119140,-1.1622320,1.4724395
125,4.1040028,2.8297716,-0.94509727,1.1836605,4.2036846,2.6308805,-1.1594266,1.4987820
126,4.1201299,2.8374725,-0.92825771,1.2106122,4.2406614,2.6498171,-1.1564111,1.5249342
127,4.1373697,2.8450789,-0.91136555,1.2375953,4.2778237,2.6687245,-1.1532007,1.5508750
128,4.1557925,2.8526055,-0.89447161,1.2646030,4.3151856,2.6876038,-1.1498111,1.5765846
129,4.1754649,2.8600667,-0.87762667,1.2916295,4.3527623,2.7064553,-1.1462589,1.6020445
130,4.1964498,2.8674762,-0.86088132,1.3186693,4.3905699,2.7252792,-1.1425611,1.6272373
131,4.2188058,2.8748471,-0.84428581,1.3457180,4.4286249,2.7440752,-1.1387353,1.6521473
132,4.2425871,2.8821920,-0.82788985,1.3727718,4.4669447,2.7628427,-1.1347995,1.6767599
133,4.2678431,2.8895225,-0.81174251,1.3998274,4.5055469,2.7815807,-1.1307721,1.7010624
134,4.2946180,2.8968496,-0.79589198,1.4268825,4.5444498,2.8002875,-1.1266718,1.7250431
135,4.3229509,2.9041835,-0.78038549,1.4539350,4.5836715,2.8189610,-1.1225174,1.7486921
136,4.3528751,2.9115334,-0.76526908,1.4809836,4.6232303,2.8375986,-1.1183283,1.7720011
137,4.3844182,2.9189078,-0.75058750,1.5080277,4.6631446,2.8561971,-1.1141234,1.7949634
138,4.4176016,2.9263141,-0.73638400,1.5350668,4.7034323,2.8747526,-1.1099222,1.8175737
139,4.4524405,2.9337588,-0.72270024,1.5621013,4.7441110,2.8932605,-1.1057438,1.8398285
140,4.4889435,2.9412473,-0.70957610,1.5891316,4.7851979,2.9117158,-1.1016072,1.8617259
141,4.5271126,2.9487840,-0.69704955,1.6161589,4.8267093,2.9301125,-1.0975314,1.8832656
142,4.5669431,2.9563724,-0.68515651,1.6431842,4.8686608,2.9484439,-1.0935350,1.9044489
143,4.6084229,2.9640146,-0.67393074,1.6702093,4.9110669,2.9667028,-1.0896361,1.9252787
144,4.6515331,2.9717117,-0.66340368,1.6972358,4.9539410,2.9848808,-1.0858527,1.9457596
145,4.6962476,2.9794638,-0.65360433,1.7242656,4.9972952,3.0029691,-1.0822020,1.9658976
146,4.7425326,2.9872697,-0.64455917,1.7513008,5.0411400,3.0209578,-1.0787007,1.9857005
147,4.7903473,2.9951269,-0.63629201,1.7783434,5.0854844,3.0388363,-1.0753650,2.0051772
148,4.8396432,3.0030320,-0.62882392,1.8053954,5.1303355,3.0565930,-1.0722102,2.0243385
149,4.8903642,3.0109802,-0.62217310,1.8324588,5.1756985,3.0742155,-1.0692508,2.0431965
150,4.9424471,3.0189655,-0.61635485,1.8595353,5.2215765,3.0916907,-1.0665006,2.0617645
151,4.9958208,3.0269809,-0.61138142,1.8866266,5.2679705,3.1090043,-1.0639723,2.0800574
152,5.0504069,3.0350180,-0.60726202,1.9137340,5.3148789,3.1261413,-1.0616777,2.0980912
153,5.1061197,3.0430672,-0.60400266,1.9408585,5.3622976,3.1430857,-1.0596273,2.1158831
154,5.1628658,3.0511179,-0.60160620,1.9680006,5.4102202,3.1598206,-1.0578309,2.1334517
155,5.2205451,3.0591581,-0.60007223,1.9951607,5.4586370,3.1763283,-1.0562968,2.1508163
156,5.2790498,3.0671749,-0.59939708,2.0223384,5.5075359,3.1925902,-1.0550320,2.1679975
157,5.3382656,3.0751540,-0.59957374,2.0495328,5.5569015,3.2085867,-1.0540426,2.1850168
158,5.3980711,3.0830802,-0.60059193,2.0767423,5.6067154,3.2242973,-1.0533329,2.2018963
159,5.4583385,3.0909370,-0.60243799,2.1039648,5.6569560,3.2397009,-1.0529061,2.2186590
160,5.5189332,3.0987071,-0.60509497,2.1311975,5.7075985,3.2547753,-1.0527639,2.2353288
161,5.5797149,3.1063720,-0.60854259,2.1584365,5.7586144,3.2694975,-1.0529065,2.2519298
162,5.6405368,3.1139122,-0.61275728,2.1856774,5.8099722,3.2838438,-1.0533327,2.2684868
163,5.7012468,3.1213073,-0.61771220,2.2129148,5.8616366,3.2977896,-1.0540396,2.2850249
164,5.7616873,3.1285360,-0.62337730,2.2401424,5.9135688,3.3113098,-1.0550230,2.3015695
165,5.8216955,3.1355761,-0.62971934,2.2673529,5.9657266,3.3243782,-1.0562769,2.3181462
166,5.8811039,3.1424045,-0.63670198,2.2945379,6.0180638,3.3369683,-1.0577938,2.3347807
167,5.9397405,3.1489976,-0.64428585,2.3216882,6.0705308,3.3490527,-1.0595647,2.3514988
168,5.9974292,3.1553307,-0.65242859,2.3487933,6.1230745,3.3606034,-1.0615788,2.3683258
169,6.0539902,3.1613788,-0.66108496,2.3758418,6.1756377,3.3715919,-1.0638238,2.3852871
170,6.1092405,3.1671159,-0.67020697,2.4028209,6.2281599,3.3819893,-1.0662858,2.4024078
171,6.1629938,3.1725158,-0.67974391,2.4297169,6.2805769,3.3917661,-1.0689494,2.4197123
172,6.2150616,3.1775517,-0.68964253,2.4565148,6.3328208,3.4008922,-1.0717974,2.4372246
173,6.2652533,3.1821962,-0.69984714,2.4831985,6.3848203,3.4093375,-1.0748112,2.4549682
174,6.3133763,3.1864218,-0.71029973,2.5097505,6.4365006,3.4170713,-1.0779706,2.4729655
175,6.3592371,3.1902005,-0.72094009,2.5361523,6.4877835,3.4240628,-1.0812539,2.4912384
176,6.4026413,3.1935042,-0.73170600,2.5623842,6.5385873,3.4302809,-1.0846379,2.5098077
177,6.4433942,3.1963045,-0.74253335,2.5884251,6.5888273,3.4356943,-1.0880980,2.5286931
178,6.4813014,3.1985731,-0.75335631,2.6142528,6.6384155,3.4402718,-1.0916082,2.5479132
179,6.5161688,3.2002815,-0.76410747,2.6398440,6.6872610,3.4439822,-1.0951411,2.5674855
180,6.5478038,3.2014013,-0.77471803,2.6651741,6.7352700,3.4467941,-1.0986680,2.5874259
181,6.5760152,3.2019043,-0.78511798,2.6902173,6.7823458,3.4486764,-1.1021590,2.6077491
182,6.6006139,3.2017624,-0.79523627,2.7149468,6.8283894,3.4495982,-1.1055829,2.6284683
183,6.6214134,3.2009477,-0.80500097,2.7393347,6.8732992,3.4495288,-1.1089075,2.6495950
184,6.6382302,3.1994329,-0.81433949,2.7633518,6.9169713,3.4484378,-1.1120996,2.6711391
185,6.6508844,3.1971909,-0.82317878,2.7869681,6.9592997,3.4462954,-1.1151249,2.6931088
186,6.6592001,3.1941951,-0.83144547,2.8101524,7.0001766,3.4430719,-1.1179481,2.7155105
187,6.6630058,3.1904194,-0.83906613,2.8328728,7.0394926,3.4387386,-1.1205333,2.7383488
188,6.6621351,3.1858385,-0.84596743,2.8550962,7.0771367,3.4332670,-1.1228438,2.7616261
189,6.6564270,3.1804277,-0.85207632,2.8767888,7.1129965,3.4266296,-1.1248421,2.7853433
190,6.6457264,3.1741630,-0.85732031,2.8979160,7.1469589,3.4187995,-1.1264904,2.8094990
191,6.6298843,3.1670214,-0.86162756,2.9184425,7.1789098,3.4097507,-1.1277502,2.8340896
192,6.6087588,3.1589805,-0.86492719,2.9383323,7.2087345,3.3994580,-1.1285827,2.8591098
193,6.5822150,3.1500192,-0.86714941,2.9575486,7.2363180,3.3878973,-1.1289488,2.8845519
194,6.5501257,3.1401172,-0.86822572,2.9760543,7.2615454,3.3750456,-1.1288093,2.9104061
195,6.5123715,3.1292553,-0.86808915,2.9938118,7.2843019,3.3608808,-1.1281249,2.9366605
196,6.4688417,3.1174156,-0.86667441,3.0107831,7.3044731,3.3453823,-1.1268563,2.9633009
197,6.4194342,3.1045812,-0.86391812,3.0269299,7.3219454,3.3285304,-1.1249644,2.9903110
198,6.3640558,3.0907367,-0.85975897,3.0422136,7.3366061,3.3103070,-1.1224102,3.0176723
199,6.3026231,3.0758676,-0.85413789,3.0565956,7.3483441,3.2906952,-1.1191552,3.0453641
200,6.2350622,3.0599612,-0.84699830,3.0700371,7.3570493,3.2696799,-1.1151613,3.0733636
201,6.1613094,3.0430059,-0.83828619,3.0824996,7.3626140,3.2472469,-1.1103910,3.1016458
202,6.0813112,3.0249916,-0.82795037,3.0939445,7.3649322,3.2233842,-1.1048073,3.1301835
203,5.9950248,3.0059099,-0.81594260,3.1043335,7.3639005,3.1980810,-1.0983742,3.1589474
204,5.9024180,2.9857536,-0.80221773,3.1136287,7.3594180,3.1713284,-1.0910565,3.1879064
205,5.8034699,2.9645171,-0.78673388,3.1217926,7.3513868,3.1431191,-1.0828200,3.2170271
206,5.6981705,2.9421967,-0.76945259,3.1287882,7.3397124,3.1134476,-1.0736315,3.2462742
207,5.5865214,2.9187900,-0.75033891,3.1345790,7.3243034,3.0823103,-1.0634592,3.2756106
208,5.4685356,2.8942963,-0.72936159,3.1391295,7.3050725,3.0497054,-1.0522725,3.3049972
209,5.3442375,2.8687165,-0.70649314,3.1424049,7.2819361,3.0156330,-1.0400421,3.3343932
210,5.2136635,2.8420534,-0.68171000,3.1443712,7.2548152,2.9800950,-1.0267403,3.3637562
211,5.0768616,2.8143112,-0.65499258,3.1449955,7.2236351,2.9430956,-1.0123411,3.3930419
212,4.9338916,2.7854960,-0.62632541,3.1442461,7.1883259,2.9046407,-0.99681992,3.4222048
213,4.7848250,2.7556154,-0.59569719,3.1420924,7.1488228,2.8647383,-0.98015423,3.4511976
214,4.6297452,2.7246790,-0.56310087,3.1385051,7.1050660,2.8233985,-0.96232321,3.4799719
215,4.4687471,2.6926978,-0.52853371,3.1334565,7.0570015,2.7806334,-0.94330800,3.5084779
216,4.3019374,2.6596846,-0.49199736,3.1269202,7.0045807,2.7364571,-0.92309179,3.5366648
217,4.1294343,2.6256539,-0.45349786,3.1188714,6.9477609,2.6908860,-0.90165985,3.5644805
218,3.9513675,2.5906218,-0.41304569,3.1092871,6.8865058,2.6439383,-0.87899963,3.5918722
219,3.7678778,2.5546062,-0.37065583,3.0981459,6.8207849,2.5956344,-0.85510079,3.6187861
220,3.5791171,2.5176264,-0.32634768,3.0854283,6.7505744,2.5459969,-0.82995530,3.6451679
221,3.3852482,2.4797036,-0.28014517,3.0711168,6.6758570,2.4950504,-0.80355749,3.6709625
222,3.1864447,2.4408603,-0.23207665,3.0551959,6.5966223,2.4428214,-0.77590405,3.6961145
223,2.9828901,2.4011207,-0.18217494,3.0376520,6.5128664,2.3893386,-0.74699416,3.7205681
224,2.7747787,2.3605103,-0.13047724,3.0184739,6.4245929,2.3346326,-0.71682946,3.7442673
225,2.5623139,2.3190565,-0.077025148,2.9976524,6.3318120,2.2787363,-0.68541411,3.7671560
226,2.3457090,2.2767877,-0.021864540,2.9751807,6.2345414,2.2216842,-0.65275484,3.7891784
227,2.1251863,2.2337339,0.034954454,2.9510543,6.1328061,2.1635128,-0.61886094,3.8102786
228,1.9009769,2.1899263,0.093377538,2.9252710,6.0266382,2.1042608,-0.58374430,3.8304012
229,1.6733201,2.1453976,0.15334634,2.8978311,5.9160775,2.0439684,-0.54741939,3.8494912
230,1.4424633,2.1001815,0.21479851,2.8687374,5.8011709,1.9826777,-0.50990332,3.8674942
231,1.2086612,2.0543130,0.27766781,2.8379952,5.6819729,1.9204327,-0.47121579,3.8843568
232,0.97217580,2.0078283,0.34188427,2.8056122,5.5585455,1.8572791,-0.43137911,3.9000261
233,0.73327553,1.9607643,0.40737427,2.7715990,5.4309580,1.7932640,-0.39041817,3.9144504
234,0.49223495,1.9131594,0.47406069,2.7359684,5.2992873,1.7284363,-0.34836046,3.9275792
235,0.24933421,1.8650524,0.54186309,2.6987361,5.1636173,1.6628465,-0.30523597,3.9393632
236,0.0048585431,1.8164835,0.61069782,2.6599203,5.0240396,1.5965463,-0.26107725,3.9497545
237,-0.24090226,1.7674931,0.68047818,2.6195418,4.8806527,1.5295891,-0.21591931,3.9587069
238,-0.48765440,1.7181228,0.75111464,2.5776241,4.7335625,1.4620294,-0.16979959,3.9661756
239,-0.73510060,1.6684147,0.82251495,2.5341933,4.5828816,1.3939230,-0.12275793,3.9721179
240,-0.98294069,1.6184112,0.89458440,2.4892781,4.4287297,1.3253268,-0.074836489,3.9764927
241,-1.2308722,1.5681556,0.96722593,2.4429098,4.2712332,1.2562988,-0.026079717,3.9792611
242,-1.4785907,1.5176913,1.0403404,2.3951222,4.1105252,1.1868982,0.023465743,3.9803863
243,-1.7257910,1.4670622,1.1138267,2.3459517,3.9467449,1.1171849,0.073751112,3.9798337
244,-1.9721668,1.4163124,1.1875821,2.2954372,3.7800381,1.0472195,0.12472555,3.9775712
245,-2.2174121,1.3654863,1.2615024,2.2436200,3.6105563,0.97706351,0.17633624,3.9735690
246,-2.4612214,1.3146281,1.3354820,2.1905439,3.4384571,0.90677910,0.22852849,3.9677998
247,-2.7032904,1.2637824,1.4094144,2.1362550,3.2639036,0.83642886,0.28124578,3.9602390
248,-2.9433164,1.2129935,1.4831921,2.0808016,3.0870641,0.76607585,0.33442993,3.9508648
249,-3.1809992,1.1623055,1.5567072,2.0242344,2.9081121,0.69578347,0.38802114,3.9396579
250,-3.4160414,1.1117626,1.6298513,1.9666062,2.7272260,0.62561537,0.44195811,3.9266022
251,-3.6481491,1.0614084,1.7025158,1.9079719,2.5445887,0.55563533,0.49617817,3.9116843
252,-3.8770324,1.0112863,1.7745925,1.8483883,2.3603871,0.48590716,0.55061737,3.8948938
253,-4.1024061,0.96143923,1.8459732,1.7879142,2.1748125,0.41649462,0.60521062,3.8762234
254,-4.3239901,0.91190955,1.9165503,1.7266103,1.9880594,0.34746129,0.65989178,3.8556688
255,-4.5415100,0.86273908,1.9862171,1.6645390,1.8003259,0.27887051,0.71459381,3.8332289
256,-4.7546976,0.81396897,2.0548679,1.6017641,1.6118130,0.21078522,0.76924887,3.8089056
257,-4.9632914,0.76563965,2.1223982,1.5383513,1.4227243,0.14326791,0.82378847,3.7827041
258,-5.1670372,0.71779074,2.1887050,1.4743674,1.2332658,0.076380503,0.87814361,3.7546327
259,-5.3656884,0.67046100,2.2536869,1.4098808,1.0436454,0.010184247,0.93224486,3.7247030
260,-5.5590068,0.62368827,2.3172445,1.3449609,0.85407253,-0.055260375,0.98602255,3.6929296
261,-5.7467626,0.57750941,2.3792805,1.2796782,0.66475796,-0.11989374,1.0394069,3.6593305
262,-5.9287350,0.53196023,2.4396999,1.2141043,0.47591326,-0.18365720,1.0923280,3.6239267
263,-6.1047130,0.48707543,2.4984102,1.1483113,0.28775050,-0.24649313,1.1447164,3.5867424
264,-6.2744951,0.44288856,2.5553219,1.0823724,0.10048188,-0.30834508,1.1965026,3.5478051
265,-6.4378902,0.39943198,2.6103480,1.0163610,-0.085680660,-0.36915783,1.2476176,3.5071452
266,-6.5947177,0.35673679,2.6634049,0.95035135,-0.27052581,-0.42887746,1.2979932,3.4647962
267,-6.7448079,0.31483279,2.7144122,0.88441761,-0.45384329,-0.48745150,1.3475614,3.4207946
268,-6.8880025,0.27374844,2.7632931,0.81863433,-0.63542416,-0.54482893,1.3962555,3.3751798
269,-7.0241542,0.23351085,2.8099741,0.75307606,-0.81506129,-0.60096033,1.4440095,3.3279943
270,-7.1531279,0.19414569,2.8543859,0.68781722,-0.99254965,-0.65579791,1.4907586,3.2792831
271,-7.2748001,0.15567720,2.8964628,0.62293202,-1.1676867,-0.70929563,1.5364391,3.2290941
272,-7.3890595,0.11812816,2.9361433,0.55849429,-1.3402728,-0.76140921,1.5809888,3.1774780
273,-7.4958072,0.081519835,2.9733701,0.49457732,-1.5101116,-0.81209625,1.6243467,3.1244877
274,-7.5949567,0.045871998,3.0080902,0.43125380,-1.6770101,-0.86131628,1.6664537,3.0701790
275,-7.6864340,0.011202876,3.0402549,0.36859560,-1.8407794,-0.90903080,1.7072521,3.0146098
276,-7.7701778,-0.022470845,3.0698202,0.30667367,-2.0012349,-0.95520334,1.7466864,2.9578402
277,-7.8461395,-0.055134039,3.0967466,0.24555793,-2.1581966,-0.99979956,1.7847027,2.8999327
278,-7.9142832,-0.086773141,3.1209994,0.18531709,-2.3114893,-1.0427872,1.8212493,2.8409517
279,-7.9745858,-0.11737615,3.1425484,0.12601856,-2.4609431,-1.0841363,1.8562766,2.7809635
280,-8.0270370,-0.14693265,3.1613684,0.067728305,-2.6063937,-1.1238190,1.8897371,2.7200362
281,-8.0716390,-0.17543376,3.1774391,0.010510727,-2.7476826,-1.1618097,1.9215860,2.6582395
282,-8.1084068,-0.20287217,3.1907449,-0.045571469,-2.8846574,-1.1980852,1.9517806,2.5956448
283,-8.1373676,-0.22924211,3.2012752,-0.10045738,-3.0171722,-1.2326246,1.9802808,2.5323248
284,-8.1585613,-0.25453934,3.2090243,-0.15408803,-3.1450876,-1.2654092,2.0070492,2.4683533
285,-8.1720399,-0.27876115,3.2139914,-0.20640646,-3.2682712,-1.2964228,2.0320508,2.4038053
286,-8.1778672,-0.30190630,3.2161806,-0.25735788,-3.3865978,-1.3256515,2.0552536,2.3387568
287,-8.1761193,-0.32397503,3.2156008,-0.30688973,-3.4999493,-1.3530838,2.0766282,2.2732846
288,-8.1668833,-0.34496900,3.2122659,-0.35495178,-3.6082154,-1.3787106,2.0961483,2.2074660
289,-8.1502582,-0.36489133,3.2061945,-0.40149626,-3.7112934,-1.4025253,2.1137902,2.1413790
290,-8.1263537,-0.38374645,3.1974099,-0.44647791,-3.8090886,-1.4245233,2.1295332,2.0751017
291,-8.0952904,-0.40154020,3.1859400,-0.48985409,-3.9015142,-1.4447028,2.1433598,2.0087126
292,-8.0571991,-0.41827968,3.1718176,-0.53158483,-3.9884918,-1.4630641,2.1552553,1.9422902
293,-8.0122211,-0.43397325,3.1550796,-0.57163295,-4.0699511,-1.4796100,2.1652080,1.8759128
294,-7.9605070,-0.44863053,3.1357675,-0.60996408,-4.1458305,-1.4943454,2.1732094,1.8096583
295,-7.9022170,-0.46226226,3.1139272,-0.64654673,-4.2160766,-1.5072777,2.1792539,1.7436045
296,-7.8375201,-0.47488035,3.0896085,-0.68135237,-4.2806449,-1.5184164,2.1833392,1.6778283
297,-7.7665939,-0.48649775,3.0628655,-0.71435546,-4.3394992,-1.5277733,2.1854659,1.6124060
298,-7.6896240,-0.49712846,3.0337560,-0.74553349,-4.3926124,-1.5353624,2.1856376,1.5474131
299,-7.6068037,-0.50678742,3.0023417,-0.77486703,-4.4399657,-1.5411998,2.1838610,1.4829237
300,-7.5183334,-0.51549050,2.9686878,-0.80233974,-4.4815491,-1.5453036,2.1801459,1.4190111
301,-7.4244202,-0.52325443,2.9328632,-0.82793841,-4.5173614,-1.5476942,2.1745050,1.3557472
302,-7.3252775,-0.53009672,2.8949397,-0.85165298,-4.5474100,-1.5483936,2.1669540,1.2932022
303,-7.2211242,-0.53603564,2.8549925,-0.87347653,-4.5717107,-1.5474261,2.1575115,1.2314450
304,-7.1121845,-0.54109011,2.8130996,-0.89340531,-4.5902881,-1.5448176,2.1461990,1.1705425
305,-6.9986874,-0.54527969,2.7693417,-0.91143871,-4.6031751,-1.5405960,2.1330407,1.1105599
306,-6.8808660,-0.54862449,2.7238021,-0.92757926,-4.6104128,-1.5347908,2.1180637,1.0515604
307,-6.7589568,-0.55114510,2.6765665,-0.94183262,-4.6120507,-1.5274331,2.1012977,0.99360494
308,-6.6331997,-0.55286256,2.6277226,-0.95420756,-4.6081463,-1.5185558,2.0827752,0.93675247
309,-6.5038370,-0.55379825,2.5773602,-0.96471590,-4.5987651,-1.5081932,2.0625309,0.88105946
310,-6.3711132,-0.55397389,2.5255707,-0.97337252,-4.5839803,-1.4963810,2.0406024,0.82657998
311,-6.2352742,-0.55341141,2.4724469,-0.98019528,-4.5638726,-1.4831563,2.0170293,0.77336557
312,-6.0965669,-0.55213293,2.4180832,-0.98520499,-4.5385301,-1.4685574,1.9918538,0.72146514
313,-5.9552386,-0.55016071,2.3625749,-0.98842535,-4.5080481,-1.4526240,1.9651201,0.67092492
314,-5.8115366,-0.54751704,2.3060180,-0.98988289,-4.4725289,-1.4353966,1.9368746,0.62178833
315,-5.6657075,-0.54422422,2.2485095,-0.98960689,-4.4320815,-1.4169170,1.9071655,0.57409594
316,-5.5179970,-0.54030449,2.1901466,-0.98762933,-4.3868212,-1.3972278,1.8760433,0.52788540
317,-5.3686490,-0.53577998,2.1310266,-0.98398481,-4.3368696,-1.3763725,1.8435599,0.48319139
318,-5.2179053,-0.53067264,2.0712470,-0.97871043,-4.2823542,-1.3543952,1.8097690,0.44004555
319,-5.0660051,-0.52500418,2.0109049,-0.97184576,-4.2234081,-1.3313408,1.7747259,0.39847644
320,-4.9131847,-0.51879604,1.9500971,-0.96343269,-4.1601698,-1.3072548,1.7384872,0.35850952
321,-4.7596767,-0.51206932,1.8889197,-0.95351538,-4.0927829,-1.2821832,1.7011110,0.32016711
322,-4.6057098,-0.50484475,1.8274679,-0.94214012,-4.0213954,-1.2561722,1.6626563,0.28346835
323,-4.4515083,-0.49714262,1.7658357,-0.92935522,-3.9461601,-1.2292684,1.6231835,0.24842923
324,-4.2972914,-0.48898275,1.7041160,-0.91521096,-3.8672337,-1.2015188,1.5827536,0.21506252
325,-4.1432735,-0.48038442,1.6424003,-0.89975940,-3.7847766,-1.1729703,1.5414287,0.18337785
326,-3.9896630,-0.47136638,1.5807782,-0.88305430,-3.6989526,-1.1436699,1.4992714,0.15338163
327,-3.8366626,-0.46194675,1.5193376,-0.86515098,-3.6099287,-1.1136645,1.4563449,0.12507714
328,-3.6844684,-0.45214306,1.4581643,-0.84610625,-3.5178746,-1.0830011,1.4127127,0.098464505
329,-3.5332700,-0.44197212,1.3973421,-0.82597818,-3.4229621,-1.0517261,1.3684387,0.073540739
330,-3.3832499,-0.43145008,1.3369521,-0.80482609,-3.3253654,-1.0198860,1.3235870,0.050299788
331,-3.2345834,-0.42059233,1.2770732,-0.78271032,-3.2252601,-0.98752660,1.2782216,0.028732566
332,-3.0874383,-0.40941355,1.2177814,-0.75969216,-3.1228232,-0.95469337,1.2324064,0.0088270072
333,-2.9419745,-0.39792761,1.1591500,-0.73583369,-3.0182327,-0.92143125,1.1862052,-0.0094318784
334,-2.7983440,-0.38614760,1.1012492,-0.71119765,-2.9116670,-0.88778455,1.1396813,-0.026061939
335,-2.6566905,-0.37408579,1.0441464,-0.68584730,-2.8033051,-0.85379689,1.0928975,-0.041083813
336,-2.5171494,-0.36175364,0.98790545,-0.65984630,-2.6933256,-0.81951113,1.0459162,-0.054520851
337,-2.3798473,-0.34916177,0.93258715,-0.63325854,-2.5819067,-0.78496933,0.99879888,-0.066399036
338,-2.2449025,-0.33631994,0.87824878,-0.60614806,-2.4692260,-0.75021263,0.95160625,-0.076746894
339,-2.1124244,-0.32323709,0.82494416,-0.57857883,-2.3554598,-0.71528126,0.90439808,-0.085595403
340,-1.9825132,-0.30992129,0.77272352,-0.55061473,-2.2407830,-0.68021441,0.85723304,-0.092977890
341,-1.8552607,-0.29637976,0.72163342,-0.52231929,-2.1253689,-0.64505023,0.81016868,-0.098929932
342,-1.7307493,-0.28261888,0.67171676,-0.49375567,-2.0093883,-0.60982575,0.76326123,-0.10348925
343,-1.6090526,-0.26864421,0.62301264,-0.46498645,-1.8930101,-0.57457683,0.71656558,-0.10669558
344,-1.4902352,-0.25446043,0.57555638,-0.43607355,-1.7764001,-0.53933814,0.67013514,-0.10859059
345,-1.3743527,-0.24007146,0.52937947,-0.40707807,-1.6597214,-0.50414308,0.62402177,-0.10921773
346,-1.2614521,-0.22548039,0.48450957,-0.37806021,-1.5431336,-0.46902378,0.57827568,-0.10862210
347,-1.1515710,-0.21068951,0.44097045,-0.34907911,-1.4267930,-0.43401104,0.53294536,-0.10685038
348,-1.0447389,-0.19570037,0.39878205,-0.32019273,-1.3108519,-0.39913431,0.48807750,-0.10395061
349,-0.94097641,-0.18051378,0.35796047,-0.29145780,-1.1954585,-0.36442164,0.44371691,-0.099972161
350,-0.84029563,-0.16512981,0.31851797,-0.26292961,-1.0807571,-0.32989970,0.39990647,-0.094965513
351,-0.74270049,-0.14954785,0.28046304,-0.23466200,-0.96688694,-0.29559373,0.35668705,-0.088982169
352,-0.64818679,-0.13376664,0.24380039,-0.20670720,-0.85398295,-0.26152749,0.31409746,-0.082074502
353,-0.55674239,-0.11778427,0.20853107,-0.17911576,-0.74217494,-0.22772335,0.27217443,-0.074295618
354,-0.46834748,-0.10159826,0.17465245,-0.15193644,-0.63158767,-0.19420215,0.23095252,-0.065699217
355,-0.38297476,-0.085205548,0.14215836,-0.12521612,-0.52234059,-0.16098330,0.19046408,-0.056339454
356,-0.30058976,-0.068602553,0.11103913,-0.098999759,-0.41454772,-0.12808471,0.15073928,-0.046270803
357,-0.22115104,-0.051785211,0.081281665,-0.073330255,-0.30831747,-0.095522850,0.11180600,-0.035547910
358,-0.14461051,-0.034749015,0.052869584,-0.048248418,-0.20375256,-0.063312685,0.073689868,-0.024225464
359,-0.070913726,-0.017489052,0.025783284,-0.023792885,-0.10094985,-0.031467740,0.036414224,-0.012358054
360,-1.9393546e-07,-4.9095931e-08,7.0107717e-08,-6.5394488e-08,-2.7885300e-07,-8.7217295e-08,1.0032856e-07,-3.5096505e-08
