deg,XRT_AX,XRT_BX,XRT_AY,XRT_BY,SOT_AX,SOT_BX,SOT_AY,SOT_BY
valid,1,1,1,1,1,1,1,1,revB
offset,97.674916,96.908134,1989.8585,1981.6150,27.785723,26.887484,106.74287,98.213603
0,0.0000000,0.0000000,0.0000000,0.0000000,0.0000000,0.0000000,0.0000000,0.0000000
1,0.073612605,0.0051300687,-0.034673102,0.0099420625,0.11877457,0.038379954,-0.039560352,0.0061877193
2,0.14564741,0.010305828,-0.068265324,0.019568839,0.23568456,0.076697852,-0.077930008,0.011705431
3,0.21607953,0.015549327,-0.10078801,0.028868415,0.35060504,0.11489749,-0.11509974,0.016559648
4,0.28488856,0.020882450,-0.13225460,0.037830217,0.46341811,0.15292447,-0.15106364,0.020758714
5,0.35205846,0.026326846,-0.16268055,0.046445016,0.57401309,0.19072629,-0.18581906,0.024312753
6,0.41757749,0.031903863,-0.19208323,0.054704916,0.68228662,0.22825246,-0.21936657,0.027233611
7,0.48143813,0.037634483,-0.22048182,0.062603343,0.78814276,0.26545458,-0.25170991,0.029534791
8,0.54363700,0.043539253,-0.24789724,0.070135037,0.89149311,0.30228642,-0.28285591,0.031231392
9,0.60417469,0.049638231,-0.27435200,0.077296031,0.99225682,0.33870397,-0.31281438,0.032340038
10,0.66305574,0.055950919,-0.29987015,0.084083632,1.0903607,0.37466557,-0.34159810,0.032878805
11,0.72028841,0.062496210,-0.32447712,0.090496402,1.1857391,0.41013192,-0.36922265,0.032867147
12,0.77588466,0.069292331,-0.34819964,0.096534128,1.2783343,0.44506615,-0.39570637,0.032325818
13,0.82985991,0.076356792,-0.37106560,0.10219780,1.3680960,0.47943387,-0.42107023,0.031276790
14,0.88223298,0.083706333,-0.39310399,0.10748958,1.4549815,0.51320323,-0.44533772,0.029743173
15,0.93302589,0.091356883,-0.41434471,0.11241275,1.5389558,0.54634492,-0.46853473,0.027749126
16,0.98226371,0.099323508,-0.43481850,0.11697171,1.6199914,0.57883224,-0.49068944,0.025319776
17,1.0299744,0.10762038,-0.45455683,0.12117193,1.6980683,0.61064106,-0.51183220,0.022481124
18,1.0761888,0.11626073,-0.47359174,0.12501988,1.7731736,0.64174992,-0.53199536,0.019259960
19,1.1209399,0.12525681,-0.49195576,0.12852304,1.8453018,0.67213996,-0.55121318,0.015683769
20,1.1642637,0.13461988,-0.50968179,0.13168979,1.9144544,0.70179495,-0.56952165,0.011780643
21,1.2061978,0.14436018,-0.52680294,0.13452945,1.9806398,0.73070131,-0.58695838,0.0075791890
22,1.2467823,0.15448687,-0.54335249,0.13705215,2.0438734,0.75884805,-0.60356243,0.0031084340
23,1.2860588,0.16500804,-0.55936371,0.13926884,2.1041767,0.78622678,-0.61937418,-0.0016022624
24,1.3240709,0.17593071,-0.57486977,0.14119122,2.1615782,0.81283166,-0.63443515,-0.0065233017
25,1.3608633,0.18726076,-0.58990365,0.14283168,2.2161119,0.83865940,-0.64878789,-0.011624937
26,1.3964825,0.19900298,-0.60449801,0.14420327,2.2678184,0.86370921,-0.66247577,-0.016877362
27,1.4309757,0.21116102,-0.61868506,0.14531961,2.3167436,0.88798272,-0.67554288,-0.022250802
28,1.4643911,0.22373742,-0.63249653,0.14619491,2.3629390,0.91148397,-0.68803384,-0.027715598
29,1.4967779,0.23673358,-0.64596351,0.14684382,2.4064613,0.93421934,-0.69999365,-0.033242294
30,1.5281857,0.25014978,-0.65911637,0.14728148,2.4473723,0.95619748,-0.71146754,-0.038801724
31,1.5586646,0.26398521,-0.67198466,0.14752338,2.4857384,0.97742925,-0.72250083,-0.044365087
32,1.5882647,0.27823791,-0.68459706,0.14758534,2.5216302,0.99792764,-0.73313874,-0.049904035
33,1.6170364,0.29290489,-0.69698125,0.14748349,2.5551229,1.0177077,-0.74342628,-0.055390743
34,1.6450299,0.30798204,-0.70916386,0.14723416,2.5862949,1.0367864,-0.75340806,-0.060797986
35,1.6722952,0.32346424,-0.72117037,0.14685386,2.6152287,1.0551827,-0.76312820,-0.066099214
36,1.6988817,0.33934532,-0.73302507,0.14635924,2.6420097,1.0729173,-0.77263012,-0.071268613
37,1.7248385,0.35561812,-0.74475097,0.14576700,2.6667263,1.0900126,-0.78195647,-0.076281177
38,1.7502136,0.37227451,-0.75636977,0.14509386,2.6894693,1.1064925,-0.79114892,-0.081112766
39,1.7750545,0.38930545,-0.76790175,0.14435655,2.7103322,1.1223824,-0.80024810,-0.085740165
40,1.7994075,0.40670097,-0.77936578,0.14357170,2.7294101,1.1377094,-0.80929343,-0.090141140
41,1.8233177,0.42445026,-0.79077926,0.14275582,2.7467999,1.1525015,-0.81832301,-0.094294484
42,1.8468291,0.44254169,-0.80215806,0.14192527,2.7625998,1.1667880,-0.82737350,-0.098180069
43,1.8699843,0.46096284,-0.81351650,0.14109620,2.7769091,1.1805993,-0.83648003,-0.10177889
44,1.8928242,0.47970060,-0.82486733,0.14028450,2.7898277,1.1939667,-0.84567605,-0.10507308
45,1.9153885,0.49874113,-0.83622170,0.13950581,2.8014560,1.2069223,-0.85499329,-0.10804599
46,1.9377149,0.51807000,-0.84758915,0.13877539,2.8118945,1.2194991,-0.86446162,-0.11068217
47,1.9598396,0.53767216,-0.85897760,0.13810820,2.8212435,1.2317304,-0.87410899,-0.11296744
48,1.9817966,0.55753207,-0.87039334,0.13751877,2.8296029,1.2436501,-0.88396133,-0.11488886
49,2.0036185,0.57763368,-0.88184103,0.13702122,2.8370716,1.2552925,-0.89404250,-0.11643479
50,2.0253356,0.59796055,-0.89332372,0.13662922,2.8437479,1.2666922,-0.90437422,-0.11759487
51,2.0469762,0.61849587,-0.90484286,0.13635593,2.8497282,1.2778838,-0.91497601,-0.11836007
52,2.0685666,0.63922251,-0.91639831,0.13621406,2.8551079,1.2889019,-0.92586514,-0.11872263
53,2.0901312,0.66012310,-0.92798836,0.13621574,2.8599802,1.2997812,-0.93705660,-0.11867613
54,2.1116920,0.68118008,-0.93960978,0.13637260,2.8644365,1.3105558,-0.94856302,-0.11821543
55,2.1332691,0.70237576,-0.95125784,0.13669566,2.8685657,1.3212599,-0.96039472,-0.11733667
56,2.1548803,0.72369238,-0.96292634,0.13719541,2.8724543,1.3319270,-0.97255963,-0.11603728
57,2.1765414,0.74511213,-0.97460766,0.13788171,2.8761861,1.3425902,-0.98506331,-0.11431594
58,2.1982660,0.76661729,-0.98629285,0.13876384,2.8798419,1.3532818,-0.99790893,-0.11217255
59,2.2200656,0.78819021,-0.99797161,0.13985047,2.8834995,1.3640335,-1.0110973,-0.10960824
60,2.2419496,0.80981340,-1.0096324,0.14114965,2.8872334,1.3748760,-1.0246268,-0.10662531
61,2.2639256,0.83146957,-1.0212625,0.14266882,2.8911148,1.3858394,-1.0384936,-0.10322717
62,2.2859988,0.85314172,-1.0328480,0.14441481,2.8952111,1.3969524,-1.0526915,-0.099418379
63,2.3081728,0.87481315,-1.0443740,0.14639382,2.8995862,1.4082427,-1.0672119,-0.095204525
64,2.3304491,0.89646754,-1.0558247,0.14861146,2.9043001,1.4197371,-1.0820441,-0.090592227
65,2.3528274,0.91808897,-1.0671831,0.15107273,2.9094090,1.4314607,-1.0971752,-0.085589071
66,2.3753056,0.93966202,-1.0784318,0.15378203,2.9149652,1.4434376,-1.1125902,-0.080203560
67,2.3978801,0.96117176,-1.0895521,0.15674319,2.9210166,1.4556904,-1.1282720,-0.074445063
68,2.4205455,0.98260383,-1.1005252,0.15995948,2.9276073,1.4682401,-1.1442014,-0.068323760
69,2.4432949,1.0039445,-1.1113314,0.16343358,2.9347773,1.4811064,-1.1603575,-0.061850578
70,2.4661200,1.0251806,-1.1219505,0.16716768,2.9425621,1.4943074,-1.1767174,-0.055037137
71,2.4890113,1.0462997,-1.1323621,0.17116343,2.9509933,1.5078595,-1.1932566,-0.047895682
72,2.5119578,1.0672902,-1.1425452,0.17542199,2.9600982,1.5217775,-1.2099488,-0.040439023
73,2.5349477,1.0881409,-1.1524789,0.17994403,2.9699001,1.5360745,-1.2267663,-0.032680466
74,2.5579678,1.1088418,-1.1621419,0.18472981,2.9804180,1.5507620,-1.2436798,-0.024633749
75,2.5810044,1.1293835,-1.1715130,0.18977912,2.9916667,1.5658496,-1.2606590,-0.016312969
76,2.6040428,1.1497574,-1.1805710,0.19509139,3.0036574,1.5813452,-1.2776719,-0.0077325201
77,2.6270676,1.1699557,-1.1892949,0.20066568,3.0163969,1.5972551,-1.2946857,0.0010929826
78,2.6500630,1.1899716,-1.1976640,0.20650067,3.0298885,1.6135836,-1.3116667,0.010148769
79,2.6730127,1.2097992,-1.2056577,0.21259479,3.0441315,1.6303334,-1.3285802,0.019419985
80,2.6959000,1.2294334,-1.2132560,0.21894614,3.0591216,1.6475054,-1.3453907,0.028891761
81,2.7187081,1.2488699,-1.2204393,0.22555261,3.0748509,1.6650987,-1.3620622,0.038549284
82,2.7414203,1.2681055,-1.2271888,0.23241185,3.0913084,1.6831108,-1.3785584,0.048377864
83,2.7640196,1.2871379,-1.2334860,0.23952135,3.1084796,1.7015374,-1.3948423,0.058363001
84,2.7864895,1.3059655,-1.2393136,0.24687843,3.1263468,1.7203726,-1.4108771,0.068490455
85,2.8088137,1.3245878,-1.2446547,0.25448030,3.1448896,1.7396087,-1.4266256,0.078746310
86,2.8309762,1.3430050,-1.2494935,0.26232411,3.1640847,1.7592366,-1.4420509,0.089117034
87,2.8529618,1.3612184,-1.2538153,0.27040692,3.1839064,1.7792456,-1.4571162,0.099589547
88,2.8747556,1.3792300,-1.2576062,0.27872581,3.2043262,1.7996234,-1.4717850,0.11015128
89,2.8963437,1.3970426,-1.2608536,0.28727784,3.2253139,1.8203562,-1.4860214,0.12079023
90,2.9177131,1.4146600,-1.2635460,0.29606015,3.2468369,1.8414291,-1.4997899,0.13149501
91,2.9388515,1.4320866,-1.2656731,0.30506993,3.2688610,1.8628255,-1.5130560,0.14225492
92,2.9597478,1.4493276,-1.2672258,0.31430450,3.2913503,1.8845278,-1.5257858,0.15305998
93,2.9803922,1.4663891,-1.2681967,0.32376130,3.3142677,1.9065170,-1.5379466,0.16390098
94,3.0007759,1.4832778,-1.2685792,0.33343795,3.3375747,1.9287732,-1.5495067,0.17476954
95,3.0208914,1.5000009,-1.2683686,0.34333226,3.3612320,1.9512753,-1.5604355,0.18565813
96,3.0407329,1.5165665,-1.2675614,0.35344224,3.3851996,1.9740013,-1.5707040,0.19656011
97,3.0602958,1.5329830,-1.2661557,0.36376618,3.4094369,1.9969282,-1.5802844,0.20746977
98,3.0795769,1.5492596,-1.2641509,0.37430261,3.4339032,2.0200323,-1.5891505,0.21838238
99,3.0985750,1.5654058,-1.2615482,0.38505036,3.4585574,2.0432892,-1.5972780,0.22929416
100,3.1172902,1.5814316,-1.2583501,0.39600855,3.4833589,2.0666739,-1.6046441,0.24020237
101,3.1357243,1.5973474,-1.2545607,0.40717666,3.5082672,2.0901607,-1.6112277,0.25110528
102,3.1538809,1.6131640,-1.2501856,0.41855449,3.5332426,2.1137237,-1.6170101,0.26200221
103,3.1717653,1.6288922,-1.2452321,0.43014220,3.5582460,2.1373364,-1.6219740,0.27289353
104,3.1893846,1.6445435,-1.2397089,0.44194033,3.5832394,2.1609723,-1.6261047,0.28378066
105,3.2067475,1.6601292,-1.2336262,0.45394978,3.6081860,2.1846045,-1.6293894,0.29466609
106,3.2238646,1.6756607,-1.2269958,0.46617186,3.6330503,2.2082063,-1.6318174,0.30555337
107,3.2407483,1.6911497,-1.2198307,0.47860827,3.6577984,2.2317508,-1.6333804,0.31644707
108,3.2574126,1.7066077,-1.2121458,0.49126110,3.6823981,2.2552113,-1.6340723,0.32735285
109,3.2738733,1.7220462,-1.2039569,0.50413285,3.7068191,2.2785614,-1.6338895,0.33827735
110,3.2901480,1.7374766,-1.1952816,0.51722642,3.7310333,2.3017749,-1.6328304,0.34922825
111,3.3062557,1.7529099,-1.1861385,0.53054508,3.7550147,2.3248260,-1.6308963,0.36021418
112,3.3222174,1.7683571,-1.1765477,0.54409253,3.7787396,2.3476895,-1.6280903,0.37124475
113,3.3380553,1.7838289,-1.1665303,0.55787283,3.8021869,2.3703408,-1.6244184,0.38233048
114,3.3537933,1.7993352,-1.1561087,0.57189042,3.8253381,2.3927556,-1.6198888,0.39348278
115,3.3694566,1.8148861,-1.1453065,0.58615010,3.8481774,2.4149108,-1.6145119,0.40471392
116,3.3850721,1.8304906,-1.1341480,0.60065702,3.8706917,2.4367840,-1.6083008,0.41603695
117,3.4006674,1.8461576,-1.1226587,0.61541666,3.8928711,2.4583535,-1.6012709,0.42746570
118,3.4162718,1.8618951,-1.1108649,0.63043479,3.9147082,2.4795987,-1.5934396,0.43901469
119,3.4319156,1.8777106,-1.0987937,0.64571750,3.9361992,2.5005001,-1.5848270,0.45069910
120,3.4476297,1.8936107,-1.0864730,0.66127114,3.9573428,2.5210393,-1.5754552,0.46253472
121,3.4634465,1.9096014,-1.0739311,0.67710228,3.9781413,2.5411989,-1.5653486,0.47453786
122,3.4793986,1.9256877,-1.0611970,0.69321773,3.9985999,2.5609630,-1.5545335,0.48672531
123,3.4955196,1.9418740,-1.0483002,0.70962446,4.0187269,2.5803168,-1.5430385,0.49911426
124,3.5118434,1.9581634,-1.0352703,0.72632961,4.0385338,2.5992468,-1.5308940,0.51172224
125,3.5284044,1.9745584,-1.0221375,0.74334043,4.0580354,2.6177409,-1.5181324,0.52456706
126,3.5452374,1.9910601,-1.0089319,0.76066426,4.0772492,2.6357886,-1.5047879,0.53766672
127,3.5623769,2.0076690,-0.99568365,0.77830849,4.0961961,2.6533806,-1.4908964,0.55103934
128,3.5798577,2.0243840,-0.98242299,0.79628050,4.1148997,2.6705092,-1.4764954,0.56470308
129,3.5977144,2.0412034,-0.96917993,0.81458767,4.1333868,2.6871681,-1.4616238,0.57867608
130,3.6159810,2.0581239,-0.95598424,0.83323730,4.1516868,2.7033527,-1.4463220,0.59297635
131,3.6346914,2.0751414,-0.94286533,0.85223657,4.1698318,2.7190598,-1.4306318,0.60762174
132,3.6538785,2.0922502,-0.92985217,0.87159252,4.1878566,2.7342878,-1.4145959,0.62262979
133,3.6735748,2.1094438,-0.91697315,0.89131197,4.2057987,2.7490365,-1.3982582,0.63801771
134,3.6938114,2.1267142,-0.90425601,0.91140154,4.2236975,2.7633075,-1.3816634,0.65380227
135,3.7146187,2.1440522,-0.89172772,0.93186751,4.2415949,2.7771036,-1.3648571,0.66999972
136,3.7360255,2.1614472,-0.87941440,0.95271588,4.2595350,2.7904295,-1.3478853,0.68662573
137,3.7580596,2.1788877,-0.86734119,0.97395223,4.2775633,2.8032912,-1.3307948,0.70369527
138,3.7807467,2.1963606,-0.85553219,0.99558175,4.2957275,2.8156960,-1.3136324,0.72122257
139,3.8041112,2.2138517,-0.84401034,1.0176091,4.3140766,2.8276530,-1.2964454,0.73922101
140,3.8281755,2.2313454,-0.83279736,1.0400386,4.3326609,2.8391725,-1.2792811,0.75770307
141,3.8529599,2.2488249,-0.82191362,1.0628737,4.3515318,2.8502662,-1.2621865,0.77668023
142,3.8784827,2.2662723,-0.81137807,1.0861176,4.3707418,2.8609472,-1.2452085,0.79616292
143,3.9047596,2.2836684,-0.80120819,1.1097725,4.3903439,2.8712297,-1.2283937,0.81616042
144,3.9318042,2.3009926,-0.79141987,1.1338402,4.4103917,2.8811293,-1.2117881,0.83668083
145,3.9596273,2.3182235,-0.78202736,1.1583216,4.4309388,2.8906627,-1.1954369,0.85773094
146,3.9882370,2.3353382,-0.77304317,1.1832168,4.4520390,2.8998478,-1.1793847,0.87931624
147,4.0176388,2.3523130,-0.76447806,1.2085253,4.4737459,2.9087033,-1.1636749,0.90144081
148,4.0478349,2.3691228,-0.75634093,1.2342455,4.4961124,2.9172490,-1.1483499,0.92410726
149,4.0788247,2.3857419,-0.74863877,1.2603750,4.5191908,2.9255056,-1.1334508,0.94731672
150,4.1106044,2.4021431,-0.74137663,1.2869104,4.5430324,2.9334946,-1.1190174,0.97106874
151,4.1431669,2.4182987,-0.73455758,1.3138474,4.5676873,2.9412382,-1.1050877,0.99536125
152,4.1765019,2.4341799,-0.72818262,1.3411807,4.5932040,2.9487593,-1.0916984,1.0201905
153,4.2105954,2.4497570,-0.72225071,1.3689040,4.6196293,2.9560811,-1.0788841,1.0455512
154,4.2454302,2.4649997,-0.71675869,1.3970099,4.6470082,2.9632276,-1.0666777,1.0714361
155,4.2809855,2.4798770,-0.71170129,1.4254898,4.6753831,2.9702230,-1.0551099,1.0978364
156,4.3172367,2.4943569,-0.70707111,1.4543342,4.7047943,2.9770917,-1.0442092,1.1247414
157,4.3541558,2.5084074,-0.70285858,1.4835323,4.7352792,2.9838584,-1.0340021,1.1521386
158,4.3917111,2.5219954,-0.69905199,1.5130722,4.7668722,2.9905478,-1.0245126,1.1800138
159,4.4298669,2.5350877,-0.69563749,1.5429410,4.7996046,2.9971845,-1.0157621,1.2083507
160,4.4685843,2.5476507,-0.69259907,1.5731244,4.8335045,3.0037932,-1.0077696,1.2371314
161,4.5078201,2.5596504,-0.68991860,1.6036069,4.8685960,3.0103981,-1.0005514,1.2663361
162,4.5475279,2.5710526,-0.68757585,1.6343720,4.9048995,3.0170232,-0.99412120,1.2959432
163,4.5876573,2.5818230,-0.68554850,1.6654018,4.9424316,3.0236922,-0.98848978,1.3259292
164,4.6281543,2.5919273,-0.68381219,1.6966773,4.9812045,3.0304279,-0.98366514,1.3562688
165,4.6689613,2.6013311,-0.68234056,1.7281784,5.0212259,3.0372529,-0.97965237,1.3869348
166,4.7100171,2.6100003,-0.68110529,1.7598836,5.0624991,3.0441887,-0.97645361,1.4178985
167,4.7512570,2.6179008,-0.68007615,1.7917704,5.1050227,3.0512561,-0.97406802,1.4491292
168,4.7926128,2.6249988,-0.67922107,1.8238149,5.1487902,3.0584752,-0.97249175,1.4805947
169,4.8340131,2.6312611,-0.67850621,1.8559922,5.1937903,3.0658647,-0.97171791,1.5122609
170,4.8753829,2.6366546,-0.67789598,1.8882763,5.2400065,3.0734423,-0.97173655,1.5440922
171,4.9166444,2.6411471,-0.67735320,1.9206400,5.2874171,3.0812248,-0.97253469,1.5760515
172,4.9577165,2.6447067,-0.67683911,1.9530550,5.3359950,3.0892273,-0.97409628,1.6081002
173,4.9985152,2.6473024,-0.67631349,1.9854919,5.3857077,3.0974637,-0.97640225,1.6401980
174,5.0389538,2.6489041,-0.67573474,2.0179204,5.4365172,3.1059464,-0.97943049,1.6723034
175,5.0789429,2.6494822,-0.67506001,2.0503091,5.4883800,3.1146864,-0.98315594,1.7043737
176,5.1183904,2.6490086,-0.67424525,2.0826257,5.5412472,3.1236931,-0.98755055,1.7363646
177,5.1572021,2.6474557,-0.67324534,2.1148368,5.5950639,3.1329739,-0.99258341,1.7682310
178,5.1952816,2.6447974,-0.67201422,2.1469083,5.6497700,3.1425349,-0.99822075,1.7999264
179,5.2325304,2.6410088,-0.67050497,2.1788053,5.7052997,3.1523802,-1.0044260,1.8314035
180,5.2688482,2.6360659,-0.66866997,2.2104920,5.7615817,3.1625121,-1.0111599,1.8626140
181,5.3041331,2.6299466,-0.66646097,2.2419319,5.8185391,3.1729309,-1.0183807,1.8935089
182,5.3382819,2.6226298,-0.66382926,2.2730879,5.8760896,3.1836351,-1.0260438,1.9240383
183,5.3711900,2.6140961,-0.66072577,2.3039222,5.9341457,3.1946213,-1.0341024,1.9541519
184,5.4027520,2.6043277,-0.65710122,2.3343964,5.9926144,3.2058837,-1.0425074,1.9837986
185,5.4328616,2.5933082,-0.65290624,2.3644718,6.0513979,3.2174150,-1.0512073,2.0129271
186,5.4614121,2.5810231,-0.64809149,2.3941090,6.1103930,3.2292055,-1.0601485,2.0414857
187,5.4882962,2.5674597,-0.64260784,2.4232686,6.1694920,3.2412434,-1.0692757,2.0694226
188,5.5134070,2.5526069,-0.63640645,2.4519106,6.2285823,3.2535152,-1.0785315,2.0966859
189,5.5366373,2.5364556,-0.62943895,2.4799949,6.2875467,3.2660048,-1.0878567,2.1232235
190,5.5578806,2.5189985,-0.62165758,2.5074812,6.3462640,3.2786945,-1.0971908,2.1489839
191,5.5770311,2.5002302,-0.61301527,2.5343293,6.4046086,3.2915642,-1.1064718,2.1739154
192,5.5939836,2.4801475,-0.60346586,2.5604988,6.4624511,3.3045919,-1.1156363,2.1979670
193,5.6086345,2.4587491,-0.59296417,2.5859496,6.5196584,3.3177536,-1.1246199,2.2210881
194,5.6208812,2.4360356,-0.58146618,2.6106414,6.5760941,3.3310231,-1.1333574,2.2432286
195,5.6306230,2.4120098,-0.56892912,2.6345346,6.6316187,3.3443726,-1.1417825,2.2643392
196,5.6377611,2.3866767,-0.55531164,2.6575896,6.6860897,3.3577721,-1.1498287,2.2843717
197,5.6421989,2.3600432,-0.54057395,2.6797673,6.7393620,3.3711898,-1.1574287,2.3032784
198,5.6438420,2.3321185,-0.52467788,2.7010290,6.7912885,3.3845920,-1.1645152,2.3210131
199,5.6425989,2.3029137,-0.50758710,2.7213368,6.8417199,3.3979434,-1.1710207,2.3375306
200,5.6383809,2.2724422,-0.48926717,2.7406533,6.8905053,3.4112069,-1.1768779,2.3527870
201,5.6311026,2.2407195,-0.46968566,2.7589416,6.9374927,3.4243438,-1.1820198,2.3667399
202,5.6206817,2.2077633,-0.44881233,2.7761660,6.9825289,3.4373139,-1.1863797,2.3793484
203,5.6070398,2.1735932,-0.42661916,2.7922914,7.0254603,3.4500755,-1.1898918,2.3905732
204,5.5901022,2.1382311,-0.40308050,2.8072838,7.0661329,3.4625855,-1.1924910,2.4003767
205,5.5697983,2.1017008,-0.37817318,2.8211102,7.1043929,3.4747995,-1.1941132,2.4087233
206,5.5460618,2.0640283,-0.35187657,2.8337387,7.1400869,3.4866720,-1.1946955,2.4155792
207,5.5188308,2.0252415,-0.32417268,2.8451386,7.1730623,3.4981563,-1.1941766,2.4209127
208,5.4880483,1.9853702,-0.29504629,2.8552805,7.2031679,3.5092050,-1.1924965,2.4246942
209,5.4536619,1.9444465,-0.26448496,2.8641362,7.2302541,3.5197694,-1.1895971,2.4268963
210,5.4156246,1.9025039,-0.23247913,2.8716791,7.2541730,3.5298004,-1.1854220,2.4274938
211,5.3738942,1.8595781,-0.19902223,2.8778840,7.2747793,3.5392481,-1.1799171,2.4264639
212,5.3284343,1.8157064,-0.16411067,2.8827272,7.2919304,3.5480622,-1.1730303,2.4237865
213,5.2792138,1.7709281,-0.12774392,2.8861865,7.3054867,3.5561918,-1.1647122,2.4194437
214,5.2262075,1.7252837,-0.089924597,2.8882416,7.3153122,3.5635860,-1.1549157,2.4134201
215,5.1693959,1.6788158,-0.050658431,2.8888737,7.3212747,3.5701936,-1.1435964,2.4057033
216,5.1087655,1.6315681,-0.0099543525,2.8880659,7.3232462,3.5759635,-1.1307130,2.3962832
217,5.0443088,1.5835862,0.032175504,2.8858031,7.3211033,3.5808446,-1.1162268,2.3851526
218,4.9760245,1.5349167,0.075715782,2.8820720,7.3147275,3.5847862,-1.1001025,2.3723070
219,4.9039176,1.4856078,0.12064789,2.8768613,7.3040056,3.5877379,-1.0823078,2.3577448
220,4.8279993,1.4357086,0.16695000,2.8701616,7.2888300,3.5896499,-1.0628141,2.3414672
221,4.7482873,1.3852697,0.21459706,2.8619655,7.2690992,3.5904731,-1.0415958,2.3234780
222,4.6648056,1.3343424,0.26356079,2.8522675,7.2447176,3.5901592,-1.0186312,2.3037841
223,4.5775847,1.2829792,0.31380973,2.8410645,7.2155967,3.5886606,-0.99390217,2.2823953
224,4.4866617,1.2312334,0.36530924,2.8283551,7.1816543,3.5859312,-0.96739419,2.2593242
225,4.3920799,1.1791589,0.41802157,2.8141403,7.1428158,3.5819258,-0.93909667,2.2345861
226,4.2938893,1.1268105,0.47190585,2.7984229,7.0990139,3.5766007,-0.90900286,2.2081995
227,4.1921462,1.0742435,0.52691822,2.7812081,7.0501887,3.5699136,-0.87710994,2.1801855
228,4.0869134,1.0215135,0.58301180,2.7625031,6.9962888,3.5618238,-0.84341908,2.1505681
229,3.9782600,0.96867668,0.64013684,2.7423174,6.9372703,3.5522924,-0.80793547,2.1193740
230,3.8662615,0.91578931,0.69824073,2.7206624,6.8730982,3.5412823,-0.77066832,2.0866329
231,3.7509993,0.86290791,0.75726811,2.6975518,6.8037457,3.5287583,-0.73163095,2.0523769
232,3.6325614,0.81008899,0.81716096,2.6730015,6.7291949,3.5146875,-0.69084072,2.0166410
233,3.5110414,0.75738903,0.87785870,2.6470294,6.6494367,3.4990390,-0.64831908,1.9794627
234,3.3865390,0.70486434,0.93929825,2.6196555,6.5644711,3.4817843,-0.60409156,1.9408821
235,3.2591596,0.65257093,1.0014142,2.5909019,6.4743073,3.4628973,-0.55818771,1.9009419
236,3.1290142,0.60056448,1.0641388,2.5607928,6.3789634,3.4423543,-0.51064112,1.8596870
237,2.9962194,0.54890015,1.1274023,2.5293544,6.2784672,3.4201344,-0.46148933,1.8171648
238,2.8608968,0.49763254,1.1911329,2.4966149,6.1728557,3.3962192,-0.41077381,1.7734249
239,2.7231734,0.44681554,1.2552569,2.4626044,6.0621754,3.3705933,-0.35853991,1.7285192
240,2.5831809,0.39650229,1.3196988,2.4273550,5.9464822,3.3432439,-0.30483677,1.6825014
241,2.4410558,0.34674501,1.3843816,2.3909007,5.8258412,3.3141613,-0.24971723,1.6354275
242,2.2969392,0.29759496,1.4492268,2.3532770,5.7003274,3.2833386,-0.19323778,1.5873552
243,2.1509762,0.24910230,1.5141546,2.3145217,5.5700247,3.2507722,-0.13545843,1.5383440
244,2.0033161,0.20131605,1.5790840,2.2746738,5.4350265,3.2164613,-0.076442609,1.4884552
245,1.8541120,0.15428394,1.6439331,2.2337742,5.2954354,3.1804085,-0.016257070,1.4377514
246,1.7035204,0.10805237,1.7086190,2.1918653,5.1513631,3.1426195,0.045028257,1.3862969
247,1.5517011,0.062666299,1.7730583,2.1489911,5.0029301,3.1031030,0.10734038,1.3341572
248,1.3988171,0.018169182,1.8371669,2.1051969,4.8502661,3.0618711,0.17060340,1.2813989
249,1.2450336,-0.025397125,1.9008604,2.0605295,4.6935090,3.0189393,0.23473865,1.2280898
250,1.0905188,-0.067992428,1.9640544,2.0150369,4.5328054,2.9743261,0.29966482,1.1742985
251,0.93544259,-0.10957827,2.0266642,1.9687682,4.3683100,2.9280532,0.36529819,1.1200947
252,0.77997696,-0.15011800,2.0886054,1.9217740,4.2001858,2.8801458,0.43155271,1.0655483
253,0.62429530,-0.18957682,2.1497938,1.8741054,4.0286033,2.8306321,0.49834024,1.0107301
254,0.46857226,-0.22792187,2.2101459,1.8258149,3.8537404,2.7795437,0.56557071,0.95571117
255,0.31298340,-0.26512226,2.2695786,1.7769557,3.6757826,2.7269152,0.63315226,0.90056282
256,0.15770487,-0.30114914,2.3280098,1.7275817,3.4949219,2.6727844,0.70099152,0.84535649
257,0.0029131348,-0.33597571,2.3853583,1.6777475,3.3113570,2.6171922,0.76899370,0.79016361
258,-0.15121540,-0.36957730,2.4415440,1.6275084,3.1252930,2.5601826,0.83706286,0.73505544
259,-0.30450466,-0.40193139,2.4964883,1.5769200,2.9369408,2.5018024,0.90510210,0.68010294
260,-0.45677922,-0.43301764,2.5501139,1.5260385,2.7465167,2.4421015,0.97301371,0.62537664
261,-0.60786467,-0.46281790,2.6023451,1.4749202,2.5542424,2.3811325,1.0406994,0.57094648
262,-0.75758784,-0.49131628,2.6531082,1.4236217,2.3603440,2.3189509,1.1080607,0.51688170
263,-0.90577722,-0.51849911,2.7023312,1.3721997,2.1650523,2.2556147,1.1749987,0.46325071
264,-1.0522632,-0.54435497,2.7499443,1.3207108,1.9686017,2.1911847,1.2414147,0.41012090
265,-1.1968783,-0.56887473,2.7958798,1.2692115,1.7712305,2.1257238,1.3072103,0.35755861
266,-1.3394576,-0.59205151,2.8400725,1.2177583,1.5731797,2.0592977,1.3722875,0.30562888
267,-1.4798392,-0.61388068,2.8824597,1.1664071,1.3746930,1.9919741,1.4365491,0.25439545
268,-1.6178640,-0.63435987,2.9229811,1.1152137,1.1760165,1.9238229,1.4998987,0.20392054
269,-1.7533764,-0.65348895,2.9615793,1.0642331,0.97739761,1.8549160,1.5622409,0.15426479
270,-1.8862246,-0.67127001,2.9981999,1.0135200,0.77908535,1.7853272,1.6234819,0.10548710
271,-2.0162605,-0.68770734,3.0327910,0.96312828,0.58132932,1.7151320,1.6835291,0.057644583
272,-2.1433404,-0.70280737,3.0653043,0.91311096,0.38437946,1.6444076,1.7422917,0.010792381
273,-2.2673251,-0.71657871,3.0956943,0.86352032,0.18848554,1.5732326,1.7996808,-0.035016377
274,-2.3880798,-0.72903204,3.1239189,0.81440764,-0.0061033055,1.5016870,1.8556097,-0.079730700
275,-2.5054748,-0.74018009,3.1499393,0.76582317,-0.19913908,1.4298518,1.9099939,-0.12330182
276,-2.6193858,-0.75003763,3.1737200,0.71781602,-0.39037537,1.3578092,1.9627511,-0.16568329
277,-2.7296935,-0.75862137,3.1952292,0.67043408,-0.57956784,1.2856422,2.0138021,-0.20683104
278,-2.8362842,-0.76594992,3.2144385,0.62372398,-0.76647468,1.2134345,2.0630700,-0.24670350
279,-2.9390504,-0.77204375,3.2313231,0.57773095,-0.95085707,1.1412703,2.1104812,-0.28526161
280,-3.0378899,-0.77692511,3.2458617,0.53249880,-1.1324797,1.0692344,2.1559650,-0.32246895
281,-3.1327072,-0.78061798,3.2580370,0.48806982,-1.3111110,0.99741156,2.1994542,-0.35829174
282,-3.2234126,-0.78314796,3.2678350,0.44448474,-1.4865241,0.92588666,2.2408848,-0.39269894
283,-3.3099231,-0.78454226,3.2752458,0.40178263,-1.6584965,0.85474454,2.2801962,-0.42566228
284,-3.3921622,-0.78482958,3.2802630,0.36000087,-1.8268112,0.78406971,2.3173319,-0.45715629
285,-3.4700598,-0.78404004,3.2828840,0.31917507,-1.9912567,0.71394628,2.3522387,-0.48715835
286,-3.5435529,-0.78220510,3.2831098,0.27933904,-2.1516275,0.64445771,2.3848676,-0.51564871
287,-3.6125850,-0.77935748,3.2809454,0.24052473,-2.3077248,0.57568674,2.4151734,-0.54261052
288,-3.6771067,-0.77553107,3.2763993,0.20276217,-2.4593563,0.50771514,2.4431149,-0.56802984
289,-3.7370755,-0.77076085,3.2694837,0.16607947,-2.6063369,0.44062362,2.4686554,-0.59189564
290,-3.7924560,-0.76508279,3.2602145,0.13050273,-2.7484892,0.37449163,2.4917621,-0.61419981
291,-3.8432195,-0.75853377,3.2486110,0.096056074,-2.8856434,0.30939721,2.5124065,-0.63493719
292,-3.8893448,-0.75115146,3.2346964,0.062761544,-3.0176381,0.24541685,2.5305646,-0.65410547
293,-3.9308173,-0.74297426,3.2184971,0.030639138,-3.1443202,0.18262535,2.5462165,-0.67170528
294,-3.9676298,-0.73404118,3.2000430,-0.00029323625,-3.2655454,0.12109562,2.5593470,-0.68774008
295,-3.9997817,-0.72439178,3.1793673,-0.030019771,-3.3811785,0.060898631,2.5699451,-0.70221619
296,-4.0272798,-0.71406603,3.1565065,-0.058526770,-3.4910932,0.0021031789,2.5780043,-0.71514272
297,-4.0501374,-0.70310421,3.1315004,-0.085802653,-3.5951732,-0.055224184,2.5835225,-0.72653153
298,-4.0683747,-0.69154689,3.1043917,-0.11183796,-3.6933114,-0.11101930,2.5865021,-0.73639721
299,-4.0820189,-0.67943474,3.0752262,-0.13662534,-3.7854108,-0.16522052,2.5869499,-0.74475697
300,-4.0911035,-0.66680848,3.0440524,-0.16015956,-3.8713844,-0.21776883,2.5848769,-0.75163066
301,-4.0956687,-0.65370881,3.0109219,-0.18243748,-3.9511553,-0.26860797,2.5802986,-0.75704064
302,-4.0957610,-0.64017624,2.9758887,-0.20345805,-4.0246568,-0.31768450,2.5732347,-0.76101171
303,-4.0914332,-0.62625109,2.9390093,-0.22322226,-4.0918328,-0.36494795,2.5637091,-0.76357109
304,-4.0827443,-0.61197334,2.9003428,-0.24173317,-4.1526373,-0.41035088,2.5517499,-0.76474830
305,-4.0697590,-0.59738253,2.8599503,-0.25899582,-4.2070351,-0.45384896,2.5373892,-0.76457505
306,-4.0525481,-0.58251775,2.8178953,-0.27501724,-4.2550014,-0.49540110,2.5206632,-0.76308521
307,-4.0311876,-0.56741745,2.7742431,-0.28980642,-4.2965219,-0.53496945,2.5016118,-0.76031467
308,-4.0057593,-0.55211944,2.7290609,-0.30337421,-4.3315929,-0.57251950,2.4802789,-0.75630127
309,-3.9763500,-0.53666077,2.6824178,-0.31573336,-4.3602209,-0.60802016,2.4567119,-0.75108467
310,-3.9430513,-0.52107767,2.6343840,-0.32689841,-4.3824232,-0.64144377,2.4309617,-0.74470628
311,-3.9059599,-0.50540546,2.5850315,-0.33688567,-4.3982272,-0.67276614,2.4030828,-0.73720913
312,-3.8651768,-0.48967848,2.5344334,-0.34571314,-4.4076704,-0.70196663,2.3731328,-0.72863774
313,-3.8208073,-0.47393003,2.4826639,-0.35340050,-4.4108008,-0.72902812,2.3411725,-0.71903805
314,-3.7729608,-0.45819231,2.4297981,-0.35996899,-4.4076758,-0.75393707,2.3072658,-0.70845727
315,-3.7217506,-0.44249634,2.3759118,-0.36544139,-4.3983631,-0.77668351,2.2714792,-0.69694378
316,-3.6672933,-0.42687190,2.3210817,-0.36984196,-4.3829397,-0.79726104,2.2338820,-0.68454700
317,-3.6097088,-0.41134751,2.2653846,-0.37319632,-4.3614920,-0.81566683,2.1945459,-0.67131727
318,-3.5491202,-0.39595034,2.2088977,-0.37553145,-4.3341155,-0.83190162,2.1535450,-0.65730572
319,-3.4856533,-0.38070616,2.1516985,-0.37687554,-4.3009149,-0.84596966,2.1109556,-0.64256417
320,-3.4194361,-0.36563936,2.0938643,-0.37725800,-4.2620033,-0.85787873,2.0668558,-0.62714499
321,-3.3505990,-0.35077282,2.0354724,-0.37670930,-4.2175021,-0.86764008,2.0213256,-0.61110095
322,-3.2792743,-0.33612795,1.9765994,-0.37526097,-4.1675410,-0.87526836,1.9744465,-0.59448516
323,-3.2055958,-0.32172462,1.9173218,-0.37294547,-4.1122573,-0.88078160,1.9263016,-0.57735088
324,-3.1296988,-0.30758116,1.8577154,-0.36979610,-4.0517957,-0.88420117,1.8769749,-0.55975143
325,-3.0517196,-0.29371430,1.7978550,-0.36584698,-3.9863082,-0.88555166,1.8265515,-0.54174008
326,-2.9717951,-0.28013919,1.7378147,-0.36113290,-3.9159531,-0.88486084,1.7751176,-0.52336988
327,-2.8900631,-0.26686938,1.6776674,-0.35568929,-3.8408956,-0.88215957,1.7227597,-0.50469359
328,-2.8066611,-0.25391680,1.6174848,-0.34955208,-3.7613065,-0.87748173,1.6695648,-0.48576355
329,-2.7217271,-0.24129176,1.5573375,-0.34275769,-3.6773622,-0.87086411,1.6156202,-0.46663155
330,-2.6353984,-0.22900294,1.4972942,-0.33534288,-3.5892445,-0.86234630,1.5610131,-0.44734873
331,-2.5478118,-0.21705742,1.4374225,-0.32734470,-3.4971398,-0.85197062,1.5058308,-0.42796546
332,-2.4591034,-0.20546068,1.3777878,-0.31880040,-3.4012389,-0.83978198,1.4501598,-0.40853124
333,-2.3694079,-0.19421658,1.3184542,-0.30974734,-3.3017366,-0.82582779,1.3940866,-0.38909460
334,-2.2788589,-0.18332744,1.2594834,-0.30022292,-3.1988312,-0.81015780,1.3376966,-0.36970299
335,-2.1875884,-0.17279400,1.2009354,-0.29026450,-3.0927240,-0.79282402,1.2810743,-0.35040268
336,-2.0957263,-0.16261547,1.1428679,-0.27990930,-2.9836190,-0.77388055,1.2243034,-0.33123868
337,-2.0034006,-0.15278957,1.0853364,-0.26919437,-2.8717223,-0.75338350,1.1674659,-0.31225464
338,-1.9107371,-0.14331254,1.0283943,-0.25815644,-2.7572420,-0.73139078,1.1106427,-0.29349277
339,-1.8178590,-0.13417920,0.97209245,-0.24683190,-2.6403873,-0.70796203,1.0539131,-0.27499376
340,-1.7248866,-0.12538298,0.91647918,-0.23525672,-2.5213683,-0.68315842,0.99735431,-0.25679670
341,-1.6319375,-0.11691593,0.86160047,-0.22346636,-2.4003957,-0.65704256,0.94104196,-0.23893902
342,-1.5391262,-0.10876885,0.80749967,-0.21149572,-2.2776800,-0.62967829,0.88504944,-0.22145641
343,-1.4465638,-0.10093123,0.75421754,-0.19937905,-2.1534315,-0.60113058,0.82944798,-0.20438275
344,-1.3543579,-0.093391390,0.70179215,-0.18714990,-2.0278593,-0.57146537,0.77430644,-0.18775008
345,-1.2626126,-0.086136506,0.65025891,-0.17484107,-1.9011717,-0.54074939,0.71969122,-0.17158856
346,-1.1714283,-0.079152654,0.59965048,-0.16248453,-1.7735748,-0.50905003,0.66566611,-0.15592636
347,-1.0809013,-0.072424884,0.54999679,-0.15011137,-1.6452731,-0.47643518,0.61229220,-0.14078970
348,-0.99112398,-0.065937282,0.50132502,-0.13775174,-1.5164682,-0.44297308,0.55962775,-0.12620276
349,-0.90218462,-0.059673030,0.45365956,-0.12543483,-1.3873590,-0.40873218,0.50772812,-0.11218767
350,-0.81416720,-0.053614476,0.40702205,-0.11318877,-1.2581413,-0.37378094,0.45664565,-0.098764488
351,-0.72715139,-0.047743198,0.36143137,-0.10104063,-1.1290069,-0.33818774,0.40642962,-0.085951189
352,-0.64121245,-0.042040075,0.31690366,-0.089016358,-1.0001439,-0.30202070,0.35712613,-0.073763637
353,-0.55642114,-0.036485358,0.27345231,-0.077140754,-0.87173594,-0.26534753,0.30877808,-0.062215590
354,-0.47284370,-0.031058741,0.23108803,-0.065437420,-0.74396215,-0.22823537,0.26142508,-0.051318692
355,-0.39054181,-0.025739432,0.18981886,-0.053928743,-0.61699656,-0.19075070,0.21510344,-0.041082485
356,-0.30957252,-0.020506227,0.14965022,-0.042635858,-0.49100799,-0.15295915,0.16984610,-0.031514414
357,-0.22998824,-0.015337582,0.11058495,-0.031578630,-0.36615969,-0.11492538,0.12568264,-0.022619842
358,-0.15183676,-0.010211686,0.072623341,-0.020775629,-0.24260911,-0.076712959,0.082639209,-0.014402072
359,-0.075161241,-0.0051065378,0.035763247,-0.010244117,-0.12050764,-0.038384209,0.040738582,-0.0068623760
360,-2.0745664e-07,-1.4263051e-08,9.8208830e-08,-2.8152954e-08,-3.3370458e-07,-1.0706295e-07,1.1197096e-07,-1.8194612e-08
