XRT N-S vs UFSS-A
      204.546
      1.79506
     -2.90616
      1.80655
     0.714222
    -0.305491
     0.602593
XRT N-S vs UFSS-B
      199.965
     0.416658
     -1.53128
     0.281486
    0.0121762
    -0.142389
    0.0376547
XRT E-W vs UFSS-A
      3977.72
     -1.61744
     0.411668
    -0.154138
    -0.502513
     0.223214
   -0.0420530
XRT E-W vs UFSS-B
      3965.02
    -0.205906
     -1.05335
     0.361268
     0.191056
    0.0589234
   0.00190088
SOT N-S vs UFSS-A
      69.4800
     0.231767
     -2.86153
      1.91400
    -0.328929
     0.374659
     0.548996
SOT N-S vs UFSS-B
      63.2823
    0.0877410
     -1.59482
     0.479201
    -0.162492
    0.0175004
    0.0839815
SOT E-W vs UFSS-A
      206.942
    -0.918103
     0.615301
    -0.435574
    0.0587352
   -0.0398624
    -0.291959
SOT E-W vs UFSS-B
      195.377
    -0.838027
     -1.01981
     0.439969
    0.0204683
     0.186426
    0.0257043
