XRT N-S vs UFSS-A
      240.754
     0.129382
     0.735715
     0.239296
    -0.104759
    0.0288551
   0.00225075
XRT N-S vs UFSS-B
      237.078
     0.872104
   -0.0144826
   -0.0229207
   -0.0216199
    0.0812958
   -0.0272313
XRT E-W vs UFSS-A
      3973.22
    -0.248311
     -1.01405
    0.0203447
     0.176818
   -0.0569213
   -0.0787518
XRT E-W vs UFSS-B
      3975.76
    -0.337886
    -0.926261
    0.0584919
     0.240037
   -0.0453399
   -0.0839880
SOT N-S vs UFSS-A
      126.648
  -0.00396190
     0.765274
     0.270152
    0.0530561
    0.0854563
     0.122909
SOT N-S vs UFSS-B
      122.858
     0.754101
  -0.00522656
  -0.00541063
    0.0532578
    0.0354625
    0.0871390
SOT E-W vs UFSS-A
      185.284
    -0.188571
    -0.993624
   -0.0122600
     0.197151
    0.0105454
   0.00330336
SOT E-W vs UFSS-B
      187.883
    -0.268561
    -0.940856
  -0.00239649
     0.217495
    0.0195403
    0.0220783
