deg,XRT_AX,XRT_BX,XRT_AY,XRT_BY,SOT_AX,SOT_BX,SOT_AY,SOT_BY
valid,1,1,1,1,1,1,1,1,revB
offset,91.318082,75.400749,1986.1593,1976.6646,19.958147,4.3026209,104.23752,94.254406
0,0.0000000,0.0000000,0.0000000,0.0000000,0.0000000,0.0000000,0.0000000,0.0000000
1,0.081389845,0.017498176,-0.027408454,0.0036561845,0.095947998,0.031835771,-0.034850059,0.0095278363
2,0.15934166,0.035384265,-0.053879140,0.0068683504,0.19112179,0.063692066,-0.069319728,0.018875778
3,0.23388309,0.053645527,-0.079445071,0.0096434919,0.28541603,0.095523827,-0.10340041,0.028029475
4,0.30505003,0.072269583,-0.10414072,0.011989875,0.37872941,0.12728745,-0.13708462,0.036975285
5,0.37288632,0.091244419,-0.12800185,0.013916988,0.47096477,0.15894086,-0.17036599,0.045700278
6,0.43744349,0.11055839,-0.15106542,0.015435496,0.56202924,0.19044357,-0.20323918,0.054192262
7,0.49878047,0.13020022,-0.17336939,0.016557179,0.65183436,0.22175678,-0.23569989,0.062439784
8,0.55696322,0.15015898,-0.19495259,0.017294886,0.74029615,0.25284337,-0.26774476,0.070432149
9,0.61206446,0.17042414,-0.21585458,0.017662468,0.82733524,0.28366805,-0.29937138,0.078159425
10,0.66416327,0.19098550,-0.23611549,0.017674728,0.91287692,0.31419733,-0.33057821,0.085612453
11,0.71334475,0.21183321,-0.25577586,0.017347351,0.99685122,0.34439961,-0.36136457,0.092782851
12,0.75969968,0.23295779,-0.27487655,0.016696848,1.0791930,0.37424520,-0.39173053,0.099663023
13,0.80332406,0.25435008,-0.29345850,0.015740488,1.1598418,0.40370638,-0.42167693,0.10624616
14,0.84431882,0.27600126,-0.31156269,0.014496235,1.2387423,0.43275741,-0.45120526,0.11252624
15,0.88278933,0.29790284,-0.32922991,0.012982681,1.3158438,0.46137453,-0.48031768,0.11849803
16,0.91884506,0.32004661,-0.34650066,0.011218977,1.3911008,0.48953606,-0.50901690,0.12415710
17,0.95259910,0.34242469,-0.36341502,0.0092247713,1.4644723,0.51722233,-0.53730618,0.12949980
18,0.98416784,0.36502948,-0.38001249,0.0070201365,1.5359226,0.54441572,-0.56518924,0.13452326
19,1.0136704,0.38785365,-0.39633189,0.0046255040,1.6054206,0.57110068,-0.59267021,0.13922539
20,1.0412285,0.41089013,-0.41241121,0.0020615962,1.6729402,0.59726372,-0.61975362,0.14360490
21,1.0669656,0.43413209,-0.42828747,-0.00065064119,1.7384599,0.62289339,-0.64644426,0.14766123
22,1.0910068,0.45757295,-0.44399665,-0.0034901060,1.8019632,0.64798025,-0.67274723,0.15139462
23,1.1134784,0.48120633,-0.45957356,-0.0064356060,1.8634379,0.67251692,-0.69866781,0.15480604
24,1.1345074,0.50502606,-0.47505170,-0.0094659240,1.9228768,0.69649798,-0.72421142,0.15789719
25,1.1542211,0.52902614,-0.49046319,-0.012559883,1.9802769,0.71992000,-0.74938362,0.16067053
26,1.1727466,0.55320074,-0.50583868,-0.015696407,2.0356399,0.74278149,-0.77418997,0.16312922
27,1.1902107,0.57754421,-0.52120724,-0.018854587,2.0889715,0.76508283,-0.79863609,0.16527711
28,1.2067390,0.60205100,-0.53659626,-0.022013737,2.1402818,0.78682629,-0.82272752,0.16711877
29,1.2224562,0.62671568,-0.55203141,-0.025153455,2.1895850,0.80801594,-0.84646971,0.16865941
30,1.2374850,0.65153295,-0.56753656,-0.028253679,2.2368992,0.82865760,-0.86986798,0.16990493
31,1.2519462,0.67649757,-0.58313370,-0.031294739,2.2822464,0.84875881,-0.89292749,0.17086185
32,1.2659582,0.70160437,-0.59884287,-0.034257414,2.3256521,0.86832878,-0.91565315,0.17153731
33,1.2796368,0.72684823,-0.61468215,-0.037122979,2.3671457,0.88737827,-0.93804964,0.17193906
34,1.2930945,0.75222409,-0.63066760,-0.039873252,2.4067596,0.90591961,-0.96012134,0.17207543
35,1.3064407,0.77772687,-0.64681322,-0.042490642,2.4445297,0.92396654,-0.98187229,0.17195532
36,1.3197809,0.80335154,-0.66313089,-0.044958187,2.4804949,0.94153422,-1.0033062,0.17158816
37,1.3332168,0.82909302,-0.67963043,-0.047259599,2.5146970,0.95863910,-1.0244263,0.17098391
38,1.3468457,0.85494623,-0.69631950,-0.049379293,2.5471804,0.97529889,-1.0452356,0.17015304
39,1.3607608,0.88090606,-0.71320365,-0.051302430,2.5779924,0.99153243,-1.0657365,0.16910646
40,1.3750501,0.90696733,-0.73028628,-0.053014938,2.6071823,1.0073596,-1.0859309,0.16785558
41,1.3897971,0.93312480,-0.74756871,-0.054503549,2.6348020,1.0228015,-1.1058205,0.16641219
42,1.4050800,0.95937318,-0.76505011,-0.055755815,2.6609050,1.0378797,-1.1254061,0.16478854
43,1.4209717,0.98570707,-0.78272760,-0.056760133,2.6855469,1.0526170,-1.1446884,0.16299722
44,1.4375398,1.0121210,-0.80059623,-0.057505763,2.7087851,1.0670367,-1.1636674,0.16105121
45,1.4548462,1.0386094,-0.81864906,-0.057982844,2.7306780,1.0811629,-1.1823424,0.15896379
46,1.4729471,1.0651665,-0.83687716,-0.058182401,2.7512859,1.0950201,-1.2007125,0.15674859
47,1.4918931,1.0917866,-0.85526967,-0.058096355,2.7706696,1.1086334,-1.2187761,0.15441950
48,1.5117287,1.1184637,-0.87381390,-0.057717530,2.7888913,1.1220282,-1.2365311,0.15199067
49,1.5324927,1.1451917,-0.89249533,-0.057039653,2.8060137,1.1352303,-1.2539748,0.14947650
50,1.5542177,1.1719645,-0.91129772,-0.056057349,2.8221002,1.1482655,-1.2711042,0.14689159
51,1.5769307,1.1987758,-0.93020318,-0.054766143,2.8372145,1.1611600,-1.2879155,0.14425074
52,1.6006524,1.2256190,-0.94919222,-0.053162445,2.8514205,1.1739396,-1.3044047,0.14156890
53,1.6253979,1.2524876,-0.96824388,-0.051243541,2.8647822,1.1866305,-1.3205672,0.13886116
54,1.6511761,1.2793749,-0.98733579,-0.049007583,2.8773635,1.1992585,-1.3363979,0.13614274
55,1.6779903,1.3062740,-1.0064443,-0.046453566,2.8892281,1.2118492,-1.3518914,0.13342894
56,1.7058381,1.3331779,-1.0255445,-0.043581309,2.9004390,1.2244279,-1.3670417,0.13073512
57,1.7347115,1.3600794,-1.0446104,-0.040391434,2.9110588,1.2370196,-1.3818425,0.12807670
58,1.7645969,1.3869713,-1.0636150,-0.036885342,2.9211495,1.2496487,-1.3962873,0.12546911
59,1.7954754,1.4138463,-1.0825305,-0.033065180,2.9307719,1.2623392,-1.4103691,0.12292778
60,1.8273231,1.4406969,-1.1013281,-0.028933813,2.9399860,1.2751142,-1.4240806,0.12046813
61,1.8601108,1.4675155,-1.1199787,-0.024494792,2.9488507,1.2879966,-1.4374143,0.11810552
62,1.8938047,1.4942943,-1.1384523,-0.019752318,2.9574235,1.3010081,-1.4503626,0.11585524
63,1.9283665,1.5210258,-1.1567187,-0.014711204,2.9657606,1.3141699,-1.4629175,0.11373252
64,1.9637532,1.5477019,-1.1747472,-0.0093768389,2.9739167,1.3275020,-1.4750709,0.11175245
65,1.9999180,1.5743148,-1.1925072,-0.0037551411,2.9819449,1.3410239,-1.4868148,0.10993000
66,2.0368100,1.6008566,-1.2099678,0.0021474786,2.9898966,1.3547537,-1.4981410,0.10828003
67,2.0743747,1.6273193,-1.2270982,0.0083241633,2.9978214,1.3687088,-1.5090412,0.10681718
68,2.1125545,1.6536949,-1.2438679,0.014767655,3.0057672,1.3829053,-1.5195072,0.10555594
69,2.1512885,1.6799752,-1.2602466,0.021470342,3.0137799,1.3973584,-1.5295310,0.10451060
70,2.1905129,1.7061524,-1.2762044,0.028424302,3.0219034,1.4120818,-1.5391045,0.10369521
71,2.2301619,1.7322185,-1.2917121,0.035621358,3.0301795,1.4270885,-1.5482200,0.10312361
72,2.2701670,1.7581653,-1.3067409,0.043053118,3.0386479,1.4423899,-1.5568699,0.10280937
73,2.3104583,1.7839852,-1.3212630,0.050711030,3.0473465,1.4579962,-1.5650467,0.10276581
74,2.3509641,1.8096702,-1.3352514,0.058586431,3.0563105,1.4739166,-1.5727436,0.10300596
75,2.3916116,1.8352125,-1.3486802,0.066670593,3.0655734,1.4901587,-1.5799537,0.10354256
76,2.4323272,1.8606046,-1.3615244,0.074954777,3.0751662,1.5067291,-1.5866708,0.10438804
77,2.4730365,1.8858389,-1.3737604,0.083430277,3.0851179,1.5236329,-1.5928892,0.10555450
78,2.5136652,1.9109081,-1.3853657,0.092088473,3.0954550,1.5408739,-1.5986034,0.10705374
79,2.5541390,1.9358049,-1.3963193,0.10092088,3.1062021,1.5584548,-1.6038087,0.10889717
80,2.5943838,1.9605223,-1.4066018,0.10991918,3.1173814,1.5763769,-1.6085008,0.11109588
81,2.6343267,1.9850535,-1.4161952,0.11907529,3.1290131,1.5946401,-1.6126761,0.11366058
82,2.6738955,2.0093919,-1.4250833,0.12838141,3.1411152,1.6132431,-1.6163317,0.11660159
83,2.7130195,2.0335309,-1.4332513,0.13783002,3.1537033,1.6321835,-1.6194652,0.11992888
84,2.7516299,2.0574646,-1.4406866,0.14741399,3.1667915,1.6514574,-1.6220752,0.12365200
85,2.7896597,2.0811871,-1.4473783,0.15712657,3.1803913,1.6710600,-1.6241610,0.12778010
86,2.8270442,2.1046927,-1.4533172,0.16696145,3.1945127,1.6909851,-1.6257224,0.13232192
87,2.8637214,2.1279761,-1.4584964,0.17691278,3.2091634,1.7112253,-1.6267605,0.13728579
88,2.8996321,2.1510324,-1.4629107,0.18697524,3.2243495,1.7317724,-1.6272769,0.14267962
89,2.9347202,2.1738570,-1.4665571,0.19714403,3.2400752,1.7526167,-1.6272742,0.14851087
90,2.9689331,2.1964455,-1.4694347,0.20741493,3.2563431,1.7737480,-1.6267560,0.15478660
91,3.0022218,2.2187940,-1.4715445,0.21778430,3.2731541,1.7951546,-1.6257266,0.16151338
92,3.0345409,2.2408989,-1.4728898,0.22824916,3.2905074,1.8168241,-1.6241915,0.16869739
93,3.0658494,2.2627570,-1.4734759,0.23880713,3.3084011,1.8387433,-1.6221570,0.17634431
94,3.0961104,2.2843656,-1.4733103,0.24945653,3.3268316,1.8608981,-1.6196304,0.18445941
95,3.1252915,2.3057222,-1.4724025,0.26019634,3.3457942,1.8832735,-1.6166199,0.19304747
96,3.1533648,2.3268249,-1.4707641,0.27102625,3.3652828,1.9058539,-1.6131349,0.20211283
97,3.1803073,2.3476722,-1.4684088,0.28194666,3.3852904,1.9286231,-1.6091856,0.21165935
98,3.2061008,2.3682628,-1.4653525,0.29295866,3.4058089,1.9515642,-1.6047832,0.22169046
99,3.2307320,2.3885961,-1.4616128,0.30406410,3.4268295,1.9746597,-1.5999399,0.23220907
100,3.2541931,2.4086718,-1.4572096,0.31526551,3.4483422,1.9978919,-1.5946690,0.24321768
101,3.2764810,2.4284902,-1.4521644,0.32656617,3.4703366,2.0212425,-1.5889846,0.25471827
102,3.2975980,2.4480518,-1.4465008,0.33797007,3.4928017,2.0446928,-1.5829018,0.26671238
103,3.3175519,2.4673578,-1.4402441,0.34948191,3.5157259,2.0682240,-1.5764366,0.27920107
104,3.3363555,2.4864096,-1.4334215,0.36110709,3.5390972,2.0918169,-1.5696060,0.29218492
105,3.3540270,2.5052092,-1.4260615,0.37285167,3.5629032,2.1154525,-1.5624278,0.30566405
106,3.3705898,2.5237589,-1.4181945,0.38472243,3.5871315,2.1391114,-1.5549207,0.31963809
107,3.3860727,2.5420617,-1.4098523,0.39672673,3.6117694,2.1627742,-1.5471043,0.33410622
108,3.4005096,2.5601208,-1.4010680,0.40887262,3.6368044,2.1864219,-1.5389989,0.34906713
109,3.4139393,2.5779398,-1.3918763,0.42116871,3.6622237,2.2100353,-1.5306255,0.36451905
110,3.4264060,2.5955227,-1.3823126,0.43362418,3.6880149,2.2335955,-1.5220060,0.38045972
111,3.4379583,2.6128742,-1.3724139,0.44624876,3.7141659,2.2570838,-1.5131629,0.39688644
112,3.4486499,2.6299990,-1.3622179,0.45905268,3.7406647,2.2804821,-1.5041192,0.41379601
113,3.4585390,2.6469024,-1.3517632,0.47204663,3.7674997,2.3037722,-1.4948988,0.43118477
114,3.4676882,2.6635900,-1.3410891,0.48524173,3.7946600,2.3269369,-1.4855258,0.44904862
115,3.4761641,2.6800676,-1.3302356,0.49864948,3.8221349,2.3499590,-1.4760249,0.46738295
116,3.4840378,2.6963417,-1.3192433,0.51228171,3.8499146,2.3728221,-1.4664214,0.48618273
117,3.4913837,2.7124187,-1.3081529,0.52615056,3.8779895,2.3955104,-1.4567407,0.50544243
118,3.4982800,2.7283055,-1.2970055,0.54026838,3.9063513,2.4180088,-1.4470086,0.52515608
119,3.5048083,2.7440092,-1.2858422,0.55464776,3.9349918,2.4403027,-1.4372514,0.54531725
120,3.5110529,2.7595371,-1.2747042,0.56930137,3.9639040,2.4623784,-1.4274951,0.56591906
121,3.5171011,2.7748970,-1.2636323,0.58424200,3.9930816,2.4842230,-1.4177663,0.58695415
122,3.5230426,2.7900965,-1.2526673,0.59948246,4.0225191,2.5058244,-1.4080912,0.60841474
123,3.5289692,2.8051436,-1.2418492,0.61503552,4.0522118,2.5271714,-1.3984965,0.63029259
124,3.5349744,2.8200465,-1.2312176,0.63091387,4.0821561,2.5482536,-1.3890083,0.65257900
125,3.5411535,2.8348132,-1.2208113,0.64713004,4.1123491,2.5690615,-1.3796528,0.67526484
126,3.5476026,2.8494522,-1.2106685,0.66369637,4.1427888,2.5895868,-1.3704561,0.69834053
127,3.5544189,2.8639717,-1.2008259,0.68062489,4.1734741,2.6098218,-1.3614437,0.72179607
128,3.5616997,2.8783802,-1.1913194,0.69792735,4.2044049,2.6297602,-1.3526409,0.74562099
129,3.5695428,2.8926861,-1.1821836,0.71561507,4.2355818,2.6493963,-1.3440726,0.76980444
130,3.5780453,2.9068976,-1.1734517,0.73369892,4.2670064,2.6687256,-1.3357631,0.79433508
131,3.5873040,2.9210233,-1.1651553,0.75218926,4.2986809,2.6877447,-1.3277361,0.81920120
132,3.5974145,2.9350711,-1.1573244,0.77109587,4.3306085,2.7064512,-1.3200147,0.84439065
133,3.6084709,2.9490492,-1.1499872,0.79042789,4.3627931,2.7248434,-1.3126212,0.86989084
134,3.6205658,2.9629656,-1.1431701,0.81019374,4.3952391,2.7429211,-1.3055773,0.89568880
135,3.6337894,2.9768279,-1.1368974,0.83040113,4.4279518,2.7606848,-1.2989035,0.92177114
136,3.6482294,2.9906437,-1.1311913,0.85105690,4.4609369,2.7781360,-1.2926197,0.94812407
137,3.6639709,3.0044202,-1.1260720,0.87216705,4.4942008,2.7952772,-1.2867446,0.97473339
138,3.6810954,3.0181644,-1.1215572,0.89373664,4.5277501,2.8121120,-1.2812959,1.0015845
139,3.6996809,3.0318829,-1.1176623,0.91576975,4.5615921,2.8286447,-1.2762901,1.0286625
140,3.7198015,3.0455820,-1.1144002,0.93826942,4.5957341,2.8448806,-1.2717427,1.0559520
141,3.7415268,3.0592677,-1.1117812,0.96123763,4.6301839,2.8608259,-1.2676677,1.0834372
142,3.7649221,3.0729454,-1.1098132,0.98467519,4.6649492,2.8764877,-1.2640779,1.1111022
143,3.7900472,3.0866202,-1.1085011,1.0085818,4.7000378,2.8918736,-1.2609849,1.1389303
144,3.8169572,3.1002966,-1.1078474,1.0329558,4.7354576,2.9069922,-1.2583987,1.1669049
145,3.8457010,3.1139789,-1.1078516,1.0577945,4.7712162,2.9218529,-1.2563280,1.1950087
146,3.8763221,3.1276704,-1.1085105,1.0830937,4.8073210,2.9364654,-1.2547798,1.2232242
147,3.9088575,3.1413742,-1.1098179,1.1088480,4.8437790,2.9508403,-1.2537597,1.2515337
148,3.9433380,3.1550927,-1.1117648,1.1350506,4.8805970,2.9649886,-1.2532717,1.2799191
149,3.9797875,3.1688278,-1.1143393,1.1616933,4.9177808,2.9789220,-1.2533182,1.3083617
150,4.0182231,3.1825806,-1.1175267,1.1887665,4.9553359,2.9926524,-1.2539000,1.3368429
151,4.0586548,3.1963516,-1.1213093,1.2162592,4.9932669,3.0061921,-1.2550162,1.3653437
152,4.1010853,3.2101406,-1.1256663,1.2441590,5.0315775,3.0195540,-1.2566641,1.3938446
153,4.1455096,3.2239469,-1.1305744,1.2724518,5.0702704,3.0327509,-1.2588394,1.4223262
154,4.1919154,3.2377688,-1.1360072,1.3011223,5.1093473,3.0457959,-1.2615361,1.4507685
155,4.2402822,3.2516041,-1.1419355,1.3301536,5.1488084,3.0587023,-1.2647465,1.4791515
156,4.2905820,3.2654497,-1.1483272,1.3595273,5.1886530,3.0714834,-1.2684609,1.5074548
157,4.3427785,3.2793019,-1.1551478,1.3892237,5.2288786,3.0841525,-1.2726682,1.5356578
158,4.3968275,3.2931561,-1.1623598,1.4192214,5.2694814,3.0967227,-1.2773554,1.5637399
159,4.4526766,3.3070069,-1.1699233,1.4494977,5.3104557,3.1092071,-1.2825076,1.5916799
160,4.5102653,3.3208482,-1.1777956,1.4800285,5.3517945,3.1216184,-1.2881085,1.6194570
161,4.5695250,3.3346731,-1.1859319,1.5107880,5.3934885,3.1339692,-1.2941399,1.6470496
162,4.6303789,3.3484740,-1.1942847,1.5417493,5.4355268,3.1462716,-1.3005819,1.6744365
163,4.6927423,3.3622422,-1.2028044,1.5728839,5.4778963,3.1585373,-1.3074131,1.7015960
164,4.7565222,3.3759684,-1.2114392,1.6041623,5.5205819,3.1707773,-1.3146102,1.7285065
165,4.8216179,3.3896427,-1.2201352,1.6355533,5.5635662,3.1830023,-1.3221486,1.7551462
166,4.8879209,3.4032539,-1.2288367,1.6670245,5.6068298,3.1952223,-1.3300018,1.7814933
167,4.9553149,3.4167905,-1.2374861,1.6985426,5.6503506,3.2074464,-1.3381421,1.8075259
168,5.0236763,3.4302400,-1.2460240,1.7300728,5.6941045,3.2196832,-1.3465401,1.8332221
169,5.0928739,3.4435891,-1.2543897,1.7615793,5.7380647,3.2319401,-1.3551650,1.8585599
170,5.1627698,3.4568238,-1.2625210,1.7930251,5.7822020,3.2442239,-1.3639849,1.8835174
171,5.2332188,3.4699294,-1.2703543,1.8243724,5.8264845,3.2565404,-1.3729662,1.9080726
172,5.3040693,3.4828904,-1.2778252,1.8555822,5.8708780,3.2688942,-1.3820742,1.9322038
173,5.3751633,3.4956906,-1.2848680,1.8866148,5.9153454,3.2812890,-1.3912731,1.9558890
174,5.4463369,3.5083131,-1.2914166,1.9174296,5.9598472,3.2937274,-1.4005259,1.9791066
175,5.5174202,3.5207404,-1.2974040,1.9479854,6.0043412,3.3062107,-1.4097945,2.0018350
176,5.5882380,3.5329543,-1.3027629,1.9782400,6.0487823,3.3187391,-1.4190399,2.0240527
177,5.6586101,3.5449360,-1.3074258,2.0081509,6.0931231,3.3313115,-1.4282222,2.0457384
178,5.7283516,3.5566661,-1.3113248,2.0376750,6.1373134,3.3439255,-1.4373007,2.0668711
179,5.7972732,3.5681246,-1.3143924,2.0667686,6.1813002,3.3565773,-1.4462340,2.0874296
180,5.8651819,3.5792910,-1.3165614,2.0953879,6.2250281,3.3692620,-1.4549800,2.1073935
181,5.9318812,3.5901445,-1.3177646,2.1234886,6.2684391,3.3819730,-1.4634960,2.1267423
182,5.9971713,3.6006634,-1.3179360,2.1510265,6.3114726,3.3947025,-1.4717391,2.1454557
183,6.0608503,3.6108260,-1.3170099,2.1779571,6.3540657,3.4074414,-1.4796657,2.1635141
184,6.1227137,3.6206100,-1.3149220,2.2042358,6.3961527,3.4201787,-1.4872321,2.1808978
185,6.1825556,3.6299929,-1.3116089,2.2298183,6.4376660,3.4329025,-1.4943945,2.1975877
186,6.2401690,3.6389516,-1.3070086,2.2546605,6.4785354,3.4455991,-1.5011089,2.2135651
187,6.2953461,3.6474631,-1.3010607,2.2787185,6.5186886,3.4582536,-1.5073314,2.2288116
188,6.3478790,3.6555039,-1.2937064,2.3019486,6.5580514,3.4708493,-1.5130183,2.2433092
189,6.3975601,3.6630505,-1.2848888,2.3243080,6.5965472,3.4833685,-1.5181259,2.2570405
190,6.4441825,3.6700792,-1.2745530,2.3457540,6.6340980,3.4957918,-1.5226111,2.2699885
191,6.4875411,3.6765663,-1.2626465,2.3662449,6.6706237,3.5080984,-1.5264310,2.2821368
192,6.5274321,3.6824879,-1.2491189,2.3857395,6.7060426,3.5202663,-1.5295434,2.2934693
193,6.5636546,3.6878201,-1.2339225,2.4041977,6.7402717,3.5322720,-1.5319067,2.3039708
194,6.5960103,3.6925394,-1.2170121,2.4215801,6.7732264,3.5440907,-1.5334801,2.3136264
195,6.6243045,3.6966220,-1.1983456,2.4378486,6.8048211,3.5556964,-1.5342234,2.3224219
196,6.6483464,3.7000445,-1.1778837,2.4529659,6.8349689,3.5670617,-1.5340976,2.3303438
197,6.6679497,3.7027836,-1.1555901,2.4668962,6.8635823,3.5781582,-1.5330647,2.3373792
198,6.6829329,3.7048163,-1.1314319,2.4796049,6.8905728,3.5889562,-1.5310876,2.3435158
199,6.6931203,3.7061200,-1.1053796,2.4910586,6.9158515,3.5994251,-1.5281308,2.3487422
200,6.6983418,3.7066723,-1.0774069,2.5012257,6.9393292,3.6095329,-1.5241597,2.3530475
201,6.6984339,3.7064512,-1.0474914,2.5100760,6.9609164,3.6192471,-1.5191415,2.3564218
202,6.6932401,3.7054354,-1.0156141,2.5175808,6.9805235,3.6285339,-1.5130446,2.3588557
203,6.6826112,3.7036039,-0.98176003,2.5237133,6.9980614,3.6373589,-1.5058392,2.3603408
204,6.6664056,3.7009364,-0.94591786,2.5284484,7.0134411,3.6456868,-1.4974969,2.3608694
205,6.6444904,3.6974129,-0.90808030,2.5317629,7.0265743,3.6534817,-1.4879914,2.3604346
206,6.6167409,3.6930144,-0.86824404,2.5336353,7.0373737,3.6607071,-1.4772980,2.3590304
207,6.5830417,3.6877225,-0.82640981,2.5340464,7.0457527,3.6673259,-1.4653938,2.3566517
208,6.5432868,3.6815195,-0.78258245,2.5329787,7.0516260,3.6733006,-1.4522580,2.3532941
209,6.4973801,3.6743886,-0.73677094,2.5304171,7.0549099,3.6785934,-1.4378718,2.3489544
210,6.4452354,3.6663136,-0.68898843,2.5263484,7.0555221,3.6831662,-1.4222185,2.3436301
211,6.3867773,3.6572795,-0.63925226,2.5207616,7.0533823,3.6869807,-1.4052835,2.3373195
212,6.3219408,3.6472719,-0.58758397,2.5136482,7.0484123,3.6899986,-1.3870545,2.3300221
213,6.2506723,3.6362776,-0.53400928,2.5050015,7.0405359,3.6921817,-1.3675213,2.3217381
214,6.1729292,3.6242843,-0.47855812,2.4948176,7.0296798,3.6934916,-1.3466759,2.3124689
215,6.0886807,3.6112808,-0.42126458,2.4830944,7.0157729,3.6938905,-1.3245130,2.3022167
216,5.9979074,3.5972568,-0.36216689,2.4698326,6.9987474,3.6933408,-1.3010292,2.2909847
217,5.9006021,3.5822034,-0.30130737,2.4550351,6.9785384,3.6918052,-1.2762238,2.2787771
218,5.7967696,3.5661126,-0.23873240,2.4387070,6.9550842,3.6892471,-1.2500984,2.2655990
219,5.6864268,3.5489775,-0.17449234,2.4208559,6.9283269,3.6856305,-1.2226569,2.2514565
220,5.5696029,3.5307927,-0.10864147,2.4014921,6.8982119,3.6809201,-1.1939060,2.2363568
221,5.4463395,3.5115538,-0.041237908,2.3806277,6.8646887,3.6750813,-1.1638544,2.2203079
222,5.3166906,3.4912576,0.027656468,2.3582777,6.8277109,3.6680808,-1.1325136,2.2033191
223,5.1807225,3.4699022,0.097976131,2.3344591,6.7872360,3.6598859,-1.0998972,2.1854002
224,5.0385141,3.4474872,0.16965201,2.3091915,6.7432262,3.6504654,-1.0660217,2.1665624
225,4.8901564,3.4240131,0.24261158,2.2824968,6.6956480,3.6397892,-1.0309057,2.1468178
226,4.7357529,3.3994821,0.31677903,2.2543989,6.6444728,3.6278283,-0.99457016,2.1261792
227,4.5754191,3.3738974,0.39207536,2.2249244,6.5896768,3.6145556,-0.95703865,2.1046606
228,4.4092828,3.3472638,0.46841853,2.1941019,6.5312410,3.5999451,-0.91833696,2.0822770
229,4.2374835,3.3195872,0.54572362,2.1619621,6.4691517,3.5839727,-0.87849324,2.0590442
230,4.0601723,3.2908750,0.62390295,2.1285381,6.4034003,3.5666157,-0.83753790,2.0349789
231,3.8775121,3.2611359,0.70286629,2.0938648,6.3339836,3.5478534,-0.79550362,2.0100988
232,3.6896769,3.2303798,0.78252099,2.0579795,6.2609039,3.5276669,-0.75242525,1.9844225
233,3.4968517,3.1986182,0.86277217,2.0209210,6.1841688,3.5060393,-0.70833979,1.9579694
234,3.2992322,3.1658638,0.94352291,1.9827305,6.1037917,3.4829555,-0.66328629,1.9307599
235,3.0970245,3.1321306,1.0246744,1.9434506,6.0197916,3.4584027,-0.61730586,1.9028151
236,2.8904447,3.0974338,1.1061262,1.9031259,5.9321932,3.4323701,-0.57044153,1.8741570
237,2.6797187,3.0617901,1.1877763,1.8618028,5.8410270,3.4048492,-0.52273820,1.8448084
238,2.4650814,3.0252175,1.2695215,1.8195290,5.7463292,3.3758337,-0.47424261,1.8147929
239,2.2467770,2.9877350,1.3512575,1.7763540,5.6481421,3.3453197,-0.42500318,1.7841347
240,2.0250577,2.9493631,1.4328791,1.7323285,5.5465135,3.3133056,-0.37507000,1.7528589
241,1.8001840,2.9101234,1.5142804,1.6875048,5.4414972,3.2797922,-0.32449470,1.7209913
242,1.5724236,2.8700387,1.5953552,1.6419361,5.3331528,3.2447827,-0.27333036,1.6885582
243,1.3420516,2.8291330,1.6759969,1.5956771,5.2215456,3.2082829,-0.22163145,1.6555867
244,1.1093492,2.7874313,1.7560989,1.5487834,5.1067469,3.1703010,-0.16945369,1.6221044
245,0.87460380,2.7449600,1.8355548,1.5013116,4.9888333,3.1308478,-0.11685400,1.5881396
246,0.63810816,2.7017462,1.9142587,1.4533189,4.8678875,3.0899366,-0.063890344,1.5537211
247,0.40015989,2.6578183,1.9921051,1.4048636,4.7439973,3.0475832,-0.010621665,1.5188781
248,0.16106093,2.6132056,2.0689896,1.3560044,4.6172562,3.0038060,0.042892238,1.4836403
249,-0.078883086,2.5679382,2.1448086,1.3068007,4.4877632,2.9586261,0.096590811,1.4480380
250,-0.31936341,2.5220474,2.2194598,1.2573120,4.3556222,2.9120668,0.15041286,1.4121017
251,-0.56006876,2.4755651,2.2928424,1.2075985,4.2209427,2.8641543,0.20429667,1.3758625
252,-0.80068593,2.4285243,2.3648573,1.1577203,4.0838386,2.8149171,0.25818008,1.3393514
253,-1.0409004,2.3809584,2.4354071,1.1077377,3.9444293,2.7643864,0.31200065,1.3026002
254,-1.2803971,2.3329019,2.5043967,1.0577109,3.8028383,2.7125955,0.36569575,1.2656406
255,-1.5188606,2.2843897,2.5717329,1.0077000,3.6591941,2.6595805,0.41920264,1.2285047
256,-1.7559764,2.2354574,2.6373253,0.95776476,3.5136291,2.6053796,0.47245866,1.1912244
257,-1.9914308,2.1861413,2.7010858,0.90796471,3.3662803,2.5500337,0.52540128,1.1538323
258,-2.2249122,2.1364781,2.7629293,0.85835879,3.2172883,2.4935856,0.57796822,1.1163605
259,-2.4561113,2.0865049,2.8227737,0.80900538,3.0667975,2.4360805,0.63009759,1.0788415
260,-2.6847218,2.0362593,2.8805398,0.75996215,2.9149560,2.3775657,0.68172800,1.0413077
261,-2.9104411,1.9857793,2.9361518,0.71128598,2.7619150,2.3180909,0.73279865,1.0037915
262,-3.1329708,1.9351031,2.9895374,0.66303283,2.6078289,2.2577073,0.78324945,0.96632498
263,-3.3520173,1.8842692,3.0406278,0.61525766,2.4528547,2.1964686,0.83302113,0.92894038
264,-3.5672925,1.8333162,3.0893579,0.56801429,2.2971522,2.1344298,0.88205533,0.89166961
265,-3.7785141,1.7822829,3.1356665,0.52135536,2.1408834,2.0716482,0.93029473,0.85454438
266,-3.9854066,1.7312083,3.1794963,0.47533220,1.9842122,2.0081824,0.97768314,0.81759616
267,-4.1877014,1.6801311,3.2207940,0.42999473,1.8273046,1.9440928,1.0241656,0.78085610
268,-4.3851374,1.6290903,3.2595105,0.38539140,1.6703278,1.8794412,1.0696884,0.74435501
269,-4.5774619,1.5781246,3.2956011,0.34156909,1.5134502,1.8142908,1.1141994,0.70812332
270,-4.7644306,1.5272724,3.3290253,0.29857302,1.3568414,1.7487061,1.1576479,0.67219102
271,-4.9458083,1.4765724,3.3597468,0.25644669,1.2006715,1.6827527,1.1999846,0.63658765
272,-5.1213694,1.4260624,3.3877342,0.21523180,1.0451108,1.6164973,1.2411622,0.60134224
273,-5.2908983,1.3757804,3.4129602,0.17496815,0.89032980,1.5500076,1.2811350,0.56648328
274,-5.4541896,1.3257637,3.4354023,0.13569365,0.73649888,1.4833518,1.3198590,0.53203866
275,-5.6110490,1.2760495,3.4550425,0.097444180,0.58378772,1.4165992,1.3572923,0.49803567
276,-5.7612929,1.2266741,3.4718674,0.060253564,0.43236524,1.3498194,1.3933949,0.46450095
277,-5.9047494,1.1776735,3.4858682,0.024153531,0.28239926,1.2830826,1.4281288,0.43146044
278,-6.0412585,1.1290833,3.4970407,-0.010826350,0.13405617,1.2164592,1.4614581,0.39893934
279,-6.1706721,1.0809382,3.5053854,-0.044658706,-0.012499333,1.1500198,1.4933491,0.36696213
280,-6.2928544,1.0332724,3.5109073,-0.077318399,-0.15710452,1.0838350,1.5237702,0.33555247
281,-6.4076823,0.98611929,3.5136160,-0.10878256,-0.29959896,1.0179756,1.5526921,0.30473322
282,-6.5150454,0.93951152,3.5135255,-0.13903060,-0.43982475,0.95251177,1.5800876,0.27452639
283,-6.6148461,0.89348100,3.5106544,-0.16804427,-0.57762685,0.88751372,1.6059322,0.24495311
284,-6.7070002,0.84805877,3.5050256,-0.19580764,-0.71285330,0.82305102,1.6302033,0.21603360
285,-6.7914364,0.80327501,3.4966663,-0.22230713,-0.84535553,0.75919266,1.6528808,0.18778716
286,-6.8680969,0.75915897,3.4856081,-0.24753151,-0.97498859,0.69600694,1.6739472,0.16023216
287,-6.9369371,0.71573899,3.4718867,-0.27147191,-1.1016114,0.63356129,1.6933871,0.13338596
288,-6.9979260,0.67304242,3.4555417,-0.29412180,-1.2250872,0.57192220,1.7111877,0.10726495
289,-7.0510457,0.63109560,3.4366170,-0.31547701,-1.3452833,0.51115502,1.7273384,0.081884509
290,-7.0962919,0.58992386,3.4151600,-0.33553569,-1.4620718,0.45132393,1.7418313,0.057258973
291,-7.1336735,0.54955145,3.3912220,-0.35429829,-1.5753296,0.39249174,1.7546606,0.033401644
292,-7.1632125,0.51000157,3.3648579,-0.37176757,-1.6849388,0.33471984,1.7658230,0.010324760
293,-7.1849443,0.47129630,3.3361260,-0.38794854,-1.7907865,0.27806801,1.7753177,-0.011960509
294,-7.1989169,0.43345660,3.3050879,-0.40284843,-1.8927653,0.22259441,1.7831461,-0.033444076
295,-7.2051913,0.39650232,3.2718084,-0.41647666,-1.9907737,0.16835538,1.7893119,-0.054116943
296,-7.2038409,0.36045213,3.2363553,-0.42884480,-2.0847156,0.11540538,1.7938212,-0.073971210
297,-7.1949517,0.32532357,3.1987992,-0.43996652,-2.1745011,0.063796920,1.7966825,-0.093000080
298,-7.1786215,0.29113298,3.1592135,-0.44985754,-2.2600465,0.013580391,1.7979061,-0.11119786
299,-7.1549602,0.25789555,3.1176739,-0.45853557,-2.3412741,-0.035195961,1.7975048,-0.12855997
300,-7.1240890,0.22562527,3.0742585,-0.46602025,-2.4181128,-0.082486149,1.7954936,-0.14508292
301,-7.0861403,0.19433495,3.0290476,-0.47233310,-2.4904978,-0.12824652,1.7918893,-0.16076435
302,-7.0412574,0.16403622,2.9821234,-0.47749742,-2.5583710,-0.17243583,1.7867109,-0.17560298
303,-6.9895940,0.13473953,2.9335699,-0.48153828,-2.6216809,-0.21501531,1.7799793,-0.18959864
304,-6.9313139,0.10645414,2.8834726,-0.48448239,-2.6803830,-0.25594876,1.7717175,-0.20275224
305,-6.8665906,0.079188137,2.8319184,-0.48635803,-2.7344392,-0.29520256,1.7619500,-0.21506578
306,-6.7956067,0.052948451,2.7789955,-0.48719502,-2.7838186,-0.33274576,1.7507034,-0.22654231
307,-6.7185536,0.027740854,2.7247930,-0.48702456,-2.8284969,-0.36855013,1.7380057,-0.23718596
308,-6.6356309,0.0035699748,2.6694006,-0.48587922,-2.8684571,-0.40259017,1.7238868,-0.24700188
309,-6.5470462,-0.019560683,2.6129089,-0.48379279,-2.9036886,-0.43484319,1.7083780,-0.25599627
310,-6.4530141,-0.041648729,2.5554088,-0.48080025,-2.9341882,-0.46528932,1.6915119,-0.26417632
311,-6.3537564,-0.062692864,2.4969912,-0.47693763,-2.9599592,-0.49391152,1.6733229,-0.27155022
312,-6.2495008,-0.082692866,2.4377473,-0.47224195,-2.9810120,-0.52069562,1.6538463,-0.27812714
313,-6.1404809,-0.10164956,2.3777680,-0.46675108,-2.9973636,-0.54563033,1.6331189,-0.28391716
314,-6.0269354,-0.11956480,2.3171436,-0.46050373,-3.0090379,-0.56870724,1.6111783,-0.28893134
315,-5.9091077,-0.13644145,2.2559641,-0.45353925,-3.0160654,-0.58992081,1.5880636,-0.29318159
316,-5.7872452,-0.15228334,2.1943188,-0.44589762,-3.0184832,-0.60926841,1.5638144,-0.29668074
317,-5.6615989,-0.16709525,2.1322956,-0.43761931,-3.0163348,-0.62675025,1.5384713,-0.29944242
318,-5.5324227,-0.18088289,2.0699819,-0.42874518,-3.0096700,-0.64236938,1.5120759,-0.30148112
319,-5.3999728,-0.19365285,2.0074633,-0.41931640,-2.9985451,-0.65613169,1.4846701,-0.30281209
320,-5.2645073,-0.20541258,1.9448243,-0.40937435,-2.9830223,-0.66804586,1.4562967,-0.30345135
321,-5.1262854,-0.21617037,1.8821474,-0.39896052,-2.9631696,-0.67812332,1.4269988,-0.30341564
322,-4.9855672,-0.22593526,1.8195137,-0.38811642,-2.9390611,-0.68637822,1.3968199,-0.30272241
323,-4.8426126,-0.23471709,1.7570021,-0.37688345,-2.9107764,-0.69282738,1.3658039,-0.30138975
324,-4.6976812,-0.24252641,1.6946896,-0.36530289,-2.8784004,-0.69749021,1.3339949,-0.29943637
325,-4.5510316,-0.24937443,1.6326508,-0.35341571,-2.8420234,-0.70038872,1.3014372,-0.29688158
326,-4.4029207,-0.25527305,1.5709581,-0.34126255,-2.8017407,-0.70154737,1.2681749,-0.29374525
327,-4.2536034,-0.26023475,1.5096812,-0.32888360,-2.7576524,-0.70099306,1.2342523,-0.29004774
328,-4.1033320,-0.26427260,1.4488876,-0.31631852,-2.7098633,-0.69875506,1.1997136,-0.28580991
329,-3.9523556,-0.26740019,1.3886416,-0.30360636,-2.6584824,-0.69486489,1.1646024,-0.28105305
330,-3.8009196,-0.26963162,1.3290051,-0.29078547,-2.6036231,-0.68935625,1.1289626,-0.27579885
331,-3.6492653,-0.27098146,1.2700369,-0.27789342,-2.5454025,-0.68226496,1.0928372,-0.27006936
332,-3.4976294,-0.27146468,1.2117928,-0.26496697,-2.4839415,-0.67362886,1.0562690,-0.26388696
333,-3.3462435,-0.27109665,1.1543256,-0.25204190,-2.4193643,-0.66348768,1.0193003,-0.25727430
334,-3.1953335,-0.26989307,1.0976849,-0.23915304,-2.3517985,-0.65188298,0.98197274,-0.25025429
335,-3.0451198,-0.26786997,1.0419172,-0.22633415,-2.2813743,-0.63885804,0.94432730,-0.24285003
336,-2.8958159,-0.26504363,0.98706565,-0.21361787,-2.2082247,-0.62445775,0.90640425,-0.23508478
337,-2.7476289,-0.26143057,0.93317022,-0.20103564,-2.1324849,-0.60872851,0.86824305,-0.22698194
338,-2.6007587,-0.25704751,0.88026745,-0.18861769,-2.0542925,-0.59171808,0.82988232,-0.21856498
339,-2.4553977,-0.25191134,0.82839061,-0.17639294,-1.9737865,-0.57347554,0.79135978,-0.20985743
340,-2.3117305,-0.24603906,0.77756956,-0.16438900,-1.8911078,-0.55405112,0.75271218,-0.20088279
341,-2.1699338,-0.23944776,0.72783083,-0.15263205,-1.8063983,-0.53349608,0.71397526,-0.19166458
342,-2.0301757,-0.23215462,0.67919755,-0.14114690,-1.7198010,-0.51186265,0.67518372,-0.18222619
343,-1.8926159,-0.22417681,0.63168953,-0.12995687,-1.6314597,-0.48920385,0.63637115,-0.17259095
344,-1.7574049,-0.21553152,0.58532323,-0.11908380,-1.5415184,-0.46557338,0.59757000,-0.16278200
345,-1.6246846,-0.20623589,0.54011181,-0.10854800,-1.4501213,-0.44102553,0.55881157,-0.15282234
346,-1.4945874,-0.19630699,0.49606515,-0.098368271,-1.3574128,-0.41561505,0.52012594,-0.14273470
347,-1.3672364,-0.18576181,0.45318993,-0.088561816,-1.2635364,-0.38939700,0.48154196,-0.13254160
348,-1.2427450,-0.17461722,0.41148963,-0.079144281,-1.1686354,-0.36242665,0.44308725,-0.12226523
349,-1.1212173,-0.16288993,0.37096464,-0.070129725,-1.0728520,-0.33475939,0.40478813,-0.11192749
350,-1.0027475,-0.15059650,0.33161231,-0.061530612,-0.97632705,-0.30645055,0.36666967,-0.10154988
351,-0.88742005,-0.13775327,0.29342703,-0.053357810,-0.87920030,-0.27755532,0.32875561,-0.091153562
352,-0.77530967,-0.12437638,0.25640029,-0.045620596,-0.78160965,-0.24812864,0.29106840,-0.080759232
353,-0.66648128,-0.11048174,0.22052081,-0.038326659,-0.68369112,-0.21822508,0.25362918,-0.070387155
354,-0.56099005,-0.096084980,0.18577459,-0.031482112,-0.58557858,-0.18789869,0.21645776,-0.060057113
355,-0.45888144,-0.081201486,0.15214506,-0.025091505,-0.48740354,-0.15720295,0.17957268,-0.049788379
356,-0.36019127,-0.065846340,0.11961316,-0.019157842,-0.38929490,-0.12619061,0.14299115,-0.039599690
357,-0.26494583,-0.050034323,0.088157447,-0.013682607,-0.29137877,-0.094913642,0.10672909,-0.029509224
358,-0.17316197,-0.033779900,0.057754240,-0.0086657845,-0.19377825,-0.063423066,0.070801177,-0.019534574
359,-0.084847280,-0.017097208,0.028377723,-0.0041058916,-0.096613248,-0.031768910,0.035220793,-0.0096927230
360,-2.3178487e-07,-4.8244047e-08,7.7770892e-08,-1.0820713e-08,-2.6854828e-07,-8.8708697e-08,9.7707684e-08,-2.6807214e-08
