deg,XRT_AX,XRT_BX,XRT_AY,XRT_BY,SOT_AX,SOT_BX,SOT_AY,SOT_BY
valid,1,1,1,1,1,1,1,1,revB
offset,125.01735,96.944379,1974.7766,1980.3740,80.417633,51.394302,63.775960,69.653416
0,0.0000000,0.0000000,0.0000000,0.0000000,0.0000000,0.0000000,0.0000000,0.0000000
1,0.0089684655,0.0044953556,-0.0045556007,-0.0099692045,0.012117986,0.013971622,-0.0073306309,-0.0076231423
2,0.017873763,0.0093189239,-0.0092058168,-0.020024885,0.024104370,0.028190741,-0.014580429,-0.015121328
3,0.026714895,0.014480968,-0.013956280,-0.030159160,0.035950128,0.042644919,-0.021749386,-0.022494714
4,0.035490703,0.019991253,-0.018812097,-0.040363603,0.047646073,0.057321430,-0.028837304,-0.029743528
5,0.044199857,0.025859010,-0.023777841,-0.050629278,0.059182870,0.072207279,-0.035843793,-0.036868073
6,0.052840849,0.032092901,-0.028857538,-0.060946759,0.070551037,0.087289219,-0.042768278,-0.043868730
7,0.061411979,0.038700979,-0.034054667,-0.071306168,0.081740959,0.10255378,-0.049610003,-0.050745960
8,0.069911354,0.045690663,-0.039372144,-0.081697200,0.092742895,0.11798727,-0.056368035,-0.057500303
9,0.078336876,0.053068699,-0.044812325,-0.092109155,0.10354699,0.13357583,-0.063041270,-0.064132382
10,0.086686237,0.060841135,-0.050376999,-0.10253098,0.11414327,0.14930542,-0.069628439,-0.070642902
11,0.094956914,0.069013292,-0.056067384,-0.11295128,0.12452170,0.16516186,-0.076128115,-0.077032649
12,0.10314616,0.077589737,-0.061884131,-0.12335839,0.13467214,0.18113087,-0.082538717,-0.083302496
13,0.11125100,0.086574257,-0.067827320,-0.13374038,0.14458438,0.19719804,-0.088858516,-0.089453394
14,0.11926825,0.095969841,-0.073896463,-0.14408510,0.15424816,0.21334892,-0.095085647,-0.095486378
15,0.12719445,0.10577866,-0.080090508,-0.15438020,0.16365319,0.22956898,-0.10121811,-0.10140256
16,0.13502595,0.11600204,-0.086407844,-0.16461323,0.17278915,0.24584369,-0.10725379,-0.10720314
17,0.14275883,0.12664045,-0.092846304,-0.17477157,0.18164569,0.26215850,-0.11319043,-0.11288938
18,0.15038896,0.13769352,-0.099403175,-0.18484259,0.19021248,0.27849888,-0.11902570,-0.11846262
19,0.15791195,0.14915996,-0.10607520,-0.19481359,0.19847921,0.29485038,-0.12475714,-0.12392429
20,0.16532320,0.16103762,-0.11285861,-0.20467187,0.20643560,0.31119857,-0.13038221,-0.12927585
21,0.17261784,0.17332346,-0.11974908,-0.21440480,0.21407143,0.32752914,-0.13589827,-0.13451885
22,0.17979080,0.18601350,-0.12674182,-0.22399981,0.22137654,0.34382790,-0.14130264,-0.13965490
23,0.18683676,0.19910292,-0.13383152,-0.23344443,0.22834086,0.36008080,-0.14659252,-0.14468564
24,0.19375021,0.21258596,-0.14101240,-0.24272637,0.23495443,0.37627394,-0.15176509,-0.14961280
25,0.20052538,0.22645597,-0.14827820,-0.25183352,0.24120741,0.39239361,-0.15681746,-0.15443810
26,0.20715631,0.24070543,-0.15562223,-0.26075396,0.24709009,0.40842632,-0.16174670,-0.15916335
27,0.21363684,0.25532591,-0.16303736,-0.26947608,0.25259294,0.42435881,-0.16654984,-0.16379035
28,0.21996061,0.27030813,-0.17051603,-0.27798851,0.25770659,0.44017806,-0.17122388,-0.16832095
29,0.22612106,0.28564193,-0.17805030,-0.28628021,0.26242187,0.45587134,-0.17576581,-0.17275700
30,0.23211146,0.30131634,-0.18563186,-0.29434052,0.26672983,0.47142619,-0.18017260,-0.17710038
31,0.23792491,0.31731952,-0.19325201,-0.30215912,0.27062176,0.48683051,-0.18444121,-0.18135295
32,0.24355435,0.33363887,-0.20090176,-0.30972612,0.27408917,0.50207249,-0.18856861,-0.18551657
33,0.24899259,0.35026097,-0.20857176,-0.31703207,0.27712389,0.51714069,-0.19255176,-0.18959310
34,0.25423229,0.36717165,-0.21625240,-0.32406796,0.27971799,0.53202405,-0.19638767,-0.19358435
35,0.25926599,0.38435602,-0.22393379,-0.33082530,0.28186387,0.54671188,-0.20007332,-0.19749213
36,0.26408613,0.40179846,-0.23160577,-0.33729606,0.28355427,0.56119391,-0.20360577,-0.20131819
37,0.26868505,0.41948271,-0.23925798,-0.34347279,0.28478225,0.57546029,-0.20698208,-0.20506422
38,0.27305503,0.43739184,-0.24687987,-0.34934855,0.28554123,0.58950159,-0.21019936,-0.20873187
39,0.27718828,0.45550831,-0.25446068,-0.35491698,0.28582502,0.60330886,-0.21325475,-0.21232273
40,0.28107696,0.47381404,-0.26198951,-0.36017230,0.28562782,0.61687357,-0.21614547,-0.21583827
41,0.28471320,0.49229038,-0.26945535,-0.36510932,0.28494424,0.63018770,-0.21886875,-0.21927992
42,0.28808914,0.51091820,-0.27684705,-0.36972346,0.28376933,0.64324370,-0.22142192,-0.22264898
43,0.29119690,0.52967792,-0.28415341,-0.37401074,0.28209855,0.65603451,-0.22380233,-0.22594666
44,0.29402864,0.54854954,-0.29136316,-0.37796783,0.27992784,0.66855359,-0.22600743,-0.22917404
45,0.29657657,0.56751270,-0.29846499,-0.38159200,0.27725362,0.68079491,-0.22803471,-0.23233208
46,0.29883294,0.58654670,-0.30544760,-0.38488118,0.27407277,0.69275293,-0.22988174,-0.23542161
47,0.30079010,0.60563058,-0.31229969,-0.38783392,0.27038268,0.70442267,-0.23154617,-0.23844331
48,0.30244049,0.62474314,-0.31901001,-0.39044941,0.26618125,0.71579966,-0.23302570,-0.24139770
49,0.30377668,0.64386298,-0.32556737,-0.39272746,0.26146690,0.72687997,-0.23431813,-0.24428513
50,0.30479136,0.66296858,-0.33196064,-0.39466852,0.25623858,0.73766021,-0.23542133,-0.24710581
51,0.30547739,0.68203833,-0.33817883,-0.39627366,0.25049578,0.74813749,-0.23633322,-0.24985974
52,0.30582779,0.70105056,-0.34421107,-0.39754456,0.24423855,0.75830952,-0.23705183,-0.25254673
53,0.30583581,0.71998363,-0.35004662,-0.39848352,0.23746748,0.76817448,-0.23757525,-0.25516642
54,0.30549488,0.73881595,-0.35567492,-0.39909340,0.23018374,0.77773112,-0.23790165,-0.25771821
55,0.30479868,0.75752603,-0.36108562,-0.39937768,0.22238907,0.78697872,-0.23802927,-0.26020131
56,0.30374114,0.77609253,-0.36626855,-0.39934037,0.21408578,0.79591707,-0.23795643,-0.26261472
57,0.30231646,0.79449434,-0.37121379,-0.39898604,0.20527677,0.80454649,-0.23768153,-0.26495720
58,0.30051913,0.81271057,-0.37591164,-0.39831978,0.19596551,0.81286781,-0.23720300,-0.26722728
59,0.29834395,0.83072066,-0.38035269,-0.39734720,0.18615607,0.82088236,-0.23651940,-0.26942326
60,0.29578603,0.84850437,-0.38452779,-0.39607438,0.17585310,0.82859199,-0.23562930,-0.27154320
61,0.29284083,0.86604186,-0.38842809,-0.39450786,0.16506184,0.83599901,-0.23453137,-0.27358490
62,0.28950419,0.88331375,-0.39204505,-0.39265462,0.15378811,0.84310622,-0.23322432,-0.27554594
63,0.28577228,0.90030112,-0.39537045,-0.39052207,0.14203833,0.84991689,-0.23170693,-0.27742363
64,0.28164169,0.91698558,-0.39839640,-0.38811795,0.12981949,0.85643474,-0.22997802,-0.27921503
65,0.27710941,0.93334933,-0.40111536,-0.38545040,0.11713916,0.86266393,-0.22803646,-0.28091695
66,0.27217283,0.94937515,-0.40352015,-0.38252787,0.10400547,0.86860904,-0.22588119,-0.28252592
67,0.26682979,0.96504649,-0.40560395,-0.37935908,0.090427137,0.87427507,-0.22351117,-0.28403825
68,0.26107856,0.98034748,-0.40736031,-0.37595303,0.076413415,0.87966740,-0.22092541,-0.28544997
69,0.25491787,0.99526297,-0.40878319,-0.37231895,0.061974120,0.88479182,-0.21812294,-0.28675685
70,0.24834691,1.0097786,-0.40986690,-0.36846625,0.047119601,0.88965444,-0.21510283,-0.28795442
71,0.24136536,1.0238807,-0.41060617,-0.36440450,0.031860738,0.89426175,-0.21186419,-0.28903796
72,0.23397336,1.0375566,-0.41099612,-0.36014339,0.016208928,0.89862054,-0.20840612,-0.29000248
73,0.22617156,1.0507943,-0.41103229,-0.35569273,0.00017607122,0.90273790,-0.20472777,-0.29084278
74,0.21796109,1.0635827,-0.41071060,-0.35106235,-0.016225442,0.90662124,-0.20082829,-0.29155338
75,0.20934362,1.0759118,-0.41002738,-0.34626210,-0.032982747,0.91027820,-0.19670684,-0.29212859
76,0.20032130,1.0877722,-0.40897940,-0.34130185,-0.050082517,0.91371668,-0.19236259,-0.29256250
77,0.19089679,1.0991557,-0.40756379,-0.33619137,-0.067510984,0.91694480,-0.18779470,-0.29284897
78,0.18107330,1.1100550,-0.40577813,-0.33094038,-0.085253956,0.91997088,-0.18300234,-0.29298162
79,0.17085452,1.1204637,-0.40362038,-0.32555847,-0.10329683,0.92280343,-0.17798467,-0.29295391
80,0.16024469,1.1303763,-0.40108889,-0.32005505,-0.12162463,0.92545110,-0.17274085,-0.29275907
81,0.14924855,1.1397886,-0.39818244,-0.31443938,-0.14022199,0.92792270,-0.16727002,-0.29239017
82,0.13787137,1.1486972,-0.39490018,-0.30872046,-0.15907321,0.93022713,-0.16157131,-0.29184008
83,0.12611893,1.1570997,-0.39124164,-0.30290706,-0.17816228,0.93237339,-0.15564381,-0.29110152
84,0.11399753,1.1649947,-0.38720675,-0.29700764,-0.19747286,0.93437056,-0.14948663,-0.29016707
85,0.10151395,1.1723818,-0.38279580,-0.29103037,-0.21698836,0.93622776,-0.14309883,-0.28902914
86,0.088675507,1.1792618,-0.37800944,-0.28498303,-0.23669190,0.93795411,-0.13647944,-0.28768004
87,0.075489992,1.1856363,-0.37284868,-0.27887307,-0.25656641,0.93955877,-0.12962749,-0.28611197
88,0.061965688,1.1915079,-0.36731490,-0.27270749,-0.27659459,0.94105086,-0.12254197,-0.28431700
89,0.048111354,1.1968803,-0.36140976,-0.26649289,-0.29675896,0.94243946,-0.11522184,-0.28228716
90,0.033936215,1.2017581,-0.35513531,-0.26023539,-0.31704190,0.94373359,-0.10766602,-0.28001440
91,0.019449955,1.2061468,-0.34849387,-0.25394065,-0.33742564,0.94494218,-0.099873432,-0.27749060
92,0.0046626997,1.2100528,-0.34148807,-0.24761382,-0.35789232,0.94607406,-0.091842947,-0.27470763
93,-0.010414995,1.2134837,-0.33412085,-0.24125952,-0.37842401,0.94713792,-0.083573415,-0.27165733
94,-0.025772157,1.2164478,-0.32639542,-0.23488184,-0.39900272,0.94814233,-0.075063660,-0.26833156
95,-0.041397412,1.2189540,-0.31831525,-0.22848430,-0.41961045,0.94909568,-0.066312481,-0.26472219
96,-0.057279001,1.2210126,-0.30988405,-0.22206987,-0.44022920,0.95000616,-0.057318655,-0.26082112
97,-0.073404797,1.2226343,-0.30110581,-0.21564090,-0.46084100,0.95088180,-0.048080939,-0.25662031
98,-0.089762324,1.2238306,-0.29198470,-0.20919916,-0.48142794,0.95173036,-0.038598073,-0.25211182
99,-0.10633877,1.2246140,-0.28252514,-0.20274583,-0.50197222,0.95255939,-0.028868783,-0.24728776
100,-0.12312102,1.2249975,-0.27273171,-0.19628145,-0.52245611,0.95337620,-0.018891785,-0.24214040
101,-0.14009566,1.2249948,-0.26260922,-0.18980595,-0.54286206,0.95418780,-0.0086657889,-0.23666212
102,-0.15724901,1.2246203,-0.25216262,-0.18331863,-0.56317268,0.95500093,0.0018104948,-0.23084545
103,-0.17456712,1.2238890,-0.24139701,-0.17681818,-0.58337078,0.95582204,0.012538353,-0.22468312
104,-0.19203585,1.2228163,-0.23031766,-0.17030265,-0.60343936,0.95665725,0.023519060,-0.21816802
105,-0.20964082,1.2214183,-0.21892996,-0.16376949,-0.62336170,0.95751239,0.034753879,-0.21129328
106,-0.22736748,1.2197115,-0.20723941,-0.15721552,-0.64312135,0.95839292,0.046244046,-0.20405225
107,-0.24520114,1.2177128,-0.19525161,-0.15063696,-0.66270213,0.95930397,0.057990771,-0.19643854
108,-0.26312695,1.2154394,-0.18297226,-0.14402942,-0.68208822,0.96025033,0.069995225,-0.18844602
109,-0.28112996,1.2129091,-0.17040713,-0.13738794,-0.70126411,0.96123639,0.082258538,-0.18006886
110,-0.29919513,1.2101397,-0.15756207,-0.13070697,-0.72021468,0.96226620,0.094781785,-0.17130155
111,-0.31730737,1.2071493,-0.14444295,-0.12398042,-0.73892519,0.96334344,0.10756598,-0.16213889
112,-0.33545156,1.2039562,-0.13105572,-0.11720164,-0.75738131,0.96447137,0.12061207,-0.15257604
113,-0.35361254,1.2005789,-0.11740634,-0.11036347,-0.77556915,0.96565289,0.13392093,-0.14260852
114,-0.37177520,1.1970359,-0.10350079,-0.10345825,-0.79347526,0.96689051,0.14749333,-0.13223222
115,-0.38992444,1.1933456,-0.089345061,-0.096477838,-0.81108669,0.96818633,0.16132996,-0.12144347
116,-0.40804525,1.1895267,-0.074945148,-0.089413649,-0.82839095,0.96954205,0.17543140,-0.11023897
117,-0.42612270,1.1855976,-0.060307034,-0.082256665,-0.84537606,0.97095901,0.18979810,-0.098615875
118,-0.44414198,1.1815767,-0.045436687,-0.074997475,-0.86203059,0.97243810,0.20443040,-0.086571787
119,-0.46208841,1.1774820,-0.030340048,-0.067626300,-0.87834362,0.97397985,0.21932849,-0.074104765
120,-0.47994748,1.1733316,-0.015023027,-0.060133027,-0.89430480,0.97558440,0.23449242,-0.061213346
121,-0.49770488,1.1691431,0.00050850338,-0.052507239,-0.90990433,0.97725147,0.24992207,-0.047896556
122,-0.51534650,1.1649339,0.016248716,-0.044738254,-0.92513301,0.97898041,0.26561717,-0.034153922
123,-0.53285846,1.1607210,0.032191833,-0.036815155,-0.93998221,0.98077020,0.28157725,-0.019985484
124,-0.55022716,1.1565210,0.048332128,-0.028726830,-0.95444392,0.98261943,0.29780166,-0.0053918080
125,-0.56743927,1.1523501,0.064663934,-0.020462008,-0.96851073,0.98452631,0.31428954,0.0096260079
126,-0.58448175,1.1482239,0.081181643,-0.012009302,-0.98217582,0.98648871,0.33103982,0.025066322
127,-0.60134190,1.1441576,0.097879710,-0.0033572407,-0.99543304,0.98850414,0.34805122,0.040926941
128,-0.61800737,1.1401657,0.11475265,0.0055056834,-1.0082768,0.99056976,0.36532221,0.057205114
129,-0.63446614,1.1362621,0.13179505,0.014590978,-1.0207023,0.99268239,0.38285101,0.073897525
130,-0.65070661,1.1324602,0.14900156,0.023910106,-1.0327051,0.99483854,0.40063560,0.091000288
131,-0.66671755,1.1287726,0.16636688,0.033474448,-1.0442816,0.99703441,0.41867369,0.10850894
132,-0.68248818,1.1252111,0.18388579,0.043295257,-1.0554289,0.99926588,0.43696271,0.12641846
133,-0.69800812,1.1217869,0.20155313,0.053383615,-1.0661445,1.0015286,0.45549983,0.14472321
134,-0.71326746,1.1185103,0.21936378,0.063750394,-1.0764267,1.0038178,0.47428189,0.16341701
135,-0.72825675,1.1153910,0.23731269,0.074406213,-1.0862745,1.0061286,0.49330546,0.18249308
136,-0.74296701,1.1124377,0.25539487,0.085361392,-1.0956872,1.0084558,0.51256678,0.20194407
137,-0.75738974,1.1096582,0.27360534,0.096625916,-1.1046650,1.0107940,0.53206177,0.22176204
138,-0.77151696,1.1070596,0.29193920,0.10820939,-1.1132088,1.0131376,0.55178604,0.24193849
139,-0.78534118,1.1046481,0.31039157,0.12012100,-1.1213198,1.0154808,0.57173486,0.26246435
140,-0.79885545,1.1024287,0.32895758,0.13236947,-1.1290000,1.0178175,0.59190316,0.28332999
141,-0.81205333,1.1004060,0.34763242,0.14496302,-1.1362519,1.0201415,0.61228552,0.30452521
142,-0.82492891,1.0985831,0.36641125,0.15790934,-1.1430786,1.0224466,0.63287617,0.32603926
143,-0.83747683,1.0969627,0.38528928,0.17121555,-1.1494839,1.0247261,0.65366900,0.34786088
144,-0.84969227,1.0955462,0.40426169,0.18488814,-1.1554719,1.0269737,0.67465750,0.36997825
145,-0.86157096,1.0943341,0.42332367,0.19893298,-1.1610474,1.0291824,0.69583484,0.39237904
146,-0.87310916,1.0933262,0.44247036,0.21335522,-1.1662157,1.0313456,0.71719381,0.41505042
147,-0.88430369,1.0925212,0.46169692,0.22815933,-1.1709826,1.0334565,0.73872681,0.43797906
148,-0.89515193,1.0919167,0.48099842,0.24334904,-1.1753542,1.0355080,0.76042590,0.46115115
149,-0.90565179,1.0915097,0.50036993,0.25892728,-1.1793375,1.0374933,0.78228275,0.48455242
150,-0.91580173,1.0912960,0.51980644,0.27489620,-1.1829396,1.0394055,0.80428865,0.50816815
151,-0.92560075,1.0912708,0.53930288,0.29125712,-1.1861680,1.0412375,0.82643454,0.53198318
152,-0.93504839,1.0914280,0.55885410,0.30801051,-1.1890309,1.0429825,0.84871099,0.55598195
153,-0.94414472,1.0917612,0.57845487,0.32515598,-1.1915367,1.0446335,0.87110819,0.58014850
154,-0.95289031,1.0922625,0.59809986,0.34269222,-1.1936941,1.0461837,0.89361597,0.60446650
155,-0.96128628,1.0929238,0.61778364,0.36061705,-1.1955124,1.0476263,0.91622380,0.62891925
156,-0.96933423,1.0937356,0.63750067,0.37892735,-1.1970010,1.0489546,0.93892080,0.65348973
157,-0.97703626,1.0946882,0.65724528,0.39761906,-1.1981697,1.0501620,0.96169573,0.67816061
158,-0.98439494,1.0957708,0.67701165,0.41668717,-1.1990286,1.0512419,0.98453701,0.70291427
159,-0.99141334,1.0969718,0.69679385,0.43612574,-1.1995879,1.0521881,1.0074327,0.72773281
160,-0.99809496,1.0982794,0.71658578,0.45592784,-1.1998583,1.0529942,1.0303707,0.75259811
161,-1.0044438,1.0996806,0.73638118,0.47608560,-1.1998504,1.0536542,1.0533383,0.77749181
162,-1.0104641,1.1011621,0.75617362,0.49659017,-1.1995754,1.0541621,1.0763226,0.80239537
163,-1.0161608,1.1027099,0.77595650,0.51743173,-1.1990442,1.0545123,1.0993106,0.82729009
164,-1.0215390,1.1043097,0.79572305,0.53859952,-1.1982682,1.0546990,1.1222886,0.85215712
165,-1.0266043,1.1059464,0.81546628,0.56008181,-1.1972586,1.0547171,1.1452432,0.87697749
166,-1.0313626,1.1076047,0.83517905,0.58186594,-1.1960271,1.0545613,1.1681601,0.90173216
167,-1.0358202,1.1092686,0.85485397,0.60393830,-1.1945850,1.0542266,1.1910252,0.92640199
168,-1.0399836,1.1109222,0.87448347,0.62628436,-1.1929440,1.0537085,1.2138240,0.95096785
169,-1.0438598,1.1125488,0.89405978,0.64888871,-1.1911156,1.0530024,1.2365417,0.97541058
170,-1.0474559,1.1141317,0.91357490,0.67173502,-1.1891114,1.0521041,1.2591636,0.99971104
171,-1.0507792,1.1156539,0.93302061,0.69480613,-1.1869429,1.0510096,1.2816744,1.0238501
172,-1.0538376,1.1170984,0.95238850,0.71808402,-1.1846217,1.0497152,1.3040590,1.0478088
173,-1.0566388,1.1184479,0.97166991,0.74154985,-1.1821592,1.0482175,1.3263019,1.0715682
174,-1.0591909,1.1196849,0.99085596,0.76518402,-1.1795666,1.0465132,1.3483876,1.0951095
175,-1.0615021,1.1207923,1.0099376,0.78896614,-1.1768553,1.0445995,1.3703003,1.1184141
176,-1.0635809,1.1217525,1.0289055,0.81287511,-1.1740361,1.0424737,1.3920244,1.1414635
177,-1.0654358,1.1225484,1.0477501,0.83688914,-1.1711201,1.0401334,1.4135440,1.1642395
178,-1.0670753,1.1231629,1.0664617,0.86098580,-1.1681180,1.0375765,1.4348433,1.1867240
179,-1.0685082,1.1235789,1.0850304,0.88514201,-1.1650402,1.0348013,1.4559061,1.2088993
180,-1.0697432,1.1237798,1.1034460,0.90933415,-1.1618971,1.0318062,1.4767167,1.2307480
181,-1.0707891,1.1237489,1.1216981,0.93353804,-1.1586986,1.0285900,1.4972591,1.2522528
182,-1.0716548,1.1234703,1.1397763,0.95772904,-1.1554548,1.0251516,1.5175174,1.2733969
183,-1.0723489,1.1229281,1.1576698,0.98188202,-1.1521749,1.0214904,1.5374758,1.2941640
184,-1.0728804,1.1221068,1.1753676,1.0059715,-1.1488684,1.0176060,1.5571183,1.3145378
185,-1.0732579,1.1209916,1.1928587,1.0299716,-1.1455441,1.0134982,1.5764295,1.3345027
186,-1.0734900,1.1195680,1.2101320,1.0538562,-1.1422106,1.0091671,1.5953936,1.3540435
187,-1.0735853,1.1178221,1.2271759,1.0775988,-1.1388764,1.0046131,1.6139953,1.3731452
188,-1.0735523,1.1157406,1.2439790,1.1011729,-1.1355492,0.99983689,1.6322193,1.3917936
189,-1.0733991,1.1133106,1.2605296,1.1245517,-1.1322367,0.99483926,1.6500506,1.4099749
190,-1.0731340,1.1105202,1.2768160,1.1477084,-1.1289462,0.98962138,1.6674743,1.4276755
191,-1.0727650,1.1073579,1.2928264,1.1706159,-1.1256845,0.98418462,1.6844756,1.4448827
192,-1.0722998,1.1038131,1.3085488,1.1932476,-1.1224581,0.97853057,1.7010404,1.4615843
193,-1.0717460,1.0998759,1.3239713,1.2155764,-1.1192731,0.97266107,1.7171544,1.4777683
194,-1.0711109,1.0955370,1.3390817,1.2375758,-1.1161352,0.96657816,1.7328040,1.4934236
195,-1.0704017,1.0907883,1.3538681,1.2592192,-1.1130497,0.96028409,1.7479755,1.5085397
196,-1.0696251,1.0856222,1.3683184,1.2804802,-1.1100215,0.95378129,1.7626558,1.5231065
197,-1.0687879,1.0800320,1.3824204,1.3013330,-1.1070550,0.94707242,1.7768323,1.5371145
198,-1.0678962,1.0740120,1.3961621,1.3217516,-1.1041544,0.94016028,1.7904924,1.5505551
199,-1.0669561,1.0675574,1.4095316,1.3417110,-1.1013233,0.93304788,1.8036243,1.5634200
200,-1.0659733,1.0606641,1.4225169,1.3611862,-1.0985649,0.92573835,1.8162163,1.5757016
201,-1.0649531,1.0533293,1.4351061,1.3801528,-1.0958821,0.91823500,1.8282574,1.5873932
202,-1.0639007,1.0455507,1.4472874,1.3985871,-1.0932772,0.91054128,1.8397368,1.5984883
203,-1.0628206,1.0373272,1.4590493,1.4164658,-1.0907524,0.90266074,1.8506445,1.6089816
204,-1.0617174,1.0286588,1.4703803,1.4337663,-1.0883091,0.89459709,1.8609707,1.6188678
205,-1.0605949,1.0195460,1.4812690,1.4504668,-1.0859486,0.88635412,1.8707062,1.6281429
206,-1.0594569,1.0099908,1.4917044,1.4665461,-1.0836717,0.87793574,1.8798425,1.6368031
207,-1.0583067,0.99999575,1.5016755,1.4819838,-1.0814788,0.86934593,1.8883714,1.6448455
208,-1.0571471,0.98956454,1.5111717,1.4967604,-1.0793699,0.86058876,1.8962854,1.6522677
209,-1.0559808,0.97870177,1.5201826,1.5108573,-1.0773446,0.85166836,1.9035776,1.6590681
210,-1.0548100,0.96741299,1.5286981,1.5242566,-1.0754021,0.84258892,1.9102415,1.6652457
211,-1.0536365,0.95570466,1.5367083,1.5369416,-1.0735414,0.83335467,1.9162714,1.6708001
212,-1.0524616,0.94358419,1.5442038,1.5488965,-1.0717611,0.82396991,1.9216621,1.6757315
213,-1.0512866,0.93105985,1.5511754,1.5601065,-1.0700592,0.81443892,1.9264089,1.6800410
214,-1.0501122,0.91814083,1.5576143,1.5705577,-1.0684338,0.80476604,1.9305081,1.6837300
215,-1.0489386,0.90483716,1.5635122,1.5802375,-1.0668822,0.79495559,1.9339562,1.6868007
216,-1.0477660,0.89115971,1.5688612,1.5891345,-1.0654018,0.78501190,1.9367506,1.6892559
217,-1.0465939,0.87712019,1.5736535,1.5972380,-1.0639894,0.77493931,1.9388893,1.6910989
218,-1.0454216,0.86273107,1.5778823,1.6045390,-1.0626418,0.76474211,1.9403709,1.6923337
219,-1.0442482,0.84800559,1.5815408,1.6110291,-1.0613553,0.75442460,1.9411946,1.6929649
220,-1.0430722,0.83295773,1.5846230,1.6167017,-1.0601259,0.74399103,1.9413603,1.6929975
221,-1.0418920,0.81760214,1.5871232,1.6215509,-1.0589497,0.73344563,1.9408687,1.6924372
222,-1.0407055,0.80195415,1.5890363,1.6255722,-1.0578221,0.72279255,1.9397210,1.6912902
223,-1.0395104,0.78602973,1.5903579,1.6287626,-1.0567387,0.71203594,1.9379189,1.6895632
224,-1.0383042,0.76984541,1.5910840,1.6311198,-1.0556946,0.70117985,1.9354652,1.6872634
225,-1.0370839,0.75341828,1.5912110,1.6326432,-1.0546849,0.69022831,1.9323629,1.6843985
226,-1.0358465,0.73676595,1.5907363,1.6333332,-1.0537044,0.67918526,1.9286158,1.6809766
227,-1.0345884,0.71990648,1.5896577,1.6331916,-1.0527479,0.66805458,1.9242285,1.6770064
228,-1.0333062,0.70285836,1.5879734,1.6322214,-1.0518100,0.65684007,1.9192060,1.6724970
229,-1.0319958,0.68564047,1.5856827,1.6304266,-1.0508850,0.64554547,1.9135539,1.6674577
230,-1.0306533,0.66827202,1.5827850,1.6278127,-1.0499672,0.63417445,1.9072788,1.6618984
231,-1.0292743,0.65077250,1.5792808,1.6243864,-1.0490511,0.62273058,1.9003874,1.6558293
232,-1.0278544,0.63316166,1.5751710,1.6201554,-1.0481306,0.61121737,1.8928872,1.6492611
233,-1.0263890,0.61545945,1.5704573,1.6151287,-1.0472000,0.59963824,1.8847865,1.6422045
234,-1.0248734,0.59768594,1.5651419,1.6093165,-1.0462532,0.58799653,1.8760939,1.6346708
235,-1.0233025,0.57986135,1.5592278,1.6027301,-1.0452842,0.57629553,1.8668186,1.6266716
236,-1.0216715,0.56200592,1.5527187,1.5953819,-1.0442871,0.56453842,1.8569703,1.6182185
237,-1.0199753,0.54413991,1.5456188,1.5872852,-1.0432559,0.55272831,1.8465594,1.6093235
238,-1.0182086,0.52628354,1.5379332,1.5784548,-1.0421846,0.54086826,1.8355968,1.5999990
239,-1.0163662,0.50845696,1.5296675,1.5689060,-1.0410671,0.52896123,1.8240936,1.5902572
240,-1.0144428,0.49068017,1.5208281,1.5586555,-1.0398976,0.51701013,1.8120616,1.5801109
241,-1.0124331,0.47297299,1.5114219,1.5477207,-1.0386701,0.50501781,1.7995132,1.5695728
242,-1.0103318,0.45535502,1.5014566,1.5361201,-1.0373789,0.49298706,1.7864609,1.5586557
243,-1.0081336,0.43784561,1.4909406,1.5238728,-1.0360181,0.48092060,1.7729179,1.5473727
244,-1.0058332,0.42046376,1.4798829,1.5109990,-1.0345822,0.46882113,1.7588976,1.5357368
245,-1.0034254,0.40322815,1.4682930,1.4975195,-1.0330655,0.45669128,1.7444139,1.5237613
246,-1.0009049,0.38615704,1.4561811,1.4834561,-1.0314626,0.44453366,1.7294809,1.5114593
247,-0.99826666,0.36926826,1.4435583,1.4688309,-1.0297682,0.43235083,1.7141133,1.4988440
248,-0.99550564,0.35257917,1.4304359,1.4536669,-1.0279769,0.42014536,1.6983258,1.4859288
249,-0.99261693,0.33610660,1.4168261,1.4379877,-1.0260839,0.40791977,1.6821336,1.4727269
250,-0.98959574,0.31986683,1.4027413,1.4218174,-1.0240840,0.39567658,1.6655520,1.4592514
251,-0.98643741,0.30387556,1.3881950,1.4051806,-1.0219726,0.38341831,1.6485968,1.4455155
252,-0.98313744,0.28814788,1.3732007,1.3881022,-1.0197449,0.37114749,1.6312836,1.4315323
253,-0.97969149,0.27269821,1.3577729,1.3706077,-1.0173967,0.35886665,1.6136286,1.4173148
254,-0.97609538,0.25754030,1.3419262,1.3527228,-1.0149235,0.34657835,1.5956479,1.4028759
255,-0.97234516,0.24268719,1.3256758,1.3344735,-1.0123212,0.33428517,1.5773578,1.3882282
256,-0.96843704,0.22815118,1.3090376,1.3158861,-1.0095861,0.32198975,1.5587748,1.3733846
257,-0.96436747,0.21394383,1.2920277,1.2969869,-1.0067142,0.30969475,1.5399154,1.3583573
258,-0.96013311,0.20007592,1.2746626,1.2778025,-1.0037021,0.29740290,1.5207960,1.3431588
259,-0.95573087,0.18655740,1.2569593,1.2583593,-1.0005464,0.28511698,1.5014335,1.3278012
260,-0.95115788,0.17339747,1.2389350,1.2386841,-0.99724401,0.27283985,1.4818444,1.3122962
261,-0.94641153,0.16060443,1.2206075,1.2188032,-0.99379193,0.26057445,1.4620452,1.2966558
262,-0.94148948,0.14818580,1.2019946,1.1987431,-0.99018743,0.24832379,1.4420527,1.2808913
263,-0.93638964,0.13614822,1.1831146,1.1785301,-0.98642793,0.23609100,1.4218833,1.2650141
264,-0.93111021,0.12449748,1.1639859,1.1581900,-0.98251111,0.22387929,1.4015535,1.2490350
265,-0.92564963,0.11323851,1.1446272,1.1377487,-0.97843480,0.21169198,1.3810795,1.2329650
266,-0.92000667,0.10237536,1.1250575,1.1172316,-0.97419705,0.19953253,1.3604777,1.2168144
267,-0.91418034,0.091911241,1.1052956,1.0966637,-0.96979611,0.18740451,1.3397640,1.2005936
268,-0.90816997,0.081848480,1.0853608,1.0760698,-0.96523042,0.17531160,1.3189543,1.1843123
269,-0.90197516,0.072188555,1.0652723,1.0554738,-0.96049863,0.16325765,1.2980644,1.1679804
270,-0.89559580,0.062932089,1.0450494,1.0348996,-0.95559955,0.15124663,1.2771096,1.1516072
271,-0.88903208,0.054078865,1.0247114,1.0143702,-0.95053220,0.13928267,1.2561053,1.1352017
272,-0.88228446,0.045627832,1.0042776,0.99390803,-0.94529579,0.12737004,1.2350663,1.1187728
273,-0.87535372,0.037577125,0.98376744,0.97353502,-0.93988969,0.11551318,1.2140074,1.1023288
274,-0.86824090,0.029924073,0.96319999,0.95327232,-0.93431346,0.10371667,1.1929430,1.0858781
275,-0.86094733,0.022665226,0.94259442,0.93314035,-0.92856683,0.091985283,1.1718871,1.0694283
276,-0.85347461,0.015796369,0.92196970,0.91315882,-0.92264969,0.080323938,1.1508537,1.0529872
277,-0.84582464,0.0093125447,0.90134467,0.89334661,-0.91656210,0.068737729,1.1298560,1.0365618
278,-0.83799955,0.0032080803,0.88073795,0.87372181,-0.91030426,0.057231923,1.1089071,1.0201592
279,-0.83000176,-0.0025233881,0.86016793,0.85430163,-0.90387654,0.045811958,1.0880198,1.0037860
280,-0.82183394,-0.0078888872,0.83965274,0.83510243,-0.89727944,0.034483442,1.0672063,0.98744855
281,-0.81349901,-0.012896077,0.81921025,0.81613965,-0.89051361,0.023252160,1.0464786,0.97115278
282,-0.80500012,-0.017553221,0.79885798,0.79742781,-0.88357982,0.012124065,1.0258482,0.95490446
283,-0.79634067,-0.021869149,0.77861312,0.77898049,-0.87647896,0.0011052802,1.0053261,0.93870900
284,-0.78752427,-0.025853228,0.75849246,0.76081030,-0.86921207,-0.0097979009,0.98492298,0.92257154
285,-0.77855473,-0.029515324,0.73851242,0.74292888,-0.86178028,-0.020579022,0.96464912,0.90649691
286,-0.76943610,-0.032865764,0.71868895,0.72534687,-0.85418482,-0.031231464,0.94451426,0.89048969
287,-0.76017258,-0.035915301,0.69903759,0.70807394,-0.84642703,-0.041748453,0.92452773,0.87455416
288,-0.75076857,-0.038675073,0.67957336,0.69111873,-0.83850837,-0.052123059,0.90469840,0.85869433
289,-0.74122865,-0.041156562,0.66031078,0.67448888,-0.83043034,-0.062348210,0.88503466,0.84291396
290,-0.73155753,-0.043371556,0.64126386,0.65819101,-0.82219455,-0.072416689,0.86554446,0.82721654
291,-0.72176009,-0.045332105,0.62244604,0.64223075,-0.81380269,-0.082321149,0.84623526,0.81160534
292,-0.71184132,-0.047050482,0.60387020,0.62661269,-0.80525652,-0.092054117,0.82711408,0.79608336
293,-0.70180635,-0.048539135,0.58554862,0.61134046,-0.79655784,-0.10160800,0.80818745,0.78065338
294,-0.69166040,-0.049810653,0.56749298,0.59641666,-0.78770855,-0.11097510,0.78946143,0.76531796
295,-0.68140879,-0.050877712,0.54971433,0.58184292,-0.77871058,-0.12014763,0.77094161,0.75007945
296,-0.67105691,-0.051753043,0.53222307,0.56761990,-0.76956591,-0.12911768,0.75263313,0.73493999
297,-0.66061023,-0.052449380,0.51502895,0.55374732,-0.76027657,-0.13787731,0.73454065,0.71990152
298,-0.65007427,-0.052979424,0.49814106,0.54022394,-0.75084463,-0.14641848,0.71666838,0.70496581
299,-0.63945458,-0.053355796,0.48156779,0.52704761,-0.74127220,-0.15473311,0.69902007,0.69013443
300,-0.62875674,-0.053590997,0.46531685,0.51421529,-0.73156144,-0.16281307,0.68159902,0.67540881
301,-0.61798635,-0.053697366,0.44939526,0.50172308,-0.72171450,-0.17065022,0.66440810,0.66079021
302,-0.60714900,-0.053687039,0.43380931,0.48956622,-0.71173359,-0.17823638,0.64744974,0.64627973
303,-0.59625028,-0.053571910,0.41856460,0.47773913,-0.70162095,-0.18556338,0.63072593,0.63187836
304,-0.58529573,-0.053363591,0.40366600,0.46623547,-0.69137881,-0.19262308,0.61423826,0.61758694
305,-0.57429087,-0.053073373,0.38911767,0.45504812,-0.68100946,-0.19940735,0.59798790,0.60340621
306,-0.56324118,-0.052712191,0.37492304,0.44416926,-0.67051518,-0.20590809,0.58197565,0.58933678
307,-0.55215205,-0.052290586,0.36108482,0.43359036,-0.65989828,-0.21211731,0.56620188,0.57537918
308,-0.54102882,-0.051818673,0.34760501,0.42330228,-0.64916111,-0.21802703,0.55066662,0.56153384
309,-0.52987672,-0.051306107,0.33448490,0.41329524,-0.63830599,-0.22362942,0.53536952,0.54780111
310,-0.51870092,-0.050762050,0.32172507,0.40355889,-0.62733532,-0.22891672,0.52030989,0.53418128
311,-0.50750645,-0.050195144,0.30932537,0.39408238,-0.61625146,-0.23388131,0.50548669,0.52067456
312,-0.49629825,-0.049613480,0.29728500,0.38485433,-0.60505684,-0.23851570,0.49089859,0.50728110
313,-0.48508113,-0.049024573,0.28560243,0.37586294,-0.59375388,-0.24281258,0.47654390,0.49400103
314,-0.47385975,-0.048435340,0.27427549,0.36709601,-0.58234504,-0.24676479,0.46242069,0.48083441
315,-0.46263865,-0.047852072,0.26330133,0.35854096,-0.57083280,-0.25036537,0.44852672,0.46778130
316,-0.45142222,-0.047280418,0.25267646,0.35018492,-0.55921969,-0.25360757,0.43485949,0.45484169
317,-0.44021469,-0.046725365,0.24239674,0.34201474,-0.54750824,-0.25648486,0.42141626,0.44201560
318,-0.42902014,-0.046191221,0.23245744,0.33401704,-0.53570103,-0.25899096,0.40819405,0.42930300
319,-0.41784247,-0.045681602,0.22285321,0.32617826,-0.52380069,-0.26111983,0.39518967,0.41670388
320,-0.40668542,-0.045199420,0.21357811,0.31848473,-0.51180989,-0.26286573,0.38239974,0.40421822
321,-0.39555255,-0.044746871,0.20462566,0.31092265,-0.49973135,-0.26422318,0.36982068,0.39184599
322,-0.38444726,-0.044325430,0.19598884,0.30347823,-0.48756782,-0.26518704,0.35744875,0.37958719
323,-0.37337274,-0.043935845,0.18766009,0.29613764,-0.47532214,-0.26575244,0.34528007,0.36744182
324,-0.36233203,-0.043578135,0.17963138,0.28888712,-0.46299720,-0.26591490,0.33331060,0.35540990
325,-0.35132797,-0.043251587,0.17189419,0.28171297,-0.45059597,-0.26567025,0.32153621,0.34349147
326,-0.34036323,-0.042954759,0.16443956,0.27460168,-0.43812147,-0.26501471,0.30995266,0.33168660
327,-0.32944028,-0.042685486,0.15725811,0.26753985,-0.42557682,-0.26394485,0.29855561,0.31999538
328,-0.31856142,-0.042440884,0.15034008,0.26051435,-0.41296522,-0.26245766,0.28734069,0.30841792
329,-0.30772878,-0.042217358,0.14367531,0.25351228,-0.40028998,-0.26055051,0.27630344,0.29695437
330,-0.29694430,-0.042010616,0.13725335,0.24652104,-0.38755449,-0.25822120,0.26543937,0.28560490
331,-0.28620975,-0.041815677,0.13106340,0.23952839,-0.37476223,-0.25546793,0.25474398,0.27436973
332,-0.27552673,-0.041626895,0.12509440,0.23252243,-0.36191684,-0.25228936,0.24421276,0.26324909
333,-0.26489670,-0.041437966,0.11933502,0.22549169,-0.34902204,-0.24868460,0.23384119,0.25224326
334,-0.25432091,-0.041241955,0.11377374,0.21842514,-0.33608168,-0.24465318,0.22362481,0.24135252
335,-0.24380051,-0.041031315,0.10839883,0.21131221,-0.32309974,-0.24019512,0.21355916,0.23057722
336,-0.23333648,-0.040797910,0.10319839,0.20414285,-0.31008036,-0.23531090,0.20363984,0.21991772
337,-0.22292966,-0.040533045,0.098160421,0.19690755,-0.29702779,-0.23000148,0.19386253,0.20937439
338,-0.21258077,-0.040227485,0.093272801,0.18959735,-0.28394644,-0.22426830,0.18422296,0.19894765
339,-0.20229038,-0.039871492,0.088523351,0.18220387,-0.27084089,-0.21811327,0.17471696,0.18863794
340,-0.19205900,-0.039454853,0.083899852,0.17471937,-0.25771587,-0.21153882,0.16534046,0.17844571
341,-0.18188697,-0.038966912,0.079390082,0.16713671,-0.24457626,-0.20454784,0.15608949,0.16837142
342,-0.17177460,-0.038396603,0.074981843,0.15944943,-0.23142713,-0.19714374,0.14696023,0.15841557
343,-0.16172206,-0.037732490,0.070662990,0.15165171,-0.21827372,-0.18933040,0.13794895,0.14857866
344,-0.15172948,-0.036962798,0.066421466,0.14373843,-0.20512144,-0.18111221,0.12905208,0.13886118
345,-0.14179693,-0.036075455,0.062245328,0.13570518,-0.19197590,-0.17249405,0.12026621,0.12926364
346,-0.13192441,-0.035058129,0.058122775,0.12754823,-0.17884289,-0.16348129,0.11158806,0.11978655
347,-0.12211190,-0.033898269,0.054042180,0.11926458,-0.16572837,-0.15407979,0.10301453,0.11043042
348,-0.11235933,-0.032583145,0.049992117,0.11085196,-0.15263853,-0.14429589,0.094542695,0.10119572
349,-0.10266663,-0.031099892,0.045961385,0.10230881,-0.13957973,-0.13413641,0.086169795,0.092082955
350,-0.093033732,-0.029435548,0.041939039,0.093634328,-0.12655852,-0.12360864,0.077893259,0.083092572
351,-0.083460568,-0.027577101,0.037914416,0.084828411,-0.11358168,-0.11272035,0.069710701,0.074225014
352,-0.073947093,-0.025511533,0.033877156,0.075891697,-0.10065616,-0.10147974,0.061619926,0.065480695
353,-0.064493301,-0.023225857,0.029817228,0.066825545,-0.087789124,-0.089895474,0.053618937,0.056859996
354,-0.055099227,-0.020707169,0.025724956,0.057632030,-0.074987925,-0.077976661,0.045705930,0.048363265
355,-0.045764970,-0.017942685,0.021591037,0.048313934,-0.062260120,-0.065732824,0.037879306,0.039990807
356,-0.036490698,-0.014919789,0.017406566,0.038874733,-0.049613461,-0.053173906,0.030137663,0.031742885
357,-0.027276665,-0.011626076,0.013163054,0.029318589,-0.037055893,-0.040310250,0.022479806,0.023619713
358,-0.018123218,-0.0080493906,0.0088524461,0.019650330,-0.024595553,-0.027152590,0.014904740,0.015621451
359,-0.0090308129,-0.0041778761,0.0044671424,0.0098754388,-0.012240764,-0.013712032,0.0074116747,0.0077482060
360,-2.5097549e-08,-1.2088393e-08,1.2577857e-08,2.7673423e-08,-3.3968561e-08,-3.8606103e-08,2.0555710e-08,2.1432925e-08
