XRT N-S vs UFSS-A
      231.326
     0.597509
     0.569051
     0.272217
   -0.0753796
    0.0132977
    0.0992281
XRT N-S vs UFSS-B
      234.840
     0.494453
    -0.657220
   -0.0161696
   -0.0945077
   -0.0219322
   0.00155273
XRT E-W vs UFSS-A
      3978.14
    -0.880401
    -0.497176
     0.102972
     0.148813
   -0.0663246
    0.0143423
XRT E-W vs UFSS-B
      3975.85
    -0.994736
    -0.365131
     0.178707
    0.0103208
   -0.0465691
    0.0304996
SOT N-S vs UFSS-A
      118.740
     0.399488
     0.728429
     0.361300
    0.0674760
   -0.0160174
    0.0797728
SOT N-S vs UFSS-B
      122.422
     0.354104
    -0.522153
    0.0989197
  -0.00697542
    0.0161415
   -0.0235480
SOT E-W vs UFSS-A
      192.154
    -0.789603
    -0.552789
    0.0401558
     0.101513
    -0.126674
    0.0362395
SOT E-W vs UFSS-B
      189.822
    -0.896690
    -0.394131
     0.179541
     0.136150
   -0.0436549
   -0.0132346
