deg,XRT_AX,XRT_BX,XRT_AY,XRT_BY,SOT_AX,SOT_BX,SOT_AY,SOT_BY
valid,1,1,1,1,1,1,1,1,revB
offset,97.554696,83.932718,1986.5864,1979.8225,23.799481,10.237851,106.14176,98.952625
0,0.0000000,0.0000000,0.0000000,0.0000000,0.0000000,0.0000000,0.0000000,0.0000000
1,0.079404843,0.035930879,-0.017426945,0.010114730,0.074399619,0.034305789,-0.029650014,0.0055740817
2,0.15575277,0.071846308,-0.033645405,0.019614707,0.14815824,0.068235968,-0.058557520,0.011026440
3,0.22904860,0.10771606,-0.048692940,0.028492005,0.22117141,0.10176155,-0.086721119,0.016344215
4,0.29930430,0.14351054,-0.062609514,0.036740594,0.29333849,0.13485526,-0.11414079,0.021515473
5,0.36653880,0.17920076,-0.075437348,0.044356324,0.36456279,0.16749154,-0.14081782,0.026529224
6,0.43077781,0.21475843,-0.087220752,0.051336916,0.43475175,0.19964662,-0.16675479,0.031375438
7,0.49205355,0.25015597,-0.098005960,0.057681931,0.50381705,0.23129847,-0.19195552,0.036045058
8,0.55040455,0.28536650,-0.10784096,0.063392751,0.57167478,0.26242686,-0.21642499,0.040530006
9,0.60587538,0.32036391,-0.11677533,0.068472548,0.63824551,0.29301336,-0.24016931,0.044823195
10,0.65851639,0.35512286,-0.12486004,0.072926250,0.70345445,0.32304134,-0.26319563,0.048918533
11,0.70838343,0.38961882,-0.13214729,0.076760500,0.76723148,0.35249595,-0.28551215,0.052810928
12,0.75553760,0.42382804,-0.13869034,0.079983621,0.82951129,0.38136416,-0.30712797,0.056496284
13,0.80004489,0.45772763,-0.14454328,0.082605567,0.89023342,0.40963470,-0.32805312,0.059971504
14,0.84197593,0.49129555,-0.14976090,0.084637875,0.94934230,0.43729810,-0.34829840,0.063234486
15,0.88140566,0.52451062,-0.15439849,0.086093615,1.0067874,0.46434661,-0.36787541,0.066284115
16,0.91841301,0.55735253,-0.15851163,0.086987335,1.0625230,0.49077425,-0.38679643,0.069120253
17,0.95308056,0.58980187,-0.16215606,0.087335001,1.1165086,0.51657672,-0.40507434,0.071743734
18,0.98549424,0.62184011,-0.16538743,0.087153938,1.1687085,0.54175141,-0.42272261,0.074156346
19,1.0157430,0.65344965,-0.16826118,0.086462770,1.2190923,0.56629737,-0.43975521,0.076360820
20,1.0439184,0.68461378,-0.17083234,0.085281350,1.2676344,0.59021522,-0.45618651,0.078360809
21,1.0701143,0.71531672,-0.17315533,0.083630693,1.3143141,0.61350720,-0.47203127,0.080160873
22,1.0944267,0.74554361,-0.17528384,0.081532909,1.3591158,0.63617703,-0.48730453,0.081766457
23,1.1169530,0.77528050,-0.17727061,0.079011131,1.4020287,0.65822994,-0.50202157,0.083183866
24,1.1377922,0.80451438,-0.17916731,0.076089440,1.4430468,0.67967259,-0.51619784,0.084420244
25,1.1570441,0.83323314,-0.18102435,0.072792791,1.4821689,0.70051299,-0.52984889,0.085483545
26,1.1748090,0.86142562,-0.18289072,0.069146941,1.5193984,0.72076050,-0.54299033,0.086382506
27,1.1911878,0.88908153,-0.18481389,0.065178366,1.5547433,0.74042573,-0.55563772,0.087126619
28,1.2062811,0.91619152,-0.18683960,0.060914190,1.5882160,0.75952051,-0.56780658,0.087726096
29,1.2201893,0.94274712,-0.18901178,0.056382102,1.6198335,0.77805780,-0.57951228,0.088191843
30,1.2330122,0.96874078,-0.19137239,0.051610284,1.6496165,0.79605165,-0.59077000,0.088535418
31,1.2448485,0.99416581,-0.19396130,0.046627327,1.6775904,0.81351710,-0.60159468,0.088769004
32,1.2557957,1.0190164,-0.19681618,0.041462153,1.7037841,0.83047016,-0.61200097,0.088905368
33,1.2659497,1.0432876,-0.19997240,0.036143941,1.7282306,0.84692771,-0.62200316,0.088957827
34,1.2754048,1.0669753,-0.20346292,0.030702050,1.7509663,0.86290744,-0.63161517,0.088940205
35,1.2842528,1.0900762,-0.20731818,0.025165935,1.7720312,0.87842777,-0.64085049,0.088866801
36,1.2925836,1.1125880,-0.21156605,0.019565079,1.7914686,0.89350779,-0.64972210,0.088752346
37,1.3004842,1.1345088,-0.21623175,0.013928917,1.8093251,0.90816718,-0.65824251,0.088611960
38,1.3080388,1.1558380,-0.22133776,0.0082867584,1.8256500,0.92242614,-0.66642365,0.088461117
39,1.3153287,1.1765753,-0.22690379,0.0026677196,1.8404954,0.93630532,-0.67427687,0.088315601
40,1.3224318,1.1967215,-0.23294670,-0.0028993481,1.8539163,0.94982574,-0.68181291,0.088191464
41,1.3294227,1.2162779,-0.23948052,-0.0083859265,1.8659698,0.96300873,-0.68904187,0.088104986
42,1.3363722,1.2352467,-0.24651634,-0.013763897,1.8767152,0.97587585,-0.69597320,0.088072631
43,1.3433476,1.2536305,-0.25406238,-0.019005604,1.8862139,0.98844881,-0.70261563,0.088111010
44,1.3504119,1.2714330,-0.26212389,-0.024083920,1.8945291,1.0007494,-0.70897722,0.088236833
45,1.3576244,1.2886582,-0.27070323,-0.028972298,1.9017256,1.0127995,-0.71506530,0.088466874
46,1.3650401,1.3053108,-0.27979981,-0.033644838,1.9078693,1.0246209,-0.72088647,0.088817925
47,1.3727097,1.3213962,-0.28941018,-0.038076333,1.9130278,1.0362352,-0.72644660,0.089306758
48,1.3806795,1.3369204,-0.29952797,-0.042242324,1.9172694,1.0476639,-0.73175083,0.089950087
49,1.3889916,1.3518897,-0.31014401,-0.046119149,1.9206630,1.0589283,-0.73680354,0.090764522
50,1.3976834,1.3663112,-0.32124632,-0.049683985,1.9232784,1.0700493,-0.74160839,0.091766537
51,1.4067880,1.3801925,-0.33282019,-0.052914893,1.9251857,1.0810475,-0.74616829,0.092972427
52,1.4163340,1.3935416,-0.34484823,-0.055790859,1.9264550,1.0919430,-0.75048544,0.094398276
53,1.4263454,1.4063670,-0.35731047,-0.058291823,1.9271565,1.1027556,-0.75456132,0.096059916
54,1.4368417,1.4186777,-0.37018438,-0.060398717,1.9273604,1.1135043,-0.75839671,0.097972893
55,1.4478380,1.4304829,-0.38344502,-0.062093494,1.9271361,1.1242079,-0.76199174,0.10015244
56,1.4593450,1.4417924,-0.39706510,-0.063359149,1.9265527,1.1348841,-0.76534582,0.10261342
57,1.4713692,1.4526165,-0.41101510,-0.064179747,1.9256785,1.1455503,-0.76845779,0.10537034
58,1.4839125,1.4629655,-0.42526337,-0.064540435,1.9245808,1.1562232,-0.77132583,0.10843727
59,1.4969731,1.4728503,-0.43977624,-0.064427465,1.9233259,1.1669184,-0.77394757,0.11182784
60,1.5105448,1.4822821,-0.45451815,-0.063828198,1.9219787,1.1776511,-0.77632007,0.11555523
61,1.5246176,1.4912721,-0.46945178,-0.062731118,1.9206030,1.1884355,-0.77843988,0.11963210
62,1.5391778,1.4998322,-0.48453820,-0.061125831,1.9192606,1.1992850,-0.78030308,0.12407060
63,1.5542078,1.5079742,-0.49973697,-0.059003072,1.9180119,1.2102121,-0.78190528,0.12888233
64,1.5696869,1.5157103,-0.51500631,-0.056354701,1.9169154,1.2212284,-0.78324170,0.13407834
65,1.5855907,1.5230528,-0.53030325,-0.053173695,1.9160276,1.2323447,-0.78430722,0.13966908
66,1.6018921,1.5300142,-0.54558378,-0.049454143,1.9154030,1.2435707,-0.78509635,0.14566441
67,1.6185607,1.5366073,-0.56080299,-0.045191232,1.9150938,1.2549152,-0.78560337,0.15207355
68,1.6355637,1.5428447,-0.57591523,-0.040381232,1.9151501,1.2663863,-0.78582232,0.15890512
69,1.6528655,1.5487396,-0.59087430,-0.035021480,1.9156195,1.2779908,-0.78574703,0.16616707
70,1.6704285,1.5543049,-0.60563359,-0.029110356,1.9165470,1.2897347,-0.78537123,0.17386669
71,1.6882129,1.5595538,-0.62014623,-0.022647263,1.9179755,1.3016231,-0.78468854,0.18201063
72,1.7061770,1.5644994,-0.63436527,-0.015632598,1.9199447,1.3136601,-0.78369256,0.19060485
73,1.7242778,1.5691552,-0.64824386,-0.0080677226,1.9224922,1.3258487,-0.78237689,0.19965462
74,1.7424707,1.5735343,-0.66173539,4.5066232e-05,1.9256527,1.3381913,-0.78073520,0.20916454
75,1.7607102,1.5776500,-0.67479366,0.0087025712,1.9294580,1.3506890,-0.77876127,0.21913853
76,1.7789498,1.5815158,-0.68737304,0.017900730,1.9339373,1.3633423,-0.77644903,0.22957981
77,1.7971425,1.5851449,-0.69942866,0.027634656,1.9391172,1.3761507,-0.77379263,0.24049093
78,1.8152412,1.5885507,-0.71091651,0.037898671,1.9450211,1.3891128,-0.77078650,0.25187374
79,1.8331984,1.5917463,-0.72179368,0.048686357,1.9516699,1.4022263,-0.76742534,0.26372942
80,1.8509669,1.5947451,-0.73201842,0.059990589,1.9590817,1.4154884,-0.76370423,0.27605848
81,1.8685001,1.5975601,-0.74155036,0.071803588,1.9672719,1.4288952,-0.75961864,0.28886076
82,1.8857519,1.6002045,-0.75035062,0.084116961,1.9762528,1.4424421,-0.75516451,0.30213545
83,1.9026772,1.6026912,-0.75838197,0.096921749,1.9860345,1.4561239,-0.75033824,0.31588108
84,1.9192322,1.6050333,-0.76560897,0.11020848,1.9966241,1.4699347,-0.74513678,0.33009557
85,1.9353744,1.6072433,-0.77199806,0.12396720,2.0080262,1.4838678,-0.73955765,0.34477619
86,1.9510630,1.6093342,-0.77751775,0.13818756,2.0202430,1.4979162,-0.73359899,0.35991962
87,1.9662590,1.6113183,-0.78213867,0.15285881,2.0332740,1.5120719,-0.72725957,0.37552195
88,1.9809258,1.6132082,-0.78583374,0.16796989,2.0471165,1.5263269,-0.72053886,0.39157868
89,1.9950288,1.6150162,-0.78857825,0.18350948,2.0617652,1.5406723,-0.71343704,0.40808477
90,2.0085360,1.6167542,-0.79034996,0.19946602,2.0772130,1.5550991,-0.70595503,0.42503463
91,2.0214183,1.6184345,-0.79112918,0.21582779,2.0934502,1.5695975,-0.69809455,0.44242214
92,2.0336491,1.6200687,-0.79089888,0.23258292,2.1104653,1.5841579,-0.68985807,0.46024071
93,2.0452053,1.6216685,-0.78964475,0.24971949,2.1282450,1.5987700,-0.68124892,0.47848325
94,2.0560668,1.6232453,-0.78735526,0.26722554,2.1467739,1.6134234,-0.67227125,0.49714222
95,2.0662168,1.6248105,-0.78402173,0.28508910,2.1660350,1.6281075,-0.66293008,0.51620964
96,2.0756422,1.6263750,-0.77963838,0.30329830,2.1860098,1.6428116,-0.65323127,0.53567713
97,2.0843334,1.6279499,-0.77420236,0.32184135,2.2066782,1.6575248,-0.64318160,0.55553592
98,2.0922846,1.6295456,-0.76771379,0.34070659,2.2280189,1.6722364,-0.63278868,0.57577686
99,2.0994937,1.6311728,-0.76017578,0.35988257,2.2500092,1.6869353,-0.62206107,0.59639048
100,2.1059626,1.6328416,-0.75159446,0.37935805,2.2726254,1.7016108,-0.61100817,0.61736700
101,2.1116972,1.6345620,-0.74197893,0.39912205,2.2958430,1.7162521,-0.59964029,0.63869632
102,2.1167074,1.6363439,-0.73134134,0.41916389,2.3196365,1.7308486,-0.58796863,0.66036811
103,2.1210071,1.6381967,-0.71969679,0.43947320,2.3439797,1.7453900,-0.57600523,0.68237177
104,2.1246142,1.6401298,-0.70706337,0.46003999,2.3688459,1.7598660,-0.56376303,0.70469649
105,2.1275509,1.6421522,-0.69346209,0.48085462,2.3942082,1.7742667,-0.55125577,0.72733128
106,2.1298432,1.6442727,-0.67891685,0.50190790,2.4200391,1.7885825,-0.53849805,0.75026496
107,2.1315212,1.6464999,-0.66345438,0.52319104,2.4463110,1.8028041,-0.52550525,0.77348622
108,2.1326192,1.6488420,-0.64710419,0.54469571,2.4729965,1.8169226,-0.51229354,0.79698361
109,2.1331751,1.6513071,-0.62989851,0.56641406,2.5000681,1.8309296,-0.49887982,0.82074561
110,2.1332307,1.6539029,-0.61187219,0.58833871,2.5274987,1.8448171,-0.48528173,0.84476060
111,2.1328317,1.6566369,-0.59306261,0.61046279,2.5552615,1.8585775,-0.47151757,0.86901689
112,2.1320274,1.6595161,-0.57350961,0.63277993,2.5833300,1.8722037,-0.45760630,0.89350279
113,2.1308704,1.6625476,-0.55325537,0.65528427,2.6116786,1.8856893,-0.44356747,0.91820657
114,2.1294170,1.6657378,-0.53234432,0.67797047,2.6402823,1.8990284,-0.42942120,0.94311650
115,2.1277265,1.6690930,-0.51082297,0.70083370,2.6691169,1.9122155,-0.41518811,0.96822089
116,2.1258613,1.6726191,-0.48873985,0.72386964,2.6981592,1.9252458,-0.40088930,0.99350808
117,2.1238867,1.6763219,-0.46614535,0.74707451,2.7273868,1.9381153,-0.38654629,1.0189665
118,2.1218707,1.6802065,-0.44309157,0.77044499,2.7567787,1.9508204,-0.37218094,1.0445845
119,2.1198837,1.6842781,-0.41963218,0.79397827,2.7863150,1.9633581,-0.35781544,1.0703508
120,2.1179985,1.6885411,-0.39582229,0.81767202,2.8159770,1.9757262,-0.34347222,1.0962539
121,2.1162897,1.6929999,-0.37171828,0.84152436,2.8457475,1.9879231,-0.32917389,1.1222827
122,2.1148340,1.6976585,-0.34737765,0.86553387,2.8756105,1.9999477,-0.31494322,1.1484260
123,2.1137094,1.7025203,-0.32285882,0.88969953,2.9055518,2.0117998,-0.30080303,1.1746729
124,2.1129952,1.7075886,-0.29822102,0.91402071,2.9355585,2.0234796,-0.28677614,1.2010124
125,2.1127718,1.7128662,-0.27352407,0.93849719,2.9656194,2.0349881,-0.27288533,1.2274340
126,2.1131203,1.7183556,-0.24882826,0.96312903,2.9957247,2.0463267,-0.25915324,1.2539271
127,2.1141222,1.7240587,-0.22419408,0.98791666,3.0258666,2.0574977,-0.24560234,1.2804813
128,2.1158593,1.7299773,-0.19968216,1.0128607,3.0560387,2.0685038,-0.23225483,1.3070865
129,2.1184131,1.7361125,-0.17535300,1.0379622,3.0862364,2.0793482,-0.21913260,1.3337326
130,2.1218649,1.7424653,-0.15126682,1.0632221,3.1164566,2.0900350,-0.20625713,1.3604097
131,2.1262949,1.7490359,-0.12748339,1.0886418,3.1466983,2.1005683,-0.19364946,1.3871081
132,2.1317827,1.7558243,-0.10406183,1.1142227,3.1769618,2.1109532,-0.18133012,1.4138184
133,2.1384062,1.7628302,-0.081060458,1.1399662,3.2072491,2.1211949,-0.16931902,1.4405312
134,2.1462418,1.7700524,-0.058536568,1.1658740,3.2375639,2.1312993,-0.15763544,1.4672372
135,2.1553640,1.7774897,-0.036546292,1.1919474,3.2679117,2.1412726,-0.14629794,1.4939276
136,2.1658449,1.7851403,-0.015144408,1.2181880,3.2982992,2.1511213,-0.13532428,1.5205933
137,2.1777542,1.7930017,0.0056158290,1.2445971,3.3287348,2.1608523,-0.12473140,1.5472258
138,2.1911586,1.8010713,0.025682855,1.2711759,3.3592283,2.1704728,-0.11453532,1.5738164
139,2.2061217,1.8093458,0.045006963,1.2979254,3.3897910,2.1799903,-0.10475111,1.6003566
140,2.2227035,1.8178213,0.063540462,1.3248465,3.4204353,2.1894123,-0.095392782,1.6268383
141,2.2409604,1.8264936,0.081237834,1.3519395,3.4511750,2.1987467,-0.086473316,1.6532532
142,2.2609449,1.8353581,0.098055882,1.3792046,3.4820249,2.2080014,-0.078004537,1.6795932
143,2.2827050,1.8444093,0.11395388,1.4066416,3.5130012,2.2171843,-0.069997094,1.7058504
144,2.3062842,1.8536416,0.12889370,1.4342497,3.5441206,2.2263034,-0.062460409,1.7320168
145,2.3317211,1.8630485,0.14283997,1.4620278,3.5754009,2.2353667,-0.055402625,1.7580846
146,2.3590495,1.8726234,0.15576017,1.4899741,3.6068607,2.2443821,-0.048830573,1.7840461
147,2.3882978,1.8823588,0.16762475,1.5180863,3.6385191,2.2533573,-0.042749725,1.8098935
148,2.4194888,1.8922469,0.17840727,1.5463615,3.6703957,2.2622999,-0.037164159,1.8356191
149,2.4526397,1.9022792,0.18808448,1.5747961,3.7025107,2.2712171,-0.032076528,1.8612152
150,2.4877618,1.9124469,0.19663642,1.6033858,3.7348843,2.2801161,-0.027488029,1.8866742
151,2.5248604,1.9227404,0.20404649,1.6321254,3.7675369,2.2890034,-0.023398379,1.9119884
152,2.5639343,1.9331497,0.21030155,1.6610093,3.8004891,2.2978854,-0.019805787,1.9371500
153,2.6049761,1.9436643,0.21539197,1.6900305,3.8337611,2.3067679,-0.016706943,1.9621514
154,2.6479720,1.9542731,0.21931170,1.7191817,3.8673730,2.3156563,-0.014096998,1.9869846
155,2.6929014,1.9649645,0.22205831,1.7484543,3.9013443,2.3245554,-0.011969555,2.0116417
156,2.7397369,1.9757263,0.22363301,1.7778390,3.9356941,2.3334694,-0.010316660,2.0361148
157,2.7884446,1.9865459,0.22404071,1.8073253,3.9704407,2.3424020,-0.0091288032,2.0603958
158,2.8389833,1.9974101,0.22329004,1.8369021,4.0056016,2.3513560,-0.0083949185,2.0844765
159,2.8913053,2.0083051,0.22139331,1.8665569,4.0411934,2.3603336,-0.0081023883,2.1083486
160,2.9453558,2.0192168,0.21836656,1.8962764,4.0772314,2.3693362,-0.0082370540,2.1320034
161,3.0010728,2.0301304,0.21422953,1.9260461,4.1137297,2.3783644,-0.0087832302,2.1554325
162,3.0583879,2.0410307,0.20900560,1.9558507,4.1507009,2.3874179,-0.0097237226,2.1786270
163,3.1172253,2.0519020,0.20272183,1.9856735,4.1881563,2.3964957,-0.011039851,2.2015778
164,3.1775027,2.0627281,0.19540884,2.0154971,4.2261053,2.4055957,-0.012711474,2.2242758
165,3.2391309,2.0734923,0.18710081,2.0453026,4.2645554,2.4147148,-0.014717024,2.2467116
166,3.3020140,2.0841777,0.17783539,2.0750703,4.3035125,2.4238492,-0.017033536,2.2688756
167,3.3660495,2.0947666,0.16765362,2.1047793,4.3429801,2.4329937,-0.019636693,2.2907579
168,3.4311287,2.1052411,0.15659987,2.1344078,4.3829597,2.4421424,-0.022500864,2.3123484
169,3.4971364,2.1155829,0.14472173,2.1639327,4.4234504,2.4512883,-0.025599154,2.3336369
170,3.5639512,2.1257731,0.13206990,2.1933300,4.4644490,2.4604231,-0.028903452,2.3546128
171,3.6314462,2.1357927,0.11869809,2.2225746,4.5059496,2.4695377,-0.032384488,2.3752653
172,3.6994883,2.1456221,0.10466290,2.2516404,4.5479440,2.4786217,-0.036011892,2.3955833
173,3.7679393,2.1552416,0.090023676,2.2805004,4.5904210,2.4876638,-0.039754250,2.4155556
174,3.8366554,2.1646311,0.074842382,2.3091265,4.6333667,2.4966514,-0.043579176,2.4351706
175,3.9054882,2.1737700,0.059183450,2.3374897,4.6767645,2.5055709,-0.047453377,2.4544165
176,3.9742842,2.1826378,0.043113626,2.3655601,4.7205947,2.5144076,-0.051342723,2.4732812
177,4.0428859,2.1912135,0.026701807,2.3933071,4.7648347,2.5231457,-0.055212325,2.4917524
178,4.1111314,2.1994759,0.010018875,2.4206991,4.8094589,2.5317683,-0.059026609,2.5098176
179,4.1788550,2.2074038,-0.0068624800,2.4477038,4.8544385,2.5402574,-0.062749396,2.5274639
180,4.2458879,2.2149756,-0.023867941,2.4742880,4.8997417,2.5485939,-0.066343988,2.5446785
181,4.3120578,2.2221697,-0.040921750,2.5004182,4.9453335,2.5567579,-0.069773247,2.5614479
182,4.3771900,2.2289644,-0.057946899,2.5260601,4.9911759,2.5647281,-0.072999685,2.5777588
183,4.4411072,2.2353378,-0.074865330,2.5511786,5.0372275,2.5724826,-0.075985551,2.5935975
184,4.5036303,2.2412681,-0.091598128,2.5757384,5.0834440,2.5799984,-0.078692921,2.6089502
185,4.5645786,2.2467335,-0.10806574,2.5997037,5.1297777,2.5872514,-0.081083791,2.6238028
186,4.6237702,2.2517120,-0.12418815,2.6230384,5.1761781,2.5942170,-0.083120166,2.6381412
187,4.6810225,2.2561819,-0.13988513,2.6457058,5.2225913,2.6008694,-0.084764157,2.6519511
188,4.7361527,2.2601215,-0.15507643,2.6676693,5.2689607,2.6071823,-0.085978074,2.6652179
189,4.7889777,2.2635092,-0.16968199,2.6888920,5.3152265,2.6131283,-0.086724519,2.6779273
190,4.8393155,2.2663236,-0.18362215,2.7093369,5.3613260,2.6186798,-0.086966484,2.6900645
191,4.8869845,2.2685434,-0.19681787,2.7289670,5.4071936,2.6238080,-0.086667444,2.7016149
192,4.9318050,2.2701476,-0.20919095,2.7477455,5.4527612,2.6284841,-0.085791454,2.7125638
193,4.9735989,2.2711156,-0.22066425,2.7656355,5.4979578,2.6326783,-0.084303238,2.7228963
194,5.0121903,2.2714268,-0.23116185,2.7826005,5.5427099,2.6363605,-0.082168291,2.7325979
195,5.0474063,2.2710611,-0.24060934,2.7986044,5.5869416,2.6395004,-0.079352966,2.7416538
196,5.0790770,2.2699990,-0.24893396,2.8136113,5.6305746,2.6420672,-0.075824565,2.7500494
197,5.1070361,2.2682209,-0.25606484,2.8275858,5.6735283,2.6440297,-0.071551435,2.7577702
198,5.1311214,2.2657082,-0.26193318,2.8404932,5.7157204,2.6453568,-0.066503050,2.7648018
199,5.1511751,2.2624423,-0.26647246,2.8522994,5.7570663,2.6460172,-0.060650101,2.7711300
200,5.1670443,2.2584056,-0.26961863,2.8629710,5.7974799,2.6459795,-0.053964583,2.7767407
201,5.1785816,2.2535808,-0.27131028,2.8724753,5.8368734,2.6452123,-0.046419873,2.7816200
202,5.1856449,2.2479511,-0.27148885,2.8807807,5.8751576,2.6436846,-0.037990812,2.7857545
203,5.1880986,2.2415005,-0.27009878,2.8878566,5.9122420,2.6413654,-0.028653781,2.7891308
204,5.1858134,2.2342138,-0.26708768,2.8936732,5.9480352,2.6382238,-0.018386778,2.7917358
205,5.1786669,2.2260761,-0.26240649,2.8982021,5.9824448,2.6342297,-0.0071694868,2.7935571
206,5.1665438,2.2170738,-0.25600966,2.9014161,6.0153778,2.6293531,0.0050166558,2.7945823
207,5.1493365,2.2071936,-0.24785525,2.9032892,6.0467407,2.6235648,0.018188394,2.7947996
208,5.1269454,2.1964233,-0.23790510,2.9037968,6.0764398,2.6168359,0.032360594,2.7941976
209,5.0992789,2.1847513,-0.22612494,2.9029158,6.1043814,2.6091384,0.047546187,2.7927655
210,5.0662542,2.1721672,-0.21248451,2.9006246,6.1304718,2.6004451,0.063756114,2.7904927
211,5.0277969,2.1586613,-0.19695769,2.8969032,6.1546179,2.5907297,0.080999283,2.7873695
212,4.9838422,2.1442248,-0.17952257,2.8917334,6.1767271,2.5799666,0.099282519,2.7833867
213,4.9343341,2.1288501,-0.16016155,2.8850985,6.1967077,2.5681314,0.11861053,2.7785357
214,4.8792267,2.1125304,-0.13886141,2.8769838,6.2144690,2.5552009,0.13898586,2.7728083
215,4.8184834,2.0952599,-0.11561340,2.8673762,6.2299217,2.5411528,0.16040888,2.7661974
216,4.7520777,2.0770341,-0.090413281,2.8562648,6.2429781,2.5259663,0.18287775,2.7586964
217,4.6799934,2.0578494,-0.063261367,2.8436405,6.2535520,2.5096219,0.20638838,2.7502993
218,4.6022245,2.0377032,-0.034162570,2.8294962,6.2615594,2.4921014,0.23093445,2.7410013
219,4.5187751,2.0165943,-0.0031264143,2.8138270,6.2669184,2.4733881,0.25650738,2.7307978
220,4.4296602,1.9945224,0.029832942,2.7966298,6.2695497,2.4534669,0.28309631,2.7196856
221,4.3349051,1.9714885,0.064696716,2.7779040,6.2693766,2.4323243,0.31068814,2.7076621
222,4.2345459,1.9474947,0.10144150,2.7576508,6.2663251,2.4099484,0.33926749,2.6947254
223,4.1286293,1.9225444,0.14003930,2.7358740,6.2603246,2.3863290,0.36881673,2.6808749
224,4.0172125,1.8966421,0.18045756,2.7125792,6.2513076,2.3614578,0.39931601,2.6661106
225,3.9003635,1.8697935,0.22265919,2.6877745,6.2392102,2.3353284,0.43074325,2.6504336
226,3.7781610,1.8420056,0.26660266,2.6614701,6.2239723,2.3079360,0.46307418,2.6338460
227,3.6506940,1.8132867,0.31224204,2.6336787,6.2055375,2.2792781,0.49628238,2.6163506
228,3.5180622,1.7836463,0.35952708,2.6044149,6.1838538,2.2493537,0.53033929,2.5979516
229,3.3803754,1.7530949,0.40840333,2.5736959,6.1588734,2.2181644,0.56521426,2.5786540
230,3.2377537,1.7216447,0.45881218,2.5415410,6.1305527,2.1857133,0.60087462,2.5584637
231,3.0903273,1.6893087,0.51069105,2.5079718,6.0988532,2.1520059,0.63728569,2.5373880
232,2.9382361,1.6561015,0.56397344,2.4730120,6.0637409,2.1170496,0.67441087,2.5154348
233,2.7816298,1.6220388,0.61858911,2.4366878,6.0251867,2.0808543,0.71221166,2.4926135
234,2.6206675,1.5871375,0.67446418,2.3990273,5.9831669,2.0434315,0.75064775,2.4689342
235,2.4555173,1.5514157,0.73152131,2.3600610,5.9376628,2.0047952,0.78967711,2.4444081
236,2.2863564,1.5148928,0.78967986,2.3198214,5.8886610,1.9649615,0.82925601,2.4190478
237,2.1133705,1.4775894,0.84885605,2.2783432,5.8361537,1.9239487,0.86933911,2.3928665
238,1.9367535,1.4395274,0.90896312,2.2356629,5.7801385,1.8817770,0.90987958,2.3658788
239,1.7567074,1.4007295,0.96991152,2.1918194,5.7206189,1.8384692,0.95082913,2.3381001
240,1.5734417,1.3612200,1.0316091,2.1468531,5.6576038,1.7940498,0.99213814,2.3095469
241,1.3871732,1.3210240,1.0939614,2.1008068,5.5911081,1.7485456,1.0337557,2.2802370
242,1.1981254,1.2801680,1.1568717,2.0537248,5.5211524,1.7019857,1.0756298,2.2501888
243,1.0065284,1.2386793,1.2202412,2.0056531,5.4477633,1.6544009,1.1177073,2.2194219
244,0.81261810,1.1965864,1.2839696,1.9566396,5.3709733,1.6058243,1.1599341,2.1879570
245,0.61663619,1.1539188,1.3479547,1.9067339,5.2908207,1.5562909,1.2022552,2.1558156
246,0.41882934,1.1107071,1.4120933,1.8559869,5.2073498,1.5058379,1.2446149,2.1230202
247,0.21944892,1.0669827,1.4762809,1.8044510,5.1206107,1.4545040,1.2869569,2.0895942
248,0.018750485,1.0227781,1.5404123,1.7521803,5.0306596,1.4023301,1.3292242,2.0555618
249,-0.18300672,0.97812653,1.6043814,1.6992297,4.9375583,1.3493589,1.3713593,2.0209484
250,-0.38556024,0.93306220,1.6680820,1.6456558,4.8413745,1.2956348,1.4133047,1.9857799
251,-0.58864492,0.88762007,1.7314076,1.5915159,4.7421817,1.2412039,1.4550024,1.9500831
252,-0.79199340,0.84183591,1.7942517,1.5368686,4.6400590,1.1861139,1.4963943,1.9138857
253,-0.99533666,0.79574621,1.8565083,1.4817732,4.5350909,1.1304141,1.5374223,1.8772160
254,-1.1984045,0.74938815,1.9180718,1.4262899,4.4273677,1.0741554,1.5780287,1.8401030
255,-1.4009261,0.70279955,1.9788374,1.3704797,4.3169847,1.0173899,1.6181556,1.8025766
256,-1.6026306,0.65601882,2.0387015,1.3144040,4.2040426,0.96017125,1.6577457,1.7646669
257,-1.8032475,0.60908493,2.0975614,1.2581250,4.0886472,0.90255420,1.6967422,1.7264050
258,-2.0025071,0.56203734,2.1553162,1.2017048,3.9709091,0.84459471,1.7350886,1.6878223
259,-2.2001415,0.51491595,2.2118666,1.1452063,3.8509437,0.78634981,1.7727293,1.6489508
260,-2.3958845,0.46776107,2.2671152,1.0886922,3.7288710,0.72787750,1.8096095,1.6098228
261,-2.5894726,0.42061333,2.3209668,1.0322254,3.6048154,0.66923665,1.8456752,1.5704713
262,-2.7806453,0.37351367,2.3733285,0.97586864,3.4789056,0.61048692,1.8808733,1.5309292
263,-2.9691457,0.32650323,2.4241100,0.91968459,3.3512740,0.55168864,1.9151519,1.4912302
264,-3.1547207,0.27962337,2.4732238,0.86373557,3.2220571,0.49290272,1.9484604,1.4514079
265,-3.3371220,0.23291554,2.5205852,0.80808348,3.0913949,0.43419053,1.9807494,1.4114962
266,-3.5161063,0.18642127,2.5661129,0.75278975,2.9594304,0.37561381,2.0119708,1.3715293
267,-3.6914356,0.14018210,2.6097288,0.69791514,2.8263100,0.31723455,2.0420782,1.3315412
268,-3.8628782,0.094239511,2.6513582,0.64351970,2.6921828,0.25911490,2.0710266,1.2915661
269,-4.0302085,0.048634891,2.6909303,0.58966262,2.5572005,0.20131703,2.0987727,1.2516383
270,-4.1932078,0.0034094642,2.7283779,0.53640214,2.4215171,0.14390303,2.1252750,1.2117919
271,-4.3516648,-0.041395765,2.7636378,0.48379544,2.2852884,0.086934818,2.1504938,1.1720609
272,-4.5053758,-0.085740066,2.7966512,0.43189852,2.1486723,0.030474019,2.1743912,1.1324791
273,-4.6541450,-0.12958304,2.8273630,0.38076614,2.0118278,-0.025418156,2.1969316,1.0930800
274,-4.7977853,-0.17288468,2.8557229,0.33045167,1.8749154,-0.080681012,2.2180809,1.0538971
275,-4.9361181,-0.21560542,2.8816848,0.28100705,1.7380962,-0.13525448,2.2378077,1.0149633
276,-5.0689742,-0.25770619,2.9052073,0.23248263,1.6015321,-0.18907922,2.2560822,0.97631125
277,-5.1961934,-0.29914848,2.9262534,0.18492714,1.4653851,-0.24209674,2.2728773,0.93797299
278,-5.3176257,-0.33989438,2.9447912,0.13838757,1.3298173,-0.29424949,2.2881677,0.89998022
279,-5.4331307,-0.37990665,2.9607931,0.092909106,1.1949906,-0.34548099,2.3019309,0.86236404
280,-5.5425784,-0.41914876,2.9742366,0.048535023,1.0610659,-0.39573588,2.3141463,0.82515497
281,-5.6458492,-0.45758495,2.9851041,0.0053066366,0.92820361,-0.44496009,2.3247959,0.78838285
282,-5.7428340,-0.49518026,2.9933826,-0.036736778,0.79656274,-0.49310088,2.3338641,0.75207686
283,-5.8334348,-0.53190060,2.9990643,-0.077558057,0.66630080,-0.54010697,2.3413376,0.71626541
284,-5.9175645,-0.56771280,3.0021461,-0.11712220,0.53757353,-0.58592862,2.3472057,0.68097613
285,-5.9951469,-0.60258463,3.0026299,-0.15539646,0.41053455,-0.63051772,2.3514602,0.64623582
286,-6.0661172,-0.63648488,3.0005225,-0.19235033,0.28533511,-0.67382787,2.3540950,0.61207039
287,-6.1304219,-0.66938337,2.9958353,-0.22795567,0.16212380,-0.71581449,2.3551070,0.57850485
288,-6.1880188,-0.70125102,2.9885848,-0.26218670,0.041046254,-0.75643485,2.3544952,0.54556324
289,-6.2388772,-0.73205985,2.9787922,-0.29502007,-0.077755104,-0.79564820,2.3522611,0.51326860
290,-6.2829775,-0.76178308,2.9664832,-0.32643485,-0.19414134,-0.83341581,2.3484088,0.48164294
291,-6.3203117,-0.79039509,2.9516883,-0.35641260,-0.30797725,-0.86970103,2.3429447,0.45070722
292,-6.3508831,-0.81787154,2.9344423,-0.38493740,-0.41913166,-0.90446941,2.3358777,0.42048127
293,-6.3747062,-0.84418931,2.9147848,-0.41199581,-0.52747760,-0.93768867,2.3272188,0.39098381
294,-6.3918068,-0.86932661,2.8927593,-0.43757695,-0.63289260,-0.96932882,2.3169818,0.36223241
295,-6.4022216,-0.89326297,2.8684138,-0.46167247,-0.73525890,-0.99936221,2.3051825,0.33424345
296,-6.4059982,-0.91597926,2.8418003,-0.48427654,-0.83446364,-1.0277635,2.2918390,0.30703209
297,-6.4031951,-0.93745773,2.8129745,-0.50538590,-0.93039910,-1.0545099,2.2769716,0.28061230
298,-6.3938813,-0.95768203,2.7819963,-0.52499979,-1.0229629,-1.0795808,2.2606030,0.25499676
299,-6.3781361,-0.97663722,2.7489289,-0.54311998,-1.1120582,-1.1029584,2.2427576,0.23019692
300,-6.3560489,-0.99430981,2.7138392,-0.55975073,-1.1975937,-1.1246271,2.2234621,0.20622296
301,-6.3277192,-1.0106877,2.6767973,-0.57489877,-1.2794841,-1.1445739,2.2027453,0.18308375
302,-6.2932560,-1.0257604,2.6378765,-0.58857328,-1.3576501,-1.1627885,2.1806377,0.16078688
303,-6.2527774,-1.0395187,2.5971528,-0.60078583,-1.4320184,-1.1792630,2.1571717,0.13933865
304,-6.2064108,-1.0519550,2.5547054,-0.61155037,-1.5025221,-1.1939920,2.1323815,0.11874405
305,-6.1542921,-1.0630631,2.5106157,-0.62088316,-1.5691006,-1.2069727,2.1063030,0.099006760
306,-6.0965657,-1.0728384,2.4649676,-0.62880276,-1.6316998,-1.2182049,2.0789736,0.080129165
307,-6.0333840,-1.0812777,2.4178473,-0.63532991,-1.6902720,-1.2276909,2.0504325,0.062112354
308,-5.9649067,-1.0883792,2.3693425,-0.64048755,-1.7447764,-1.2354354,2.0207201,0.044956127
309,-5.8913011,-1.0941429,2.3195433,-0.64430070,-1.7951786,-1.2414457,1.9898781,0.028659003
310,-5.8127410,-1.0985699,2.2685406,-0.64679641,-1.8414511,-1.2457317,1.9579498,0.013218235
311,-5.7294069,-1.1016630,2.2164272,-0.64800370,-1.8835731,-1.2483054,1.9249792,-0.0013701769
312,-5.6414850,-1.1034265,2.1632967,-0.64795348,-1.9215305,-1.2491814,1.8910119,-0.015111469
313,-5.5491672,-1.1038659,2.1092436,-0.64667846,-1.9553160,-1.2483768,1.8560940,-0.028012092
314,-5.4526503,-1.1029883,2.0543630,-0.64421308,-1.9849291,-1.2459107,1.8202727,-0.040079690
315,-5.3521361,-1.1008022,1.9987504,-0.64059341,-2.0103759,-1.2418046,1.7835960,-0.051323078
316,-5.2478302,-1.0973175,1.9425016,-0.63585710,-2.0316692,-1.2360823,1.7461126,-0.061752210
317,-5.1399421,-1.0925455,1.8857124,-0.63004325,-2.0488286,-1.2287697,1.7078717,-0.071378156
318,-5.0286845,-1.0864987,1.8284781,-0.62319231,-2.0618800,-1.2198946,1.6689229,-0.080213068
319,-4.9142727,-1.0791911,1.7708938,-0.61534604,-2.0708558,-1.2094871,1.6293164,-0.088270145
320,-4.7969247,-1.0706380,1.7130537,-0.60654735,-2.0757948,-1.1975790,1.5891026,-0.095563603
321,-4.6768599,-1.0608557,1.6550513,-0.59684023,-2.0767423,-1.1842041,1.5483320,-0.10210863
322,-4.5542992,-1.0498620,1.5969790,-0.58626965,-2.0737492,-1.1693981,1.5070552,-0.10792136
323,-4.4294644,-1.0376759,1.5389275,-0.57488143,-2.0668729,-1.1531982,1.4653228,-0.11301881
324,-4.3025775,-1.0243174,1.4809865,-0.56272219,-2.0561763,-1.1356433,1.4231854,-0.11741886
325,-4.1738606,-1.0098078,1.4232438,-0.54983918,-2.0417282,-1.1167739,1.3806933,-0.12114021
326,-4.0435352,-0.99416938,1.3657851,-0.53628022,-2.0236028,-1.0966318,1.3378964,-0.12420231
327,-3.9118216,-0.97742548,1.3086943,-0.52209357,-2.0018796,-1.0752604,1.2948445,-0.12662533
328,-3.7789390,-0.95960052,1.2520530,-0.50732783,-1.9766435,-1.0527042,1.2515865,-0.12843012
329,-3.6451044,-0.94071984,1.1959403,-0.49203184,-1.9479839,-1.0290088,1.2081710,-0.12963813
330,-3.5105326,-0.92080972,1.1404326,-0.47625456,-1.9159952,-1.0042210,1.1646460,-0.13027141
331,-3.3754354,-0.89989734,1.0856039,-0.46004499,-1.8807764,-0.97838861,1.1210586,-0.13035251
332,-3.2400216,-0.87801070,1.0315250,-0.44345202,-1.8424306,-0.95156013,1.0774551,-0.12990444
333,-3.1044965,-0.85517860,0.97826379,-0.42652437,-1.8010648,-0.92378494,1.0338810,-0.12895066
334,-2.9690612,-0.83143059,0.92588506,-0.40931046,-1.7567901,-0.89511307,0.99038069,-0.12751495
335,-2.8339125,-0.80679690,0.87445026,-0.39185833,-1.7097211,-0.86559510,0.94699763,-0.12562142
336,-2.6992425,-0.78130844,0.82401750,-0.37421552,-1.6599753,-0.83528206,0.90377414,-0.12329443
337,-2.5652384,-0.75499669,0.77464138,-0.35642897,-1.6076737,-0.80422532,0.86075133,-0.12055855
338,-2.4320817,-0.72789371,0.72637296,-0.33854496,-1.5529398,-0.77247651,0.81796913,-0.11743848
339,-2.2999483,-0.70003204,0.67925963,-0.32060898,-1.4958997,-0.74008741,0.77546613,-0.11395902
340,-2.1690082,-0.67144467,0.63334506,-0.30266564,-1.4366814,-0.70710982,0.73327961,-0.11014500
341,-2.0394249,-0.64216502,0.58866916,-0.28475860,-1.3754153,-0.67359549,0.69144545,-0.10602124
342,-1.9113557,-0.61222682,0.54526799,-0.26693049,-1.3122331,-0.63959600,0.64999808,-0.10161250
343,-1.7849506,-0.58166414,0.50317376,-0.24922282,-1.2472680,-0.60516267,0.60897047,-0.096943399
344,-1.6603530,-0.55051127,0.46241478,-0.23167587,-1.1806541,-0.57034645,0.56839406,-0.092038396
345,-1.5376990,-0.51880272,0.42301543,-0.21432866,-1.1125266,-0.53519786,0.52829876,-0.086921717
346,-1.4171172,-0.48657313,0.38499620,-0.19721888,-1.0430210,-0.49976684,0.48871290,-0.081617314
347,-1.2987287,-0.45385727,0.34837365,-0.18038278,-0.97227296,-0.46410269,0.44966321,-0.076148815
348,-1.1826469,-0.42068994,0.31316043,-0.16385515,-0.90041833,-0.42825400,0.41117482,-0.070539472
349,-1.0689774,-0.38710594,0.27936533,-0.14766921,-0.82759247,-0.39226851,0.37327119,-0.064812116
350,-0.95781779,-0.35314004,0.24699329,-0.13185663,-0.75393017,-0.35619309,0.33597419,-0.058989111
351,-0.84925778,-0.31882691,0.21604544,-0.11644741,-0.67956536,-0.32007358,0.29930401,-0.053092309
352,-0.74337899,-0.28420108,0.18651921,-0.10146987,-0.60463082,-0.28395481,0.26327918,-0.047143009
353,-0.64025493,-0.24929690,0.15840830,-0.086950576,-0.52925792,-0.24788042,0.22791662,-0.041161910
354,-0.53995104,-0.21414848,0.13170284,-0.072914347,-0.45357640,-0.21189288,0.19323158,-0.035169079
355,-0.44252465,-0.17878968,0.10638942,-0.059384186,-0.37771406,-0.17603335,0.15923768,-0.029183907
356,-0.34802503,-0.14325403,0.082451234,-0.046381264,-0.30179658,-0.14034169,0.12594692,-0.023225073
357,-0.25649341,-0.10757469,0.059868112,-0.033924896,-0.22594723,-0.10485632,0.093369731,-0.017310515
358,-0.16796308,-0.071784441,0.038616685,-0.022032520,-0.15028668,-0.069614207,0.061514928,-0.011457391
359,-0.082459468,-0.035915624,0.018670480,-0.010719683,-0.074932748,-0.034650832,0.030389793,-0.0056820529
360,-2.2569746e-07,-1.0019319e-07,5.0316658e-08,-2.9055400e-08,-2.0827175e-07,-9.6163893e-08,8.3717794e-08,-1.5701531e-08
