XRT N-S vs UFSS-A
      238.628
     0.367529
     0.556385
     0.182758
   -0.0517846
    0.0121928
    0.0217904
XRT N-S vs UFSS-B
      191.949
     0.323222
    -0.452647
   -0.0428633
   -0.0967196
   -0.0991501
   -0.0177621
XRT E-W vs UFSS-A
      3953.48
    -0.848577
    -0.390740
    0.0611285
    0.0766872
    -0.110701
    0.0153460
XRT E-W vs UFSS-B
      3959.58
    -0.918063
    -0.351284
     0.150324
    0.0659107
   -0.0559603
    0.0681619
SOT N-S vs UFSS-A
      112.103
     0.289668
     0.393277
     0.254893
    0.0271354
    0.0795516
    0.0939224
SOT N-S vs UFSS-B
      63.8726
     0.207620
    -0.698140
    0.0550556
    0.0113639
    0.0540726
    0.0244977
SOT E-W vs UFSS-A
      167.832
    -0.709630
    -0.537710
     0.181425
    0.0303972
   -0.0575822
   -0.0353974
SOT E-W vs UFSS-B
      174.133
    -0.814498
    -0.437641
     0.254242
     0.132997
   -0.0361681
    0.0355928
