deg,XRT_AX,XRT_BX,XRT_AY,XRT_BY,SOT_AX,SOT_BX,SOT_AY,SOT_BY
valid,1,1,1,1,1,1,1,1,revB
offset,121.23494,101.48647,1978.7530,1982.3513,51.372238,30.980188,93.704394,97.459989
0,0.0000000,0.0000000,0.0000000,0.0000000,0.0000000,0.0000000,0.0000000,0.0000000
1,0.010822219,0.016768494,-0.00026004511,5.5462205e-05,0.0066898641,0.013146414,-0.0033926379,-0.00076463800
2,0.021243274,0.033865884,-0.00086932179,-0.00067728371,0.012366348,0.026129960,-0.0064779678,-0.0015702973
3,0.031245140,0.051281547,-0.0018185094,-0.0021927243,0.017003240,0.038935153,-0.0092544679,-0.0024271061
4,0.040810304,0.069004290,-0.0030971309,-0.0044831516,0.020576311,0.051547000,-0.011720975,-0.0033447535
5,0.049921809,0.087022374,-0.0046935906,-0.0075386969,0.023063369,0.063951035,-0.013876686,-0.0043324632
6,0.058563288,0.10532355,-0.0065952156,-0.011347369,0.024444322,0.076133355,-0.015721155,-0.0053989697
7,0.066719001,0.12389506,-0.0087882986,-0.015895100,0.024701224,0.088080646,-0.017254294,-0.0065524949
8,0.074373877,0.14272370,-0.011258144,-0.021165792,0.023818322,0.099780218,-0.018476367,-0.0078007257
9,0.081513539,0.16179581,-0.013989116,-0.027141375,0.021782099,0.11122003,-0.019387991,-0.0091507937
10,0.088124344,0.18109735,-0.016964689,-0.033801860,0.018581303,0.12238873,-0.019990124,-0.010609255
11,0.094193409,0.20061387,-0.020167501,-0.041125409,0.014206983,0.13327564,-0.020284067,-0.012182073
12,0.099708644,0.22033060,-0.023579403,-0.049088401,0.0086525050,0.14387085,-0.020271450,-0.013874598
13,0.10465878,0.24023245,-0.027181523,-0.057665499,0.0019135755,0.15416515,-0.019954229,-0.015691559
14,0.10903338,0.26030404,-0.030954317,-0.066829736,-0.0060117499,0.16415013,-0.019334676,-0.017637040
15,0.11282291,0.28052975,-0.034877629,-0.076552585,-0.015123060,0.17381816,-0.018415368,-0.019714475
16,0.11601868,0.30089374,-0.038930755,-0.086804049,-0.025417586,0.18316239,-0.017199178,-0.021926636
17,0.11861294,0.32138000,-0.043092499,-0.097552745,-0.036890210,0.19217680,-0.015689263,-0.024275618
18,0.12059887,0.34197236,-0.047341237,-0.10876600,-0.049533476,0.20085618,-0.013889053,-0.026762837
19,0.12197058,0.36265454,-0.051654983,-0.12040992,-0.063337603,0.20919617,-0.011802235,-0.029389024
20,0.12272314,0.38341019,-0.056011446,-0.13244954,-0.078290516,0.21719323,-0.0094327443,-0.032154214
21,0.12285261,0.40422291,-0.060388099,-0.14484884,-0.094377865,0.22484467,-0.0067847459,-0.035057749
22,0.12235600,0.42507629,-0.064762242,-0.15757093,-0.11158307,0.23214865,-0.0038626217,-0.038098275
23,0.12123133,0.44595395,-0.069111063,-0.17057809,-0.12988734,0.23910418,-0.00067095452,-0.041273741
24,0.11947759,0.46683955,-0.073411704,-0.18383190,-0.14926976,0.24571110,0.0027854877,-0.044581402
25,0.11709477,0.48771687,-0.077641326,-0.19729334,-0.16970728,0.25197009,0.0065017686,-0.048017822
26,0.11408386,0.50856979,-0.081777169,-0.21092289,-0.19117484,0.25788269,0.010472800,-0.051578881
27,0.11044683,0.52938236,-0.085796614,-0.22468064,-0.21364536,0.26345123,0.014693360,-0.055259778
28,0.10618666,0.55013881,-0.089677249,-0.23852640,-0.23708986,0.26867887,0.019158110,-0.059055043
29,0.10130728,0.57082359,-0.093396924,-0.25241981,-0.26147750,0.27356957,0.023861611,-0.062958546
30,0.095813608,0.59142141,-0.096933814,-0.26632041,-0.28677567,0.27812808,0.028798346,-0.066963508
31,0.089711523,0.61191725,-0.10026647,-0.28018780,-0.31295007,0.28235992,0.033962732,-0.071062515
32,0.083007851,0.63229639,-0.10337390,-0.29398170,-0.33996475,0.28627134,0.039349145,-0.075247532
33,0.075710348,0.65254446,-0.10623557,-0.30766209,-0.36778227,0.28986935,0.044951934,-0.079509919
34,0.067827690,0.67264744,-0.10883154,-0.32118928,-0.39636372,0.29316164,0.050765440,-0.083840451
35,0.059369444,0.69259169,-0.11114241,-0.33452403,-0.42566886,0.29615660,0.056784015,-0.088229333
36,0.050346057,0.71236398,-0.11314948,-0.34762764,-0.45565619,0.29886327,0.063002040,-0.092666224
37,0.040768823,0.73195153,-0.11483472,-0.36046204,-0.48628305,0.30129131,0.069413944,-0.097140257
38,0.030649867,0.75134198,-0.11618083,-0.37298991,-0.51750575,0.30345099,0.076014220,-0.10164006
39,0.020002110,0.77052348,-0.11717131,-0.38517476,-0.54927964,0.30535313,0.082797440,-0.10615380
40,0.0088392450,0.78948463,-0.11779047,-0.39698100,-0.58155922,0.30700909,0.089758280,-0.11066915
41,-0.0028242934,0.80821456,-0.11802348,-0.40837405,-0.61429826,0.30843075,0.096891528,-0.11517341
42,-0.014973363,0.82670293,-0.11785641,-0.41932040,-0.64744992,0.30963042,0.10419210,-0.11965344
43,-0.027592148,0.84493990,-0.11727624,-0.42978771,-0.68096681,0.31062086,0.11165508,-0.12409576
44,-0.040664189,0.86291622,-0.11627092,-0.43974490,-0.71480118,0.31141521,0.11927568,-0.12848651
45,-0.054172427,0.88062316,-0.11482938,-0.44916216,-0.74890495,0.31202697,0.12704931,-0.13281156
46,-0.068099232,0.89805259,-0.11294154,-0.45801109,-0.78322987,0.31246995,0.13497158,-0.13705649
47,-0.082426450,0.91519691,-0.11059837,-0.46626470,-0.81772763,0.31275822,0.14303827,-0.14120661
48,-0.097135438,0.93204915,-0.10779185,-0.47389753,-0.85234994,0.31290609,0.15124542,-0.14524705
49,-0.11220710,0.94860288,-0.10451504,-0.48088565,-0.88704868,0.31292807,0.15958925,-0.14916273
50,-0.12762195,0.96485228,-0.10076206,-0.48720675,-0.92177599,0.31283879,0.16806627,-0.15293844
51,-0.14336012,0.98079210,-0.096528099,-0.49284015,-0.95648437,0.31265302,0.17667318,-0.15655883
52,-0.15940143,0.99641767,-0.091809443,-0.49776687,-0.99112681,0.31238556,0.18540698,-0.16000851
53,-0.17572542,1.0117249,-0.086603446,-0.50196966,-1.0256569,0.31205125,0.19426493,-0.16327200
54,-0.19231140,1.0267104,-0.080908550,-0.50543300,-1.0600288,0.31166490,0.20324453,-0.16633384
55,-0.20913848,1.0413710,-0.074724270,-0.50814318,-1.0941977,0.31124127,0.21234359,-0.16917858
56,-0.22618564,1.0557045,-0.068051195,-0.51008826,-1.1281195,0.31079499,0.22156018,-0.17179083
57,-0.24343176,1.0697091,-0.060890971,-0.51125815,-1.1617511,0.31034056,0.23089268,-0.17415529
58,-0.26085564,1.0833834,-0.053246291,-0.51164455,-1.1950504,0.30989228,0.24033974,-0.17625679
59,-0.27843609,1.0967267,-0.045120880,-0.51124100,-1.2279767,0.30946422,0.24990030,-0.17808031
60,-0.29615194,1.1097387,-0.036519471,-0.51004288,-1.2604903,0.30907019,0.25957361,-0.17961104
61,-0.31398211,1.1224198,-0.027447790,-0.50804739,-1.2925531,0.30872369,0.26935918,-0.18083439
62,-0.33190563,1.1347707,-0.017912527,-0.50525353,-1.3241281,0.30843786,0.27925683,-0.18173603
63,-0.34990167,1.1467925,-0.0079213104,-0.50166211,-1.3551801,0.30822545,0.28926667,-0.18230192
64,-0.36794965,1.1584869,0.0025173208,-0.49727573,-1.3856753,0.30809882,0.29938908,-0.18251836
65,-0.38602919,1.1698561,0.013393952,-0.49209871,-1.4155814,0.30806983,0.30962472,-0.18237198
66,-0.40412022,1.1809024,0.024698324,-0.48613713,-1.4448681,0.30814989,0.31997454,-0.18184982
67,-0.42220298,1.1916288,0.036419372,-0.47939873,-1.4735066,0.30834987,0.33043973,-0.18093933
68,-0.44025809,1.2020385,0.048545261,-0.47189292,-1.5014699,0.30868007,0.34102175,-0.17962839
69,-0.45826654,1.2121350,0.061063430,-0.46363071,-1.5287330,0.30915024,0.35172230,-0.17790536
70,-0.47620978,1.2219222,0.073960628,-0.45462465,-1.5552727,0.30976950,0.36254334,-0.17575911
71,-0.49406973,1.2314044,0.087222965,-0.44488884,-1.5810677,0.31054634,0.37348703,-0.17317902
72,-0.51182880,1.2405858,0.10083595,-0.43443880,-1.6060986,0.31148857,0.38455576,-0.17015501
73,-0.52946994,1.2494711,0.11478455,-0.42329145,-1.6303481,0.31260335,0.39575212,-0.16667759
74,-0.54697665,1.2580652,0.12905321,-0.41146505,-1.6538009,0.31389712,0.40707889,-0.16273786
75,-0.56433305,1.2663732,0.14362595,-0.39897911,-1.6764435,0.31537559,0.41853901,-0.15832751
76,-0.58152387,1.2744001,0.15848635,-0.38585436,-1.6982646,0.31704374,0.43013561,-0.15343888
77,-0.59853446,1.2821513,0.17361768,-0.37211264,-1.7192551,0.31890579,0.44187192,-0.14806498
78,-0.61535088,1.2896321,0.18900286,-0.35777683,-1.7394075,0.32096521,0.45375133,-0.14219944
79,-0.63195984,1.2968480,0.20462460,-0.34287082,-1.7587166,0.32322468,0.46577733,-0.13583661
80,-0.64834877,1.3038046,0.22046538,-0.32741935,-1.7771791,0.32568610,0.47795347,-0.12897151
81,-0.66450585,1.3105072,0.23650757,-0.31144801,-1.7947938,0.32835058,0.49028341,-0.12159989
82,-0.68041996,1.3169614,0.25273341,-0.29498311,-1.8115615,0.33121843,0.50277084,-0.11371820
83,-0.69608077,1.3231725,0.26912513,-0.27805160,-1.8274846,0.33428918,0.51541948,-0.10532362
84,-0.71147870,1.3291459,0.28566493,-0.26068099,-1.8425677,0.33756155,0.52823307,-0.096414064
85,-0.72660493,1.3348869,0.30233511,-0.24289930,-1.8568173,0.34103347,0.54121533,-0.086988183
86,-0.74145146,1.3404006,0.31911807,-0.22473489,-1.8702416,0.34470209,0.55436994,-0.077045373
87,-0.75601104,1.3456919,0.33599636,-0.20621646,-1.8828506,0.34856376,0.56770056,-0.066585778
88,-0.77027724,1.3507657,0.35295276,-0.18737291,-1.8946559,0.35261409,0.58121074,-0.055610287
89,-0.78424440,1.3556264,0.36997028,-0.16823327,-1.9056711,0.35684790,0.59490394,-0.044120532
90,-0.79790767,1.3602785,0.38703227,-0.14882662,-1.9159110,0.36125929,0.60878352,-0.032118895
91,-0.81126297,1.3647260,0.40412239,-0.12918198,-1.9253923,0.36584159,0.62285269,-0.019608494
92,-0.82430702,1.3689729,0.42122474,-0.10932824,-1.9341329,0.37058746,0.63711448,-0.0065931849
93,-0.83703730,1.3730226,0.43832382,-0.089294095,-1.9421522,0.37548884,0.65157178,0.0069224503
94,-0.84945207,1.3768784,0.45540462,-0.069107926,-1.9494710,0.38053699,0.66622722,0.020933107
95,-0.86155035,1.3805432,0.47245263,-0.048797741,-1.9561114,0.38572255,0.68108326,0.035432772
96,-0.87333188,1.3840195,0.48945392,-0.028391091,-1.9620963,0.39103550,0.69614207,0.050414731
97,-0.88479716,1.3873098,0.50639512,-0.0079149902,-1.9674502,0.39646524,0.71140558,0.065871582
98,-0.89594737,1.3904156,0.52326350,0.012604154,-1.9721981,0.40200060,0.72687541,0.081795252
99,-0.90678441,1.3933387,0.54004694,0.033140617,-1.9763663,0.40762986,0.74255290,0.098177008
100,-0.91731086,1.3960799,0.55673403,0.053669426,-1.9799817,0.41334080,0.75843904,0.11500748
101,-0.92752991,1.3986400,0.57331405,0.074166424,-1.9830719,0.41912071,0.77453449,0.13227666
102,-0.93744543,1.4010193,0.58977700,0.094608338,-1.9856654,0.42495644,0.79083955,0.14997396
103,-0.94706187,1.4032177,0.60611362,0.11497283,-1.9877908,0.43083444,0.80735414,0.16808818
104,-0.95638427,1.4052345,0.62231542,0.13523858,-1.9894776,0.43674079,0.82407776,0.18660757
105,-0.96541821,1.4070687,0.63837468,0.15538528,-1.9907553,0.44266122,0.84100955,0.20551984
106,-0.97416980,1.4087191,0.65428445,0.17539376,-1.9916537,0.44858116,0.85814818,0.22481218
107,-0.98264566,1.4101836,0.67003860,0.19524599,-1.9922030,0.45448582,0.87549190,0.24447128
108,-0.99085286,1.4114602,0.68563179,0.21492510,-1.9924331,0.46036014,0.89303852,0.26448335
109,-0.99879890,1.4125460,0.70105949,0.23441546,-1.9923740,0.46618893,0.91078537,0.28483419
110,-1.0064917,1.4134380,0.71631796,0.25370272,-1.9920557,0.47195681,0.92872932,0.30550914
111,-1.0139395,1.4141328,0.73140429,0.27277377,-1.9915078,0.47764837,0.94686675,0.32649317
112,-1.0211510,1.4146264,0.74631634,0.29161683,-1.9907596,0.48324808,0.96519355,0.34777089
113,-1.0281350,1.4149145,0.76105280,0.31022147,-1.9898400,0.48874043,0.98370513,0.36932657
114,-1.0349007,1.4149925,0.77561309,0.32857855,-1.9887774,0.49410995,1.0023964,0.39114415
115,-1.0414575,1.4148554,0.78999744,0.34668034,-1.9875996,0.49934121,1.0212617,0.41320733
116,-1.0478150,1.4144977,0.80420682,0.36452042,-1.9863336,0.50441891,1.0402949,0.43549953
117,-1.0539831,1.4139139,0.81824293,0.38209376,-1.9850059,0.50932789,1.0594894,0.45800395
118,-1.0599714,1.4130978,0.83210816,0.39939668,-1.9836420,0.51405320,1.0788381,0.48070362
119,-1.0657901,1.4120432,0.84580564,0.41642684,-1.9822664,0.51858010,1.0983333,0.50358139
120,-1.0714491,1.4107435,0.85933912,0.43318323,-1.9809026,0.52289415,1.1179668,0.52661998
121,-1.0769584,1.4091917,0.87271300,0.44966618,-1.9795734,0.52698118,1.1377299,0.54980201
122,-1.0823281,1.4073809,0.88593229,0.46587729,-1.9782999,0.53082742,1.1576135,0.57311001
123,-1.0875682,1.4053037,0.89900255,0.48181944,-1.9771026,0.53441945,1.1776079,0.59652649
124,-1.0926884,1.4029526,0.91192991,0.49749675,-1.9760002,0.53774427,1.1977030,0.62003393
125,-1.0976986,1.4003200,0.92472096,0.51291455,-1.9750104,0.54078935,1.2178880,0.64361482
126,-1.1026084,1.3973981,0.93738278,0.52807933,-1.9741497,0.54354266,1.2381518,0.66725169
127,-1.1074271,1.3941790,0.94992287,0.54299869,-1.9734327,0.54599267,1.2584829,0.69092714
128,-1.1121639,1.3906547,0.96234910,0.55768132,-1.9728731,0.54812840,1.2788693,0.71462387
129,-1.1168279,1.3868173,0.97466968,0.57213695,-1.9724827,0.54993948,1.2992985,0.73832467
130,-1.1214276,1.3826586,0.98689310,0.58637625,-1.9722720,0.55141613,1.3197576,0.76201252
131,-1.1259715,1.3781707,0.99902813,0.60041084,-1.9722500,0.55254921,1.3402333,0.78567054
132,-1.1304675,1.3733454,1.0110837,0.61425317,-1.9724240,0.55333023,1.3607121,0.80928206
133,-1.1349234,1.3681750,1.0230689,0.62791649,-1.9727998,0.55375140,1.3811797,0.83283062
134,-1.1393464,1.3626515,1.0349930,0.64141479,-1.9733816,0.55380562,1.4016219,0.85629999
135,-1.1437435,1.3567673,1.0468651,0.65476269,-1.9741720,0.55348653,1.4220240,0.87967424
136,-1.1481211,1.3505148,1.0586946,0.66797543,-1.9751720,0.55278850,1.4423709,0.90293768
137,-1.1524853,1.3438867,1.0704907,0.68106874,-1.9763810,0.55170665,1.4626473,0.92607494
138,-1.1568416,1.3368757,1.0822625,0.69405880,-1.9777969,0.55023688,1.4828378,0.94907099
139,-1.1611952,1.3294751,1.0940190,0.70696215,-1.9794158,0.54837585,1.5029264,0.97191111
140,-1.1655506,1.3216783,1.1057689,0.71979562,-1.9812326,0.54612104,1.5228972,0.99458096
141,-1.1699119,1.3134789,1.1175208,0.73257625,-1.9832402,0.54347069,1.5427341,1.0170665
142,-1.1742827,1.3048710,1.1292830,0.74532119,-1.9854305,0.54042386,1.5624207,1.0393543
143,-1.1786660,1.2958491,1.1410634,0.75804764,-1.9877936,0.53698041,1.5819404,1.0614310
144,-1.1830645,1.2864079,1.1528695,0.77077278,-1.9903182,0.53314100,1.6012768,1.0832838
145,-1.1874800,1.2765428,1.1647083,0.78351366,-1.9929917,0.52890709,1.6204132,1.1049004
146,-1.1919140,1.2662494,1.1765866,0.79628713,-1.9958001,0.52428094,1.6393330,1.1262689
147,-1.1963674,1.2555240,1.1885104,0.80910977,-1.9987281,0.51926561,1.6580193,1.1473778
148,-1.2008404,1.2443631,1.2004852,0.82199779,-2.0017591,0.51386493,1.6764555,1.1682159
149,-1.2053330,1.2327641,1.2125160,0.83496697,-2.0048755,0.50808351,1.6946251,1.1887728
150,-1.2098444,1.2207247,1.2246070,0.84803257,-2.0080583,0.50192672,1.7125113,1.2090383
151,-1.2143732,1.2082432,1.2367620,0.86120924,-2.0112877,0.49540068,1.7300978,1.2290026
152,-1.2189176,1.1953186,1.2489836,0.87451099,-2.0145428,0.48851224,1.7473681,1.2486567
153,-1.2234754,1.1819504,1.2612742,0.88795107,-2.0178017,0.48126896,1.7643062,1.2679916
154,-1.2280435,1.1681387,1.2736351,0.90154190,-2.0210417,0.47367911,1.7808961,1.2869992
155,-1.2326188,1.1538845,1.2860668,0.91529505,-2.0242395,0.46575163,1.7971220,1.3056715
156,-1.2371972,1.1391890,1.2985690,0.92922111,-2.0273708,0.45749608,1.8129684,1.3240013
157,-1.2417746,1.1240546,1.3111407,0.94332967,-2.0304110,0.44892268,1.8284201,1.3419816
158,-1.2463460,1.1084839,1.3237798,0.95762924,-2.0333349,0.44004223,1.8434622,1.3596060
159,-1.2509063,1.0924806,1.3364834,0.97212718,-2.0361166,0.43086611,1.8580801,1.3768684
160,-1.2554498,1.0760487,1.3492477,0.98682969,-2.0387303,0.42140624,1.8722596,1.3937632
161,-1.2599705,1.0591933,1.3620680,1.0017417,-2.0411495,0.41167505,1.8859870,1.4102854
162,-1.2644619,1.0419199,1.3749385,1.0168669,-2.0433478,0.40168543,1.8992489,1.4264302
163,-1.2689172,1.0242348,1.3878526,1.0322076,-2.0452987,0.39145074,1.9120323,1.4421933
164,-1.2733292,1.0061452,1.4008029,1.0477648,-2.0469756,0.38098473,1.9243247,1.4575709
165,-1.2776907,0.98765864,1.4137807,1.0635380,-2.0483520,0.37030155,1.9361143,1.4725593
166,-1.2819938,0.96878372,1.4267766,1.0795254,-2.0494018,0.35941567,1.9473895,1.4871556
167,-1.2862306,0.94952956,1.4397803,1.0957235,-2.0500990,0.34834186,1.9581394,1.5013569
168,-1.2903928,0.92990600,1.4527803,1.1121276,-2.0504179,0.33709516,1.9683538,1.5151609
169,-1.2944721,0.90992360,1.4657645,1.1287314,-2.0503335,0.32569084,1.9780229,1.5285655
170,-1.2984599,0.88959357,1.4787196,1.1455270,-2.0498211,0.31414435,1.9871374,1.5415691
171,-1.3023475,0.86892779,1.4916317,1.1625050,-2.0488568,0.30247129,1.9956890,1.5541702
172,-1.3061261,0.84793879,1.5044858,1.1796546,-2.0474174,0.29068736,2.0036696,1.5663677
173,-1.3097867,0.82663974,1.5172661,1.1969634,-2.0454804,0.27880835,2.0110720,1.5781608
174,-1.3133204,0.80504443,1.5299562,1.2144174,-2.0430243,0.26685005,2.0178897,1.5895490
175,-1.3167183,0.78316725,1.5425385,1.2320011,-2.0400285,0.25482827,2.0241167,1.6005320
176,-1.3199713,0.76102315,1.5549951,1.2496978,-2.0364735,0.24275875,2.0297479,1.6111098
177,-1.3230707,0.73862766,1.5673069,1.2674889,-2.0323408,0.23065714,2.0347787,1.6212825
178,-1.3260075,0.71599683,1.5794546,1.2853547,-2.0276131,0.21853898,2.0392053,1.6310505
179,-1.3287730,0.69314722,1.5914178,1.3032739,-2.0222744,0.20641961,2.0430246,1.6404144
180,-1.3313586,0.67009586,1.6031759,1.3212239,-2.0163100,0.19431421,2.0462344,1.6493750
181,-1.3337558,0.64686026,1.6147075,1.3391808,-2.0097066,0.18223769,2.0488328,1.6579331
182,-1.3359566,0.62345832,1.6259907,1.3571193,-2.0024522,0.17020469,2.0508191,1.6660898
183,-1.3379527,0.59990835,1.6370031,1.3750130,-1.9945364,0.15822954,2.0521930,1.6738462
184,-1.3397366,0.57622902,1.6477221,1.3928342,-1.9859502,0.14632621,2.0529552,1.6812037
185,-1.3413006,0.55243931,1.6581246,1.4105540,-1.9766863,0.13450832,2.0531067,1.6881636
186,-1.3426377,0.52855853,1.6681871,1.4281427,-1.9667388,0.12278904,2.0526497,1.6947274
187,-1.3437410,0.50460621,1.6778860,1.4455694,-1.9561037,0.11118114,2.0515869,1.7008966
188,-1.3446040,0.48060212,1.6871975,1.4628022,-1.9447785,0.099696878,2.0499217,1.7066728
189,-1.3452205,0.45656622,1.6960975,1.4798087,-1.9327623,0.088348043,2.0476582,1.7120575
190,-1.3455850,0.43251860,1.7045621,1.4965552,-1.9200561,0.077145882,2.0448013,1.7170526
191,-1.3456922,0.40847950,1.7125672,1.5130077,-1.9066624,0.066101095,2.0413564,1.7216595
192,-1.3455371,0.38446919,1.7200888,1.5291315,-1.8925858,0.055223808,2.0373298,1.7258799
193,-1.3451155,0.36050800,1.7271030,1.5448913,-1.8778321,0.044523552,2.0327283,1.7297155
194,-1.3444235,0.33661625,1.7335862,1.5602513,-1.8624094,0.034009243,2.0275594,1.7331680
195,-1.3434577,0.31281421,1.7395148,1.5751755,-1.8463270,0.023689162,2.0218312,1.7362389
196,-1.3422151,0.28912208,1.7448657,1.5896275,-1.8295963,0.013570941,2.0155525,1.7389297
197,-1.3406936,0.26555994,1.7496161,1.6035709,-1.8122302,0.0036615507,2.0087325,1.7412421
198,-1.3388911,0.24214769,1.7537437,1.6169691,-1.7942434,-0.0060327164,2.0013812,1.7431774
199,-1.3368066,0.21890504,1.7572267,1.6297855,-1.7756522,-0.015506253,1.9935090,1.7447370
200,-1.3344392,0.19585148,1.7600438,1.6419837,-1.7564744,-0.024754145,1.9851270,1.7459223
201,-1.3317889,0.17300619,1.7621743,1.6535275,-1.7367296,-0.033772181,1.9762465,1.7467346
202,-1.3288560,0.15038808,1.7635982,1.6643811,-1.7164388,-0.042556853,1.9668796,1.7471751
203,-1.3256414,0.12801566,1.7642964,1.6745090,-1.6956245,-0.051105359,1.9570387,1.7472448
204,-1.3221468,0.10590709,1.7642504,1.6838764,-1.6743108,-0.059415607,1.9467367,1.7469448
205,-1.3183743,0.084080096,1.7634428,1.6924488,-1.6525229,-0.067486208,1.9359868,1.7462760
206,-1.3143265,0.062551942,1.7618567,1.7001928,-1.6302877,-0.075316475,1.9248027,1.7452395
207,-1.3100067,0.041339406,1.7594767,1.7070757,-1.6076332,-0.082906417,1.9131985,1.7438358
208,-1.3054187,0.020458743,1.7562881,1.7130656,-1.5845885,-0.090256730,1.9011884,1.7420659
209,-1.3005667,-7.4349633e-05,1.7522774,1.7181317,-1.5611840,-0.097368787,1.8887871,1.7399302
210,-1.2954558,-0.020244759,1.7474322,1.7222443,-1.5374511,-0.10424463,1.8760094,1.7374295
211,-1.2900913,-0.040037985,1.7417411,1.7253749,-1.5134222,-0.11088695,1.8628706,1.7345641
212,-1.2844791,-0.059440173,1.7351943,1.7274964,-1.4891307,-0.11729907,1.8493860,1.7313347
213,-1.2786257,-0.078438132,1.7277829,1.7285829,-1.4646106,-0.12348495,1.8355710,1.7277415
214,-1.2725380,-0.097019368,1.7194996,1.7286102,-1.4398969,-0.12944913,1.8214413,1.7237848
215,-1.2662233,-0.11517210,1.7103381,1.7275553,-1.4150250,-0.13519674,1.8070128,1.7194651
216,-1.2596895,-0.13288528,1.7002939,1.7253972,-1.3900312,-0.14073346,1.7923013,1.7147826
217,-1.2529449,-0.15014864,1.6893634,1.7221163,-1.3649519,-0.14606551,1.7773226,1.7097375
218,-1.2459981,-0.16695264,1.6775448,1.7176950,-1.3398241,-0.15119962,1.7620928,1.7043300
219,-1.2388582,-0.18328859,1.6648376,1.7121175,-1.3146850,-0.15614300,1.7466278,1.6985604
220,-1.2315346,-0.19914856,1.6512429,1.7053697,-1.2895720,-0.16090329,1.7309435,1.6924289
221,-1.2240371,-0.21452545,1.6367631,1.6974398,-1.2645227,-0.16548858,1.7150557,1.6859357
222,-1.2163756,-0.22941300,1.6214021,1.6883177,-1.2395745,-0.16990734,1.6989802,1.6790811
223,-1.2085607,-0.24380578,1.6051656,1.6779955,-1.2147648,-0.17416840,1.6827326,1.6718655
224,-1.2006029,-0.25769919,1.5880605,1.6664675,-1.1901307,-0.17828093,1.6663284,1.6642892
225,-1.1925129,-0.27108951,1.5700954,1.6537302,-1.1657091,-0.18225437,1.6497828,1.6563526
226,-1.1843019,-0.28397384,1.5512802,1.6397819,-1.1415365,-0.18609843,1.6331110,1.6480562
227,-1.1759811,-0.29635014,1.5316267,1.6246237,-1.1176488,-0.18982306,1.6163278,1.6394007
228,-1.1675617,-0.30821723,1.5111479,1.6082584,-1.0940813,-0.19343837,1.5994478,1.6303868
229,-1.1590551,-0.31957477,1.4898583,1.5906914,-1.0708688,-0.19695464,1.5824853,1.6210153
230,-1.1504730,-0.33042326,1.4677741,1.5719304,-1.0480451,-0.20038225,1.5654544,1.6112871
231,-1.1418268,-0.34076403,1.4449127,1.5519852,-1.0256431,-0.20373168,1.5483688,1.6012034
232,-1.1331280,-0.35059925,1.4212932,1.5308679,-1.0036950,-0.20701343,1.5312417,1.5907655
233,-1.1243882,-0.35993188,1.3969359,1.5085931,-0.98223157,-0.21023802,1.5140863,1.5799749
234,-1.1156189,-0.36876570,1.3718626,1.4851776,-0.96128276,-0.21341591,1.4969150,1.5688331
235,-1.1068313,-0.37710527,1.3460965,1.4606402,-0.94087713,-0.21655752,1.4797400,1.5573421
236,-1.0980367,-0.38495592,1.3196619,1.4350024,-0.92104198,-0.21967314,1.4625731,1.5455038
237,-1.0892463,-0.39232371,1.2925846,1.4082876,-0.90180323,-0.22277294,1.4454257,1.5333207
238,-1.0804708,-0.39921545,1.2648915,1.3805215,-0.88318535,-0.22586687,1.4283085,1.5207953
239,-1.0717209,-0.40563865,1.2366108,1.3517319,-0.86521129,-0.22896470,1.4112320,1.5079304
240,-1.0630071,-0.41160151,1.2077719,1.3219488,-0.84790241,-0.23207594,1.3942062,1.4947290
241,-1.0543394,-0.41711287,1.1784050,1.2912042,-0.83127844,-0.23520982,1.3772404,1.4811946
242,-1.0457277,-0.42218220,1.1485416,1.2595322,-0.81535741,-0.23837523,1.3603435,1.4673307
243,-1.0371814,-0.42681960,1.1182140,1.2269687,-0.80015557,-0.24158073,1.3435241,1.4531414
244,-1.0287097,-0.43103571,1.0874557,1.1935516,-0.78568741,-0.24483450,1.3267899,1.4386308
245,-1.0203212,-0.43484172,1.0563008,1.1593207,-0.77196555,-0.24814430,1.3101485,1.4238037
246,-1.0120242,-0.43824933,1.0247841,1.1243174,-0.75900076,-0.25151746,1.2936066,1.4086648
247,-1.0038265,-0.44127072,0.99294156,1.0885848,-0.74680187,-0.25496084,1.2771706,1.3932195
248,-0.99573542,-0.44391850,0.96080935,1.0521676,-0.73537578,-0.25848079,1.2608464,1.3774733
249,-0.98775790,-0.44620569,0.92842445,1.0151122,-0.72472743,-0.26208317,1.2446391,1.3614322
250,-0.97990022,-0.44814568,0.89582432,0.97746605,-0.71485980,-0.26577329,1.2285537,1.3451026
251,-0.97216820,-0.44975217,0.86304685,0.93927825,-0.70577385,-0.26955589,1.2125943,1.3284909
252,-0.96456707,-0.45103919,0.83013031,0.90059895,-0.69746856,-0.27343513,1.1967646,1.3116044
253,-0.95710152,-0.45202099,0.79711326,0.86147947,-0.68994091,-0.27741459,1.1810679,1.2944504
254,-0.94977564,-0.45271205,0.76403447,0.82197214,-0.68318590,-0.28149720,1.1655068,1.2770366
255,-0.94259290,-0.45312703,0.73093285,0.78213021,-0.67719652,-0.28568529,1.1500836,1.2593712
256,-0.93555620,-0.45328071,0.69784738,0.74200773,-0.67196382,-0.28998053,1.1348000,1.2414626
257,-0.92866779,-0.45318798,0.66481702,0.70165943,-0.66747689,-0.29438396,1.1196572,1.2233197
258,-0.92192930,-0.45286378,0.63188064,0.66114062,-0.66372290,-0.29889594,1.1046561,1.2049517
259,-0.91534173,-0.45232307,0.59907691,0.62050706,-0.66068714,-0.30351615,1.0897968,1.1863682
260,-0.90890544,-0.45158078,0.56644428,0.57981487,-0.65835302,-0.30824363,1.0750794,1.1675791
261,-0.90262014,-0.45065178,0.53402086,0.53912037,-0.65670219,-0.31307672,1.0605032,1.1485946
262,-0.89648489,-0.44955085,0.50184435,0.49847999,-0.65571447,-0.31801309,1.0460673,1.1294255
263,-0.89049814,-0.44829260,0.46995197,0.45795015,-0.65536803,-0.32304976,1.0317704,1.1100825
264,-0.88465768,-0.44689148,0.43838038,0.41758711,-0.65563935,-0.32818304,1.0176107,1.0905770
265,-0.87896065,-0.44536172,0.40716561,0.37744688,-0.65650331,-0.33340859,1.0035861,1.0709205
266,-0.87340361,-0.44371729,0.37634298,0.33758509,-0.65793328,-0.33872144,0.98969423,1.0511248
267,-0.86798246,-0.44197188,0.34594705,0.29805685,-0.65990117,-0.34411594,0.97593235,1.0312022
268,-0.86269251,-0.44013884,0.31601150,0.25891667,-0.66237748,-0.34958581,0.96229742,1.0111650
269,-0.85752847,-0.43823116,0.28656913,0.22021831,-0.66533143,-0.35512416,0.94878612,0.99102598
270,-0.85248449,-0.43626145,0.25765174,0.18201467,-0.66873100,-0.36072348,0.93539487,0.97079795
271,-0.84755412,-0.43424189,0.22929009,0.14435768,-0.67254303,-0.36637567,0.92211988,0.95049409
272,-0.84273040,-0.43218418,0.20151385,0.10729817,-0.67673331,-0.37207209,0.90895713,0.93012776
273,-0.83800581,-0.43009957,0.17435150,0.070885802,-0.68126668,-0.37780350,0.89590241,0.90971249
274,-0.83337235,-0.42799876,0.14783032,0.035168908,-0.68610710,-0.38356018,0.88295136,0.88926199
275,-0.82882154,-0.42589195,0.12197630,0.00019441765,-0.69121776,-0.38933188,0.87009947,0.86879012
276,-0.82434440,-0.42378873,0.096814123,-0.033992251,-0.69656120,-0.39510787,0.85734211,0.84831088
277,-0.81993158,-0.42169812,0.072367094,-0.067347294,-0.70209937,-0.40087700,0.84467456,0.82783836
278,-0.81557326,-0.41962855,0.048657100,-0.099828615,-0.70779378,-0.40662768,0.83209202,0.80738674
279,-0.81125929,-0.41758778,0.025704572,-0.13139591,-0.71360556,-0.41234792,0.81958965,0.78697028
280,-0.80697916,-0.41558295,0.0035284484,-0.16201078,-0.71949560,-0.41802539,0.80716257,0.76660326
281,-0.80272203,-0.41362050,-0.017853862,-0.19163676,-0.72542465,-0.42364743,0.79480592,0.74630000
282,-0.79847680,-0.41170624,-0.038426508,-0.22023947,-0.73135340,-0.42920107,0.78251485,0.72607478
283,-0.79423209,-0.40984523,-0.058175229,-0.24778663,-0.73724265,-0.43467313,0.77028454,0.70594188
284,-0.78997633,-0.40804186,-0.077087368,-0.27424815,-0.74305333,-0.44005015,0.75811027,0.68591551
285,-0.78569775,-0.40629981,-0.095151903,-0.29959620,-0.74874671,-0.44531852,0.74598736,0.66600980
286,-0.78138446,-0.40462200,-0.11235945,-0.32380526,-0.75428443,-0.45046448,0.73391129,0.64623877
287,-0.77702443,-0.40301067,-0.12870230,-0.34685217,-0.75962863,-0.45547415,0.72187762,0.62661632
288,-0.77260558,-0.40146731,-0.14417438,-0.36871619,-0.76474207,-0.46033359,0.70988209,0.60715617
289,-0.76811579,-0.39999267,-0.15877132,-0.38937902,-0.76958822,-0.46502882,0.69792060,0.58787188
290,-0.76354293,-0.39858680,-0.17249039,-0.40882487,-0.77413138,-0.46954588,0.68598923,0.56877678
291,-0.75887494,-0.39724899,-0.18533055,-0.42704045,-0.77833675,-0.47387084,0.67408428,0.54988399
292,-0.75409981,-0.39597783,-0.19729242,-0.44401503,-0.78217056,-0.47798986,0.66220226,0.53120636
293,-0.74920567,-0.39477118,-0.20837824,-0.45974043,-0.78560016,-0.48188924,0.65033992,0.51275645
294,-0.74418080,-0.39362623,-0.21859192,-0.47421104,-0.78859411,-0.48555543,0.63849426,0.49454652
295,-0.73901368,-0.39253942,-0.22793897,-0.48742385,-0.79112225,-0.48897508,0.62666255,0.47658849
296,-0.73369302,-0.39150656,-0.23642649,-0.49937842,-0.79315583,-0.49213511,0.61484236,0.45889393
297,-0.72820779,-0.39052276,-0.24406315,-0.51007687,-0.79466757,-0.49502269,0.60303151,0.44147404
298,-0.72254730,-0.38958248,-0.25085916,-0.51952389,-0.79563173,-0.49762533,0.59122817,0.42433960
299,-0.71670118,-0.38867956,-0.25682623,-0.52772673,-0.79602424,-0.49993088,0.57943080,0.40750097
300,-0.71065944,-0.38780722,-0.26197756,-0.53469513,-0.79582268,-0.50192759,0.56763820,0.39096809
301,-0.70441252,-0.38695809,-0.26632774,-0.54044134,-0.79500644,-0.50360415,0.55584948,0.37475040
302,-0.69795131,-0.38612421,-0.26989278,-0.54498004,-0.79355673,-0.50494968,0.54406412,0.35885689
303,-0.69126717,-0.38529711,-0.27269001,-0.54832833,-0.79145667,-0.50595384,0.53228191,0.34329600
304,-0.68435200,-0.38446777,-0.27473806,-0.55050569,-0.78869132,-0.50660678,0.52050303,0.32807571
305,-0.67719823,-0.38362668,-0.27605679,-0.55153388,-0.78524774,-0.50689922,0.50872799,0.31320341
306,-0.66979888,-0.38276389,-0.27666726,-0.55143692,-0.78111504,-0.50682247,0.49695766,0.29868597
307,-0.66214757,-0.38186899,-0.27659163,-0.55024102,-0.77628442,-0.50636846,0.48519326,0.28452967
308,-0.65423855,-0.38093118,-0.27585316,-0.54797450,-0.77074917,-0.50552977,0.47343639,0.27074023
309,-0.64606676,-0.37993929,-0.27447610,-0.54466773,-0.76450475,-0.50429962,0.46168900,0.25732277
310,-0.63762778,-0.37888179,-0.27248562,-0.54035303,-0.75754879,-0.50267194,0.44995337,0.24428179
311,-0.62891793,-0.37774689,-0.26990780,-0.53506461,-0.74988108,-0.50064138,0.43823217,0.23162120
312,-0.61993424,-0.37652248,-0.26676951,-0.52883848,-0.74150365,-0.49820331,0.42652840,0.21934427
313,-0.61067451,-0.37519624,-0.26309836,-0.52171233,-0.73242069,-0.49535386,0.41484539,0.20745365
314,-0.60113728,-0.37375567,-0.25892262,-0.51372548,-0.72263862,-0.49208991,0.40318682,0.19595136
315,-0.59132189,-0.37218808,-0.25427117,-0.50491874,-0.71216603,-0.48840914,0.39155670,0.18483877
316,-0.58122846,-0.37048067,-0.24917340,-0.49533432,-0.70101373,-0.48431002,0.37995936,0.17411661
317,-0.57085792,-0.36862053,-0.24365915,-0.48501574,-0.68919466,-0.47979182,0.36839942,0.16378497
318,-0.56021202,-0.36659474,-0.23775863,-0.47400769,-0.67672394,-0.47485461,0.35688183,0.15384329
319,-0.54929333,-0.36439034,-0.23150235,-0.46235597,-0.66361877,-0.46949929,0.34541181,0.14429039
320,-0.53810524,-0.36199440,-0.22492104,-0.45010731,-0.64989847,-0.46372759,0.33399484,0.13512441
321,-0.52665198,-0.35939406,-0.21804558,-0.43730931,-0.63558436,-0.45754203,0.32263670,0.12634289
322,-0.51493862,-0.35657655,-0.21090692,-0.42401028,-0.62069979,-0.45094599,0.31134339,0.11794274
323,-0.50297105,-0.35352925,-0.20353599,-0.41025917,-0.60527004,-0.44394365,0.30012116,0.10992021
324,-0.49075599,-0.35023971,-0.19596366,-0.39610540,-0.58932228,-0.43654000,0.28897646,0.10227099
325,-0.47830098,-0.34669568,-0.18822062,-0.38159878,-0.57288551,-0.42874085,0.27791597,0.094990134
326,-0.46561439,-0.34288517,-0.18033736,-0.36678934,-0.55599051,-0.42055280,0.26694652,0.088072105
327,-0.45270538,-0.33879647,-0.17234405,-0.35172728,-0.53866972,-0.41198325,0.25607513,0.081510798
328,-0.43958392,-0.33441819,-0.16427049,-0.33646278,-0.52095722,-0.40304035,0.24530898,0.075299538
329,-0.42626074,-0.32973927,-0.15614603,-0.32104591,-0.50288863,-0.39373304,0.23465536,0.069431105
330,-0.41274737,-0.32474906,-0.14799952,-0.30552652,-0.48450102,-0.38407098,0.22412169,0.063897743
331,-0.39905606,-0.31943730,-0.13985923,-0.28995411,-0.46583283,-0.37406457,0.21371548,0.058691185
332,-0.38519979,-0.31379419,-0.13175276,-0.27437768,-0.44692376,-0.36372488,0.20344430,0.053802672
333,-0.37119226,-0.30781039,-0.12370704,-0.25884568,-0.42781473,-0.35306370,0.19331581,0.049222968
334,-0.35704785,-0.30147707,-0.11574821,-0.24340583,-0.40854770,-0.34209345,0.18333769,0.044942389
335,-0.34278157,-0.29478593,-0.10790159,-0.22810506,-0.38916565,-0.33082717,0.17351761,0.040950821
336,-0.32840911,-0.28772923,-0.10019159,-0.21298937,-0.36971241,-0.31927852,0.16386329,0.037237748
337,-0.31394671,-0.28029978,-0.092641730,-0.19810373,-0.35023261,-0.30746172,0.15438238,0.033792274
338,-0.29941122,-0.27249103,-0.085274502,-0.18349196,-0.33077153,-0.29539153,0.14508252,0.030603151
339,-0.28481999,-0.26429701,-0.078111377,-0.16919666,-0.31137501,-0.28308320,0.13597127,0.027658805
340,-0.27019092,-0.25571242,-0.071172742,-0.15525912,-0.29208932,-0.27055247,0.12705612,0.024947364
341,-0.25554234,-0.24673260,-0.064477857,-0.14171915,-0.27296109,-0.25781551,0.11834446,0.022456687
342,-0.24089302,-0.23735359,-0.058044820,-0.12861510,-0.25403713,-0.24488889,0.10984355,0.020174394
343,-0.22626214,-0.22757207,-0.051890529,-0.11598367,-0.23536439,-0.23178952,0.10156053,0.018087895
344,-0.21166921,-0.21738548,-0.046030651,-0.10385993,-0.21698976,-0.21853467,0.093502376,0.016184421
345,-0.19713409,-0.20679191,-0.040479588,-0.092277132,-0.19896004,-0.20514187,0.085675887,0.014451054
346,-0.18267688,-0.19579023,-0.035250458,-0.081266743,-0.18132176,-0.19162889,0.078087681,0.012874760
347,-0.16831792,-0.18437998,-0.030355067,-0.070858310,-0.16412110,-0.17801371,0.070744169,0.011442423
348,-0.15407776,-0.17256146,-0.025803892,-0.061079425,-0.14740377,-0.16431445,0.063651540,0.010140871
349,-0.13997706,-0.16033572,-0.021606066,-0.051955660,-0.13121486,-0.15054939,0.056815747,0.0089569148
350,-0.12603662,-0.14770451,-0.017769368,-0.043510522,-0.11559881,-0.13673684,0.050242492,0.0078773761
351,-0.11227726,-0.13467034,-0.014300209,-0.035765398,-0.10059920,-0.12289516,0.043937213,0.0068891232
352,-0.098719833,-0.12123644,-0.011203635,-0.028739524,-0.086258715,-0.10904272,0.037905071,0.0059791019
353,-0.085385157,-0.10740677,-0.0084833179,-0.022449945,-0.072619017,-0.095197787,0.032150937,0.0051343683
354,-0.072293969,-0.093186033,-0.0061415652,-0.016911483,-0.059720630,-0.081378582,0.026679384,0.0043421216
355,-0.059466880,-0.078579616,-0.0041793217,-0.012136722,-0.047602846,-0.067603162,0.021494671,0.0035897355
356,-0.046924334,-0.063593627,-0.0025961804,-0.0081359806,-0.036303631,-0.053889408,0.016600739,0.0028647906
357,-0.034686561,-0.048234866,-0.0013903951,-0.0049173077,-0.025859527,-0.040254979,0.012001202,0.0021551052
358,-0.022773532,-0.032510811,-0.00055889750,-0.0024864723,-0.016305557,-0.026717271,0.0076993367,0.0014487663
359,-0.011204915,-0.016429607,-9.7316085e-05,-0.00084696456,-0.0076751435,-0.013293374,0.0036980768,0.00073416033
360,-3.0722106e-08,-4.6294105e-08,2.3032953e-10,-1.2573764e-09,-2.0043267e-08,-3.6873672e-08,9.8878559e-09,2.0848461e-09
