deg,XRT_AX,XRT_BX,XRT_AY,XRT_BY,SOT_AX,SOT_BX,SOT_AY,SOT_BY
valid,1,1,1,1,1,1,1,1,revB
offset,99.269076,95.459557,1989.9376,1982.5707,26.572195,22.731337,108.76840,101.17197
0,0.0000000,0.0000000,0.0000000,0.0000000,0.0000000,0.0000000,0.0000000,0.0000000
1,0.087458530,0.034549643,-0.029571661,0.0084993403,0.089064301,0.034211484,-0.026504769,0.0082659093
2,0.17376682,0.068886733,-0.058873158,0.016747863,0.17722129,0.068506664,-0.052667745,0.016367617
3,0.25883931,0.10296877,-0.087888971,0.024738685,0.26437606,0.10285146,-0.078492924,0.024291835
4,0.34259477,0.13675509,-0.11660429,0.032465734,0.35043759,0.13721225,-0.10398471,0.032026026
5,0.42495646,0.17020694,-0.14500503,0.039923737,0.43531883,0.17155595,-0.12914785,0.039558418
6,0.50585219,0.20328751,-0.17307782,0.047108211,0.51893679,0.20585004,-0.15398742,0.046878028
7,0.58521439,0.23596206,-0.20081001,0.054015453,0.60121269,0.24006260,-0.17850873,0.053974677
8,0.66298017,0.26819791,-0.22818970,0.060642522,0.68207199,0.27416236,-0.20271728,0.060839004
9,0.73909144,0.29996456,-0.25520570,0.066987233,0.76144447,0.30811877,-0.22661875,0.067462480
10,0.81349485,0.33123364,-0.28184755,0.073048133,0.83926433,0.34190201,-0.25021887,0.073837419
11,0.88614190,0.36197906,-0.30810551,0.078824490,0.91547020,0.37548303,-0.27352347,0.079956989
12,0.95698894,0.39217694,-0.33397057,0.084316276,0.99000518,0.40883361,-0.29653834,0.085815222
13,1.0259972,0.42180570,-0.35943441,0.089524143,1.0628169,0.44192637,-0.31926922,0.091407019
14,1.0931326,0.45084606,-0.38448944,0.094449413,1.1338576,0.47473483,-0.34172178,0.096728154
15,1.1583662,0.47928103,-0.40912874,0.099094050,1.2030839,0.50723341,-0.36390151,0.10177528
16,1.2216735,0.50709596,-0.43334610,0.10346064,1.2704572,0.53939752,-0.38581374,0.10654593
17,1.2830352,0.53427850,-0.45713595,0.10755239,1.3359432,0.57120351,-0.40746356,0.11103852
18,1.3424362,0.56081862,-0.48049341,0.11137305,1.3995123,0.60262876,-0.42885578,0.11525233
19,1.3998666,0.58670858,-0.50341423,0.11492698,1.4611392,0.63365167,-0.44999490,0.11918754
20,1.4553208,0.61194293,-0.52589478,0.11821904,1.5208034,0.66425172,-0.47088509,0.12284518
21,1.5087977,0.63651844,-0.54793206,0.12125462,1.5784884,0.69440944,-0.49153009,0.12622714
22,1.5603008,0.66043415,-0.56952365,0.12403960,1.6341823,0.72410648,-0.51193328,0.12933619
23,1.6098378,0.68369124,-0.59066771,0.12658032,1.6878774,0.75332558,-0.53209755,0.13217593
24,1.6574207,0.70629306,-0.61136297,0.12888358,1.7395702,0.78205063,-0.55202534,0.13475078
25,1.7030655,0.72824505,-0.63160866,0.13095659,1.7892613,0.81026664,-0.57171857,0.13706601
26,1.7467924,0.74955467,-0.65140456,0.13280695,1.8369555,0.83795979,-0.59117864,0.13912768
27,1.7886253,0.77023138,-0.67075093,0.13444266,1.8826614,0.86511741,-0.61040641,0.14094265
28,1.8285919,0.79028656,-0.68964848,0.13587206,1.9263914,0.89172801,-0.62940218,0.14251853
29,1.8667233,0.80973343,-0.70809840,0.13710380,1.9681616,0.91778125,-0.64816566,0.14386373
30,1.9030542,0.82858699,-0.72610228,0.13814685,2.0079918,0.94326798,-0.66669597,0.14498734
31,1.9376226,0.84686394,-0.74366212,0.13901048,2.0459054,0.96818021,-0.68499165,0.14589921
32,1.9704694,0.86458257,-0.76078029,0.13970420,2.0819288,0.99251113,-0.70305062,0.14660986
33,2.0016386,0.88176274,-0.77745950,0.14023776,2.1160918,1.0162551,-0.72087018,0.14713048
34,2.0311768,0.89842574,-0.79370281,0.14062114,2.1484273,1.0394076,-0.73844704,0.14747290
35,2.0591333,0.91459418,-0.80951356,0.14086451,2.1789711,1.0619653,-0.75577729,0.14764956
36,2.0855598,0.93029196,-0.82489537,0.14097822,2.2077618,1.0839261,-0.77285641,0.14767352
37,2.1105101,0.94554411,-0.83985213,0.14097279,2.2348404,1.1052888,-0.78967932,0.14755835
38,2.1340401,0.96037672,-0.85438793,0.14085886,2.2602508,1.1260535,-0.80624030,0.14731819
39,2.1562075,0.97481685,-0.86850708,0.14064721,2.2840387,1.1462213,-0.82253311,0.14696767
40,2.1770717,0.98889237,-0.88221406,0.14034871,2.3062523,1.1657945,-0.83855093,0.14652190
41,2.1966933,1.0026319,-0.89551351,0.13997433,2.3269416,1.1847763,-0.85428640,0.14599640
42,2.2151346,1.0160647,-0.90841020,0.13953510,2.3461586,1.2031711,-0.86973166,0.14540714
43,2.2324585,1.0292206,-0.92090902,0.13904213,2.3639568,1.2209842,-0.88487836,0.14477042
44,2.2487290,1.0421298,-0.93301492,0.13850654,2.3803912,1.2382219,-0.89971766,0.14410291
45,2.2640108,1.0548226,-0.94473294,0.13793950,2.3955181,1.2548915,-0.91424032,0.14342159
46,2.2783690,1.0673300,-0.95606817,0.13735220,2.4093952,1.2710013,-0.92843668,0.14274369
47,2.2918690,1.0796825,-0.96702568,0.13675583,2.4220808,1.2865603,-0.94229670,0.14208670
48,2.3045764,1.0919111,-0.97761060,0.13616155,2.4336342,1.3015786,-0.95581002,0.14146830
49,2.3165566,1.1040462,-0.98782801,0.13558054,2.4441156,1.3160670,-0.96896598,0.14090634
50,2.3278749,1.1161183,-0.99768297,0.13502392,2.4535854,1.3300372,-0.98175364,0.14041882
51,2.3385961,1.1281574,-1.0071805,0.13450280,2.4621044,1.3435016,-0.99416187,0.14002381
52,2.3487844,1.1401931,-1.0163255,0.13402824,2.4697338,1.3564734,-1.0061794,0.13973948
53,2.3585032,1.1522545,-1.0251229,0.13361124,2.4765345,1.3689664,-1.0177946,0.13958399
54,2.3678152,1.1643700,-1.0335774,0.13326274,2.4825678,1.3809953,-1.0289962,0.13957552
55,2.3767817,1.1765672,-1.0416937,0.13299364,2.4878942,1.3925752,-1.0397724,0.13973221
56,2.3854632,1.1888730,-1.0494763,0.13281474,2.4925743,1.4037218,-1.0501117,0.14007210
57,2.3939184,1.2013133,-1.0569297,0.13273679,2.4966679,1.4144514,-1.0600025,0.14061315
58,2.4022047,1.2139129,-1.0640581,0.13277045,2.5002341,1.4247810,-1.0694335,0.14137315
59,2.4103781,1.2266957,-1.0708656,0.13292632,2.5033317,1.4347277,-1.0783934,0.14236974
60,2.4184925,1.2396844,-1.0773563,0.13321489,2.5060180,1.4443094,-1.0868710,0.14362034
61,2.4266001,1.2529003,-1.0835338,0.13364658,2.5083497,1.4535441,-1.0948557,0.14514212
62,2.4347511,1.2663635,-1.0894019,0.13423173,2.5103823,1.4624502,-1.1023367,0.14695198
63,2.4429937,1.2800928,-1.0949640,0.13498058,2.5121700,1.4710467,-1.1093040,0.14906654
64,2.4513740,1.2941054,-1.1002234,0.13590329,2.5137659,1.4793524,-1.1157476,0.15150206
65,2.4599357,1.3084171,-1.1051832,0.13700992,2.5152216,1.4873866,-1.1216584,0.15427445
66,2.4687203,1.3230421,-1.1098464,0.13831045,2.5165872,1.4951688,-1.1270274,0.15739923
67,2.4777669,1.3379930,-1.1142157,0.13981478,2.5179112,1.5027186,-1.1318462,0.16089150
68,2.4871122,1.3532810,-1.1182936,0.14153270,2.5192407,1.5100555,-1.1361072,0.16476592
69,2.4967904,1.3689153,-1.1220827,0.14347392,2.5206209,1.5171994,-1.1398032,0.16903667
70,2.5068331,1.3849036,-1.1255850,0.14564809,2.5220953,1.5241701,-1.1429276,0.17371746
71,2.5172697,1.4012518,-1.1288028,0.14806473,2.5237059,1.5309871,-1.1454749,0.17882146
72,2.5281265,1.4179642,-1.1317378,0.15073330,2.5254926,1.5376703,-1.1474399,0.18436130
73,2.5394277,1.4350431,-1.1343919,0.15366318,2.5274934,1.5442392,-1.1488185,0.19034907
74,2.5511947,1.4524893,-1.1367667,0.15686366,2.5297446,1.5507131,-1.1496071,0.19679625
75,2.5634463,1.4703018,-1.1388635,0.16034392,2.5322805,1.5571115,-1.1498034,0.20371376
76,2.5761989,1.4884776,-1.1406839,0.16411311,2.5351336,1.5634533,-1.1494055,0.21111187
77,2.5894660,1.5070124,-1.1422289,0.16818026,2.5383343,1.5697574,-1.1484129,0.21900022
78,2.6032590,1.5258996,-1.1434997,0.17255432,2.5419112,1.5760423,-1.1468255,0.22738782
79,2.6175867,1.5451315,-1.1444972,0.17724417,2.5458910,1.5823262,-1.1446447,0.23628300
80,2.6324551,1.5646983,-1.1452225,0.18225860,2.5502984,1.5886270,-1.1418725,0.24569342
81,2.6478684,1.5845886,-1.1456762,0.18760632,2.5551562,1.5949622,-1.1385120,0.25562605
82,2.6638280,1.6047896,-1.1458593,0.19329595,2.5604855,1.6013490,-1.1345675,0.26608718
83,2.6803333,1.6252867,-1.1457724,0.19933602,2.5663053,1.6078040,-1.1300442,0.27708236
84,2.6973814,1.6460638,-1.1454162,0.20573498,2.5726331,1.6143433,-1.1249481,0.28861647
85,2.7149672,1.6671036,-1.1447913,0.21250118,2.5794844,1.6209829,-1.1192868,0.30069363
86,2.7330837,1.6883870,-1.1438985,0.21964286,2.5868731,1.6277377,-1.1130684,0.31331726
87,2.7517220,1.7098938,-1.1427383,0.22716819,2.5948114,1.6346227,-1.1063024,0.32649004
88,2.7708711,1.7316023,-1.1413114,0.23508521,2.6033098,1.6416518,-1.0989993,0.34021392
89,2.7905185,1.7534898,-1.1396186,0.24340185,2.6123774,1.6488387,-1.0911704,0.35449012
90,2.8106499,1.7755323,-1.1376605,0.25212595,2.6220216,1.6561962,-1.0828284,0.36931913
91,2.8312495,1.7977049,-1.1354379,0.26126518,2.6322486,1.6637368,-1.0739868,0.38470069
92,2.8523001,1.8199813,-1.1329518,0.27082712,2.6430631,1.6714721,-1.0646600,0.40063383
93,2.8737830,1.8423348,-1.1302032,0.28081920,2.6544685,1.6794132,-1.0548638,0.41711684
94,2.8956785,1.8647375,-1.1271930,0.29124868,2.6664669,1.6875705,-1.0446145,0.43414731
95,2.9179658,1.8871610,-1.1239224,0.30212269,2.6790595,1.6959538,-1.0339296,0.45172207
96,2.9406230,1.9095759,-1.1203929,0.31344818,2.6922462,1.7045721,-1.0228274,0.46983728
97,2.9636274,1.9319527,-1.1166057,0.32523193,2.7060259,1.7134337,-1.0113273,0.48848839
98,2.9869555,1.9542611,-1.1125626,0.33748050,2.7203968,1.7225463,-0.99944929,0.50767013
99,3.0105835,1.9764706,-1.1082652,0.35020029,2.7353560,1.7319168,-0.98721424,0.52737657
100,3.0344867,1.9985503,-1.1037156,0.36339744,2.7509002,1.7415516,-0.97464384,0.54760110
101,3.0586403,2.0204692,-1.0989158,0.37707790,2.7670249,1.7514561,-0.96176048,0.56833646
102,3.0830192,2.0421963,-1.0938682,0.39124733,2.7837255,1.7616350,-0.94858722,0.58957470
103,3.1075982,2.0637004,-1.0885752,0.40591117,2.8009967,1.7720926,-0.93514777,0.61130728
104,3.1323520,2.0849506,-1.0830396,0.42107457,2.8188327,1.7828321,-0.92146640,0.63352500
105,3.1572556,2.1059161,-1.0772644,0.43674237,2.8372274,1.7938562,-0.90756793,0.65621807
106,3.1822841,2.1265666,-1.0712528,0.45291912,2.8561745,1.8051669,-0.89347764,0.67937611
107,3.2074129,2.1468720,-1.0650081,0.46960903,2.8756673,1.8167652,-0.87922123,0.70298814
108,3.2326179,2.1668028,-1.0585339,0.48681599,2.8956992,1.8286518,-0.86482475,0.72704264
109,3.2578757,2.1863301,-1.0518342,0.50454348,2.9162633,1.8408263,-0.85031456,0.75152754
110,3.2831634,2.2054257,-1.0449131,0.52279463,2.9373528,1.8532881,-0.83571724,0.77643023
111,3.3084588,2.2240622,-1.0377749,0.54157218,2.9589610,1.8660353,-0.82105954,0.80173761
112,3.3337407,2.2422129,-1.0304242,0.56087840,2.9810814,1.8790658,-0.80636833,0.82743608
113,3.3589887,2.2598523,-1.0228659,0.58071516,3.0037074,1.8923767,-0.79167049,0.85351157
114,3.3841834,2.2769557,-1.0151051,0.60108386,3.0268329,1.9059643,-0.77699289,0.87994955
115,3.4093067,2.2934997,-1.0071471,0.62198541,3.0504520,1.9198245,-0.76236231,0.90673507
116,3.4343414,2.3094620,-0.99899750,0.64342021,3.0745590,1.9339523,-0.74780533,0.93385276
117,3.4592715,2.3248216,-0.99066202,0.66538816,3.0991487,1.9483423,-0.73334833,0.96128686
118,3.4840826,2.3395587,-0.98214673,0.68788859,3.1242163,1.9629883,-0.71901737,0.98902123
119,3.5087614,2.3536551,-0.97345787,0.71092030,3.1497573,1.9778838,-0.70483812,1.0170394
120,3.5332958,2.3670939,-0.96460187,0.73448147,3.1757678,1.9930214,-0.69083584,1.0453245
121,3.5576754,2.3798598,-0.95558541,0.75856972,3.2022444,2.0083933,-0.67703525,1.0738595
122,3.5818911,2.3919390,-0.94641532,0.78318200,3.2291840,2.0239911,-0.66346050,1.1026268
123,3.6059353,2.4033192,-0.93709863,0.80831465,3.2565840,2.0398060,-0.65013511,1.1316089
124,3.6298019,2.4139900,-0.92764255,0.83396335,3.2844427,2.0558286,-0.63708185,1.1607877
125,3.6534862,2.4239424,-0.91805442,0.86012308,3.3127583,2.0720489,-0.62432273,1.1901451
126,3.6769850,2.4331694,-0.90834175,0.88678815,3.3415300,2.0884566,-0.61187893,1.2196627
127,3.7002966,2.4416656,-0.89851217,0.91395215,3.3707573,2.1050410,-0.59977070,1.2493219
128,3.7234209,2.4494272,-0.88857342,0.94160794,3.4004402,2.1217907,-0.58801734,1.2791039
129,3.7463591,2.4564523,-0.87853334,0.96974762,3.4305790,2.1386940,-0.57663712,1.3089899
130,3.7691138,2.4627410,-0.86839986,0.99836256,3.4611746,2.1557390,-0.56564723,1.3389608
131,3.7916890,2.4682948,-0.85818097,1.0274434,3.4922283,2.1729131,-0.55506372,1.3689975
132,3.8140902,2.4731173,-0.84788469,1.0569798,3.5237416,2.1902035,-0.54490145,1.3990806
133,3.8363240,2.4772137,-0.83751910,1.0869609,3.5557166,2.2075971,-0.53517404,1.4291909
134,3.8583984,2.4805910,-0.82709225,1.1173748,3.5881553,2.2250804,-0.52589385,1.4593090
135,3.8803225,2.4832579,-0.81661221,1.1482090,3.6210603,2.2426397,-0.51707186,1.4894154
136,3.9021064,2.4852250,-0.80608700,1.1794500,3.6544340,2.2602608,-0.50871774,1.5194907
137,3.9237615,2.4865044,-0.79552459,1.2110835,3.6882792,2.2779294,-0.50083970,1.5495155
138,3.9453001,2.4871100,-0.78493287,1.2430945,3.7225986,2.2956310,-0.49344454,1.5794702
139,3.9667351,2.4870572,-0.77431965,1.2754669,3.7573949,2.3133507,-0.48653757,1.6093354
140,3.9880806,2.4863630,-0.76369262,1.3081841,3.7926707,2.3310735,-0.48012261,1.6390918
141,4.0093511,2.4850461,-0.75305931,1.3412285,3.8284284,2.3487842,-0.47420194,1.6687200
142,4.0305618,2.4831264,-0.74242712,1.3745815,3.8646704,2.3664674,-0.46877629,1.6982007
143,4.0517285,2.4806253,-0.73180326,1.4082238,3.9013983,2.3841075,-0.46384485,1.7275147
144,4.0728671,2.4775657,-0.72119472,1.4421355,3.9386138,2.4016888,-0.45940522,1.7566429
145,4.0939941,2.4739716,-0.71060829,1.4762954,3.9763178,2.4191956,-0.45545341,1.7855664
146,4.1151259,2.4698684,-0.70005050,1.5106819,4.0145107,2.4366118,-0.45198384,1.8142662
147,4.1362791,2.4652823,-0.68952762,1.5452723,4.0531923,2.4539215,-0.44898935,1.8427237
148,4.1574702,2.4602409,-0.67904563,1.5800433,4.0923615,2.4711085,-0.44646117,1.8709203
149,4.1787153,2.4547726,-0.66861020,1.6149708,4.1320165,2.4881566,-0.44438898,1.8988374
150,4.2000306,2.4489066,-0.65822670,1.6500298,4.1721547,2.5050496,-0.44276086,1.9264569
151,4.2214315,2.4426732,-0.64790011,1.6851946,4.2127721,2.5217713,-0.44156335,1.9537607
152,4.2429329,2.4361030,-0.63763509,1.7204388,4.2538638,2.5383054,-0.44078144,1.9807309
153,4.2645490,2.4292274,-0.62743589,1.7557353,4.2954239,2.5546355,-0.44039863,2.0073498
154,4.2862934,2.4220784,-0.61730639,1.7910563,4.3374449,2.5707453,-0.44039692,2.0335998
155,4.3081784,2.4146882,-0.60725002,1.8263733,4.3799181,2.5866187,-0.44075685,2.0594638
156,4.3302154,2.4070895,-0.59726982,1.8616571,4.4228333,2.6022392,-0.44145756,2.0849246
157,4.3524147,2.3993149,-0.58736837,1.8968781,4.4661787,2.6175908,-0.44247680,2.1099654
158,4.3747852,2.3913975,-0.57754778,1.9320058,4.5099409,2.6326572,-0.44379097,2.1345698
159,4.3973344,2.3833700,-0.56780972,1.9670095,4.5541050,2.6474223,-0.44537520,2.1587212
160,4.4200682,2.3752653,-0.55815536,2.0018577,4.5986540,2.6618702,-0.44720337,2.1824037
161,4.4429908,2.3671159,-0.54858539,2.0365185,4.6435694,2.6759847,-0.44924818,2.2056015
162,4.4661049,2.3589540,-0.53910001,2.0709597,4.6888304,2.6897501,-0.45148120,2.2282989
163,4.4894110,2.3508114,-0.52969891,2.1051484,4.7344146,2.7031506,-0.45387292,2.2504808
164,4.5129078,2.3427193,-0.52038125,2.1390516,4.7802973,2.7161706,-0.45639284,2.2721321
165,4.5365921,2.3347083,-0.51114571,2.1726358,4.8264518,2.7287944,-0.45900950,2.2932381
166,4.5604583,2.3268083,-0.50199042,2.2058672,4.8728494,2.7410067,-0.46169061,2.3137844
167,4.5844987,2.3190483,-0.49291301,2.2387120,4.9194590,2.7527922,-0.46440303,2.3337570
168,4.6087032,2.3114564,-0.48391059,2.2711359,4.9662473,2.7641357,-0.46711295,2.3531419
169,4.6330594,2.3040597,-0.47497973,2.3031046,5.0131788,2.7750223,-0.46978588,2.3719258
170,4.6575525,2.2968840,-0.46611650,2.3345836,5.0602159,2.7854370,-0.47238678,2.3900953
171,4.6821651,2.2899541,-0.45731645,2.3655386,5.1073184,2.7953653,-0.47488011,2.4076377
172,4.7068774,2.2832934,-0.44857462,2.3959348,5.1544440,2.8047926,-0.47722995,2.4245404
173,4.7316669,2.2769237,-0.43988556,2.4257380,5.2015478,2.8137046,-0.47940005,2.4407912
174,4.7565084,2.2708657,-0.43124331,2.4549137,5.2485830,2.8220872,-0.48135392,2.4563783
175,4.7813742,2.2651384,-0.42264143,2.4834278,5.2955001,2.8299263,-0.48305495,2.4712900
176,4.8062339,2.2597590,-0.41407301,2.5112462,5.3422475,2.8372083,-0.48446646,2.4855151
177,4.8310544,2.2547433,-0.40553069,2.5383351,5.3887713,2.8439196,-0.48555181,2.4990430
178,4.8558000,2.2501052,-0.39700665,2.5646610,5.4350152,2.8500469,-0.48627448,2.5118630
179,4.8804321,2.2458566,-0.38849266,2.5901910,5.4809210,2.8555770,-0.48659815,2.5239650
180,4.9049098,2.2420080,-0.37998004,2.6148922,5.5264279,2.8604971,-0.48648685,2.5353393
181,4.9291893,2.2385675,-0.37145976,2.6387325,5.5714734,2.8647945,-0.48590495,2.5459765
182,4.9532242,2.2355415,-0.36292238,2.6616802,5.6159927,2.8684568,-0.48481734,2.5558675
183,4.9769658,2.2329344,-0.35435813,2.6837040,5.6599190,2.8714718,-0.48318948,2.5650038
184,5.0003626,2.2307485,-0.34575690,2.7047737,5.7031836,2.8738277,-0.48098748,2.5733771
185,5.0233608,2.2289840,-0.33710829,2.7248592,5.7457161,2.8755128,-0.47817820,2.5809795
186,5.0459044,2.2276392,-0.32840157,2.7439316,5.7874442,2.8765157,-0.47472935,2.5878036
187,5.0679348,2.2267101,-0.31962582,2.7619626,5.8282939,2.8768253,-0.47060956,2.5938423
188,5.0893913,2.2261907,-0.31076984,2.7789247,5.8681898,2.8764309,-0.46578846,2.5990890
189,5.1102113,2.2260729,-0.30182225,2.7947913,5.9070551,2.8753219,-0.46023676,2.6035374
190,5.1303299,2.2263465,-0.29277149,2.8095370,5.9448113,2.8734881,-0.45392637,2.6071818
191,5.1496804,2.2269991,-0.28360588,2.8231369,5.9813792,2.8709197,-0.44683040,2.6100167
192,5.1681945,2.2280164,-0.27431361,2.8355676,6.0166781,2.8676071,-0.43892330,2.6120373
193,5.1858021,2.2293819,-0.26488278,2.8468066,6.0506267,2.8635411,-0.43018093,2.6132391
194,5.2024316,2.2310772,-0.25530148,2.8568326,6.0831426,2.8587127,-0.42058059,2.6136179
195,5.2180101,2.2330818,-0.24555775,2.8656252,6.1141431,2.8531135,-0.41010111,2.6131702
196,5.2324634,2.2353732,-0.23563967,2.8731656,6.1435446,2.8467353,-0.39872291,2.6118929
197,5.2457163,2.2379272,-0.22553538,2.8794361,6.1712636,2.8395704,-0.38642808,2.6097832
198,5.2576927,2.2407174,-0.21523309,2.8844203,6.1972160,2.8316113,-0.37320041,2.6068390
199,5.2683158,2.2437160,-0.20472115,2.8881031,6.2213181,2.8228510,-0.35902543,2.6030586
200,5.2775083,2.2468932,-0.19398805,2.8904708,6.2434861,2.8132830,-0.34389052,2.5984407
201,5.2851923,2.2502176,-0.18302251,2.8915112,6.2636365,2.8029010,-0.32778489,2.5929847
202,5.2912900,2.2536561,-0.17181343,2.8912133,6.2816866,2.7916994,-0.31069966,2.5866903
203,5.2957235,2.2571743,-0.16035002,2.8895679,6.2975542,2.7796728,-0.29262788,2.5795577
204,5.2984149,2.2607362,-0.14862175,2.8865670,6.3111581,2.7668165,-0.27356458,2.5715878
205,5.2992870,2.2643045,-0.13661846,2.8822043,6.3224179,2.7531260,-0.25350677,2.5627818
206,5.2982631,2.2678405,-0.12433034,2.8764750,6.3312548,2.7385976,-0.23245349,2.5531417
207,5.2952671,2.2713047,-0.11174798,2.8693757,6.3375913,2.7232278,-0.21040583,2.5426699
208,5.2902240,2.2746561,-0.098862411,2.8609048,6.3413516,2.7070137,-0.18736693,2.5313691
209,5.2830602,2.2778532,-0.085665138,2.8510623,6.3424616,2.6899532,-0.16334200,2.5192429
210,5.2737032,2.2808531,-0.072148164,2.8398497,6.3408492,2.6720442,-0.13833832,2.5062953
211,5.2620822,2.2836128,-0.058304027,2.8272700,6.3364448,2.6532856,-0.11236525,2.4925310
212,5.2481283,2.2860881,-0.044125830,2.8133280,6.3291809,2.6336768,-0.085434237,2.4779549
213,5.2317746,2.2882347,-0.029607270,2.7980302,6.3189927,2.6132175,-0.057558763,2.4625728
214,5.2129563,2.2900078,-0.014742667,2.7813845,6.3058180,2.5919083,-0.028754384,2.4463911
215,5.1916110,2.2913622,0.00047300425,2.7634006,6.2895978,2.5697503,0.00096131298,2.4294165
216,5.1676792,2.2922527,0.016044093,2.7440897,6.2702761,2.5467452,0.031568729,2.4116564
217,5.1411038,2.2926341,0.031974245,2.7234648,6.2478002,2.5228953,0.063046276,2.3931190
218,5.1118310,2.2924611,0.048266375,2.7015403,6.2221207,2.4982036,0.095370409,2.3738127
219,5.0798101,2.2916890,0.064922650,2.6783322,6.1931922,2.4726738,0.12851566,2.3537468
220,5.0449937,2.2902732,0.081944461,2.6538583,6.1609727,2.4463102,0.16245469,2.3329310
221,5.0073381,2.2881696,0.099332410,2.6281378,6.1254244,2.4191177,0.19715830,2.3113758
222,4.9668031,2.2853348,0.11708629,2.6011913,6.0865136,2.3911020,0.23259553,2.2890920
223,4.9233527,2.2817262,0.13520505,2.5730413,6.0442105,2.3622696,0.26873365,2.2660912
224,4.8769546,2.2773017,0.15368683,2.5437114,5.9984902,2.3326275,0.30553827,2.2423855
225,4.8275810,2.2720208,0.17252887,2.5132268,5.9493319,2.3021836,0.34297337,2.2179877
226,4.7752083,2.2658435,0.19172759,2.4816143,5.8967195,2.2709463,0.38100139,2.1929111
227,4.7198172,2.2587315,0.21127850,2.4489018,5.8406419,2.2389251,0.41958325,2.1671696
228,4.6613934,2.2506475,0.23117623,2.4151188,5.7810924,2.2061299,0.45867846,2.1407776
229,4.5999270,2.2415560,0.25141452,2.3802959,5.7180696,2.1725716,0.49824520,2.1137502
230,4.5354132,2.2314228,0.27198623,2.3444653,5.6515770,2.1382618,0.53824036,2.0861030
231,4.4678519,2.2202156,0.29288331,2.3076600,5.5816232,2.1032127,0.57861965,2.0578523
232,4.3972481,2.2079036,0.31409681,2.2699146,5.5082220,2.0674376,0.61933768,2.0290148
233,4.3236120,2.1944583,0.33561689,2.2312646,5.4313924,2.0309502,0.66034802,1.9996077
234,4.2469589,2.1798528,0.35743282,2.1917466,5.3511587,1.9937654,0.70160332,1.9696489
235,4.1673094,2.1640626,0.37953298,2.1513983,5.2675505,1.9558986,0.74305539,1.9391569
236,4.0846893,2.1470652,0.40190487,2.1102585,5.1806029,1.9173660,0.78465526,1.9081504
237,3.9991298,2.1288404,0.42453514,2.0683666,5.0903562,1.8781847,0.82635333,1.8766490
238,3.9106675,2.1093703,0.44740956,2.0257632,4.9968560,1.8383725,0.86809942,1.8446725
239,3.8193441,2.0886396,0.47051308,1.9824896,4.9001536,1.7979481,0.90984288,1.8122413
240,3.7252070,2.0666352,0.49382979,1.9385877,4.8003053,1.7569308,0.95153269,1.7793764
241,3.6283089,2.0433467,0.51734302,1.8941003,4.6973729,1.7153409,0.99311756,1.7460990
242,3.5287075,2.0187663,0.54103527,1.8490708,4.5914235,1.6731993,1.0345460,1.7124309
243,3.4264663,1.9928889,0.56488829,1.8035429,4.4825295,1.6305278,1.0757665,1.6783944
244,3.3216536,1.9657120,0.58888309,1.7575613,4.3707683,1.5873487,1.1167275,1.6440121
245,3.2143432,1.9372358,0.61299995,1.7111706,4.2562225,1.5436854,1.1573776,1.6093070
246,3.1046140,1.9074633,0.63721847,1.6644160,4.1389799,1.4995619,1.1976656,1.5743024
247,2.9925498,1.8764004,0.66151757,1.6173431,4.0191329,1.4550027,1.2375406,1.5390222
248,2.8782394,1.8440557,0.68587556,1.5699976,3.8967791,1.4100334,1.2769521,1.5034903
249,2.7617764,1.8104406,0.71027012,1.5224253,3.7720206,1.3646801,1.3158503,1.4677312
250,2.6432594,1.7755694,0.73467841,1.4746722,3.6449641,1.3189696,1.3541857,1.4317696
251,2.5227913,1.7394590,0.75907700,1.4267843,3.5157209,1.2729292,1.3919098,1.3956303
252,2.4004796,1.7021295,0.78344201,1.3788075,3.3844064,1.2265872,1.4289745,1.3593386
253,2.2764361,1.6636035,0.80774907,1.3307877,3.2511405,1.1799723,1.4653330,1.3229197
254,2.1507766,1.6239063,0.83197342,1.2827706,3.1160467,1.1331138,1.5009392,1.2863994
255,2.0236211,1.5830662,0.85608990,1.2348014,2.9792527,1.0860417,1.5357482,1.2498034
256,1.8950934,1.5411141,0.88007301,1.1869254,2.8408894,1.0387865,1.5697160,1.2131575
257,1.7653207,1.4980834,0.90389697,1.1391871,2.7010917,0.99137920,1.6028002,1.1764877
258,1.6344337,1.4540103,0.92753573,1.0916309,2.5599972,0.94385132,1.6349593,1.1398200
259,1.5025665,1.4089335,0.95096305,1.0443005,2.4177470,0.89623490,1.6661533,1.1031807
260,1.3698558,1.3628942,0.97415251,0.99723902,2.2744847,0.84856242,1.6963439,1.0665958
261,1.2364414,1.3159358,0.99707758,0.95048899,2.1303566,0.80086677,1.7254939,1.0300916
262,1.1024655,1.2681044,1.0197117,0.90409225,1.9855114,0.75318124,1.7535679,0.99369394
263,0.96807251,1.2194480,1.0420281,0.85808985,1.8401001,0.70553946,1.7805321,0.95742902
264,0.83340900,1.1700172,1.0640003,0.81252204,1.6942752,0.65797541,1.8063543,0.92132275
265,0.69862325,1.1198642,1.0856017,0.76742819,1.5481912,0.61052333,1.8310043,0.88540090
266,0.56386511,1.0690435,1.1068059,0.72284674,1.4020038,0.56321774,1.8544533,0.84968914
267,0.42928569,1.0176113,1.1275866,0.67881516,1.2558700,0.51609334,1.8766746,0.81421289
268,0.29503708,0.96562566,1.1479177,0.63536987,1.1099475,0.46918504,1.8976434,0.77899739
269,0.16127212,0.91314634,1.1677735,0.59254622,0.96439478,0.42252787,1.9173367,0.74406760
270,0.028144108,0.86023452,1.1871284,0.55037844,0.81937059,0.37615696,1.9357335,0.70944820
271,-0.10419348,0.80695285,1.2059572,0.50889958,0.67503380,0.33010751,1.9528147,0.67516354
272,-0.23558726,0.75336526,1.2242353,0.46814146,0.53154308,0.28441471,1.9685633,0.64123764
273,-0.36588424,0.69953685,1.2419382,0.42813468,0.38905665,0.23911376,1.9829644,0.60769413
274,-0.49493205,0.64553373,1.2590421,0.38890853,0.24773203,0.19423976,1.9960048,0.57455620
275,-0.62257929,0.59142293,1.2755237,0.35049096,0.10772574,0.14982771,2.0076738,0.54184664
276,-0.74867575,0.53727222,1.2913602,0.31290860,-0.030806966,0.10591247,2.0179624,0.50958774
277,-0.87307271,0.48314999,1.3065295,0.27618664,-0.16771235,0.062528669,2.0268638,0.47780129
278,-0.99562322,0.42912511,1.3210100,0.24034891,-0.30283847,0.019710720,2.0343732,0.44650854
279,-1.1161824,0.37526679,1.3347811,0.20541775,-0.43603543,-0.022507262,2.0404880,0.41573018
280,-1.2346076,0.32164443,1.3478225,0.17141408,-0.56715565,-0.064091494,2.0452073,0.38548632
281,-1.3507588,0.26832745,1.3601151,0.13835730,-0.69605413,-0.10500857,2.0485326,0.35579643
282,-1.4644989,0.21538522,1.3716402,0.10626535,-0.82258868,-0.14522551,2.0504671,0.32667935
283,-1.5756937,0.16288683,1.3823803,0.075154642,-0.94662017,-0.18470979,2.0510162,0.29815325
284,-1.6842124,0.11090100,1.3923185,0.045040060,-1.0680128,-0.22342941,2.0501870,0.27023557
285,-1.7899281,0.059495914,1.4014388,0.015934968,-1.1866343,-0.26135293,2.0479888,0.24294307
286,-1.8927172,0.0087390758,1.4097265,-0.012148806,-1.3023562,-0.29844948,2.0444325,0.21629173
287,-1.9924605,-0.041302818,1.4171673,-0.039200970,-1.4150540,-0.33468886,2.0395311,0.19029677
288,-2.0890431,-0.090564028,1.4237483,-0.065212770,-1.5246074,-0.37004156,2.0332992,0.16497264
289,-2.1823544,-0.13897991,1.4294575,-0.090176984,-1.6309005,-0.40447877,2.0257531,0.14033294
290,-2.2722887,-0.18648704,1.4342838,-0.11408792,-1.7338221,-0.43797249,2.0169111,0.11639047
291,-2.3587451,-0.23302338,1.4382174,-0.13694140,-1.8332659,-0.47049550,2.0067928,0.093157163
292,-2.4416278,-0.27852834,1.4412492,-0.15873476,-1.9291302,-0.50202145,1.9954195,0.070644092
293,-2.5208462,-0.32294299,1.4433716,-0.17946682,-2.0213189,-0.53252487,1.9828142,0.048861446
294,-2.5963153,-0.36621012,1.4445778,-0.19913789,-2.1097411,-0.56198122,1.9690011,0.027818519
295,-2.6679555,-0.40827437,1.4448622,-0.21774973,-2.1943111,-0.59036694,1.9540059,0.0075236923
296,-2.7356931,-0.44908236,1.4442203,-0.23530554,-2.2749493,-0.61765947,1.9378557,-0.012015572
297,-2.7994602,-0.48858281,1.4426489,-0.25180993,-2.3515814,-0.64383726,1.9205788,-0.030792745
298,-2.8591948,-0.52672659,1.4401456,-0.26726891,-2.4241392,-0.66887989,1.9022047,-0.048802239
299,-2.9148411,-0.56346688,1.4367093,-0.28168983,-2.4925604,-0.69276798,1.8827640,-0.066039413
300,-2.9663495,-0.59875925,1.4323403,-0.29508139,-2.5567889,-0.71548332,1.8622884,-0.082500581
301,-3.0136765,-0.63256171,1.4270395,-0.30745357,-2.6167745,-0.73700887,1.8408104,-0.098183016
302,-3.0567851,-0.66483485,1.4208094,-0.31881762,-2.6724736,-0.75732877,1.8183636,-0.11308495
303,-3.0956448,-0.69554188,1.4136533,-0.32918601,-2.7238484,-0.77642836,1.7949823,-0.12720558
304,-3.1302312,-0.72464871,1.4055760,-0.33857241,-2.7708679,-0.79429426,1.7707015,-0.14054507
305,-3.1605268,-0.75212401,1.3965829,-0.34699161,-2.8135073,-0.81091432,1.7455570,-0.15310452
306,-3.1865203,-0.77793930,1.3866810,-0.35445954,-2.8517479,-0.82627770,1.7195849,-0.16488603
307,-3.2082069,-0.80206894,1.3758780,-0.36099317,-2.8855779,-0.84037486,1.6928220,-0.17589260
308,-3.2255884,-0.82449023,1.3641829,-0.36661050,-2.9149917,-0.85319756,1.6653055,-0.18612822
309,-3.2386730,-0.84518344,1.3516057,-0.37133048,-2.9399898,-0.86473892,1.6370728,-0.19559779
310,-3.2474755,-0.86413181,1.3381574,-0.37517302,-2.9605796,-0.87499341,1.6081617,-0.20430714
311,-3.2520168,-0.88132161,1.3238500,-0.37815887,-2.9767743,-0.88395684,1.5786101,-0.21226303
312,-3.2523243,-0.89674212,1.3086966,-0.38030964,-2.9885938,-0.89162642,1.5484558,-0.21947310
313,-3.2484316,-0.91038569,1.2927110,-0.38164769,-2.9960639,-0.89800070,1.5177370,-0.22594589
314,-3.2403784,-0.92224769,1.2759083,-0.38219613,-2.9992167,-0.90307963,1.4864915,-0.23169081
315,-3.2282106,-0.93232655,1.2583042,-0.38197872,-2.9980903,-0.90686455,1.4547571,-0.23671813
316,-3.2119800,-0.94062372,1.2399155,-0.38101987,-2.9927287,-0.90935818,1.4225713,-0.24103893
317,-3.1917441,-0.94714367,1.2207597,-0.37934453,-2.9831818,-0.91056460,1.3899714,-0.24466515
318,-3.1675662,-0.95189384,1.2008552,-0.37697821,-2.9695052,-0.91048930,1.3569944,-0.24760947
319,-3.1395151,-0.95488464,1.1802211,-0.37394683,-2.9517601,-0.90913912,1.3236766,-0.24988537
320,-3.1076651,-0.95612939,1.1588773,-0.37027676,-2.9300131,-0.90652226,1.2900542,-0.25150708
321,-3.0720954,-0.95564430,1.1368444,-0.36599472,-2.9043361,-0.90264830,1.2561624,-0.25248951
322,-3.0328907,-0.95344837,1.1141438,-0.36112774,-2.8748061,-0.89752813,1.2220362,-0.25284831
323,-2.9901401,-0.94956337,1.0907972,-0.35570308,-2.8415053,-0.89117398,1.1877097,-0.25259975
324,-2.9439376,-0.94401379,1.0668272,-0.34974823,-2.8045203,-0.88359938,1.1532163,-0.25176076
325,-2.8943816,-0.93682673,1.0422570,-0.34329080,-2.7639426,-0.87481915,1.1185886,-0.25034886
326,-2.8415748,-0.92803183,1.0171099,-0.33635851,-2.7198680,-0.86484939,1.0838585,-0.24838214
327,-2.7856237,-0.91766121,0.99141013,-0.32897914,-2.6723964,-0.85370742,1.0490568,-0.24587923
328,-2.7266388,-0.90574939,0.96518212,-0.32118044,-2.6216317,-0.84141179,1.0142135,-0.24285928
329,-2.6647340,-0.89233315,0.93845071,-0.31299012,-2.5676819,-0.82798224,0.97935775,-0.23934186
330,-2.6000266,-0.87745148,0.91124113,-0.30443579,-2.5106580,-0.81343969,0.94451748,-0.23534704
331,-2.5326368,-0.86114545,0.88357887,-0.29554490,-2.4506747,-0.79780615,0.90971971,-0.23089522
332,-2.4626879,-0.84345811,0.85548970,-0.28634471,-2.3878497,-0.78110477,0.87499038,-0.22600722
333,-2.3903055,-0.82443441,0.82699959,-0.27686226,-2.3223035,-0.76335973,0.84035434,-0.22070414
334,-2.3156174,-0.80412104,0.79813469,-0.26712427,-2.2541592,-0.74459625,0.80583533,-0.21500739
335,-2.2387537,-0.78256631,0.76892129,-0.25715716,-2.1835423,-0.72484054,0.77145595,-0.20893860
336,-2.1598461,-0.75982010,0.73938574,-0.24698698,-2.1105804,-0.70411974,0.73723765,-0.20251964
337,-2.0790278,-0.73593364,0.70955445,-0.23663935,-2.0354029,-0.68246193,0.70320072,-0.19577253
338,-1.9964332,-0.71095945,0.67945382,-0.22613949,-1.9581408,-0.65989601,0.66936429,-0.18871941
339,-1.9121976,-0.68495120,0.64911023,-0.21551210,-1.8789265,-0.63645174,0.63574631,-0.18138253
340,-1.8264572,-0.65796354,0.61854994,-0.20478137,-1.7978936,-0.61215962,0.60236354,-0.17378417
341,-1.7393482,-0.63005202,0.58779913,-0.19397096,-1.7151763,-0.58705090,0.56923158,-0.16594662
342,-1.6510074,-0.60127295,0.55688379,-0.18310394,-1.6309095,-0.56115749,0.53636486,-0.15789216
343,-1.5615712,-0.57168320,0.52582971,-0.17220276,-1.5452285,-0.53451194,0.50377664,-0.14964298
344,-1.4711756,-0.54134017,0.49466246,-0.16128925,-1.4582687,-0.50714739,0.47147903,-0.14122116
345,-1.3799560,-0.51030156,0.46340732,-0.15038457,-1.3701651,-0.47909750,0.43948300,-0.13264865
346,-1.2880470,-0.47862529,0.43208926,-0.13950917,-1.2810525,-0.45039639,0.40779840,-0.12394717
347,-1.1955818,-0.44636936,0.40073290,-0.12868283,-1.1910650,-0.42107862,0.37643401,-0.11513827
348,-1.1026924,-0.41359169,0.36936250,-0.11792458,-1.1003358,-0.39117914,0.34539749,-0.10624319
349,-1.0095089,-0.38035000,0.33800188,-0.10725269,-1.0089969,-0.36073319,0.31469549,-0.097282896
350,-0.91615987,-0.34670172,0.30667444,-0.096684680,-0.91717902,-0.32977628,0.28433362,-0.088277996
351,-0.82277139,-0.31270377,0.27540309,-0.086237287,-0.82501128,-0.29834416,0.25431651,-0.079248737
352,-0.72946738,-0.27841254,0.24421026,-0.075926451,-0.73262096,-0.26647270,0.22464784,-0.070214949
353,-0.63636913,-0.24388368,0.21311784,-0.065767310,-0.64013331,-0.23419789,0.19533038,-0.061196023
354,-0.54359518,-0.20917201,0.18214718,-0.055774188,-0.54767140,-0.20155576,0.16636600,-0.052210868
355,-0.45126107,-0.17433142,0.15131903,-0.045960588,-0.45535581,-0.16858236,0.13775575,-0.043277886
356,-0.35947918,-0.13941474,0.12065357,-0.036339186,-0.36330453,-0.13531365,0.10949989,-0.034414936
357,-0.26835853,-0.10447360,0.090170361,-0.026921830,-0.27163274,-0.10178549,0.081597922,-0.025639305
358,-0.17800460,-0.069558378,0.059888310,-0.017719535,-0.18045263,-0.068033577,0.054048635,-0.016967680
359,-0.088519191,-0.034718044,0.029825684,-0.0087424825,-0.089873228,-0.034093377,0.026850175,-0.0084161191
360,-2.4541620e-07,-9.6603955e-08,8.2828137e-08,-2.4044766e-08,-2.4954718e-07,-9.5256610e-08,7.4393625e-08,-2.3267162e-08
