deg,XRT_AX,XRT_BX,XRT_AY,XRT_BY,SOT_AX,SOT_BX,SOT_AY,SOT_BY
valid,1,1,1,1,1,1,1,1,revB
offset,98.647727,80.405752,1984.5587,1978.8166,25.299996,6.7541185,103.40569,96.541230
0,0.0000000,0.0000000,0.0000000,0.0000000,0.0000000,0.0000000,0.0000000,0.0000000
1,0.057110536,0.028975236,-0.014478716,-0.0023484637,0.069302380,0.035513885,-0.023636834,0.023012297
2,0.11200344,0.058123981,-0.028062850,-0.0049168746,0.13763279,0.071049025,-0.046827224,0.046037950
3,0.16469071,0.087419362,-0.040790362,-0.0076823071,0.20489994,0.10654698,-0.069555405,0.069032538
4,0.21518934,0.11683488,-0.052700298,-0.010621451,0.27101644,0.14195056,-0.091806834,0.091952929
5,0.26352118,0.14634445,-0.063832652,-0.013710688,0.33589896,0.17720396,-0.11356819,0.11475737
6,0.30971274,0.17592242,-0.074228221,-0.016926174,0.39946834,0.21225286,-0.13482740,0.13740556
7,0.35379499,0.20554360,-0.083928467,-0.020243909,0.46164970,0.24704458,-0.15557358,0.15985876
8,0.39580323,0.23518330,-0.092975372,-0.023639821,0.52237258,0.28152811,-0.17579711,0.18207982
9,0.43577684,0.26481738,-0.10141130,-0.027089839,0.58157101,0.31565429,-0.19548955,0.20403329
10,0.47375906,0.29442223,-0.10927885,-0.030569966,0.63918358,0.34937587,-0.21464370,0.22568547
11,0.50979684,0.32397485,-0.11662073,-0.034056355,0.69515356,0.38264761,-0.23325352,0.24700447
12,0.54394057,0.35345280,-0.12347958,-0.037525380,0.74942891,0.41542635,-0.25131417,0.26796024
13,0.57624386,0.38283433,-0.12989790,-0.040953706,0.80196239,0.44767112,-0.26882195,0.28852469
14,0.60676331,0.41209829,-0.13591785,-0.044318359,0.85271153,0.47934321,-0.28577430,0.30867166
15,0.63555828,0.44122422,-0.14158114,-0.047596789,0.90163871,0.51040620,-0.30216976,0.32837699
16,0.66269067,0.47019236,-0.14692893,-0.050766938,0.94871114,0.54082608,-0.31800799,0.34761857
17,0.68822463,0.49898365,-0.15200166,-0.053807296,0.99390091,0.57057124,-0.33328965,0.36637634
18,0.71222636,0.52757973,-0.15683895,-0.056696968,1.0371849,0.59961259,-0.34801647,0.38463232
19,0.73476383,0.55596302,-0.16147948,-0.059415722,1.0785450,0.62792354,-0.36219114,0.40237064
20,0.75590657,0.58411665,-0.16596087,-0.061944048,1.1179675,0.65548008,-0.37581732,0.41957755
21,0.77572540,0.61202453,-0.17031957,-0.064263203,1.1554439,0.68226076,-0.38889956,0.43624140
22,0.79429218,0.63967133,-0.17459075,-0.066355263,1.1909701,0.70824678,-0.40144332,0.45235268
23,0.81167957,0.66704250,-0.17880823,-0.068203166,1.2245468,0.73342192,-0.41345487,0.46790399
24,0.82796081,0.69412428,-0.18300434,-0.069790747,1.2561792,0.75777263,-0.42494127,0.48289003
25,0.84320946,0.72090368,-0.18720987,-0.071102782,1.2858770,0.78128798,-0.43591034,0.49730761
26,0.85749916,0.74736852,-0.19145395,-0.072125017,1.3136543,0.80395966,-0.44637058,0.51115557
27,0.87090340,0.77350741,-0.19576401,-0.072844197,1.3395294,0.82578197,-0.45633117,0.52443484
28,0.88349530,0.79930972,-0.20016569,-0.073248094,1.3635250,0.84675181,-0.46580188,0.53714833
29,0.89534741,0.82476566,-0.20468277,-0.073325530,1.3856678,0.86686866,-0.47479304,0.54930093
30,0.90653145,0.84986620,-0.20933713,-0.073066391,1.4059882,0.88613451,-0.48331549,0.56089948
31,0.91711813,0.87460310,-0.21414868,-0.072461644,1.4245207,0.90455385,-0.49138053,0.57195268
32,0.92717692,0.89896890,-0.21913533,-0.071503349,1.4413032,0.92213363,-0.49899987,0.58247109
33,0.93677591,0.92295691,-0.22431295,-0.070184662,1.4563775,0.93888318,-0.50618557,0.59246706
34,0.94598158,0.94656120,-0.22969533,-0.068499841,1.4697883,0.95481419,-0.51295000,0.60195463
35,0.95485861,0.96977661,-0.23529417,-0.066444243,1.4815837,0.96994059,-0.51930580,0.61094952
36,0.96346976,0.99259871,-0.24111906,-0.064014320,1.4918149,0.98427854,-0.52526582,0.61946905
37,0.97187567,1.0150238,-0.24717745,-0.061207611,1.5005357,0.99784633,-0.53084304,0.62753204
38,0.98013475,1.0370489,-0.25347470,-0.058022727,1.5078029,1.0106643,-0.53605058,0.63515878
39,0.98830298,1.0586718,-0.26001402,-0.054459340,1.5136754,1.0227547,-0.54090162,0.64237092
40,0.99643386,1.0798908,-0.26679654,-0.050518157,1.5182148,1.0341418,-0.54540932,0.64919138
41,1.0045782,1.1007051,-0.27382129,-0.046200903,1.5214844,1.0448515,-0.54958686,0.65564432
42,1.0127841,1.1211144,-0.28108523,-0.041510292,1.5235498,1.0549114,-0.55344729,0.66175499
43,1.0210969,1.1411192,-0.28858331,-0.036449996,1.5244780,1.0643508,-0.55700357,0.66754969
44,1.0295588,1.1607203,-0.29630849,-0.031024615,1.5243376,1.0732004,-0.56026849,0.67305566
45,1.0382092,1.1799195,-0.30425176,-0.025239640,1.5231988,1.0814922,-0.56325464,0.67830097
46,1.0470844,1.1987190,-0.31240227,-0.019101415,1.5211324,1.0892596,-0.56597433,0.68331447
47,1.0562176,1.2171215,-0.32074728,-0.012617093,1.5182107,1.0965370,-0.56843963,0.68812565
48,1.0656387,1.2351303,-0.32927231,-0.0057945959,1.5145063,1.1033600,-0.57066226,0.69276459
49,1.0753747,1.2527492,-0.33796119,0.0013574350,1.5100926,1.1097649,-0.57265359,0.69726181
50,1.0854492,1.2699826,-0.34679610,0.0088296857,1.5050431,1.1157889,-0.57442463,0.70164823
51,1.0958827,1.2868352,-0.35575769,0.016612221,1.4994317,1.1214700,-0.57598593,0.70595503
52,1.1066926,1.3033123,-0.36482515,0.024694539,1.4933320,1.1268464,-0.57734762,0.71021357
53,1.1178931,1.3194196,-0.37397630,0.033065620,1.4868176,1.1319572,-0.57851936,0.71445529
54,1.1294952,1.3351632,-0.38318767,0.041713988,1.4799615,1.1368413,-0.57951030,0.71871163
55,1.1415068,1.3505494,-0.39243463,0.050627767,1.4728362,1.1415382,-0.58032909,0.72301390
56,1.1539331,1.3655851,-0.40169146,0.059794737,1.4655135,1.1460871,-0.58098383,0.72739324
57,1.1667759,1.3802775,-0.41093149,0.069202393,1.4580640,1.1505275,-0.58148208,0.73188045
58,1.1800344,1.3946341,-0.42012715,0.078838007,1.4505575,1.1548984,-0.58183083,0.73650599
59,1.1937050,1.4086625,-0.42925015,0.088688690,1.4430622,1.1592386,-0.58203650,0.74129982
60,1.2077813,1.4223707,-0.43827154,0.098741447,1.4356453,1.1635867,-0.58210491,0.74629135
61,1.2222543,1.4357672,-0.44716186,0.10898324,1.4283720,1.1679804,-0.58204128,0.75150934
62,1.2371126,1.4488602,-0.45589124,0.11940106,1.4213060,1.1724570,-0.58185027,0.75698182
63,1.2523425,1.4616584,-0.46442950,0.12998197,1.4145091,1.1770529,-0.58153591,0.76273604
64,1.2679278,1.4741708,-0.47274630,0.14071317,1.4080412,1.1818038,-0.58110164,0.76879833
65,1.2838504,1.4864062,-0.48081125,0.15158205,1.4019601,1.1867443,-0.58055030,0.77519409
66,1.3000904,1.4983737,-0.48859403,0.16257628,1.3963212,1.1919080,-0.57988417,0.78194771
67,1.3166256,1.5100827,-0.49606449,0.17368383,1.3911779,1.1973273,-0.57910492,0.78908246
68,1.3334327,1.5215422,-0.50319279,0.18489303,1.3865808,1.2030334,-0.57821365,0.79662048
69,1.3504865,1.5327619,-0.50994951,0.19619264,1.3825785,1.2090560,-0.57721093,0.80458270
70,1.3677606,1.5437509,-0.51630576,0.20757191,1.3792166,1.2154237,-0.57609678,0.81298879
71,1.3852276,1.5545187,-0.52223330,0.21902060,1.3765382,1.2221632,-0.57487068,0.82185709
72,1.4028589,1.5650748,-0.52770465,0.23052904,1.3745839,1.2293000,-0.57353162,0.83120459
73,1.4206251,1.5754286,-0.53269321,0.24208819,1.3733911,1.2368576,-0.57207811,0.84104690
74,1.4384962,1.5855895,-0.53717335,0.25368966,1.3729949,1.2448580,-0.57050819,0.85139817
75,1.4564417,1.5955667,-0.54112050,0.26532579,1.3734273,1.2533216,-0.56881948,0.86227109
76,1.4744309,1.6053696,-0.54451129,0.27698964,1.3747173,1.2622666,-0.56700918,0.87367686
77,1.4924329,1.6150073,-0.54732363,0.28867506,1.3768914,1.2717095,-0.56507412,0.88562513
78,1.5104168,1.6244889,-0.54953677,0.30037670,1.3799729,1.2816651,-0.56301078,0.89812406
79,1.5283521,1.6338235,-0.55113142,0.31209005,1.3839824,1.2921459,-0.56081534,0.91118022
80,1.5462087,1.6430199,-0.55208986,0.32381149,1.3889375,1.3031628,-0.55848366,0.92479863
81,1.5639569,1.6520867,-0.55239592,0.33553826,1.3948530,1.3147244,-0.55601138,0.93898275
82,1.5815678,1.6610327,-0.55203518,0.34726851,1.4017409,1.3268375,-0.55339393,0.95373446
83,1.5990137,1.6698661,-0.55099492,0.35900134,1.4096103,1.3395068,-0.55062654,0.96905411
84,1.6162675,1.6785954,-0.54926426,0.37073675,1.4184676,1.3527350,-0.54770432,0.98494046
85,1.6333038,1.6872284,-0.54683418,0.38247571,1.4283167,1.3665228,-0.54462226,1.0013908
86,1.6500983,1.6957732,-0.54369759,0.39422013,1.4391584,1.3808689,-0.54137530,1.0184007
87,1.6666282,1.7042373,-0.53984933,0.40597286,1.4509912,1.3957699,-0.53795835,1.0359646
88,1.6828727,1.7126284,-0.53528626,0.41773772,1.4638112,1.4112206,-0.53436632,1.0540752
89,1.6988123,1.7209536,-0.53000727,0.42951945,1.4776118,1.4272136,-0.53059418,1.0727237
90,1.7144299,1.7292200,-0.52401328,0.44132373,1.4923841,1.4437400,-0.52663701,1.0919002
91,1.7297101,1.7374345,-0.51730729,0.45315716,1.5081170,1.4607885,-0.52248999,1.1115931
92,1.7446397,1.7456037,-0.50989437,0.46502722,1.5247972,1.4783464,-0.51814847,1.1317898
93,1.7592080,1.7537340,-0.50178167,0.47694229,1.5424094,1.4963990,-0.51360803,1.1524762
94,1.7734063,1.7618314,-0.49297843,0.48891159,1.5609362,1.5149299,-0.50886447,1.1736370
95,1.7872285,1.7699020,-0.48349592,0.50094516,1.5803585,1.5339209,-0.50391388,1.1952559
96,1.8006708,1.7779514,-0.47334750,0.51305384,1.6006552,1.5533525,-0.49875266,1.2173153
97,1.8137323,1.7859850,-0.46254851,0.52524922,1.6218039,1.5732033,-0.49337757,1.2397967
98,1.8264144,1.7940079,-0.45111631,0.53754362,1.6437804,1.5934506,-0.48778575,1.2626805
99,1.8387211,1.8020253,-0.43907020,0.54995000,1.6665592,1.6140704,-0.48197475,1.2859462
100,1.8506592,1.8100417,-0.42643140,0.56248198,1.6901137,1.6350371,-0.47594257,1.3095725
101,1.8622383,1.8180616,-0.41322297,0.57515375,1.7144160,1.6563242,-0.46968771,1.3335373
102,1.8734703,1.8260893,-0.39946979,0.58798003,1.7394372,1.6779037,-0.46320914,1.3578178
103,1.8843702,1.8341286,-0.38519846,0.60097600,1.7651475,1.6997469,-0.45650640,1.3823904
104,1.8949554,1.8421834,-0.37043725,0.61415728,1.7915165,1.7218238,-0.44957956,1.4072311
105,1.9052461,1.8502572,-0.35521604,0.62753983,1.8185130,1.7441036,-0.44242928,1.4323155
106,1.9152650,1.8583531,-0.33956619,0.64113992,1.8461054,1.7665551,-0.43505683,1.4576186
107,1.9250374,1.8664742,-0.32352051,0.65497404,1.8742618,1.7891458,-0.42746409,1.4831150
108,1.9345911,1.8746234,-0.30711313,0.66905885,1.9029500,1.8118432,-0.41965359,1.5087793
109,1.9439564,1.8828032,-0.29037941,0.68341112,1.9321376,1.8346140,-0.41162849,1.5345858
110,1.9531657,1.8910158,-0.27335586,0.69804765,1.9617923,1.8574247,-0.40339263,1.5605087
111,1.9622539,1.8992635,-0.25608000,0.71298518,1.9918820,1.8802413,-0.39495053,1.5865220
112,1.9712581,1.9075481,-0.23859029,0.72824037,2.0223747,1.9030299,-0.38630738,1.6126001
113,1.9802172,1.9158713,-0.22092597,0.74382968,2.0532390,1.9257565,-0.37746906,1.6387173
114,1.9891721,1.9242346,-0.20312700,0.75976931,2.0844438,1.9483870,-0.36844213,1.6648482
115,1.9981657,1.9326391,-0.18523388,0.77607515,2.1159585,1.9708877,-0.35923387,1.6909675
116,2.0072424,1.9410859,-0.16728757,0.79276267,2.1477534,1.9932249,-0.34985221,1.7170505
117,2.0164479,1.9495760,-0.14932935,0.80984689,2.1797996,2.0153655,-0.34030578,1.7430728
118,2.0258296,1.9581098,-0.13140069,0.82734224,2.2120688,2.0372767,-0.33060390,1.7690105
119,2.0354360,1.9666878,-0.11354315,0.84526258,2.2445340,2.0589264,-0.32075652,1.7948403
120,2.0453164,1.9753102,-0.095798176,0.86362103,2.2771690,2.0802830,-0.31077427,1.8205395
121,2.0555211,1.9839771,-0.078207066,0.88242997,2.3099489,2.1013157,-0.30066842,1.8460861
122,2.0661011,1.9926883,-0.060810769,0.90170093,2.3428499,2.1219947,-0.29045084,1.8714588
123,2.0771077,2.0014435,-0.043649783,0.92144457,2.3758494,2.1422910,-0.28013401,1.8966372
124,2.0885927,2.0102421,-0.026764015,0.94167052,2.4089264,2.1621766,-0.26973099,1.9216016
125,2.1006078,2.0190834,-0.010192655,0.96238743,2.4420610,2.1816246,-0.25925540,1.9463335
126,2.1132045,2.0279664,0.0060259566,0.98360281,2.4752348,2.2006095,-0.24872136,1.9708151
127,2.1264341,2.0368901,0.021854455,1.0053230,2.5084308,2.2191067,-0.23814353,1.9950297
128,2.1403473,2.0458533,0.037256575,1.0275532,2.5416336,2.2370933,-0.22753700,2.0189615
129,2.1549940,2.0548543,0.052197281,1.0502973,2.5748291,2.2545475,-0.21691731,2.0425961
130,2.1704232,2.0638916,0.066642881,1.0735577,2.6080050,2.2714491,-0.20630038,2.0659200
131,2.1866827,2.0729634,0.080561147,1.0973357,2.6411503,2.2877794,-0.19570252,2.0889208
132,2.2038188,2.0820676,0.093921433,1.1216309,2.6742557,2.3035212,-0.18514033,2.1115873
133,2.2218762,2.0912020,0.10669478,1.1464416,2.7073132,2.3186591,-0.17463070,2.1339096
134,2.2408979,2.1003643,0.11885403,1.1717646,2.7403165,2.3331791,-0.16419076,2.1558789
135,2.2609248,2.1095519,0.13037392,1.1975950,2.7732608,2.3470690,-0.15383784,2.1774877
136,2.2819955,2.1187621,0.14123119,1.2239265,2.8061426,2.3603185,-0.14358941,2.1987296
137,2.3041461,2.1279918,0.15140467,1.2507510,2.8389599,2.3729187,-0.13346304,2.2195995
138,2.3274103,2.1372381,0.16087536,1.2780589,2.8717123,2.3848627,-0.12347634,2.2400935
139,2.3518187,2.1464975,0.16962653,1.3058388,2.9044003,2.3961455,-0.11364696,2.2602090
140,2.3773990,2.1557666,0.17764377,1.3340779,2.9370260,2.4067635,-0.10399248,2.2799445
141,2.4041756,2.1650417,0.18491510,1.3627615,2.9695928,2.4167153,-0.094530392,2.2992999
142,2.4321697,2.1743188,0.19143098,1.3918732,3.0021050,2.4260011,-0.085278038,2.3182759
143,2.4613986,2.1835939,0.19718441,1.4213949,3.0345680,2.4346229,-0.076252567,2.3368748
144,2.4918762,2.1928627,0.20217096,1.4513070,3.0669884,2.4425844,-0.067470883,2.3550998
145,2.5236125,2.2021206,0.20638884,1.4815879,3.0993736,2.4498913,-0.058949585,2.3729552
146,2.5566131,2.2113629,0.20983887,1.5122146,3.1317319,2.4565507,-0.050704925,2.3904464
147,2.5908800,2.2205847,0.21252458,1.5431624,3.1640721,2.4625716,-0.042752750,2.4075799
148,2.6264105,2.2297809,0.21445221,1.5744047,3.1964041,2.4679646,-0.035108455,2.4243631
149,2.6631978,2.2389461,0.21563070,1.6059136,3.2287378,2.4727420,-0.027786932,2.4408044
150,2.7012303,2.2480746,0.21607170,1.6376594,3.2610839,2.4769175,-0.020802518,2.4569131
151,2.7404921,2.2571608,0.21578960,1.6696110,3.2934533,2.4805065,-0.014168948,2.4726993
152,2.7809624,2.2661984,0.21480150,1.7017357,3.3258572,2.4835257,-0.0078993071,2.4881740
153,2.8226158,2.2751813,0.21312718,1.7339994,3.3583068,2.4859934,-0.0020059831,2.5033488
154,2.8654221,2.2841030,0.21078908,1.7663664,3.3908132,2.4879290,0.0034993794,2.5182361
155,2.9093463,2.2929566,0.20781230,1.7987999,3.4233876,2.4893533,0.0086059231,2.5328488
156,2.9543484,2.3017352,0.20422450,1.8312615,3.4560407,2.4902883,0.013303620,2.5472004
157,3.0003837,2.3104316,0.20005590,1.8637119,3.4887830,2.4907570,0.017583314,2.5613050
158,3.0474025,2.3190382,0.19533921,1.8961102,3.5216244,2.4907836,0.021436757,2.5751769
159,3.0953502,2.3275474,0.19010955,1.9284147,3.5545742,2.4903931,0.024856651,2.5888309
160,3.1441676,2.3359512,0.18440439,1.9605825,3.5876411,2.4896114,0.027836678,2.6022819
161,3.1937903,2.3442412,0.17826350,1.9925698,3.6208326,2.4884651,0.030371536,2.6155453
162,3.2441495,2.3524092,0.17172880,2.0243319,3.6541556,2.4869817,0.032456970,2.6286362
163,3.2951716,2.3604462,0.16484434,2.0558232,3.6876156,2.4851890,0.034089799,2.6415702
164,3.3467784,2.3683434,0.15765615,2.0869977,3.7212172,2.4831153,0.035267941,2.6543625
165,3.3988871,2.3760915,0.15021215,2.1178083,3.7549633,2.4807894,0.035990438,2.6670284
166,3.4514107,2.3836810,0.14256205,2.1482077,3.7888558,2.4782404,0.036257476,2.6795829
167,3.5042578,2.3911021,0.13475721,2.1781480,3.8228946,2.4754974,0.036070401,2.6920408
168,3.5573329,2.3983450,0.12685053,2.2075811,3.8570784,2.4725896,0.035431736,2.7044167
169,3.6105365,2.4053992,0.11889635,2.2364586,3.8914038,2.4695463,0.034345192,2.7167244
170,3.6637653,2.4122545,0.11095025,2.2647318,3.9258659,2.4663965,0.032815674,2.7289776
171,3.7169123,2.4189000,0.10306898,2.2923522,3.9604576,2.4631689,0.030849292,2.7411893
172,3.7698672,2.4253249,0.095310269,2.3192711,3.9951700,2.4598921,0.028453360,2.7533718
173,3.8225162,2.4315179,0.087732704,2.3454402,4.0299920,2.4565939,0.025636395,2.7655369
174,3.8747426,2.4374677,0.080395578,2.3708114,4.0649104,2.4533019,0.022408117,2.7776953
175,3.9264269,2.4431626,0.073358729,2.3953370,4.0999098,2.4500426,0.018779438,2.7898572
176,3.9774470,2.4485909,0.066682390,2.4189696,4.1349726,2.4468422,0.014762455,2.8020317
177,4.0276784,2.4537405,0.060427026,2.4416626,4.1700788,2.4437257,0.010370435,2.8142270
178,4.0769945,2.4585993,0.054653180,2.4633701,4.2052060,2.4407173,0.0056177979,2.8264503
179,4.1252670,2.4631548,0.049421305,2.4840468,4.2403295,2.4378401,0.00052010034,2.8387076
180,4.1723658,2.4673944,0.044791604,2.5036486,4.2754220,2.4351160,-0.0049059909,2.8510040
181,4.2181598,2.4713056,0.040823863,2.5221322,4.3104541,2.4325658,-0.010642723,2.8633431
182,4.2625167,2.4748753,0.037577293,2.5394554,4.3453937,2.4302088,-0.016671287,2.8757276
183,4.3053036,2.4780907,0.035110357,2.5555774,4.3802061,2.4280632,-0.022971848,2.8881587
184,4.3463872,2.4809386,0.033480615,2.5704586,4.4148545,2.4261454,-0.029523582,2.9006365
185,4.3856341,2.4834058,0.032744555,2.5840608,4.4492994,2.4244704,-0.036304715,2.9131594
186,4.4229110,2.4854790,0.032957435,2.5963474,4.4834989,2.4230517,-0.043292560,2.9257249
187,4.4580853,2.4871448,0.034173122,2.6072833,4.5174089,2.4219010,-0.050463565,2.9383286
188,4.4910252,2.4883898,0.036443938,2.6168351,4.5509826,2.4210282,-0.057793354,2.9509651
189,4.5215999,2.4892005,0.039820500,2.6249714,4.5841712,2.4204417,-0.065256782,2.9636274
190,4.5496803,2.4895634,0.044351574,2.6316623,4.6169235,2.4201478,-0.072827981,2.9763069
191,4.5751388,2.4894650,0.050083923,2.6368801,4.6491862,2.4201509,-0.080480417,2.9889938
192,4.5978503,2.4888919,0.057062166,2.6405991,4.6809038,2.4204538,-0.088186945,3.0016766
193,4.6176917,2.4878305,0.065328639,2.6427957,4.7120187,2.4210571,-0.095919864,3.0143424
194,4.6345431,2.4862676,0.074923257,2.6434484,4.7424716,2.4219595,-0.10365098,3.0269770
195,4.6482873,2.4841899,0.085883385,2.6425378,4.7722012,2.4231577,-0.11135168,3.0395646
196,4.6588105,2.4815840,0.098243717,2.6400472,4.8011442,2.4246464,-0.11899296,3.0520878
197,4.6660028,2.4784371,0.11203615,2.6359618,4.8292362,2.4264183,-0.12654553,3.0645281
198,4.6697581,2.4747362,0.12728969,2.6302694,4.8564109,2.4284642,-0.13397986,3.0768655
199,4.6699746,2.4704686,0.14403032,2.6229604,4.8826006,2.4307728,-0.14126626,3.0890785
200,4.6665550,2.4656217,0.16228091,2.6140273,4.9077366,2.4333307,-0.14837491,3.1011445
201,4.6594070,2.4601833,0.18206114,2.6034654,4.9317489,2.4361228,-0.15527600,3.1130393
202,4.6484432,2.4541413,0.20338741,2.5912724,4.9545666,2.4391317,-0.16193974,3.1247377
203,4.6335817,2.4474839,0.22627273,2.5774488,4.9761180,2.4423384,-0.16833644,3.1362132
204,4.6147462,2.4401996,0.25072671,2.5619974,4.9963306,2.4457219,-0.17443662,3.1474382
205,4.5918663,2.4322774,0.27675544,2.5449238,5.0151316,2.4492593,-0.18021103,3.1583840
206,4.5648776,2.4237064,0.30436148,2.5262362,5.0324479,2.4529259,-0.18563077,3.1690208
207,4.5337220,2.4144762,0.33354378,2.5059452,5.0482061,2.4566954,-0.19066732,3.1793178
208,4.4983481,2.4045768,0.36429769,2.4840642,5.0623329,2.4605397,-0.19529263,3.1892434
209,4.4587112,2.3939987,0.39661488,2.4606093,5.0747551,2.4644291,-0.19947921,3.1987652
210,4.4147732,2.3827328,0.43048336,2.4355989,5.0854002,2.4683322,-0.20320015,3.2078499
211,4.3665035,2.3707704,0.46588745,2.4090543,5.0941960,2.4722165,-0.20642923,3.2164635
212,4.3138785,2.3581035,0.50280778,2.3809990,5.1010712,2.4760478,-0.20914100,3.2245716
213,4.2568819,2.3447244,0.54122131,2.3514592,5.1059553,2.4797907,-0.21131080,3.2321392
214,4.1955050,2.3306263,0.58110136,2.3204636,5.1087793,2.4834084,-0.21291486,3.2391308
215,4.1297467,2.3158026,0.62241757,2.2880433,5.1094752,2.4868634,-0.21393034,3.2455105
216,4.0596135,2.3002475,0.66513603,2.2542317,5.1079766,2.4901167,-0.21433543,3.2512424
217,3.9851197,2.2839560,0.70921925,2.2190645,5.1042191,2.4931287,-0.21410938,3.2562902
218,3.9062875,2.2669235,0.75462625,2.1825798,5.0981399,2.4958587,-0.21323254,3.2606178
219,3.8231469,2.2491462,0.80131259,2.1448178,5.0896786,2.4982657,-0.21168648,3.2641888
220,3.7357357,2.2306210,0.84923049,2.1058210,5.0787768,2.5003077,-0.20945399,3.2669672
221,3.6440996,2.2113455,0.89832886,2.0656337,5.0653788,2.5019424,-0.20651914,3.2689172
222,3.5482923,2.1913181,0.94855340,2.0243024,5.0494315,2.5031271,-0.20286734,3.2700033
223,3.4483753,2.1705379,0.99984673,1.9818754,5.0308848,2.5038190,-0.19848539,3.2701904
224,3.3444178,2.1490049,1.0521484,1.9384028,5.0096914,2.5039749,-0.19336151,3.2694440
225,3.2364968,2.1267197,1.1053952,1.8939364,4.9858074,2.5035518,-0.18748537,3.2677302
226,3.1246970,2.1036840,1.1595210,1.8485297,4.9591922,2.5025069,-0.18084818,3.2650159
227,3.0091107,2.0799002,1.2144571,1.8022378,4.9298086,2.5007974,-0.17344265,3.2612687
228,2.8898375,2.0553715,1.2701322,1.7551170,4.8976232,2.4983811,-0.16526306,3.2564574
229,2.7669843,2.0301020,1.3264726,1.7072251,4.8626066,2.4952162,-0.15630531,3.2505515
230,2.6406654,2.0040967,1.3834027,1.6586210,4.8247331,2.4912615,-0.14656689,3.2435219
231,2.5110017,1.9773616,1.4408443,1.6093647,4.7839812,2.4864767,-0.13604694,3.2353406
232,2.3781213,1.9499033,1.4987176,1.5595174,4.7403337,2.4808222,-0.12474624,3.2259810
233,2.2421588,1.9217297,1.5569409,1.5091409,4.6937777,2.4742596,-0.11266726,3.2154179
234,2.1032549,1.8928494,1.6154311,1.4582979,4.6443049,2.4667515,-0.099814126,3.2036274
235,1.9615570,1.8632718,1.6741034,1.4070516,4.5919112,2.4582617,-0.086192641,3.1905876
236,1.8172179,1.8330075,1.7328720,1.3554658,4.5365976,2.4487556,-0.071810300,3.1762779
237,1.6703963,1.8020679,1.7916497,1.3036048,4.4783696,2.4381998,-0.056676272,3.1606795
238,1.5212565,1.7704653,1.8503487,1.2515329,4.4172376,2.4265626,-0.040801398,3.1437756
239,1.3699676,1.7382130,1.9088804,1.1993148,4.3532167,2.4138141,-0.024198182,3.1255512
240,1.2167036,1.7053251,1.9671557,1.1470151,4.2863273,2.3999261,-0.0068807756,3.1059932
241,1.0616430,1.6718168,2.0250850,1.0946983,4.2165944,2.3848724,0.011135041,3.0850907
242,0.90496858,1.6377042,2.0825787,1.0424287,4.1440482,2.3686287,0.029831877,3.0628346
243,0.74686693,1.6030041,2.1395474,0.99027014,4.0687239,2.3511729,0.049190759,3.0392182
244,0.58752814,1.5677345,2.1959015,0.93828614,3.9906616,2.3324850,0.069191161,3.0142369
245,0.42714547,1.5319140,2.2515523,0.88653954,3.9099066,2.3125474,0.089811034,2.9878884
246,0.26591503,1.4955623,2.3064113,0.83509250,3.8265092,2.2913447,0.11102684,2.9601725
247,0.10403535,1.4587000,2.3603912,0.78400632,3.7405246,2.2688642,0.13281361,2.9310917
248,-0.058292922,1.4213483,2.4134053,0.73334139,3.6520130,2.2450954,0.15514496,2.9006503
249,-0.22086745,1.3835295,2.4653684,0.68315700,3.5610395,2.2200305,0.17799314,2.8688555
250,-0.38348455,1.3452666,2.5161965,0.63351130,3.4676741,2.1936642,0.20132912,2.8357167
251,-0.54593960,1.3065833,2.5658072,0.58446114,3.3719914,2.1659942,0.22512260,2.8012455
252,-0.70802742,1.2675043,2.6141198,0.53606200,3.2740710,2.1370205,0.24934208,2.7654561
253,-0.86954264,1.2280549,2.6610554,0.48836787,3.1739967,2.1067461,0.27395493,2.7283653
254,-1.0302801,1.1882611,2.7065374,0.44143116,3.0718572,2.0751766,0.29892744,2.6899920
255,-1.1900354,1.1481498,2.7504912,0.39530258,2.9677453,2.0423207,0.32422488,2.6503578
256,-1.3486048,1.1077484,2.7928448,0.35003110,2.8617581,2.0081896,0.34981159,2.6094863
257,-1.5057862,1.0670849,2.8335285,0.30566382,2.7539970,1.9727974,0.37565101,2.5674040
258,-1.6613793,1.0261881,2.8724754,0.26224589,2.6445671,1.9361613,0.40170578,2.5241393
259,-1.8151857,0.98508730,2.9096216,0.21982047,2.5335775,1.8983009,0.42793781,2.4797231
260,-1.9670099,0.94381230,2.9449059,0.17842861,2.4211409,1.8592389,0.45430835,2.4341887
261,-2.1166590,0.90239348,2.9782705,0.13810920,2.3073733,1.8190008,0.48077806,2.3875714
262,-2.2639434,0.86086165,3.0096605,0.098898934,2.1923944,1.7776147,0.50730711,2.3399090
263,-2.4086772,0.81924812,3.0390246,0.060832201,2.0763265,1.7351117,0.53385521,2.2912411
264,-2.5506786,0.77758455,3.0663149,0.023941069,1.9592951,1.6915253,0.56038177,2.2416096
265,-2.6897699,0.73590302,3.0914870,-0.011744775,1.8414284,1.6468919,0.58684589,2.1910584
266,-2.8257782,0.69423588,3.1145001,-0.046198064,1.7228567,1.6012503,0.61320651,2.1396333
267,-2.9585356,0.65261582,3.1353173,-0.079393991,1.6037131,1.5546420,0.63942247,2.0873820
268,-3.0878794,0.61107573,3.1539054,-0.11131024,1.4841321,1.5071109,0.66545258,2.0343539
269,-3.2136525,0.56964873,3.1702350,-0.14192700,1.3642505,1.4587034,0.69125574,1.9806004
270,-3.3357039,0.52836809,3.1842807,-0.17122701,1.2442063,1.4094681,0.71679095,1.9261743
271,-3.4538886,0.48726719,3.1960212,-0.19919554,1.1241389,1.3594559,0.74201750,1.8711299
272,-3.5680681,0.44637949,3.2054390,-0.22582044,1.0041887,1.3087199,0.76689494,1.8155231
273,-3.6781106,0.40573847,3.2125207,-0.25109208,0.88449693,1.2573150,0.79138324,1.7594110
274,-3.7838911,0.36537759,3.2172572,-0.27500343,0.76520522,1.2052984,0.81544285,1.7028520
275,-3.8852920,0.32533024,3.2196431,-0.29754997,0.64645556,1.1527289,0.83903475,1.6459058
276,-3.9822029,0.28562972,3.2196774,-0.31872975,0.52838992,1.0996671,0.86212058,1.5886327
277,-4.0745210,0.24630916,3.2173629,-0.33854328,0.41114997,1.0461753,0.88466268,1.5310944
278,-4.1621511,0.20740148,3.2127068,-0.35699361,0.29487688,0.99231719,0.90662417,1.4733530
279,-4.2450062,0.16893937,3.2057201,-0.37408620,0.17971099,0.93815777,0.92796905,1.4154715
280,-4.3230069,0.13095522,3.1964178,-0.38982897,0.065791599,0.88376337,0.94866222,1.3575135
281,-4.3960823,0.093481077,3.1848189,-0.40423219,-0.046743342,0.82920140,0.96866962,1.2995429
282,-4.4641695,0.056548616,3.1709463,-0.41730846,-0.15775746,0.77454022,0.98795823,1.2416239
283,-4.5272142,0.020189074,3.1548268,-0.42907268,-0.26711623,0.71984903,1.0064962,1.1838209
284,-4.5851702,-0.015566777,3.1364909,-0.43954195,-0.37468725,0.66519769,1.0242528,1.1261986
285,-4.6380001,-0.050688686,3.1159729,-0.44873555,-0.48034047,0.61065662,1.0411987,1.0688214
286,-4.6856746,-0.085146957,3.0933105,-0.45667483,-0.58394843,0.55629662,1.0573058,1.0117535
287,-4.7281733,-0.11891250,3.0685451,-0.46338320,-0.68538657,0.50218872,1.0725473,0.95505894
288,-4.7654840,-0.15195686,3.0417215,-0.46888600,-0.78453339,0.44840408,1.0868979,0.89880125
289,-4.7976032,-0.18425227,3.0128877,-0.47321044,-0.88127074,0.39501378,1.1003339,0.84304342
290,-4.8245357,-0.21577168,2.9820949,-0.47638554,-0.97548402,0.34208869,1.1128328,0.78784774
291,-4.8462947,-0.24648881,2.9493975,-0.47844202,-1.0670624,0.28969935,1.1243741,0.73327572
292,-4.8629019,-0.27637818,2.9148527,-0.47941222,-1.1558991,0.23791577,1.1349384,0.67938793
293,-4.8743869,-0.30541514,2.8785206,-0.47933001,-1.2418914,0.18680733,1.1445084,0.62624389
294,-4.8807876,-0.33357591,2.8404638,-0.47823068,-1.3249412,0.13644259,1.1530680,0.57390199
295,-4.8821499,-0.36083760,2.8007474,-0.47615088,-1.4049548,0.086889184,1.1606032,0.52241931
296,-4.8785275,-0.38717829,2.7594392,-0.47312849,-1.4818432,0.038213629,1.1671016,0.47185157
297,-4.8699817,-0.41257700,2.7166087,-0.46920252,-1.5555227,-0.0095187776,1.1725523,0.42225297
298,-4.8565815,-0.43701376,2.6723278,-0.46441303,-1.6259143,-0.056244114,1.1769464,0.37367613
299,-4.8384030,-0.46046962,2.6266702,-0.45880099,-1.6929445,-0.10189997,1.1802768,0.32617196
300,-4.8155295,-0.48292668,2.5797111,-0.45240823,-1.7565450,-0.14642558,1.1825379,0.27978955
301,-4.7880512,-0.50436811,2.5315274,-0.44527726,-1.8166532,-0.18976197,1.1837262,0.23457612
302,-4.7560649,-0.52477820,2.4821975,-0.43745124,-1.8732119,-0.23185203,1.1838397,0.19057688
303,-4.7196740,-0.54414233,2.4318005,-0.42897380,-1.9261699,-0.27264071,1.1828784,0.14783497
304,-4.6789877,-0.56244704,2.3804171,-0.41988900,-1.9754817,-0.31207508,1.1808439,0.10639138
305,-4.6341215,-0.57968002,2.3281284,-0.41024116,-2.0211076,-0.35010449,1.1777395,0.066284870
306,-4.5851962,-0.59583014,2.2750162,-0.40007482,-2.0630140,-0.38668061,1.1735706,0.027551878
307,-4.5323380,-0.61088743,2.2211629,-0.38943457,-2.1011733,-0.42175762,1.1683440,-0.0097735172
308,-4.4756780,-0.62484315,2.1666510,-0.37836497,-2.1355641,-0.45529223,1.1620681,-0.045659673
309,-4.4153524,-0.63768974,2.1115633,-0.36691047,-2.1661708,-0.48724382,1.1547534,-0.080077438
310,-4.3515012,-0.64942088,2.0559823,-0.35511525,-2.1929843,-0.51757449,1.1464117,-0.11300020
311,-4.2842690,-0.66003145,1.9999904,-0.34302319,-2.2160012,-0.54624917,1.1370565,-0.14440393
312,-4.2138037,-0.66951756,1.9436695,-0.33067771,-2.2352247,-0.57323569,1.1267030,-0.17426723
313,-4.1402568,-0.67787655,1.8871009,-0.31812170,-2.2506637,-0.59850479,1.1153677,-0.20257135
314,-4.0637830,-0.68510700,1.8303651,-0.30539742,-2.2623333,-0.62203028,1.1030688,-0.22930022
315,-3.9845393,-0.69120868,1.7735417,-0.29254643,-2.2702547,-0.64378898,1.0898259,-0.25444050
316,-3.9026854,-0.69618261,1.7167092,-0.27960945,-2.2744549,-0.66376086,1.0756599,-0.27798155
317,-3.8183829,-0.70003103,1.6599447,-0.26662632,-2.2749670,-0.68192901,1.0605933,-0.29991546
318,-3.7317950,-0.70275735,1.6033239,-0.25363590,-2.2718296,-0.69827970,1.0446497,-0.32023706
319,-3.6430862,-0.70436620,1.5469211,-0.24067599,-2.2650872,-0.71280242,1.0278539,-0.33894389
320,-3.5524220,-0.70486341,1.4908088,-0.22778324,-2.2547900,-0.72548985,1.0102320,-0.35603625
321,-3.4599686,-0.70425596,1.4350575,-0.21499312,-2.2409934,-0.73633790,0.99181128,-0.37151710
322,-3.3658921,-0.70255198,1.3797357,-0.20233980,-2.2237584,-0.74534570,0.97261992,-0.38539211
323,-3.2703590,-0.69976076,1.3249101,-0.18985611,-2.2031511,-0.75251561,0.95268721,-0.39766959
324,-3.1735348,-0.69589268,1.2706447,-0.17757348,-2.1792425,-0.75785316,0.93204333,-0.40836048
325,-3.0755847,-0.69095926,1.2170015,-0.16552191,-2.1521088,-0.76136710,0.91071933,-0.41747831
326,-2.9766725,-0.68497304,1.1640397,-0.15372984,-2.1218307,-0.76306930,0.88874708,-0.42503912
327,-2.8769607,-0.67794767,1.1118163,-0.14222419,-2.0884935,-0.76297475,0.86615913,-0.43106148
328,-2.7766099,-0.66989778,1.0603853,-0.13103027,-2.0521868,-0.76110151,0.84298871,-0.43556634
329,-2.6757788,-0.66083901,1.0097981,-0.12017176,-2.0130045,-0.75747066,0.81926964,-0.43857707
330,-2.5746236,-0.65078799,0.96010328,-0.10967065,-1.9710442,-0.75210625,0.79503622,-0.44011931
331,-2.4732978,-0.63976225,0.91134638,-0.099547244,-1.9264075,-0.74503522,0.77032321,-0.44022094
332,-2.3719520,-0.62778026,0.86357010,-0.089820132,-1.8791992,-0.73628734,0.74516573,-0.43891201
333,-2.2707337,-0.61486135,0.81681405,-0.080506147,-1.8295275,-0.72589511,0.71959916,-0.43622463
334,-2.1697865,-0.60102569,0.77111480,-0.071620374,-1.7775038,-0.71389372,0.69365912,-0.43219291
335,-2.0692507,-0.58629425,0.72650579,-0.063176132,-1.7232420,-0.70032093,0.66738137,-0.42685286
336,-1.9692623,-0.57068878,0.68301733,-0.055184969,-1.6668589,-0.68521697,0.64080173,-0.42024229
337,-1.8699532,-0.55423174,0.64067654,-0.047656665,-1.6084732,-0.66862446,0.61395601,-0.41240074
338,-1.7714507,-0.53694631,0.59950739,-0.040599238,-1.5482060,-0.65058829,0.58687996,-0.40336934
339,-1.6738777,-0.51885629,0.55953067,-0.034018949,-1.4861800,-0.63115552,0.55960917,-0.39319074
340,-1.5773521,-0.49998611,0.52076396,-0.027920321,-1.4225195,-0.61037524,0.53217901,-0.38190899
341,-1.4819868,-0.48036077,0.48322170,-0.022306154,-1.3573501,-0.58829848,0.50462457,-0.36956943
342,-1.3878894,-0.46000581,0.44691518,-0.017177551,-1.2907982,-0.56497808,0.47698060,-0.35621859
343,-1.2951625,-0.43894723,0.41185254,-0.012533944,-1.2229913,-0.54046855,0.44928140,-0.34190405
344,-1.2039029,-0.41721151,0.37803888,-0.0083731275,-1.1540571,-0.51482592,0.42156083,-0.32667435
345,-1.1142019,-0.39482550,0.34547620,-0.0046912906,-1.0841237,-0.48810765,0.39385218,-0.31057888
346,-1.0261453,-0.37181643,0.31416356,-0.0014830602,-1.0133190,-0.46037249,0.36618814,-0.29366773
347,-0.93981295,-0.34821184,0.28409706,0.0012584570,-0.94177079,-0.43168030,0.33860074,-0.27599158
348,-0.85527892,-0.32403955,0.25526993,0.0035416274,-0.86960617,-0.40209192,0.31112129,-0.25760161
349,-0.77261138,-0.29932760,0.22767260,0.0053762400,-0.79695148,-0.37166906,0.28378036,-0.23854935
350,-0.69187254,-0.27410422,0.20129279,0.0067734524,-0.72393199,-0.34047412,0.25660766,-0.21888655
351,-0.61311868,-0.24839778,0.17611559,0.0077457343,-0.65067168,-0.30857007,0.22963205,-0.19866510
352,-0.53640007,-0.22223677,0.15212353,0.0083068071,-0.57729297,-0.27602027,0.20288149,-0.17793689
353,-0.46176104,-0.19564970,0.12929672,0.0084715822,-0.50391651,-0.24288838,0.17638296,-0.15675367
354,-0.38923995,-0.16866513,0.10761289,0.0082560953,-0.43066093,-0.20923813,0.15016246,-0.13516697
355,-0.31886924,-0.14131157,0.087047585,0.0076774395,-0.35764261,-0.17513327,0.12424496,-0.11322795
356,-0.25067550,-0.11361748,0.067574184,0.0067536958,-0.28497550,-0.14063734,0.098654360,-0.090987315
357,-0.18467949,-0.085611188,0.049164086,0.0055038619,-0.21277086,-0.10581359,0.073413465,-0.068495190
358,-0.12089625,-0.057320895,0.031786799,0.0039477794,-0.14113708,-0.070724801,0.048543956,-0.045801002
359,-0.059335187,-0.028774601,0.015410076,0.0021060592,-0.070179499,-0.035433154,0.024066368,-0.022953384
360,-1.6236343e-07,-8.0535870e-08,4.1658495e-08,6.2213985e-09,-1.9453076e-07,-9.8952517e-08,6.6522844e-08,-6.4113451e-08
