deg,XRT_AX,XRT_BX,XRT_AY,XRT_BY,SOT_AX,SOT_BX,SOT_AY,SOT_BY
valid,1,1,1,1,1,1,1,1,revB
offset,113.31079,86.079243,1977.8114,1978.3489,40.990477,13.130445,94.212362,94.849420
0,0.0000000,0.0000000,0.0000000,0.0000000,0.0000000,0.0000000,0.0000000,0.0000000
1,0.015387167,0.013879141,-0.0092329585,0.0010547858,0.023972061,0.011276341,-0.010498075,-0.0022601447
2,0.029514220,0.027863030,-0.018035407,0.0020715580,0.046770909,0.022332092,-0.020562302,-0.0046152374
3,0.042393915,0.041944483,-0.026415743,0.0030403776,0.068359186,0.033156658,-0.030186532,-0.0070650479
4,0.054041243,0.056116290,-0.034382878,0.0039519340,0.088702435,0.043740456,-0.039365457,-0.0096087165
5,0.064473348,0.070371226,-0.041946196,0.0047975629,0.10776916,0.054074929,-0.048094616,-0.012244761
6,0.073709442,0.084702053,-0.049115524,0.0055692643,0.12553085,0.064152564,-0.056370396,-0.014971083
7,0.081770718,0.099101533,-0.055901082,0.0062597168,0.14196206,0.073966892,-0.064190029,-0.017784980
8,0.088680254,0.11356244,-0.062313451,0.0068622922,0.15704041,0.083512501,-0.071551588,-0.020683155
9,0.094462917,0.12807755,-0.068363530,0.0073710677,0.17074661,0.092785037,-0.078453984,-0.023661728
10,0.099145267,0.14263967,-0.074062491,0.0077808360,0.18306449,0.10178120,-0.084896950,-0.026716248
11,0.10275545,0.15724165,-0.079421744,0.0080871148,0.19398103,0.11049875,-0.090881039,-0.029841713
12,0.10532310,0.17187635,-0.084452890,0.0082861537,0.20348631,0.11893649,-0.096407604,-0.033032576
13,0.10687921,0.18653671,-0.089167679,0.0083749398,0.21157354,0.12709426,-0.10147879,-0.036282772
14,0.10745607,0.20121571,-0.093577970,0.0083512017,0.21823903,0.13497293,-0.10609750,-0.039585728
15,0.10708711,0.21590638,-0.097695689,0.0082134117,0.22348221,0.14257440,-0.11026740,-0.042934386
16,0.10580681,0.23060186,-0.10153278,0.0079607860,0.22730552,0.14990152,-0.11399289,-0.046321220
17,0.10365057,0.24529534,-0.10510118,0.0075932839,0.22971449,0.15695817,-0.11727906,-0.049738258
18,0.10065464,0.25998011,-0.10841276,0.0071116046,0.23071757,0.16374913,-0.12013169,-0.053177102
19,0.096855948,0.27464955,-0.11147928,0.0065171828,0.23032620,0.17028014,-0.12255722,-0.056628953
20,0.092292032,0.28929715,-0.11431239,0.0058121824,0.22855465,0.17655783,-0.12456270,-0.060084629
21,0.087000910,0.30391651,-0.11692352,0.0049994887,0.22542005,0.18258968,-0.12615580,-0.063534595
22,0.081020968,0.31850137,-0.11932391,0.0040826989,0.22094225,0.18838402,-0.12734473,-0.066968979
23,0.074390848,0.33304556,-0.12152455,0.0030661113,0.21514379,0.19394998,-0.12813825,-0.070377603
24,0.067149346,0.34754307,-0.12353611,0.0019547124,0.20804980,0.19929744,-0.12854560,-0.073750005
25,0.059335294,0.36198802,-0.12536896,0.00075416290,0.19968791,0.20443699,-0.12857649,-0.077075467
26,0.050987462,0.37637470,-0.12703309,-0.00052921760,0.19008817,0.20937993,-0.12824107,-0.080343037
27,0.042144448,0.39069753,-0.12853810,-0.0018884679,0.17928295,0.21413818,-0.12754986,-0.083541557
28,0.032844579,0.40495110,-0.12989318,-0.0033160035,0.16730685,0.21872424,-0.12651373,-0.086659690
29,0.023125815,0.41913016,-0.13110706,-0.0048036363,0.15419656,0.22315117,-0.12514387,-0.089685945
30,0.013025646,0.43322966,-0.13218797,-0.0063425956,0.13999078,0.22743252,-0.12345173,-0.092608705
31,0.0025810076,0.44724469,-0.13314365,-0.0079235503,0.12473010,0.23158229,-0.12144901,-0.095416251
32,-0.0081718143,0.46117055,-0.13398132,-0.0095366325,0.10845687,0.23561488,-0.11914757,-0.098096790
33,-0.019197266,0.47500273,-0.13470761,-0.011171462,0.091215106,0.23954502,-0.11655944,-0.10063848
34,-0.030460607,0.48873689,-0.13532860,-0.012817171,0.073050324,0.24338776,-0.11369677,-0.10302946
35,-0.041927992,0.50236890,-0.13584978,-0.014462433,0.054009454,0.24715836,-0.11057176,-0.10525788
36,-0.053566536,0.51589485,-0.13627602,-0.016095488,0.034140688,0.25087230,-0.10719663,-0.10731190
37,-0.065344390,0.52931099,-0.13661157,-0.017704172,0.013493357,0.25454518,-0.10358361,-0.10917974
38,-0.077230804,0.54261382,-0.13686003,-0.019275945,-0.0078822033,0.25819266,-0.099744861,-0.11084973
39,-0.089196183,0.55580002,-0.13702439,-0.020797923,-0.029934785,0.26183046,-0.095692450,-0.11231026
40,-0.10121214,0.56886650,-0.13710694,-0.022256906,-0.052612443,0.26547425,-0.091438317,-0.11354987
41,-0.11325157,0.58181037,-0.13710934,-0.023639414,-0.075862628,0.26913963,-0.086994230,-0.11455726
42,-0.12528863,0.59462896,-0.13703258,-0.024931709,-0.099632324,0.27284206,-0.082371748,-0.11532128
43,-0.13729887,0.60731982,-0.13687699,-0.026119840,-0.12386818,0.27659681,-0.077582183,-0.11583099
44,-0.14925918,0.61988070,-0.13664221,-0.027189663,-0.14851664,0.28041892,-0.072636569,-0.11607568
45,-0.16114789,0.63230958,-0.13632727,-0.028126882,-0.17352409,0.28432314,-0.067545623,-0.11604484
46,-0.17294474,0.64460465,-0.13593049,-0.028917079,-0.19883698,0.28832387,-0.062319713,-0.11572827
47,-0.18463093,0.65676432,-0.13544958,-0.029545747,-0.22440195,0.29243512,-0.056968828,-0.11511599
48,-0.19618910,0.66878720,-0.13488160,-0.029998323,-0.25016594,0.29667049,-0.051502543,-0.11419836
49,-0.20760339,0.68067212,-0.13422299,-0.030260220,-0.27607639,0.30104306,-0.045929996,-0.11296602
50,-0.21885940,0.69241813,-0.13346956,-0.030316862,-0.30208125,0.30556541,-0.040259857,-0.11140996
51,-0.22994419,0.70402445,-0.13261654,-0.030153718,-0.32812920,0.31024953,-0.034500302,-0.10952151
52,-0.24084630,0.71549055,-0.13165858,-0.029756328,-0.35416971,0.31510682,-0.028658991,-0.10729234
53,-0.25155570,0.72681606,-0.13058978,-0.029110344,-0.38015317,0.32014801,-0.022743045,-0.10471451
54,-0.26206379,0.73800083,-0.12940369,-0.028201553,-0.40603101,0.32538315,-0.016759026,-0.10178046
55,-0.27236340,0.74904489,-0.12809334,-0.027015914,-0.43175576,0.33082157,-0.010712918,-0.098483018
56,-0.28244871,0.75994845,-0.12665130,-0.025539590,-0.45728123,0.33647184,-0.0046101139,-0.094815420
57,-0.29231528,0.77071193,-0.12506967,-0.023758971,-0.48256253,0.34234174,0.0015446031,-0.090771317
58,-0.30195995,0.78133589,-0.12334010,-0.021660711,-0.50755619,0.34843824,0.0077470678,-0.086344786
59,-0.31138084,0.79182107,-0.12145387,-0.019231752,-0.53222025,0.35476747,0.013993744,-0.081530330
60,-0.32057731,0.80216840,-0.11940186,-0.016459355,-0.55651435,0.36133469,0.020281734,-0.076322888
61,-0.32954989,0.81237893,-0.11717464,-0.013331123,-0.58039977,0.36814430,0.026608780,-0.070717842
62,-0.33830021,0.82245388,-0.11476246,-0.0098350335,-0.60383955,0.37519975,0.032973271,-0.064711019
63,-0.34683100,0.83239460,-0.11215531,-0.0059594580,-0.62679852,0.38250363,0.039374242,-0.058298693
64,-0.35514599,0.84220259,-0.10934296,-0.0016931891,-0.64924334,0.39005755,0.045811374,-0.051477590
65,-0.36324985,0.85187947,-0.10631496,0.0029745370,-0.67114260,0.39786222,0.052284989,-0.044244885
66,-0.37114813,0.86142698,-0.10306073,0.0080540181,-0.69246686,0.40591738,0.058796047,-0.036598208
67,-0.37884720,0.87084695,-0.099569560,0.013555065,-0.71318864,0.41422183,0.065346133,-0.028535636
68,-0.38635418,0.88014135,-0.095830675,0.019486983,-0.73328250,0.42277343,0.071937454,-0.020055696
69,-0.39367685,0.88931221,-0.091833251,0.025858551,-0.75272508,0.43156907,0.078572822,-0.011157362
70,-0.40082360,0.89836166,-0.087566473,0.032678005,-0.77149506,0.44060472,0.085255639,-0.0018400483
71,-0.40780333,0.90729189,-0.083019568,0.039953023,-0.78957324,0.44987538,0.091989887,0.0078963921
72,-0.41462539,0.91610517,-0.078181847,0.047690711,-0.80694250,0.45937517,0.098780101,0.018051674
73,-0.42129952,0.92480381,-0.073042745,0.055897584,-0.82358786,0.46909725,0.10563135,0.028625087
74,-0.42783572,0.93339019,-0.067591864,0.064579562,-0.83949639,0.47903393,0.11254924,0.039615499
75,-0.43424424,0.94186669,-0.061819008,0.073741953,-0.85465729,0.48917660,0.11953983,0.051021370
76,-0.44053543,0.95023574,-0.055714228,0.083389446,-0.86906183,0.49951583,0.12660967,0.062840754
77,-0.44671971,0.95849979,-0.049267859,0.093526102,-0.88270332,0.51004132,0.13376575,0.075071311
78,-0.45280749,0.96666126,-0.042470558,0.10415535,-0.89557711,0.52074200,0.14101544,0.087710319
79,-0.45880908,0.97472261,-0.035313343,0.11527997,-0.90768054,0.53160600,0.14836653,0.10075468
80,-0.46473460,0.98268625,-0.027787629,0.12690212,-0.91901289,0.54262071,0.15582712,0.11420093
81,-0.47059393,0.99055460,-0.019885268,0.13902329,-0.92957537,0.55377280,0.16340564,0.12804525
82,-0.47639665,0.99833000,-0.011598578,0.15164432,-0.93937106,0.56504827,0.17111078,0.14228349
83,-0.48215191,1.0060148,-0.0029203823,0.16476544,-0.94840481,0.57643248,0.17895150,0.15691117
84,-0.48786842,1.0136112,0.0061559597,0.17838618,-0.95668326,0.58791019,0.18693692,0.17192349
85,-0.49355437,1.0211215,0.015636522,0.19250546,-0.96421472,0.59946559,0.19507638,0.18731533
86,-0.49921734,1.0285478,0.025526779,0.20712157,-0.97100910,0.61108238,0.20337931,0.20308130
87,-0.50486425,1.0358922,0.035831583,0.22223213,-0.97707788,0.62274376,0.21185524,0.21921574
88,-0.51050133,1.0431565,0.046555129,0.23783416,-0.98243400,0.63443253,0.22051375,0.23571269
89,-0.51613403,1.0503427,0.057700937,0.25392406,-0.98709179,0.64613108,0.22936442,0.25256597
90,-0.52176697,1.0574524,0.069271824,0.27049760,-0.99106689,0.65782151,0.23841681,0.26976916
91,-0.52740392,1.0644874,0.081269887,0.28754996,-0.99437616,0.66948561,0.24768039,0.28731559
92,-0.53304773,1.0714492,0.093696477,0.30507573,-0.99703758,0.68110497,0.25716453,0.30519841
93,-0.53870028,1.0783391,0.10655219,0.32306893,-0.99907020,0.69266098,0.26687844,0.32341054
94,-0.54436249,1.0851583,0.11983684,0.34152299,-1.0004940,0.70413492,0.27683113,0.34194475
95,-0.55003425,1.0919080,0.13354945,0.36043081,-1.0013298,0.71550799,0.28703137,0.36079362
96,-0.55571437,1.0985890,0.14768827,0.37978475,-1.0015993,0.72676138,0.29748765,0.37994956
97,-0.56140063,1.1052022,0.16225070,0.39957663,-1.0013246,0.73787632,0.30820817,0.39940485
98,-0.56708969,1.1117482,0.17723334,0.41979781,-1.0005286,0.74883410,0.31920072,0.41915164
99,-0.57277713,1.1182273,0.19263199,0.44043910,-0.99923453,0.75961617,0.33047275,0.43918195
100,-0.57845739,1.1246399,0.20844160,0.46149090,-0.99746612,0.77020419,0.34203124,0.45948767
101,-0.58412380,1.1309861,0.22465631,0.48294313,-0.99524724,0.78058003,0.35388271,0.48006063
102,-0.58976858,1.1372657,0.24126944,0.50478527,-0.99260197,0.79072590,0.36603319,0.50089254
103,-0.59538283,1.1434784,0.25827347,0.52700642,-0.98955444,0.80062431,0.37848814,0.52197506
104,-0.60095654,1.1496238,0.27566011,0.54959525,-0.98612878,0.81025820,0.39125248,0.54329974
105,-0.60647863,1.1557012,0.29342023,0.57254008,-0.98234897,0.81961096,0.40433050,0.56485812
106,-0.61193695,1.1617096,0.31154393,0.59582890,-0.97823877,0.82866647,0.41772588,0.58664166
107,-0.61731829,1.1676481,0.33002055,0.61944932,-0.97382165,0.83740914,0.43144161,0.60864178
108,-0.62260843,1.1735153,0.34883862,0.64338869,-0.96912066,0.84582397,0.44548001,0.63084988
109,-0.62779219,1.1793097,0.36798598,0.66763405,-0.96415835,0.85389662,0.45984269,0.65325732
110,-0.63285343,1.1850297,0.38744972,0.69217218,-0.95895672,0.86161339,0.47453051,0.67585546
111,-0.63777512,1.1906734,0.40721623,0.71698962,-0.95353711,0.86896130,0.48954356,0.69863561
112,-0.64253939,1.1962387,0.42727122,0.74207269,-0.94792011,0.87592813,0.50488119,0.72158912
113,-0.64712754,1.2017233,0.44759976,0.76740750,-0.94212551,0.88250244,0.52054193,0.74470729
114,-0.65152017,1.2071247,0.46818629,0.79298001,-0.93617222,0.88867362,0.53652349,0.76798145
115,-0.65569716,1.2124402,0.48901466,0.81877598,-0.93007819,0.89443190,0.55282278,0.79140292
116,-0.65963779,1.2176670,0.51006814,0.84478108,-0.92386037,0.89976841,0.56943586,0.81496304
117,-0.66332080,1.2228020,0.53132951,0.87098084,-0.91753465,0.90467516,0.58635798,0.83865315
118,-0.66672442,1.2278419,0.55278100,0.89736071,-0.91111577,0.90914512,0.60358350,0.86246460
119,-0.66982649,1.2327833,0.57440444,0.92390605,-0.90461731,0.91317221,0.62110595,0.88638876
120,-0.67260452,1.2376226,0.59618119,0.95060218,-0.89805164,0.91675132,0.63891803,0.91041700
121,-0.67503576,1.2423560,0.61809225,0.97743439,-0.89142986,0.91987833,0.65701155,0.93454071
122,-0.67709730,1.2469796,0.64011828,1.0043879,-0.88476178,0.92255012,0.67537750,0.95875129
123,-0.67876615,1.2514892,0.66223962,1.0314481,-0.87805588,0.92476459,0.69400603,0.98304016
124,-0.68001929,1.2558805,0.68443638,1.0586002,-0.87131932,0.92652068,0.71288644,1.0073987
125,-0.68083383,1.2601491,0.70668842,1.0858295,-0.86455787,0.92781832,0.73200723,1.0318184
126,-0.68118702,1.2642906,0.72897545,1.1131214,-0.85777594,0.92865851,0.75135607,1.0562907
127,-0.68105641,1.2683001,0.75127703,1.1404614,-0.85097654,0.92904326,0.77091987,1.0808070
128,-0.68041989,1.2721728,0.77357267,1.1678350,-0.84416130,0.92897560,0.79068473,1.1053586
129,-0.67925581,1.2759039,0.79584180,1.1952278,-0.83733049,0.92845959,0.81063602,1.1299371
130,-0.67754305,1.2794882,0.81806387,1.2226256,-0.83048295,0.92750031,0.83075838,1.1545339
131,-0.67526116,1.2829207,0.84021840,1.2500144,-0.82361622,0.92610382,0.85103572,1.1791403
132,-0.67239037,1.2861960,0.86228499,1.2773800,-0.81672647,0.92427717,0.87145130,1.2037477
133,-0.66891176,1.2893089,0.88424337,1.3047086,-0.80980854,0.92202838,0.89198771,1.2283475
134,-0.66480733,1.2922540,0.90607348,1.3319867,-0.80285602,0.91936640,0.91262692,1.2529309
135,-0.66006004,1.2950258,0.92775549,1.3592006,-0.79586123,0.91630113,0.93335033,1.2774892
136,-0.65465397,1.2976188,0.94926983,1.3863370,-0.78881527,0.91284333,0.95413877,1.3020138
137,-0.64857436,1.3000275,0.97059727,1.4133828,-0.78170810,0.90900466,0.97497255,1.3264956
138,-0.64180771,1.3022464,0.99171892,1.4403250,-0.77452855,0.90479759,0.99583153,1.3509259
139,-0.63434186,1.3042697,1.0126163,1.4671509,-0.76726439,0.90023541,1.0166951,1.3752958
140,-0.62616607,1.3060920,1.0332714,1.4938479,-0.75990241,0.89533217,1.0375423,1.3995961
141,-0.61727107,1.3077076,1.0536667,1.5204036,-0.75242845,0.89010264,1.0583517,1.4238179
142,-0.60764919,1.3091109,1.0737852,1.5468060,-0.74482746,0.88456231,1.0791017,1.4479519
143,-0.59729438,1.3102965,1.0936104,1.5730430,-0.73708363,0.87872727,1.0997705,1.4719890
144,-0.58620229,1.3112587,1.1131264,1.5991031,-0.72918040,0.87261426,1.1203357,1.4959197
145,-0.57437033,1.3119922,1.1323182,1.6249746,-0.72110058,0.86624055,1.1407752,1.5197346
146,-0.56179776,1.3124914,1.1511710,1.6506463,-0.71282640,0.85962392,1.1610664,1.5434242
147,-0.54848567,1.3127512,1.1696711,1.6761072,-0.70433963,0.85278262,1.1811870,1.5669789
148,-0.53443712,1.3127661,1.1878054,1.7013464,-0.69562163,0.84573530,1.2011143,1.5903888
149,-0.51965711,1.3125311,1.2055614,1.7263533,-0.68665347,0.83850100,1.2208258,1.6136441
150,-0.50415265,1.3120410,1.2229277,1.7511174,-0.67741599,0.83109901,1.2402991,1.6367349
151,-0.48793279,1.3112910,1.2398934,1.7756286,-0.66788994,0.82354893,1.2595118,1.6596508
152,-0.47100866,1.3102762,1.2564487,1.7998768,-0.65805600,0.81587052,1.2784419,1.6823818
153,-0.45339348,1.3089919,1.2725843,1.8238524,-0.64789496,0.80808371,1.2970673,1.7049175
154,-0.43510258,1.3074336,1.2882922,1.8475455,-0.63738776,0.80020848,1.3153665,1.7272473
155,-0.41615339,1.3055969,1.3035650,1.8709469,-0.62651558,0.79226489,1.3333181,1.7493606
156,-0.39656551,1.3034776,1.3183961,1.8940474,-0.61525999,0.78427294,1.3509012,1.7712466
157,-0.37636064,1.3010715,1.3327802,1.9168378,-0.60360301,0.77625257,1.3680952,1.7928944
158,-0.35556259,1.2983750,1.3467125,1.9393094,-0.59152719,0.76822355,1.3848801,1.8142931
159,-0.33419732,1.2953842,1.3601894,1.9614534,-0.57901574,0.76020550,1.4012362,1.8354314
160,-0.31229285,1.2920957,1.3732082,1.9832612,-0.56605262,0.75221777,1.4171447,1.8562980
161,-0.28987928,1.2885063,1.3857669,2.0047246,-0.55262260,0.74427940,1.4325871,1.8768816
162,-0.26698875,1.2846129,1.3978646,2.0258353,-0.53871139,0.73640908,1.4475456,1.8971706
163,-0.24365539,1.2804126,1.4095013,2.0465852,-0.52430571,0.72862510,1.4620033,1.9171533
164,-0.21991531,1.2759030,1.4206780,2.0669664,-0.50939337,0.72094528,1.4759438,1.9368181
165,-0.19580651,1.2710817,1.4313965,2.0869709,-0.49396340,0.71338691,1.4893515,1.9561530
166,-0.17136886,1.2659465,1.4416595,2.1065912,-0.47800604,0.70596675,1.5022118,1.9751461
167,-0.14664402,1.2604956,1.4514707,2.1258197,-0.46151291,0.69870091,1.5145106,1.9937853
168,-0.12167540,1.2547274,1.4608344,2.1446487,-0.44447705,0.69160487,1.5262350,2.0120585
169,-0.096508042,1.2486406,1.4697560,2.1630710,-0.42689296,0.68469339,1.5373729,2.0299536
170,-0.071188591,1.2422341,1.4782416,2.1810793,-0.40875673,0.67798051,1.5479130,2.0474581
171,-0.045765186,1.2355072,1.4862984,2.1986664,-0.39006604,0.67147945,1.5578451,2.0645600
172,-0.020287382,1.2284592,1.4939339,2.2158250,-0.37082027,0.66520262,1.5671601,2.0812466
173,0.0051939469,1.2210900,1.5011567,2.2325483,-0.35102050,0.65916157,1.5758497,2.0975058
174,0.030626702,1.2133996,1.5079760,2.2488291,-0.33066962,0.65336695,1.5839066,2.1133251
175,0.055957661,1.2053883,1.5144018,2.2646606,-0.30977233,0.64782847,1.5913249,2.1286921
176,0.081132588,1.1970567,1.5204446,2.2800359,-0.28833518,0.64255491,1.5980994,2.1435944
177,0.10609634,1.1884058,1.5261158,2.2949483,-0.26636663,0.63755403,1.6042261,2.1580197
178,0.13079299,1.1794366,1.5314272,2.3093908,-0.24387706,0.63283261,1.6097021,2.1719557
179,0.15516591,1.1701507,1.5363910,2.3233570,-0.22087876,0.62839638,1.6145256,2.1853901
180,0.17915797,1.1605498,1.5410204,2.3368400,-0.19738603,0.62425003,1.6186960,2.1983108
181,0.20271156,1.1506359,1.5453287,2.3498333,-0.17341510,0.62039719,1.6222136,2.2107057
182,0.22576880,1.1404114,1.5493297,2.3623304,-0.14898419,0.61684039,1.6250800,2.2225629
183,0.24827164,1.1298788,1.5530376,2.3743246,-0.12411348,0.61358111,1.6272977,2.2338705
184,0.27016197,1.1190411,1.5564672,2.3858096,-0.098825113,0.61061970,1.6288705,2.2446170
185,0.29138178,1.1079014,1.5596332,2.3967788,-0.073143193,0.60795544,1.6298032,2.2547909
186,0.31187331,1.0964632,1.5625509,2.4072259,-0.047093736,0.60558649,1.6301017,2.2643808
187,0.33157913,1.0847301,1.5652357,2.4171445,-0.020704663,0.60350993,1.6297729,2.2733757
188,0.35044236,1.0727061,1.5677032,2.4265283,0.0059942365,0.60172175,1.6288249,2.2817647
189,0.36840670,1.0603956,1.5699690,2.4353712,0.032971345,0.60021685,1.6272666,2.2895374
190,0.38541668,1.0478030,1.5720489,2.4436668,0.060193262,0.59898907,1.6251082,2.2966834
191,0.40141773,1.0349330,1.5739588,2.4514091,0.087624853,0.59803117,1.6223605,2.3031927
192,0.41635630,1.0217907,1.5757145,2.4585921,0.11522931,0.59733491,1.6190357,2.3090556
193,0.43018008,1.0083813,1.5773317,2.4652096,0.14296821,0.59689101,1.6151467,2.3142629
194,0.44283804,0.99471041,1.5788261,2.4712560,0.17080157,0.59668920,1.6107073,2.3188055
195,0.45428064,0.98078363,1.5802130,2.4767252,0.19868798,0.59671824,1.6057321,2.3226750
196,0.46445989,0.96660696,1.5815079,2.4816117,0.22658458,0.59696596,1.6002367,2.3258631
197,0.47332955,0.95218656,1.5827256,2.4859098,0.25444724,0.59741928,1.5942375,2.3283621
198,0.48084520,0.93752882,1.5838810,2.4896140,0.28223059,0.59806425,1.5877516,2.3301648
199,0.48696440,0.92264031,1.5849885,2.4927190,0.30988816,0.59888607,1.5807967,2.3312643
200,0.49164678,0.90752781,1.5860621,2.4952195,0.33737242,0.59986917,1.5733913,2.3316543
201,0.49485419,0.89219829,1.5871153,2.4971105,0.36463495,0.60099720,1.5655546,2.3313290
202,0.49655077,0.87665888,1.5881613,2.4983870,0.39162647,0.60225312,1.5573063,2.3302831
203,0.49670311,0.86091691,1.5892127,2.4990444,0.41829703,0.60361921,1.5486666,2.3285120
204,0.49528029,0.84497985,1.5902817,2.4990780,0.44459607,0.60507715,1.5396563,2.3260115
205,0.49225405,0.82885533,1.5913796,2.4984836,0.47047255,0.60660804,1.5302965,2.3227779
206,0.48759881,0.81255111,1.5925175,2.4972570,0.49587509,0.60819247,1.5206089,2.3188085
207,0.48129183,0.79607511,1.5937055,2.4953942,0.52075206,0.60981057,1.5106153,2.3141007
208,0.47331324,0.77943535,1.5949533,2.4928917,0.54505173,0.61144205,1.5003380,2.3086529
209,0.46364612,0.76264000,1.5962696,2.4897461,0.56872239,0.61306630,1.4897993,2.3024641
210,0.45227660,0.74569730,1.5976626,2.4859541,0.59171247,0.61466238,1.4790220,2.2955338
211,0.43919391,0.72861560,1.5991397,2.4815130,0.61397067,0.61620914,1.4680288,2.2878623
212,0.42439043,0.71140336,1.6007074,2.4764202,0.63544613,0.61768523,1.4568425,2.2794507
213,0.40786173,0.69406910,1.6023715,2.4706736,0.65608849,0.61906921,1.4454860,2.2703006
214,0.38960666,0.67662140,1.6041369,2.4642712,0.67584808,0.62033957,1.4339820,2.2604144
215,0.36962731,0.65906893,1.6060078,2.4572116,0.69467604,0.62147479,1.4223534,2.2497951
216,0.34792914,0.64142038,1.6079872,2.4494935,0.71252444,0.62245345,1.4106227,2.2384466
217,0.32452089,0.62368451,1.6100776,2.4411162,0.72934640,0.62325422,1.3988123,2.2263735
218,0.29941469,0.60587010,1.6122806,2.4320794,0.74509626,0.62385597,1.3869443,2.2135810
219,0.27262602,0.58798595,1.6145965,2.4223831,0.75972964,0.62423782,1.3750407,2.2000752
220,0.24417371,0.57004089,1.6170252,2.4120277,0.77320366,0.62437921,1.3631229,2.1858628
221,0.21407993,0.55204374,1.6195654,2.4010141,0.78547697,0.62425991,1.3512120,2.1709514
222,0.18237021,0.53400333,1.6222151,2.3893438,0.79650993,0.62386016,1.3393287,2.1553492
223,0.14907338,0.51592848,1.6249712,2.3770185,0.80626471,0.62316064,1.3274931,2.1390652
224,0.11422153,0.49782798,1.6278299,2.3640406,0.81470540,0.62214261,1.3157249,2.1221092
225,0.077850024,0.47971062,1.6307863,2.3504129,0.82179813,0.62078789,1.3040430,2.1044916
226,0.039997397,0.46158513,1.6338349,2.3361388,0.82751116,0.61907899,1.2924660,2.0862237
227,0.00070533732,0.44346021,1.6369691,2.3212220,0.83181503,0.61699908,1.2810114,2.0673172
228,-0.039981390,0.42534451,1.6401816,2.3056670,0.83468258,0.61453212,1.2696964,2.0477850
229,-0.082015007,0.40724662,1.6434642,2.2894786,0.83608913,0.61166286,1.2585371,2.0276402
230,-0.12534479,0.38917508,1.6468079,2.2726624,0.83601251,0.60837688,1.2475492,2.0068970
231,-0.16991718,0.37113836,1.6502031,2.2552244,0.83443316,0.60466069,1.2367471,1.9855700
232,-0.21567583,0.35314482,1.6536391,2.2371710,0.83133421,0.60050171,1.2261447,1.9636745
233,-0.26256173,0.33520280,1.6571047,2.2185096,0.82670156,0.59588836,1.2157550,1.9412267
234,-0.31051330,0.31732050,1.6605879,2.1992479,0.82052393,0.59081007,1.2055900,1.9182432
235,-0.35946651,0.29950605,1.6640761,2.1793941,0.81279293,0.58525732,1.1956606,1.8947411
236,-0.40935497,0.28176749,1.6675560,2.1589572,0.80350309,0.57922168,1.1859772,1.8707384
237,-0.46011006,0.26411273,1.6710136,2.1379466,0.79265196,0.57269583,1.1765487,1.8462535
238,-0.51166108,0.24654960,1.6744346,2.1163725,0.78024009,0.56567360,1.1673834,1.8213054
239,-0.56393534,0.22908581,1.6778039,2.0942455,0.76627109,0.55815001,1.1584884,1.7959135
240,-0.61685833,0.21172896,1.6811059,2.0715769,0.75075168,0.55012122,1.1498698,1.7700980
241,-0.67035385,0.19448651,1.6843248,2.0483785,0.73369164,0.54158465,1.1415327,1.7438792
242,-0.72434413,0.17736582,1.6874441,2.0246627,0.71510389,0.53253892,1.1334812,1.7172781
243,-0.77875001,0.16037411,1.6904472,2.0004427,0.69500445,0.52298389,1.1257183,1.6903161
244,-0.83349110,0.14351849,1.6933168,1.9757318,0.67341248,0.51292067,1.1182460,1.6630149
245,-0.88848589,0.12680592,1.6960357,1.9505443,0.65035020,0.50235162,1.1110652,1.6353967
246,-0.94365195,0.11024323,1.6985863,1.9248949,0.62584293,0.49128037,1.1041759,1.6074840
247,-0.99890608,0.093837136,1.7009508,1.8987989,0.59991906,0.47971178,1.0975768,1.5792995
248,-1.0541645,0.077594186,1.7031113,1.8722719,0.57260997,0.46765199,1.0912659,1.5508662
249,-1.1093429,0.061520808,1.7050498,1.8453304,0.54395004,0.45510837,1.0852400,1.5222074
250,-1.1643567,0.045623287,1.7067481,1.8179912,0.51397658,0.44208952,1.0794949,1.4933466
251,-1.2191214,0.029907769,1.7081884,1.7902715,0.48272975,0.42860529,1.0740256,1.4643076
252,-1.2735524,0.014380258,1.7093526,1.7621892,0.45025255,0.41466669,1.0688259,1.4351140
253,-1.3275652,-0.00095338535,1.7102227,1.7337626,0.41659070,0.40028597,1.0638888,1.4057898
254,-1.3810760,-0.016087439,1.7107812,1.7050103,0.38179260,0.38547651,1.0592065,1.3763590
255,-1.4340013,-0.031016323,1.7110105,1.6759516,0.34590920,0.37025284,1.0547701,1.3468456
256,-1.4862586,-0.045734601,1.7108933,1.6466059,0.30899396,0.35463059,1.0505699,1.3172735
257,-1.5377660,-0.060236975,1.7104127,1.6169932,0.27110273,0.33862648,1.0465955,1.2876668
258,-1.5884428,-0.074518290,1.7095521,1.5871338,0.23229363,0.32225828,1.0428357,1.2580494
259,-1.6382096,-0.088573528,1.7082951,1.5570484,0.19262698,0.30554475,1.0392783,1.2284450
260,-1.6869884,-0.10239781,1.7066262,1.5267578,0.15216513,0.28850563,1.0359107,1.1988772
261,-1.7347025,-0.11598640,1.7045299,1.4962834,0.11097239,0.27116159,1.0327195,1.1693696
262,-1.7812772,-0.12933469,1.7019916,1.4656467,0.069114891,0.25353416,1.0296906,1.1399453
263,-1.8266394,-0.14243822,1.6989970,1.4348694,0.026660434,0.23564574,1.0268093,1.1106274
264,-1.8707183,-0.15529264,1.6955325,1.4039734,-0.016321628,0.21751949,1.0240605,1.0814385
265,-1.9134448,-0.16789377,1.6915854,1.3729810,-0.059760535,0.19917930,1.0214285,1.0524011
266,-1.9547526,-0.18023752,1.6871433,1.3419143,-0.10358426,0.18064977,1.0188971,1.0235370
267,-1.9945773,-0.19231995,1.6821948,1.3107958,-0.14771967,0.16195610,1.0164498,0.99486812
268,-2.0328575,-0.20413726,1.6767291,1.2796479,-0.19209264,0.14312407,1.0140696,0.96641549
269,-2.0695341,-0.21568574,1.6707363,1.2484933,-0.23662827,0.12417997,1.0117394,0.93819989
270,-2.1045509,-0.22696184,1.6642074,1.2173545,-0.28125099,0.10515055,1.0094416,0.91024162
271,-2.1378547,-0.23796211,1.6571340,1.1862540,-0.32588471,0.086062952,1.0071585,0.88256041
272,-2.1693952,-0.24868323,1.6495089,1.1552144,-0.37045305,0.066944637,1.0048722,0.85517549
273,-2.1991252,-0.25912199,1.6413256,1.1242582,-0.41487942,0.047823343,1.0025648,0.82810550
274,-2.2270006,-0.26927531,1.6325785,1.0934076,-0.45908723,0.028727012,1.0002182,0.80136847
275,-2.2529808,-0.27914021,1.6232632,1.0626850,-0.50300006,0.0096837274,0.99781440,0.77498181
276,-2.2770283,-0.28871384,1.6133760,1.0321122,-0.54654178,-0.0092783528,0.99533540,0.74896230
277,-2.2991091,-0.29799343,1.6029143,1.0017113,-0.58963676,-0.028131057,0.99276330,0.72332601
278,-2.3191928,-0.30697636,1.5918766,0.97150368,-0.63221001,-0.046846266,0.99008034,0.69808833
279,-2.3372524,-0.31566009,1.5802622,0.94151077,-0.67418735,-0.065395978,0.98726898,0.67326393
280,-2.3532645,-0.32404219,1.5680716,0.91175356,-0.71549556,-0.083752372,0.98431193,0.64886675
281,-2.3672093,-0.33212036,1.5553062,0.88225274,-0.75606257,-0.10188787,0.98119217,0.62490996
282,-2.3790708,-0.33989236,1.5419686,0.85302862,-0.79581758,-0.11977521,0.97789305,0.60140597
283,-2.3888364,-0.34735610,1.5280621,0.82410112,-0.83469123,-0.13738749,0.97439832,0.57836637
284,-2.3964975,-0.35450955,1.5135915,0.79548970,-0.87261576,-0.15469825,0.97069215,0.55580198
285,-2.4020491,-0.36135081,1.4985621,0.76721341,-0.90952515,-0.17168152,0.96675920,0.53372280
286,-2.4054897,-0.36787807,1.4829807,0.73929075,-0.94535527,-0.18831188,0.96258466,0.51213800
287,-2.4068218,-0.37408961,1.4668547,0.71173974,-0.98004402,-0.20456451,0.95815430,0.49105589
288,-2.4060514,-0.37998382,1.4501928,0.68457784,-1.0135315,-0.22041528,0.95345448,0.47048398
289,-2.4031881,-0.38555919,1.4330044,0.65782192,-1.0457600,-0.23584076,0.94847223,0.45042890
290,-2.3982453,-0.39081431,1.4153003,0.63148827,-1.0766743,-0.25081831,0.94319526,0.43089644
291,-2.3912399,-0.39574784,1.3970917,0.60559253,-1.1062218,-0.26532610,0.93761199,0.41189153
292,-2.3821923,-0.40035857,1.3783911,0.58014970,-1.1343526,-0.27934320,0.93171161,0.39341825
293,-2.3711264,-0.40464537,1.3592117,0.55517410,-1.1610193,-0.29284956,0.92548409,0.37547982
294,-2.3580694,-0.40860722,1.3395678,0.53067934,-1.1861776,-0.30582614,0.91892020,0.35807861
295,-2.3430522,-0.41224318,1.3194744,0.50667834,-1.2097862,-0.31825487,0.91201158,0.34121614
296,-2.3261085,-0.41555244,1.2989471,0.48318325,-1.2318069,-0.33011874,0.90475072,0.32489308
297,-2.3072755,-0.41853425,1.2780027,0.46020548,-1.2522043,-0.34140184,0.89713099,0.30910927
298,-2.2865934,-0.42118798,1.2566586,0.43775566,-1.2709468,-0.35208935,0.88914667,0.29386374
299,-2.2641054,-0.42351311,1.2349327,0.41584362,-1.2880056,-0.36216761,0.88079298,0.27915467
300,-2.2398577,-0.42550922,1.2128438,0.39447842,-1.3033556,-0.37162415,0.87206607,0.26497947
301,-2.2138991,-0.42717596,1.1904114,0.37366827,-1.3169749,-0.38044768,0.86296304,0.25133474
302,-2.1862813,-0.42851313,1.1676553,0.35342057,-1.3288452,-0.38862816,0.85348196,0.23821631
303,-2.1570583,-0.42952062,1.1445961,0.33374187,-1.3389517,-0.39615676,0.84362184,0.22561926
304,-2.1262867,-0.43019841,1.1212550,0.31463789,-1.3472831,-0.40302594,0.83338271,0.21353792
305,-2.0940255,-0.43054662,1.0976533,0.29611350,-1.3538316,-0.40922942,0.82276553,0.20196591
306,-2.0603356,-0.43056544,1.0738130,0.27817271,-1.3585932,-0.41476220,0.81177228,0.19089614
307,-2.0252801,-0.43025522,1.0497566,0.26081867,-1.3615672,-0.41962059,0.80040587,0.18032086
308,-1.9889240,-0.42961640,1.0255065,0.24405367,-1.3627567,-0.42380217,0.78867020,0.17023165
309,-1.9513340,-0.42864952,1.0010858,0.22787915,-1.3621684,-0.42730582,0.77657013,0.16061947
310,-1.9125785,-0.42735527,0.97651753,0.21229570,-1.3598123,-0.43013171,0.76411146,0.15147469
311,-1.8727272,-0.42573445,0.95182516,0.19730304,-1.3557021,-0.43228130,0.75130092,0.14278708
312,-1.8318512,-0.42378797,0.92703215,0.18290006,-1.3498551,-0.43375732,0.73814618,0.13454588
313,-1.7900227,-0.42151687,0.90216207,0.16908480,-1.3422920,-0.43456377,0.72465579,0.12673980
314,-1.7473150,-0.41892233,0.87723854,0.15585447,-1.3330367,-0.43470587,0.71083918,0.11935708
315,-1.7038021,-0.41600565,0.85228516,0.14320548,-1.3221168,-0.43419010,0.69670667,0.11238549
316,-1.6595587,-0.41276826,0.82732548,0.13113340,-1.3095629,-0.43302413,0.68226939,0.10581237
317,-1.6146600,-0.40921172,0.80238293,0.11963305,-1.2954090,-0.43121681,0.66753927,0.099624675
318,-1.5691818,-0.40533772,0.77748080,0.10869842,-1.2796921,-0.42877815,0.65252904,0.093808992
319,-1.5231997,-0.40114810,0.75264217,0.098322788,-1.2624524,-0.42571927,0.63725217,0.088351584
320,-1.4767897,-0.39664483,0.72788985,0.088498661,-1.2437329,-0.42205240,0.62172284,0.083238420
321,-1.4300275,-0.39183004,0.70324639,0.079217832,-1.2235795,-0.41779081,0.60595592,0.078455206
322,-1.3829887,-0.38670596,0.67873397,0.070471396,-1.2020411,-0.41294878,0.58996693,0.073987423
323,-1.3357482,-0.38127500,0.65437438,0.062249765,-1.1791688,-0.40754159,0.57377199,0.069820364
324,-1.2883806,-0.37553971,0.63018901,0.054542700,-1.1550165,-0.40158543,0.55738778,0.065939162
325,-1.2409597,-0.36950278,0.60619875,0.047339336,-1.1296406,-0.39509738,0.54083152,0.062328830
326,-1.1935585,-0.36316704,0.58242400,0.040628203,-1.1030995,-0.38809538,0.52412092,0.058974297
327,-1.1462490,-0.35653548,0.55888460,0.034397259,-1.0754538,-0.38059813,0.50727414,0.055860436
328,-1.0991018,-0.34961124,0.53559981,0.028633919,-1.0467663,-0.37262510,0.49030971,0.052972108
329,-1.0521867,-0.34239762,0.51258825,0.023325083,-1.0171014,-0.36419642,0.47324655,0.050294188
330,-1.0055717,-0.33489805,0.48986791,0.018457167,-0.98652536,-0.35533288,0.45610386,0.047811606
331,-0.95932345,-0.32711611,0.46745608,0.014016137,-0.95510595,-0.34605583,0.43890114,0.045509377
332,-0.91350698,-0.31905557,0.44536933,0.0099875425,-0.92291235,-0.33638714,0.42165808,0.043372632
333,-0.86818548,-0.31072031,0.42362348,0.0063565469,-0.89001499,-0.32634917,0.40439454,0.041386659
334,-0.82342031,-0.30211437,0.40223360,0.0031079648,-0.85648540,-0.31596465,0.38713051,0.039536927
335,-0.77927084,-0.29324197,0.38121393,0.00022629619,-0.82239603,-0.30525668,0.36988606,0.037809122
336,-0.73579438,-0.28410744,0.36057793,-0.0023042377,-0.78782010,-0.29424864,0.35268129,0.036189177
337,-0.69304605,-0.27471529,0.34033821,-0.0044996583,-0.75283143,-0.28296413,0.33553627,0.034663301
338,-0.65107872,-0.26507016,0.32050651,-0.0063761930,-0.71750430,-0.27142692,0.31847101,0.033218010
339,-0.60994293,-0.25517685,0.30109372,-0.0079502384,-0.68191324,-0.25966089,0.30150540,0.031840155
340,-0.56968679,-0.24504030,0.28210984,-0.0092383229,-0.64613291,-0.24768996,0.28465918,0.030516947
341,-0.53035593,-0.23466559,0.26356399,-0.010257070,-0.61023793,-0.23553801,0.26795188,0.029235987
342,-0.49199346,-0.22405795,0.24546439,-0.011023159,-0.57430267,-0.22322889,0.25140280,0.027985289
343,-0.45463985,-0.21322273,0.22781834,-0.011553290,-0.53840115,-0.21078628,0.23503091,0.026753305
344,-0.41833294,-0.20216543,0.21063225,-0.011864146,-0.50260684,-0.19823367,0.21885487,0.025528946
345,-0.38310789,-0.19089169,0.19391161,-0.011972353,-0.46699251,-0.18559430,0.20289297,0.024301608
346,-0.34899711,-0.17940727,0.17766101,-0.011894449,-0.43163010,-0.17289111,0.18716305,0.023061188
347,-0.31603027,-0.16771804,0.16188415,-0.011646839,-0.39659050,-0.16014666,0.17168251,0.021798104
348,-0.28423427,-0.15583002,0.14658381,-0.011245767,-0.36194348,-0.14738310,0.15646827,0.020503318
349,-0.25363321,-0.14374933,0.13176191,-0.010707276,-0.32775748,-0.13462209,0.14153669,0.019168345
350,-0.22424839,-0.13148221,0.11741947,-0.010047171,-0.29409951,-0.12188479,0.12690358,0.017785271
351,-0.19609833,-0.11903501,0.10355667,-0.0092809917,-0.26103497,-0.10919178,0.11258415,0.016346771
352,-0.16919874,-0.10641417,0.090172827,-0.0084239700,-0.22862756,-0.096562995,0.098592977,0.014846114
353,-0.14356255,-0.093626233,0.077266438,-0.0074910030,-0.19693911,-0.084017735,0.084943966,0.013277179
354,-0.11919995,-0.080677850,0.064835190,-0.0064966186,-0.16602948,-0.071574568,0.071650349,0.011634462
355,-0.096118394,-0.067575743,0.052875981,-0.0054549449,-0.13595640,-0.059251315,0.058724641,0.0099130840
356,-0.074322615,-0.054326717,0.041384946,-0.0043796796,-0.10677544,-0.047065005,0.046178619,0.0081087992
357,-0.053814702,-0.040937655,0.030357484,-0.0032840611,-0.078539802,-0.035031837,0.034023303,0.0062179976
358,-0.034594122,-0.027415505,0.019788281,-0.0021808407,-0.051300281,-0.023167146,0.022268934,0.0042377096
359,-0.016657773,-0.013767278,0.0096713435,-0.0010822554,-0.025105150,-0.011485372,0.010924963,0.0021656075
360,-4.4677364e-08,-3.8551931e-08,2.6355565e-08,-2.9847342e-09,-6.8449850e-08,-3.1743276e-08,2.9874528e-08,6.1706800e-09
