XRT N-S vs UFSS-A
      186.529
      2.24619
     -4.18168
      2.55847
     0.823681
    -0.122191
     0.911781
XRT N-S vs UFSS-B
      187.662
     0.949220
     -1.73049
     0.634304
     0.102754
    0.0739429
     0.295503
XRT E-W vs UFSS-A
      3987.29
     -3.08863
     0.807008
    -0.472885
     -1.47984
     0.571924
   -0.0646360
XRT E-W vs UFSS-B
      3966.95
     -1.16788
     -1.45126
     0.552491
    -0.425674
     0.276601
     0.161861
SOT N-S vs UFSS-A
      39.3453
      2.85215
     -4.59351
      2.47409
      1.61005
    -0.460716
     0.765166
SOT N-S vs UFSS-B
      40.2754
      1.74215
     -2.08654
     0.671136
      1.00701
    -0.332855
     0.223884
SOT E-W vs UFSS-A
      224.045
    0.0261297
     0.869247
    -0.471790
     0.678923
    -0.274165
   -0.0779259
SOT E-W vs UFSS-B
      206.332
    -0.786191
     -1.22940
     0.312237
   -0.0841117
     0.165615
    0.0655427
