XRT N-S vs UFSS-A
      245.014
    0.0638185
     0.345888
     0.304196
     0.346587
   -0.0889106
    0.0539731
XRT N-S vs UFSS-B
      227.773
     0.878627
    -0.492573
     0.157673
     0.306660
   -0.0401450
   -0.0233511
XRT E-W vs UFSS-A
      3966.18
    -0.353812
     -1.05955
    0.0790529
     0.147470
     0.102264
    0.0859061
XRT E-W vs UFSS-B
      3972.34
    -0.373992
    -0.930680
    0.0743525
     0.207630
    0.0284947
   -0.0445816
SOT N-S vs UFSS-A
      115.320
   0.00697503
     0.807332
     0.160435
 -0.000255913
    0.0845186
     0.170810
SOT N-S vs UFSS-B
      97.5631
     0.824970
    0.0362798
    0.0374744
    0.0430171
    0.0645212
    0.0253870
SOT E-W vs UFSS-A
      186.968
    -0.270267
    -0.978764
   -0.0359979
     0.196383
   -0.0586778
    0.0334559
SOT E-W vs UFSS-B
      193.395
    -0.316178
    -0.955557
    0.0567900
     0.188330
   -0.0157461
    0.0341559
