XRT N-S vs UFSS-A
      248.563
     0.170806
     0.635020
     0.109847
    -0.103561
   -0.0944680
   -0.0920269
XRT N-S vs UFSS-B
      196.561
     0.747228
    -0.205050
     0.113821
   -0.0535870
   -0.0835857
    0.0376856
XRT E-W vs UFSS-A
      3952.71
    -0.244959
    -0.862677
     0.101860
     0.177567
   0.00433623
    0.0747309
XRT E-W vs UFSS-B
      3963.00
    -0.386440
    -0.791403
     0.137289
    0.0793388
   0.00984585
  -0.00179060
SOT N-S vs UFSS-A
      152.826
   -0.0491163
     0.947725
    0.0802149
  -0.00745401
   -0.0147685
   -0.0814377
SOT N-S vs UFSS-B
      99.1045
     0.633060
  -0.00782969
    0.0206493
    0.0865396
    0.0513045
   -0.0904373
SOT E-W vs UFSS-A
      143.349
    -0.286850
    -0.856564
    0.0512253
     0.185610
    0.0395199
   -0.0157889
SOT E-W vs UFSS-B
      153.908
    -0.286561
    -0.807216
    0.0449487
     0.181094
   -0.0258249
    0.0211747
