deg,XRT_AX,XRT_BX,XRT_AY,XRT_BY,SOT_AX,SOT_BX,SOT_AY,SOT_BY
valid,1,1,1,1,1,1,1,1,revB
offset,121.61571,104.88790,1978.0317,1981.6986,61.861077,44.429134,85.327415,89.207772
0,0.0000000,0.0000000,0.0000000,0.0000000,0.0000000,0.0000000,0.0000000,0.0000000
1,0.0062152245,-0.0070035736,-0.010257680,-0.010667548,0.017032842,0.0088710364,-0.0097647688,-0.0051339097
2,0.012312263,-0.013912884,-0.020234431,-0.021106345,0.033547359,0.017605030,-0.019481901,-0.010325528
3,0.018289684,-0.020708864,-0.029925649,-0.031312493,0.049527150,0.026196552,-0.029148203,-0.015579762
4,0.024146086,-0.027372373,-0.039327336,-0.041282619,0.064956726,0.034640797,-0.038760338,-0.020901159
5,0.029880092,-0.033884237,-0.048436111,-0.051013895,0.079821531,0.042933583,-0.048314842,-0.026293900
6,0.035490350,-0.040225296,-0.057249223,-0.060504039,0.094107962,0.051071358,-0.057808127,-0.031761796
7,0.040975523,-0.046376445,-0.065764558,-0.069751323,0.10780339,0.059051195,-0.067236492,-0.037308288
8,0.046334292,-0.052318678,-0.073980652,-0.078754582,0.12089615,0.066870798,-0.076596133,-0.042936440
9,0.051565346,-0.058033133,-0.081896693,-0.087513212,0.13337560,0.074528494,-0.085883155,-0.048648940
10,0.056667385,-0.063501134,-0.089512524,-0.096027174,0.14523209,0.082023232,-0.095093576,-0.054448101
11,0.061639109,-0.068704233,-0.096828652,-0.10429699,0.15645698,0.089354575,-0.10422334,-0.060335858
12,0.066479220,-0.073624255,-0.10384624,-0.11232376,0.16704264,0.096522695,-0.11326833,-0.066313771
13,0.071186420,-0.078243339,-0.11056711,-0.12010911,0.17698247,0.10352836,-0.12222438,-0.072383024
14,0.075759400,-0.082543974,-0.11699374,-0.12765525,0.18627089,0.11037294,-0.13108727,-0.078544429
15,0.080196846,-0.086509049,-0.12312925,-0.13496491,0.19490334,0.11705837,-0.13985275,-0.084798429
16,0.084497431,-0.090121883,-0.12897741,-0.14204138,0.20287626,0.12358715,-0.14851654,-0.091145101
17,0.088659812,-0.093366269,-0.13454261,-0.14888845,0.21018711,0.12996234,-0.15707436,-0.097584159
18,0.092682632,-0.096226508,-0.13982987,-0.15551044,0.21683433,0.13618752,-0.16552191,-0.10411496
19,0.096564511,-0.098687450,-0.14484481,-0.16191215,0.22281737,0.14226680,-0.17385491,-0.11073651
20,0.10030405,-0.10073452,-0.14959364,-0.16809887,0.22813664,0.14820479,-0.18206909,-0.11744747
21,0.10389983,-0.10235377,-0.15408315,-0.17407635,0.23279350,0.15400657,-0.19016018,-0.12424615
22,0.10735040,-0.10353187,-0.15832067,-0.17985078,0.23679027,0.15967769,-0.19812398,-0.13113055
23,0.11065428,-0.10425620,-0.16231409,-0.18542878,0.24013019,0.16522413,-0.20595630,-0.13809832
24,0.11380998,-0.10451484,-0.16607177,-0.19081736,0.24281737,0.17065228,-0.21365302,-0.14514680
25,0.11681596,-0.10429658,-0.16960259,-0.19602391,0.24485685,0.17596894,-0.22121006,-0.15227303
26,0.11967067,-0.10359099,-0.17291587,-0.20105618,0.24625447,0.18118126,-0.22862341,-0.15947373
27,0.12237252,-0.10238842,-0.17602139,-0.20592221,0.24701692,0.18629674,-0.23588914,-0.16674534
28,0.12491989,-0.10068002,-0.17892930,-0.21063038,0.24715170,0.19132319,-0.24300337,-0.17408401
29,0.12731113,-0.098457775,-0.18165014,-0.21518932,0.24666707,0.19626872,-0.24996235,-0.18148563
30,0.12954457,-0.095714508,-0.18419480,-0.21960788,0.24557202,0.20114168,-0.25676237,-0.18894581
31,0.13161851,-0.092443904,-0.18657447,-0.22389514,0.24387625,0.20595068,-0.26339985,-0.19645990
32,0.13353121,-0.088640526,-0.18880062,-0.22806034,0.24159014,0.21070451,-0.26987131,-0.20402303
33,0.13528092,-0.084299820,-0.19088494,-0.23211289,0.23872470,0.21541216,-0.27617335,-0.21163007
34,0.13686587,-0.079418136,-0.19283937,-0.23606226,0.23529155,0.22008276,-0.28230270,-0.21927568
35,0.13828424,-0.073992727,-0.19467596,-0.23991804,0.23130287,0.22472555,-0.28825621,-0.22695431
36,0.13953421,-0.068021763,-0.19640695,-0.24368985,0.22677138,0.22934986,-0.29403081,-0.23466020
37,0.14061396,-0.061504328,-0.19804462,-0.24738730,0.22171027,0.23396509,-0.29962360,-0.24238740
38,0.14152163,-0.054440429,-0.19960133,-0.25101999,0.21613320,0.23858068,-0.30503175,-0.25012977
39,0.14225535,-0.046830991,-0.20108946,-0.25459745,0.21005426,0.24320603,-0.31025260,-0.25788102
40,0.14281325,-0.038677859,-0.20252134,-0.25812910,0.20348787,0.24785057,-0.31528357,-0.26563468
41,0.14319347,-0.029983790,-0.20390927,-0.26162425,0.19644882,0.25252362,-0.32012223,-0.27338413
42,0.14339411,-0.020752450,-0.20526540,-0.26509202,0.18895218,0.25723446,-0.32476628,-0.28112264
43,0.14341331,-0.010988406,-0.20660178,-0.26854132,0.18101329,0.26199222,-0.32921351,-0.28884332
44,0.14324921,-0.00069711360,-0.20793024,-0.27198085,0.17264769,0.26680591,-0.33346187,-0.29653917
45,0.14289995,0.010115094,-0.20926241,-0.27541900,0.16387111,0.27168436,-0.33750942,-0.30420310
46,0.14236370,0.021441017,-0.21060965,-0.27886389,0.15469940,0.27663623,-0.34135432,-0.31182789
47,0.14163864,0.033272613,-0.21198301,-0.28232326,0.14514852,0.28166994,-0.34499488,-0.31940625
48,0.14072300,0.045601003,-0.21339321,-0.28580451,0.13523448,0.28679366,-0.34842950,-0.32693083
49,0.13961503,0.058416501,-0.21485059,-0.28931462,0.12497333,0.29201530,-0.35165670,-0.33439417
50,0.13831300,0.071708632,-0.21636507,-0.29286012,0.11438109,0.29734248,-0.35467512,-0.34178878
51,0.13681526,0.085466152,-0.21794613,-0.29644712,0.10347372,0.30278250,-0.35748348,-0.34910711
52,0.13512018,0.099677077,-0.21960276,-0.30008118,0.092267115,0.30834234,-0.36008061,-0.35634158
53,0.13322620,0.11432871,-0.22134344,-0.30376738,0.080777029,0.31402858,-0.36246546,-0.36348456
54,0.13113183,0.12940765,-0.22317608,-0.30751023,0.069019071,0.31984748,-0.36463702,-0.37052839
55,0.12883563,0.14489986,-0.22510803,-0.31131369,0.057008657,0.32580486,-0.36659441,-0.37746541
56,0.12633625,0.16079065,-0.22714601,-0.31518110,0.044760986,0.33190615,-0.36833682,-0.38428794
57,0.12363240,0.17706477,-0.22929612,-0.31911520,0.032291009,0.33815636,-0.36986348,-0.39098831
58,0.12072290,0.19370635,-0.23156378,-0.32311809,0.019613398,0.34456004,-0.37117374,-0.39755884
59,0.11760666,0.21069904,-0.23395373,-0.32719121,0.0067425210,0.35112130,-0.37226698,-0.40399186
60,0.11428268,0.22802597,-0.23646997,-0.33133533,-0.0063075836,0.35784376,-0.37314263,-0.41027972
61,0.11075006,0.24566980,-0.23911580,-0.33555054,-0.019523232,0.36473059,-0.37380019,-0.41641481
62,0.10700803,0.26361279,-0.24189374,-0.33983622,-0.032891117,0.37178447,-0.37423918,-0.42238953
63,0.10305593,0.28183681,-0.24480554,-0.34419104,-0.046398328,0.37900756,-0.37445918,-0.42819633
64,0.098893218,0.30032335,-0.24785218,-0.34861296,-0.060032373,0.38640155,-0.37445978,-0.43382768
65,0.094519496,0.31905364,-0.25103381,-0.35309919,-0.073781193,0.39396761,-0.37424058,-0.43927612
66,0.089934492,0.33800858,-0.25434979,-0.35764624,-0.087633177,0.40170640,-0.37380124,-0.44453423
67,0.085138078,0.35716890,-0.25779864,-0.36224986,-0.10157718,0.40961807,-0.37314137,-0.44959464
68,0.080130276,0.37651508,-0.26137806,-0.36690506,-0.11560253,0.41770225,-0.37226063,-0.45445003
69,0.074911256,0.39602748,-0.26508492,-0.37160613,-0.12969905,0.42595808,-0.37115865,-0.45909318
70,0.069481352,0.41568633,-0.26891524,-0.37634662,-0.14385705,0.43438416,-0.36983504,-0.46351690
71,0.063841056,0.43547180,-0.27286421,-0.38111936,-0.15806733,0.44297861,-0.36828942,-0.46771409
72,0.057991032,0.45536400,-0.27692620,-0.38591644,-0.17232122,0.45173903,-0.36652136,-0.47167771
73,0.051932112,0.47534308,-0.28109472,-0.39072927,-0.18661055,0.46066254,-0.36453043,-0.47540081
74,0.045665309,0.49538918,-0.28536248,-0.39554854,-0.20092765,0.46974576,-0.36231612,-0.47887652
75,0.039191813,0.51548257,-0.28972137,-0.40036425,-0.21526537,0.47898484,-0.35987791,-0.48209803
76,0.032513000,0.53560360,-0.29416246,-0.40516575,-0.22961707,0.48837544,-0.35721524,-0.48505864
77,0.025630434,0.55573281,-0.29867605,-0.40994173,-0.24397661,0.49791279,-0.35432748,-0.48775174
78,0.018545868,0.57585088,-0.30325167,-0.41468025,-0.25833834,0.50759166,-0.35121394,-0.49017079
79,0.011261250,0.59593877,-0.30787808,-0.41936875,-0.27269711,0.51740639,-0.34787390,-0.49230935
80,0.0037787229,0.61597766,-0.31254330,-0.42399410,-0.28704825,0.52735090,-0.34430656,-0.49416109
81,-0.0038993731,0.63594905,-0.31723466,-0.42854261,-0.30138757,0.53741871,-0.34051103,-0.49571975
82,-0.011770498,0.65583474,-0.32193878,-0.43300005,-0.31571131,0.54760296,-0.33648640,-0.49697920
83,-0.019831910,0.67561691,-0.32664163,-0.43735168,-0.33001618,0.55789642,-0.33223166,-0.49793337
84,-0.028080668,0.69527811,-0.33132854,-0.44158230,-0.34429932,0.56829151,-0.32774572,-0.49857634
85,-0.036513628,0.71480132,-0.33598425,-0.44567627,-0.35855827,0.57878032,-0.32302744,-0.49890226
86,-0.045127443,0.73416996,-0.34059292,-0.44961755,-0.37279098,0.58935464,-0.31807558,-0.49890539
87,-0.053918567,0.75336791,-0.34513816,-0.45338971,-0.38699576,0.60000597,-0.31288885,-0.49858013
88,-0.062883251,0.77237956,-0.34960312,-0.45697601,-0.40117129,0.61072554,-0.30746587,-0.49792096
89,-0.072017546,0.79118980,-0.35397045,-0.46035941,-0.41531659,0.62150432,-0.30180519,-0.49692248
90,-0.081317307,0.80978407,-0.35822240,-0.46352260,-0.42943099,0.63233311,-0.29590528,-0.49557941
91,-0.090778191,0.82814837,-0.36234082,-0.46644807,-0.44351410,0.64320246,-0.28976455,-0.49388659
92,-0.10039566,0.84626926,-0.36630724,-0.46911815,-0.45756582,0.65410277,-0.28338134,-0.49183897
93,-0.11016500,0.86413393,-0.37010288,-0.47151501,-0.47158626,0.66502429,-0.27675393,-0.48943165
94,-0.12008128,0.88173013,-0.37370871,-0.47362077,-0.48557579,0.67595714,-0.26988052,-0.48665982
95,-0.13013941,0.89904627,-0.37710549,-0.47541748,-0.49953494,0.68689135,-0.26275927,-0.48351883
96,-0.14033412,0.91607138,-0.38027383,-0.47688720,-0.51346443,0.69781687,-0.25538828,-0.48000414
97,-0.15065995,0.93279513,-0.38319421,-0.47801205,-0.52736510,0.70872358,-0.24776562,-0.47611136
98,-0.16111129,0.94920786,-0.38584706,-0.47877423,-0.54123792,0.71960137,-0.23988930,-0.47183624
99,-0.17168234,0.96530054,-0.38821279,-0.47915610,-0.55508393,0.73044008,-0.23175729,-0.46717467
100,-0.18236717,0.98106481,-0.39027184,-0.47914017,-0.56890426,0.74122963,-0.22336755,-0.46212268
101,-0.19315967,0.99649300,-0.39200472,-0.47870923,-0.58270004,0.75195993,-0.21471802,-0.45667645
102,-0.20405361,1.0115781,-0.39339208,-0.47784631,-0.59647244,0.76262100,-0.20580662,-0.45083234
103,-0.21504260,1.0263137,-0.39441477,-0.47653478,-0.61022258,0.77320294,-0.19663127,-0.44458683
104,-0.22612013,1.0406941,-0.39505383,-0.47475838,-0.62395156,0.78369596,-0.18718988,-0.43793661
105,-0.23727956,1.0547143,-0.39529061,-0.47250125,-0.63766039,0.79409042,-0.17748040,-0.43087850
106,-0.24851414,1.0683699,-0.39510678,-0.46974802,-0.65135001,0.80437685,-0.16750079,-0.42340952
107,-0.25981700,1.0816572,-0.39448439,-0.46648380,-0.66502121,0.81454593,-0.15724905,-0.41552685
108,-0.27118119,1.0945731,-0.39340590,-0.46269425,-0.67867465,0.82458858,-0.14672323,-0.40722789
109,-0.28259965,1.1071150,-0.39185426,-0.45836561,-0.69231084,0.83449592,-0.13592142,-0.39851019
110,-0.29406525,1.1192811,-0.38981293,-0.45348477,-0.70593006,0.84425932,-0.12484179,-0.38937153
111,-0.30557079,1.1310702,-0.38726595,-0.44803927,-0.71953242,0.85387043,-0.11348260,-0.37980988
112,-0.31710899,1.1424816,-0.38419795,-0.44201737,-0.73311778,0.86332114,-0.10184217,-0.36982343
113,-0.32867253,1.1535151,-0.38059423,-0.43540808,-0.74668575,0.87260366,-0.089918959,-0.35941057
114,-0.34025405,1.1641713,-0.37644077,-0.42820117,-0.76023567,0.88171052,-0.077711518,-0.34856994
115,-0.35184615,1.1744510,-0.37172431,-0.42038724,-0.77376661,0.89063455,-0.065218535,-0.33730039
116,-0.36344140,1.1843557,-0.36643234,-0.41195774,-0.78727733,0.89936894,-0.052438840,-0.32560102
117,-0.37503238,1.1938875,-0.36055319,-0.40290501,-0.80076626,0.90790721,-0.039371413,-0.31347117
118,-0.38661164,1.2030488,-0.35407603,-0.39322227,-0.81423152,0.91624326,-0.026015404,-0.30091044
119,-0.39817177,1.2118424,-0.34699092,-0.38290370,-0.82767090,0.92437135,-0.012370140,-0.28791868
120,-0.40970535,1.2202718,-0.33928883,-0.37194444,-0.84108181,0.93228615,0.0015648584,-0.27449603
121,-0.42120499,1.2283405,-0.33096169,-0.36034060,-0.85446132,0.93998267,0.015789866,-0.26064289
122,-0.43266338,1.2360526,-0.32200241,-0.34808933,-0.86780615,0.94745636,0.030304941,-0.24635995
123,-0.44407320,1.2434127,-0.31240488,-0.33518877,-0.88111262,0.95470305,0.045109909,-0.23164818
124,-0.45542725,1.2504254,-0.30216405,-0.32163812,-0.89437669,0.96171898,0.060204355,-0.21650887
125,-0.46671836,1.2570958,-0.29127592,-0.30743763,-0.90759395,0.96850079,0.075587608,-0.20094361
126,-0.47793946,1.2634293,-0.27973753,-0.29258864,-0.92075959,0.97504555,0.091258731,-0.18495429
127,-0.48908356,1.2694313,-0.26754705,-0.27709356,-0.93386846,0.98135071,0.10721651,-0.16854314
128,-0.50014380,1.2751075,-0.25470373,-0.26095587,-0.94691500,0.98741416,0.12345943,-0.15171273
129,-0.51111340,1.2804641,-0.24120793,-0.24418016,-0.95989331,0.99323417,0.13998570,-0.13446594
130,-0.52198572,1.2855070,-0.22706116,-0.22677213,-0.97279710,0.99880943,0.15679319,-0.11680601
131,-0.53275425,1.2902424,-0.21226606,-0.20873854,-0.98561975,1.0041390,0.17387946,-0.098736549
132,-0.54341261,1.2946768,-0.19682638,-0.19008728,-0.99835428,1.0092224,0.19124174,-0.080261496
133,-0.55395460,1.2988164,-0.18074706,-0.17082730,-1.0109934,1.0140595,0.20887693,-0.061385173
134,-0.56437414,1.3026678,-0.16403413,-0.15096866,-1.0235294,1.0186505,0.22678155,-0.042112273
135,-0.57466535,1.3062373,-0.14669481,-0.13052248,-1.0359544,1.0229961,0.24495179,-0.022447864
136,-0.58482251,1.3095315,-0.12873742,-0.10950093,-1.0482601,1.0270971,0.26338346,-0.0023974021
137,-0.59484008,1.3125567,-0.11017141,-0.087917251,-1.0604381,1.0309550,0.28207202,0.018033268
138,-0.60471272,1.3153194,-0.091007357,-0.065785690,-1.0724796,1.0345713,0.30101252,0.038837905
139,-0.61443530,1.3178257,-0.071256933,-0.043121518,-1.0843754,1.0379481,0.32019965,0.060009869
140,-0.62400287,1.3200819,-0.050932896,-0.019940993,-1.0961165,1.0410876,0.33962771,0.081542116
141,-0.63341072,1.3220940,-0.030049077,0.0037386636,-1.1076933,1.0439925,0.35929059,0.10342719
142,-0.64265433,1.3238679,-0.0086203510,0.027899290,-1.1190963,1.0466655,0.37918181,0.12565723
143,-0.65172942,1.3254092,0.013337379,0.052521813,-1.1303157,1.0491098,0.39929446,0.14822396
144,-0.66063195,1.3267237,0.035807211,0.077586279,-1.1413417,1.0513288,0.41962127,0.17111868
145,-0.66935809,1.3278165,0.058771272,0.10307189,-1.1521642,1.0533261,0.44015453,0.19433227
146,-0.67790426,1.3286927,0.082210743,0.12895702,-1.1627733,1.0551053,0.46088616,0.21785520
147,-0.68626713,1.3293572,0.10610590,0.15521928,-1.1731587,1.0566706,0.48180766,0.24167752
148,-0.69444359,1.3298147,0.13043614,0.18183554,-1.1833105,1.0580261,0.50291014,0.26578885
149,-0.70243081,1.3300694,0.15518001,0.20878196,-1.1932186,1.0591761,0.52418432,0.29017840
150,-0.71022620,1.3301253,0.18031527,0.23603405,-1.2028728,1.0601251,0.54562051,0.31483495
151,-0.71782740,1.3299862,0.20581892,0.26356670,-1.2122633,1.0608775,0.56720865,0.33974687
152,-0.72523233,1.3296556,0.23166722,0.29135424,-1.2213802,1.0614380,0.58893829,0.36490213
153,-0.73243917,1.3291365,0.25783577,0.31937044,-1.2302137,1.0618113,0.61079861,0.39028827
154,-0.73944632,1.3284318,0.28429953,0.34758864,-1.2387543,1.0620022,0.63277841,0.41589242
155,-0.74625247,1.3275439,0.31103287,0.37598171,-1.2469927,1.0620154,0.65486614,0.44170134
156,-0.75285655,1.3264750,0.33800964,0.40452216,-1.2549197,1.0618558,0.67704989,0.46770137
157,-0.75925773,1.3252270,0.36520318,0.43318216,-1.2625265,1.0615280,0.69931741,0.49387845
158,-0.76545547,1.3238012,0.39258639,0.46193359,-1.2698045,1.0610368,0.72165611,0.52021818
159,-0.77144943,1.3221990,0.42013180,0.49074814,-1.2767454,1.0603869,0.74405311,0.54670574
160,-0.77723956,1.3204210,0.44781159,0.51959726,-1.2833414,1.0595829,0.76649517,0.57332598
161,-0.78282602,1.3184678,0.47559766,0.54845233,-1.2895848,1.0586292,0.78896881,0.60006338
162,-0.78820923,1.3163395,0.50346167,0.57728463,-1.2954687,1.0575303,0.81146024,0.62690207
163,-0.79338984,1.3140361,0.53137511,0.60606544,-1.3009864,1.0562904,0.83395539,0.65382586
164,-0.79836873,1.3115571,0.55930935,0.63476604,-1.3061316,1.0549137,0.85643998,0.68081824
165,-0.80314701,1.3089017,0.58723567,0.66335782,-1.3108986,1.0534039,0.87889946,0.70786237
166,-0.80772600,1.3060689,0.61512537,0.69181232,-1.3152823,1.0517650,0.90131907,0.73494114
167,-0.81210724,1.3030574,0.64294976,0.72010125,-1.3192779,1.0500004,0.92368387,0.76203714
168,-0.81629250,1.2998656,0.67068025,0.74819656,-1.3228814,1.0481134,0.94597872,0.78913271
169,-0.82028371,1.2964917,0.69828841,0.77607052,-1.3260893,1.0461072,0.96818833,0.81620993
170,-0.82408302,1.2929337,0.72574598,0.80369572,-1.3288987,1.0439846,0.99029724,0.84325065
171,-0.82769278,1.2891891,0.75302499,0.83104516,-1.3313072,1.0417482,1.0122899,0.87023650
172,-0.83111549,1.2852557,0.78009775,0.85809227,-1.3333133,1.0394004,1.0341506,0.89714892
173,-0.83435383,1.2811306,0.80693693,0.88481098,-1.3349159,1.0369431,1.0558637,0.92396917
174,-0.83741067,1.2768110,0.83351563,0.91117576,-1.3361148,1.0343781,1.0774133,0.95067834
175,-0.84028899,1.2722941,0.85980737,0.93716166,-1.3369104,1.0317070,1.0987836,0.97725738
176,-0.84299194,1.2675766,0.88578620,0.96274436,-1.3373037,1.0289308,1.1199587,1.0036871
177,-0.84552282,1.2626553,0.91142672,0.98790020,-1.3372965,1.0260505,1.1409228,1.0299484
178,-0.84788502,1.2575271,0.93670412,1.0126062,-1.3368913,1.0230664,1.1616601,1.0560217
179,-0.85008208,1.2521884,0.96159423,1.0368403,-1.3360913,1.0199790,1.1821547,1.0818878
180,-0.85211763,1.2466360,0.98607358,1.0605810,-1.3349004,1.0167880,1.2023910,1.1075271
181,-0.85399541,1.2408664,1.0101194,1.0838077,-1.3333233,1.0134930,1.2223535,1.1329203
182,-0.85571923,1.2348763,1.0337097,1.1065007,-1.3313655,1.0100933,1.2420265,1.1580480
183,-0.85729299,1.2286623,1.0568233,1.1286412,-1.3290329,1.0065879,1.2613949,1.1828907
184,-0.85872065,1.2222210,1.0794399,1.1502113,-1.3263324,1.0029752,1.2804434,1.2074292
185,-0.86000623,1.2155494,1.1015399,1.1711940,-1.3232716,0.99925366,1.2991571,1.2316441
186,-0.86115381,1.2086443,1.1231048,1.1915733,-1.3198586,0.99542121,1.3175212,1.2555165
187,-0.86216747,1.2015028,1.1441170,1.2113342,-1.3161025,0.99147554,1.3355213,1.2790273
188,-0.86305136,1.1941219,1.1645597,1.2304628,-1.3120127,0.98741402,1.3531430,1.3021576
189,-0.86380960,1.1864992,1.1844172,1.2489461,-1.3075997,0.98323377,1.3703725,1.3248890
190,-0.86444635,1.1786321,1.2036748,1.2667722,-1.3028743,0.97893158,1.3871960,1.3472028
191,-0.86496575,1.1705185,1.2223190,1.2839303,-1.2978481,0.97450400,1.4036003,1.3690810
192,-0.86537193,1.1621564,1.2403369,1.3004107,-1.2925333,0.96994733,1.4195723,1.3905056
193,-0.86566899,1.1535442,1.2577171,1.3162047,-1.2869426,0.96525762,1.4350995,1.4114589
194,-0.86586099,1.1446804,1.2744490,1.3313048,-1.2810894,0.96043067,1.4501695,1.4319238
195,-0.86595196,1.1355640,1.2905232,1.3457044,-1.2749875,0.95546209,1.4647707,1.4518831
196,-0.86594587,1.1261942,1.3059313,1.3593982,-1.2686515,0.95034729,1.4788916,1.4713203
197,-0.86584661,1.1165707,1.3206662,1.3723821,-1.2620960,0.94508150,1.4925213,1.4902191
198,-0.86565803,1.1066934,1.3347216,1.3846527,-1.2553366,0.93965976,1.5056493,1.5085637
199,-0.86538388,1.0965626,1.3480925,1.3962080,-1.2483889,0.93407700,1.5182657,1.5263388
200,-0.86502782,1.0861793,1.3607749,1.4070471,-1.2412692,0.92832800,1.5303608,1.5435293
201,-0.86459342,1.0755445,1.3727659,1.4171699,-1.2339939,0.92240745,1.5419259,1.5601208
202,-0.86408414,1.0646598,1.3840638,1.4265778,-1.2265799,0.91630995,1.5529523,1.5760994
203,-0.86350333,1.0535274,1.3946677,1.4352727,-1.2190444,0.91003003,1.5634322,1.5914517
204,-0.86285422,1.0421497,1.4045781,1.4432581,-1.2114047,0.90356220,1.5733583,1.6061648
205,-0.86213992,1.0305298,1.4137963,1.4505380,-1.2036784,0.89690093,1.5827237,1.6202264
206,-0.86136341,1.0186710,1.4223247,1.4571177,-1.1958833,0.89004070,1.5915222,1.6336247
207,-0.86052751,1.0065774,1.4301667,1.4630034,-1.1880372,0.88297602,1.5997482,1.6463487
208,-0.85963492,0.99425332,1.4373267,1.4682021,-1.1801582,0.87570146,1.6073968,1.6583879
209,-0.85868819,0.98170369,1.4438101,1.4727220,-1.1722643,0.86821164,1.6144633,1.6697324
210,-0.85768971,0.96893392,1.4496232,1.4765720,-1.1643734,0.86050132,1.6209441,1.6803730
211,-0.85664171,0.95594993,1.4547731,1.4797617,-1.1565036,0.85256534,1.6268360,1.6903012
212,-0.85554626,0.94275809,1.4592680,1.4823019,-1.1486728,0.84439872,1.6321362,1.6995092
213,-0.85440528,0.92936531,1.4631168,1.4842037,-1.1408987,0.83599663,1.6368430,1.7079899
214,-0.85322050,0.91577895,1.4663292,1.4854795,-1.1331990,0.82735444,1.6409550,1.7157368
215,-0.85199350,0.90200688,1.4689159,1.4861420,-1.1255910,0.81846776,1.6444714,1.7227443
216,-0.85072569,0.88805743,1.4708881,1.4862046,-1.1180918,0.80933241,1.6473921,1.7290075
217,-0.84941828,0.87393942,1.4722578,1.4856817,-1.1107183,0.79994449,1.6497178,1.7345221
218,-0.84807235,0.85966210,1.4730378,1.4845878,-1.1034869,0.79030039,1.6514497,1.7392847
219,-0.84668876,0.84523518,1.4732412,1.4829383,-1.0964137,0.78039682,1.6525894,1.7432926
220,-0.84526824,0.83066883,1.4728821,1.4807489,-1.0895144,0.77023080,1.6531394,1.7465440
221,-0.84381130,0.81597361,1.4719749,1.4780360,-1.0828041,0.75979971,1.6531028,1.7490376
222,-0.84231832,0.80116050,1.4705345,1.4748163,-1.0762976,0.74910132,1.6524831,1.7507733
223,-0.84078949,0.78624087,1.4685764,1.4711067,-1.0700089,0.73813376,1.6512846,1.7517513
224,-0.83922483,0.77122645,1.4661165,1.4669247,-1.0639517,0.72689561,1.6495122,1.7519730
225,-0.83762419,0.75612933,1.4631710,1.4622880,-1.0581387,0.71538584,1.6471711,1.7514402
226,-0.83598726,0.74096192,1.4597565,1.4572146,-1.0525823,0.70360390,1.6442674,1.7501559
227,-0.83431357,0.72573697,1.4558898,1.4517225,-1.0472940,0.69154969,1.6408075,1.7481235
228,-0.83260250,0.71046747,1.4515880,1.4458301,-1.0422846,0.67922357,1.6367986,1.7453475
229,-0.83085326,0.69516670,1.4468684,1.4395557,-1.0375642,0.66662642,1.6322482,1.7418328
230,-0.82906493,0.67984815,1.4417485,1.4329179,-1.0331421,0.65375959,1.6271644,1.7375855
231,-0.82723642,0.66452555,1.4362458,1.4259351,-1.0290267,0.64062499,1.6215559,1.7326120
232,-0.82536652,0.64921278,1.4303780,1.4186258,-1.0252256,0.62722501,1.6154317,1.7269199
233,-0.82345389,0.63392389,1.4241627,1.4110083,-1.0217455,0.61356261,1.6088013,1.7205172
234,-0.82149704,0.61867304,1.4176175,1.4031011,-1.0185924,0.59964125,1.6016748,1.7134129
235,-0.81949438,0.60347449,1.4107600,1.3949221,-1.0157711,0.58546499,1.5940627,1.7056163
236,-0.81744419,0.58834256,1.4036075,1.3864894,-1.0132857,0.57103840,1.5859756,1.6971379
237,-0.81534465,0.57329160,1.3961775,1.3778207,-1.0111391,0.55636663,1.5774250,1.6879886
238,-0.81319384,0.55833596,1.3884869,1.3689334,-1.0093336,0.54145538,1.5684223,1.6781801
239,-0.81098973,0.54348996,1.3805527,1.3598448,-1.0078702,0.52631091,1.5589795,1.6677245
240,-0.80873021,0.52876784,1.3723914,1.3505715,-1.0067490,0.51094005,1.5491090,1.6566350
241,-0.80641310,0.51418377,1.3640193,1.3411300,-1.0059692,0.49535017,1.5388233,1.6449249
242,-0.80403614,0.49975176,1.3554524,1.3315364,-1.0055291,0.47954920,1.5281352,1.6326084
243,-0.80159701,0.48548567,1.3467063,1.3218062,-1.0054256,0.46354562,1.5170578,1.6197004
244,-0.79909332,0.47139918,1.3377961,1.3119545,-1.0056550,0.44734846,1.5056046,1.6062160
245,-0.79652265,0.45750571,1.3287366,1.3019960,-1.0062125,0.43096726,1.4937892,1.5921710
246,-0.79388254,0.44381844,1.3195420,1.2919448,-1.0070922,0.41441211,1.4816251,1.5775819
247,-0.79117048,0.43035026,1.3102261,1.2818143,-1.0082873,0.39769359,1.4691265,1.5624655
248,-0.78838397,0.41711373,1.3008021,1.2716176,-1.0097901,0.38082280,1.4563073,1.5468389
249,-0.78552045,0.40412106,1.2912828,1.2613671,-1.0115919,0.36381133,1.4431818,1.5307199
250,-0.78257740,0.39138405,1.2816803,1.2510744,-1.0136828,0.34667121,1.4297641,1.5141267
251,-0.77955228,0.37891414,1.2720061,1.2407508,-1.0160524,0.32941496,1.4160687,1.4970776
252,-0.77644257,0.36672226,1.2622712,1.2304067,-1.0186891,0.31205552,1.4021099,1.4795917
253,-0.77324576,0.35481892,1.2524860,1.2200520,-1.0215806,0.29460626,1.3879022,1.4616880
254,-0.76995937,0.34321411,1.2426601,1.2096959,-1.0247134,0.27708095,1.3734598,1.4433861
255,-0.76658097,0.33191730,1.2328026,1.1993468,-1.0280736,0.25949371,1.3587973,1.4247056
256,-0.76310816,0.32093740,1.2229220,1.1890126,-1.0316462,0.24185906,1.3439289,1.4056666
257,-0.75953860,0.31028276,1.2130258,1.1787004,-1.0354155,0.22419181,1.3288688,1.3862892
258,-0.75587000,0.29996112,1.2031213,1.1684166,-1.0393651,0.20650709,1.3136313,1.3665938
259,-0.75210015,0.28997962,1.1932148,1.1581670,-1.0434778,0.18882033,1.2982303,1.3466009
260,-0.74822692,0.28034475,1.1833121,1.1479567,-1.0477358,0.17114720,1.2826798,1.3263311
261,-0.74424824,0.27106234,1.1734182,1.1377900,-1.0521206,0.15350357,1.2669934,1.3058052
262,-0.74016214,0.26213756,1.1635376,1.1276707,-1.0566131,0.13590556,1.2511848,1.2850438
263,-0.73596677,0.25357488,1.1536739,1.1176017,-1.0611937,0.11836941,1.2352673,1.2640678
264,-0.73166034,0.24537807,1.1438303,1.1075854,-1.0658423,0.10091154,1.2192540,1.2428979
265,-0.72724120,0.23755020,1.1340091,1.0976236,-1.0705382,0.083548462,1.2031578,1.2215550
266,-0.72270781,0.23009359,1.1242122,1.0877174,-1.0752605,0.066296756,1.1869913,1.2000595
267,-0.71805874,0.22300986,1.1144408,1.0778671,-1.0799877,0.049173065,1.1707669,1.1784322
268,-0.71329269,0.21629984,1.1046954,1.0680726,-1.0846980,0.032194042,1.1544967,1.1566934
269,-0.70840850,0.20996367,1.0949760,1.0583332,-1.0893695,0.015376325,1.1381925,1.1348635
270,-0.70340513,0.20400071,1.0852820,1.0486476,-1.0939798,-0.0012634954,1.1218656,1.1129626
271,-0.69828169,0.19840956,1.0756123,1.0390139,-1.0985066,-0.017708912,1.1055272,1.0910105
272,-0.69303744,0.19318811,1.0659652,1.0294298,-1.1029273,-0.033943528,1.0891881,1.0690268
273,-0.68767177,0.18833345,1.0563384,1.0198923,-1.1072192,-0.049951092,1.0728586,1.0470310
274,-0.68218423,0.18384197,1.0467294,1.0103981,-1.1113597,-0.065715533,1.0565488,1.0250421
275,-0.67657452,0.17970930,1.0371349,1.0009434,-1.1153262,-0.081220985,1.0402684,1.0030789
276,-0.67084249,0.17593036,1.0275514,0.99152398,-1.1190961,-0.096451827,1.0240265,0.98115971
277,-0.66498817,0.17249932,1.0179750,0.98213518,-1.1226470,-0.11139271,1.0078322,0.95930265
278,-0.65901172,0.16940967,1.0084013,0.97277204,-1.1259567,-0.12602858,0.99169376,0.93752533
279,-0.65291348,0.16665419,0.99882551,0.96342924,-1.1290032,-0.14034474,0.97561931,0.91584494
280,-0.64669394,0.16422498,0.98924272,0.95410116,-1.1317647,-0.15432683,0.95961646,0.89427828
281,-0.64035376,0.16211350,0.97964761,0.94478191,-1.1342200,-0.16796090,0.94369243,0.87284163
282,-0.63389376,0.16031053,0.97003463,0.93546536,-1.1363481,-0.18123343,0.92785401,0.85155083
283,-0.62731491,0.15880626,0.96039800,0.92614519,-1.1381285,-0.19413132,0.91210754,0.83042119
284,-0.62061836,0.15759027,0.95073179,0.91681488,-1.1395412,-0.20664197,0.89645896,0.80946753
285,-0.61380540,0.15665154,0.94102989,0.90746780,-1.1405666,-0.21875329,0.88091377,0.78870409
286,-0.60687750,0.15597853,0.93128606,0.89809719,-1.1411860,-0.23045369,0.86547705,0.76814460
287,-0.59983628,0.15555917,0.92149402,0.88869623,-1.1413811,-0.24173216,0.85015343,0.74780218
288,-0.59268348,0.15538087,0.91164739,0.87925805,-1.1411343,-0.25257825,0.83494715,0.72768941
289,-0.58542105,0.15543060,0.90173981,0.86977579,-1.1404288,-0.26298212,0.81986201,0.70781824
290,-0.57805105,0.15569488,0.89176493,0.86024261,-1.1392486,-0.27293451,0.80490138,0.68820003
291,-0.57057570,0.15615983,0.88171643,0.85065172,-1.1375784,-0.28242685,0.79006826,0.66884553
292,-0.56299735,0.15681121,0.87158809,0.84099643,-1.1354038,-0.29145118,0.77536521,0.64976484
293,-0.55531850,0.15763443,0.86137382,0.83127017,-1.1327113,-0.30000023,0.76079440,0.63096745
294,-0.54754179,0.15861460,0.85106765,0.82146651,-1.1294882,-0.30806741,0.74635763,0.61246221
295,-0.53966997,0.15973657,0.84066381,0.81157922,-1.1257231,-0.31564682,0.73205629,0.59425730
296,-0.53170595,0.16098498,0.83015673,0.80160228,-1.1214051,-0.32273330,0.71789141,0.57636028
297,-0.52365271,0.16234425,0.81954108,0.79152989,-1.1165247,-0.32932237,0.70386367,0.55877804
298,-0.51551340,0.16379867,0.80881182,0.78135655,-1.1110732,-0.33541031,0.68997338,0.54151682
299,-0.50729125,0.16533243,0.79796417,0.77107701,-1.1050431,-0.34099412,0.67622052,0.52458220
300,-0.49898960,0.16692961,0.78699370,0.76068636,-1.0984280,-0.34607155,0.66260474,0.50797912
301,-0.49061189,0.16857431,0.77589630,0.75018005,-1.0912225,-0.35064110,0.64912539,0.49171185
302,-0.48216166,0.17025059,0.76466828,0.73955385,-1.0834224,-0.35470200,0.63578149,0.47578403
303,-0.47364252,0.17194259,0.75330629,0.72880394,-1.0750246,-0.35825425,0.62257178,0.46019863
304,-0.46505820,0.17363454,0.74180742,0.71792691,-1.0660271,-0.36129859,0.60949475,0.44495801
305,-0.45641246,0.17531078,0.73016920,0.70691975,-1.0564292,-0.36383651,0.59654860,0.43006387
306,-0.44770915,0.17695583,0.71838960,0.69577989,-1.0462312,-0.36587022,0.58373131,0.41551729
307,-0.43895220,0.17855444,0.70646707,0.68450523,-1.0354348,-0.36740270,0.57104060,0.40131875
308,-0.43014556,0.18009157,0.69440053,0.67309412,-1.0240426,-0.36843764,0.55847402,0.38746812
309,-0.42129327,0.18155250,0.68218941,0.66154538,-1.0120585,-0.36897943,0.54602888,0.37396464
310,-0.41239938,0.18292284,0.66983365,0.64985834,-0.99948765,-0.36903321,0.53370233,0.36080700
311,-0.40346800,0.18418853,0.65733370,0.63803280,-0.98633620,-0.36860477,0.52149135,0.34799332
312,-0.39450325,0.18533596,0.64469052,0.62606908,-0.97261156,-0.36770062,0.50939277,0.33552114
313,-0.38550930,0.18635191,0.63190564,0.61396799,-0.95832224,-0.36632791,0.49740330,0.32338746
314,-0.37649032,0.18722368,0.61898108,0.60173085,-0.94347789,-0.36449446,0.48551951,0.31158876
315,-0.36745049,0.18793905,0.60591944,0.58935951,-0.92808927,-0.36220869,0.47373789,0.30012100
316,-0.35839401,0.18848635,0.59272382,0.57685630,-0.91216822,-0.35947966,0.46205484,0.28897966
317,-0.34932508,0.18885448,0.57939789,0.56422407,-0.89572767,-0.35631701,0.45046669,0.27815973
318,-0.34024786,0.18903295,0.56594583,0.55146618,-0.87878159,-0.35273095,0.43896973,0.26765573
319,-0.33116654,0.18901189,0.55237235,0.53858646,-0.86134497,-0.34873223,0.42756019,0.25746175
320,-0.32208528,0.18878212,0.53868269,0.52558927,-0.84343379,-0.34433212,0.41623432,0.24757148
321,-0.31300820,0.18833511,0.52488260,0.51247941,-0.82506501,-0.33954239,0.40498834,0.23797817
322,-0.30393941,0.18766308,0.51097831,0.49926217,-0.80625649,-0.33437528,0.39381849,0.22867471
323,-0.29488297,0.18675896,0.49697657,0.48594329,-0.78702702,-0.32884344,0.38272103,0.21965363
324,-0.28584292,0.18561643,0.48288458,0.47252895,-0.76739623,-0.32295997,0.37169228,0.21090714
325,-0.27682324,0.18422999,0.46871001,0.45902575,-0.74738458,-0.31673832,0.36072859,0.20242709
326,-0.26782788,0.18259487,0.45446097,0.44544072,-0.72701332,-0.31019230,0.34982640,0.19420509
327,-0.25886070,0.18070717,0.44014599,0.43178127,-0.70630441,-0.30333605,0.33898222,0.18623243
328,-0.24992556,0.17856378,0.42577399,0.41805516,-0.68528054,-0.29618398,0.32819268,0.17850019
329,-0.24102621,0.17616243,0.41135430,0.40427054,-0.66396505,-0.28875077,0.31745448,0.17099921
330,-0.23216635,0.17350170,0.39689658,0.39043586,-0.64238186,-0.28105130,0.30676448,0.16372011
331,-0.22334964,0.17058102,0.38241083,0.37655989,-0.62055548,-0.27310066,0.29611965,0.15665337
332,-0.21457964,0.16740068,0.36790735,0.36265165,-0.59851092,-0.26491408,0.28551710,0.14978927
333,-0.20585984,0.16396183,0.35339672,0.34872046,-0.57627365,-0.25650693,0.27495410,0.14311799
334,-0.19719366,0.16026650,0.33888979,0.33477583,-0.55386955,-0.24789464,0.26442809,0.13662959
335,-0.18858446,0.15631755,0.32439761,0.32082749,-0.53132487,-0.23909273,0.25393665,0.13031403
336,-0.18003549,0.15211873,0.30993142,0.30688533,-0.50866616,-0.23011670,0.24347758,0.12416122
337,-0.17154995,0.14767465,0.29550265,0.29295941,-0.48592023,-0.22098207,0.23304883,0.11816102
338,-0.16313093,0.14299074,0.28112282,0.27905987,-0.46311411,-0.21170429,0.22264856,0.11230328
339,-0.15478146,0.13807330,0.26680358,0.26519697,-0.44027495,-0.20229873,0.21227514,0.10657784
340,-0.14650448,0.13292944,0.25255663,0.25138099,-0.41743003,-0.19278067,0.20192712,0.10097456
341,-0.13830284,0.12756709,0.23839370,0.23762228,-0.39460666,-0.18316522,0.19160327,0.095483366
342,-0.13017932,0.12199500,0.22432654,0.22393114,-0.37183215,-0.17346731,0.18130258,0.090094227
343,-0.12213660,0.11622267,0.21036685,0.21031786,-0.34913375,-0.16370167,0.17102424,0.084797207
344,-0.11417729,0.11026040,0.19652625,0.19679267,-0.32653859,-0.15388280,0.16076768,0.079582476
345,-0.10630392,0.10411922,0.18281629,0.18336568,-0.30407365,-0.14402491,0.15053253,0.074440326
346,-0.098518929,0.097810875,0.16924837,0.17004690,-0.28176569,-0.13414191,0.14031866,0.069361193
347,-0.090824679,0.091347814,0.15583371,0.15684617,-0.25964121,-0.12424739,0.13012614,0.064335677
348,-0.083223458,0.084743157,0.14258334,0.14377314,-0.23772639,-0.11435459,0.11995529,0.059354555
349,-0.075717476,0.078010668,0.12950807,0.13083726,-0.21604704,-0.10447636,0.10980662,0.054408800
350,-0.068308868,0.071164723,0.11661844,0.11804773,-0.19462858,-0.094625131,0.099680895,0.049489600
351,-0.060999697,0.064220280,0.10392467,0.10541349,-0.17349595,-0.084812929,0.089579064,0.044588369
352,-0.053791957,0.057192846,0.091436684,0.092943156,-0.15267360,-0.075051305,0.079502311,0.039696764
353,-0.046687575,0.050098446,0.079164035,0.080645053,-0.13218544,-0.065351341,0.069452023,0.034806699
354,-0.039688413,0.042953584,0.067115895,0.068527141,-0.11205479,-0.055723621,0.059429799,0.029910360
355,-0.032796271,0.035775207,0.055301022,0.056597012,-0.092304324,-0.046178213,0.049437437,0.025000215
356,-0.026012894,0.028580670,0.043727734,0.044861864,-0.072956067,-0.036724651,0.039476934,0.020069026
357,-0.019339967,0.021387694,0.032403885,0.033328477,-0.054031329,-0.027371922,0.029550479,0.015109862
358,-0.012779127,0.014214328,0.021336839,0.022003197,-0.035550683,-0.018128444,0.019660445,0.010116110
359,-0.0063319632,0.0070789092,0.010533447,0.010891910,-0.017533926,-0.0090020611,0.0098093861,0.0050814784
360,-1.7495779e-08,1.9644602e-08,2.8992645e-08,3.0063575e-08,-4.8206203e-08,-2.4924198e-08,2.7294490e-08,1.4241238e-08
