deg,XRT_AX,XRT_BX,XRT_AY,XRT_BY,SOT_AX,SOT_BX,SOT_AY,SOT_BY
valid,1,1,1,1,1,1,1,1,revB
offset,108.14481,88.982994,1982.4086,1980.2146,35.887335,16.529985,99.923019,97.493959
0,0.0000000,0.0000000,0.0000000,0.0000000,0.0000000,0.0000000,0.0000000,0.0000000
1,0.034835235,0.023824381,-0.010567307,-0.0024385407,0.039723701,0.016044112,-0.020291538,-0.0013611061
2,0.067468254,0.047956185,-0.020543345,-0.0051432230,0.077708154,0.031608551,-0.040046489,-0.0030629303
3,0.097920072,0.072378272,-0.029949571,-0.0081076146,0.11393495,0.046703050,-0.059260067,-0.0050942708
4,0.12621656,0.097073063,-0.038807910,-0.011324436,0.14838998,0.061338501,-0.077928388,-0.0074427632
5,0.15238829,0.12202257,-0.047140673,-0.014785590,0.18106338,0.075526896,-0.096048448,-0.010094927
6,0.17647037,0.14720841,-0.054970478,-0.018482195,0.21194947,0.089281263,-0.11361810,-0.013036215
7,0.19850224,0.17261183,-0.062320175,-0.022404615,0.24104676,0.10261561,-0.13063600,-0.016251063
8,0.21852753,0.19821374,-0.069212763,-0.026542493,0.26835780,0.11554483,-0.14710163,-0.019722944
9,0.23659384,0.22399474,-0.075671316,-0.030884789,0.29388917,0.12808469,-0.16301520,-0.023434421
10,0.25275253,0.24993510,-0.081718907,-0.035419815,0.31765134,0.14025170,-0.17837767,-0.027367210
11,0.26705851,0.27601489,-0.087378529,-0.040135271,0.33965864,0.15206306,-0.19319068,-0.031502228
12,0.27957005,0.30221389,-0.092673019,-0.045018283,0.35992910,0.16353662,-0.20745653,-0.035819664
13,0.29034851,0.32851169,-0.097624993,-0.050055443,0.37848437,0.17469077,-0.22117813,-0.040299033
14,0.29945816,0.35488773,-0.10225677,-0.055232848,0.39534960,0.18554437,-0.23435900,-0.044919239
15,0.30696590,0.38132128,-0.10659029,-0.060536137,0.41055329,0.19611671,-0.24700315,-0.049658642
16,0.31294103,0.40779151,-0.11064707,-0.065950537,0.42412719,0.20642737,-0.25911514,-0.054495118
17,0.31745505,0.43427749,-0.11444812,-0.071460898,0.43610616,0.21649624,-0.27069997,-0.059406126
18,0.32058135,0.46075828,-0.11801390,-0.077051736,0.44652799,0.22634334,-0.28176305,-0.064368771
19,0.32239501,0.48721288,-0.12136422,-0.082707274,0.45543329,0.23598884,-0.29231018,-0.069359870
20,0.32297253,0.51362036,-0.12451824,-0.088411482,0.46286532,0.24545293,-0.30234749,-0.074356018
21,0.32239158,0.53995980,-0.12749437,-0.094148119,0.46886982,0.25475576,-0.31188142,-0.079333652
22,0.32073076,0.56621039,-0.13031021,-0.099900772,0.47349484,0.26391739,-0.32091865,-0.084269116
23,0.31806934,0.59235144,-0.13298256,-0.10565290,0.47679062,0.27295768,-0.32946608,-0.089138725
24,0.31448702,0.61836242,-0.13552731,-0.11138785,0.47880935,0.28189627,-0.33753077,-0.093918828
25,0.31006369,0.64422297,-0.13795945,-0.11708896,0.47960506,0.29075249,-0.34511993,-0.098585873
26,0.30487918,0.66991299,-0.14029298,-0.12273950,0.47923339,0.29954528,-0.35224085,-0.10311647
27,0.29901300,0.69541261,-0.14254092,-0.12832280,0.47775144,0.30829315,-0.35890088,-0.10748743
28,0.29254416,0.72070226,-0.14471525,-0.13382225,0.47521760,0.31701413,-0.36510739,-0.11167588
29,0.28555088,0.74576271,-0.14682691,-0.13922130,0.47169134,0.32572567,-0.37086770,-0.11565924
30,0.27811040,0.77057507,-0.14888574,-0.14450357,0.46723306,0.33444463,-0.37618912,-0.11941536
31,0.27029877,0.79512087,-0.15090049,-0.14965283,0.46190389,0.34318720,-0.38107884,-0.12292252
32,0.26219060,0.81938203,-0.15287879,-0.15465305,0.45576552,0.35196886,-0.38554393,-0.12615949
33,0.25385889,0.84334095,-0.15482714,-0.15948841,0.44888001,0.36080432,-0.38959130,-0.12910561
34,0.24537481,0.86698051,-0.15675091,-0.16414337,0.44130964,0.36970751,-0.39322769,-0.13174081
35,0.23680755,0.89028411,-0.15865433,-0.16860268,0.43311671,0.37869150,-0.39645962,-0.13404566
36,0.22822409,0.91323570,-0.16054047,-0.17285139,0.42436337,0.38776848,-0.39929335,-0.13600143
37,0.21968904,0.93581979,-0.16241128,-0.17687490,0.41511149,0.39694973,-0.40173490,-0.13759010
38,0.21126454,0.95802150,-0.16426758,-0.18065896,0.40542244,0.40624558,-0.40379000,-0.13879445
39,0.20301001,0.97982658,-0.16610905,-0.18418973,0.39535695,0.41566540,-0.40546405,-0.13959803
40,0.19498209,1.0012214,-0.16793430,-0.18745376,0.38497499,0.42521756,-0.40676215,-0.13998525
41,0.18723447,1.0221931,-0.16974082,-0.19043805,0.37433556,0.43490939,-0.40768902,-0.13994138
42,0.17981780,1.0427295,-0.17152506,-0.19313002,0.36349660,0.44474722,-0.40824906,-0.13945258
43,0.17277955,1.0628189,-0.17328243,-0.19551757,0.35251479,0.45473633,-0.40844627,-0.13850595
44,0.16616393,1.0824507,-0.17500732,-0.19758907,0.34144548,0.46488093,-0.40828427,-0.13708952
45,0.16001182,1.1016148,-0.17669314,-0.19933340,0.33034250,0.47518418,-0.40776630,-0.13519227
46,0.15436067,1.1203021,-0.17833240,-0.20073991,0.31925810,0.48564819,-0.40689519,-0.13280419
47,0.14924446,1.1385040,-0.17991666,-0.20179848,0.30824279,0.49627401,-0.40567339,-0.12991622
48,0.14469367,1.1562129,-0.18143666,-0.20249951,0.29734523,0.50706162,-0.40410292,-0.12652032
49,0.14073518,1.1734220,-0.18288231,-0.20283392,0.28661217,0.51800999,-0.40218542,-0.12260947
50,0.13739233,1.1901253,-0.18424276,-0.20279317,0.27608832,0.52911702,-0.39992213,-0.11817764
51,0.13468485,1.2063176,-0.18550643,-0.20236922,0.26581629,0.54037964,-0.39731388,-0.11321982
52,0.13262886,1.2219946,-0.18666109,-0.20155461,0.25583649,0.55179376,-0.39436114,-0.10773201
53,0.13123695,1.2371529,-0.18769391,-0.20034238,0.24618707,0.56335433,-0.39106398,-0.10171120
54,0.13051811,1.2517897,-0.18859150,-0.19872612,0.23690388,0.57505536,-0.38742212,-0.095155402
55,0.13047785,1.2659034,-0.18933997,-0.19669993,0.22802037,0.58688994,-0.38343494,-0.088063589
56,0.13111819,1.2794929,-0.18992500,-0.19425844,0.21956760,0.59885028,-0.37910145,-0.080435719
57,0.13243776,1.2925583,-0.19033190,-0.19139682,0.21157417,0.61092776,-0.37442039,-0.072272702
58,0.13443183,1.3051003,-0.19054568,-0.18811071,0.20406621,0.62311294,-0.36939016,-0.063576382
59,0.13709246,1.3171205,-0.19055110,-0.18439628,0.19706733,0.63539562,-0.36400892,-0.054349522
60,0.14040849,1.3286213,-0.19033272,-0.18025017,0.19059867,0.64776487,-0.35827455,-0.044595772
61,0.14436575,1.3396061,-0.18987502,-0.17566953,0.18467882,0.66020910,-0.35218472,-0.034319649
62,0.14894710,1.3500789,-0.18916239,-0.17065193,0.17932389,0.67271609,-0.34573690,-0.023526506
63,0.15413257,1.3600446,-0.18817928,-0.16519542,0.17454750,0.68527303,-0.33892837,-0.012222501
64,0.15989951,1.3695089,-0.18691019,-0.15929850,0.17036081,0.69786659,-0.33175629,-0.00041456379
65,0.16622269,1.3784782,-0.18533977,-0.15296007,0.16677251,0.71048298,-0.32421768,0.011889636
66,0.17307449,1.3869598,-0.18345291,-0.14617945,0.16378894,0.72310799,-0.31630951,0.024681726
67,0.18042501,1.3949615,-0.18123474,-0.13895634,0.16141404,0.73572703,-0.30802867,0.037952674
68,0.18824228,1.4024921,-0.17867076,-0.13129081,0.15964949,0.74832524,-0.29937206,0.051692818
69,0.19649237,1.4095608,-0.17574687,-0.12318330,0.15849470,0.76088750,-0.29033659,0.065891917
70,0.20513962,1.4161778,-0.17244941,-0.11463457,0.15794691,0.77339850,-0.28091922,0.080539185
71,0.21414676,1.4223536,-0.16876529,-0.10564571,0.15800127,0.78584281,-0.27111700,0.095623341
72,0.22347515,1.4280995,-0.16468196,-0.096218086,0.15865091,0.79820495,-0.26092711,0.11113265
73,0.23308493,1.4334275,-0.16018755,-0.086353365,0.15988701,0.81046942,-0.25034690,0.12705495
74,0.24293520,1.4383498,-0.15527085,-0.076053457,0.16169890,0.82262079,-0.23937390,0.14337775
75,0.25298424,1.4428796,-0.14992143,-0.065320513,0.16407417,0.83464372,-0.22800590,0.16008821
76,0.26318971,1.4470301,-0.14412964,-0.054156902,0.16699876,0.84652308,-0.21624094,0.17717323
77,0.27350880,1.4508155,-0.13788667,-0.042565192,0.17045707,0.85824394,-0.20407737,0.19461948
78,0.28389848,1.4542499,-0.13118461,-0.030548131,0.17443205,0.86979171,-0.19151390,0.21241346
79,0.29431564,1.4573482,-0.12401650,-0.018108624,0.17890533,0.88115210,-0.17854960,0.23054153
80,0.30471735,1.4601254,-0.11637633,-0.0052497187,0.18385734,0.89231126,-0.16518397,0.24898995
81,0.31506100,1.4625971,-0.10825910,0.0080254136,0.18926743,0.90325579,-0.15141693,0.26774496
82,0.32530450,1.4647789,-0.099660868,0.021713498,0.19511397,0.91397278,-0.13724891,0.28679280
83,0.33540652,1.4666868,-0.090578746,0.035811171,0.20137449,0.92444993,-0.12268085,0.30611973
84,0.34532659,1.4683371,-0.081010953,0.050315000,0.20802581,0.93467552,-0.10771420,0.32571215
85,0.35502538,1.4697460,-0.070956831,0.065221494,0.21504416,0.94463850,-0.092351013,0.34555653
86,0.36446480,1.4709301,-0.060416859,0.080527123,0.22240530,0.95432852,-0.076593934,0.36563957
87,0.37360820,1.4719061,-0.049392673,0.096228333,0.23008466,0.96373598,-0.060446231,0.38594815
88,0.38242055,1.4726906,-0.037887077,0.11232155,0.23805744,0.97285206,-0.043911824,0.40646940
89,0.39086860,1.4733002,-0.025904054,0.12880322,0.24629880,0.98166879,-0.026995307,0.42719076
90,0.39892101,1.4737517,-0.013448766,0.14566976,0.25478389,0.99017903,-0.0097019720,0.44809997
91,0.40654853,1.4740618,-0.00052755589,0.16291765,0.26348808,0.99837654,0.0079621775,0.46918513
92,0.41372411,1.4742468,0.012852051,0.18054338,0.27238698,1.0062560,0.025990404,0.49043474
93,0.42042307,1.4743232,0.026681361,0.19854347,0.28145665,1.0138130,0.044375221,0.51183770
94,0.42662317,1.4743073,0.040950518,0.21691450,0.29067364,1.0210442,0.063108384,0.53338335
95,0.43230480,1.4742151,0.055648517,0.23565309,0.30001517,1.0279471,0.082180875,0.55506152
96,0.43745099,1.4740622,0.070763228,0.25475591,0.30945918,1.0345203,0.10158290,0.57686250
97,0.44204758,1.4738643,0.086281413,0.27421971,0.31898449,1.0407633,0.12130386,0.59877712
98,0.44608329,1.4736364,0.10218875,0.29404127,0.32857087,1.0466768,0.14133240,0.62079671
99,0.44954978,1.4733935,0.11846988,0.31421745,0.33819915,1.0522624,0.16165635,0.64291318
100,0.45244170,1.4731498,0.13510840,0.33474514,0.34785130,1.0575226,0.18226274,0.66511895
101,0.45475679,1.4729195,0.15208694,0.35562132,0.35751052,1.0624613,0.20313784,0.68740705
102,0.45649587,1.4727161,0.16938720,0.37684299,0.36716136,1.0670830,0.22426712,0.70977106
103,0.45766293,1.4725526,0.18698994,0.39840723,0.37678972,1.0713935,0.24563529,0.73220515
104,0.45826507,1.4724417,0.20487512,0.42031112,0.38638300,1.0753994,0.26722628,0.75470407
105,0.45831259,1.4723954,0.22302184,0.44255181,0.39593011,1.0791084,0.28902331,0.77726316
106,0.45781893,1.4724251,0.24140849,0.46512646,0.40542154,1.0825291,0.31100883,0.79987832
107,0.45680067,1.4725417,0.26001273,0.48803223,0.41484944,1.0856711,0.33316460,0.82254604
108,0.45527753,1.4727554,0.27881160,0.51126630,0.42420760,1.0885447,0.35547169,0.84526338
109,0.45327229,1.4730759,0.29778154,0.53482584,0.43349156,1.0911613,0.37791050,0.86802795
110,0.45081075,1.4735120,0.31689848,0.55870800,0.44269858,1.0935331,0.40046080,0.89083790
111,0.44792168,1.4740722,0.33613788,0.58290988,0.45182769,1.0956730,0.42310174,0.91369192
112,0.44463675,1.4747638,0.35547483,0.60742854,0.46087971,1.0975948,0.44581190,0.93658919
113,0.44099044,1.4755939,0.37488408,0.63226096,0.46985722,1.0993130,0.46856931,0.95952941
114,0.43701994,1.4765684,0.39434013,0.65740404,0.47876462,1.1008425,0.49135148,0.98251272
115,0.43276504,1.4776929,0.41381728,0.68285458,0.48760805,1.1021992,0.51413548,1.0055397
116,0.42826803,1.4789718,0.43328973,0.70860925,0.49639542,1.1033995,0.53689791,1.0286114
117,0.42357357,1.4804091,0.45273164,0.73466458,0.50513640,1.1044601,0.55961502,1.0517291
118,0.41872855,1.4820079,0.47211720,0.76101694,0.51384234,1.1053984,0.58226269,1.0748947
119,0.41378194,1.4837704,0.49142068,0.78766251,0.52252626,1.1062321,0.60481650,1.0981102
120,0.40878465,1.4856983,0.51061655,0.81459727,0.53120280,1.1069792,0.62725179,1.1213780
121,0.40378935,1.4877922,0.52967954,0.84181697,0.53988817,1.1076582,0.64954369,1.1447006
122,0.39885033,1.4900520,0.54858467,0.86931712,0.54860010,1.1082876,0.67166718,1.1680809
123,0.39402330,1.4924771,0.56730739,0.89709293,0.55735774,1.1088860,0.69359713,1.1915218
124,0.38936519,1.4950657,0.58582360,0.92513936,0.56618162,1.1094725,0.71530838,1.2150266
125,0.38493399,1.4978156,0.60410974,0.95345103,0.57509356,1.1100657,0.73677576,1.2385984
126,0.38078855,1.5007234,0.62214287,0.98202223,0.58411656,1.1106846,0.75797415,1.2622406
127,0.37698837,1.5037855,0.63990073,1.0108469,0.59327475,1.1113477,0.77887858,1.2859563
128,0.37359338,1.5069970,0.65736179,1.0399185,0.60259328,1.1120737,0.79946421,1.3097488
129,0.37066375,1.5103527,0.67450536,1.0692303,0.61209819,1.1128808,0.81970647,1.3336213
130,0.36825967,1.5138464,0.69131160,1.0987749,0.62181631,1.1137869,0.83958104,1.3575767
131,0.36644113,1.5174712,0.70776164,1.1285447,0.63177519,1.1148096,0.85906396,1.3816181
132,0.36526769,1.5212197,0.72383759,1.1585314,0.64200294,1.1159661,0.87813168,1.4057479
133,0.36479831,1.5250837,0.73952261,1.1887263,0.65252810,1.1172729,0.89676107,1.4299685
134,0.36509104,1.5290543,0.75480100,1.2191203,0.66337955,1.1187459,0.91492956,1.4542820
135,0.36620288,1.5331221,0.76965819,1.2497037,0.67458637,1.1204006,0.93261511,1.4786901
136,0.36818952,1.5372770,0.78408084,1.2804663,0.68617771,1.1222516,0.94979633,1.5031942
137,0.37110514,1.5415084,0.79805688,1.3113972,0.69818263,1.1243127,0.96645250,1.5277950
138,0.37500216,1.5458050,0.81157552,1.3424850,0.71063000,1.1265968,0.98256364,1.5524929
139,0.37993106,1.5501550,0.82462731,1.3737179,0.72354837,1.1291161,0.99811055,1.5772877
140,0.38594014,1.5545463,0.83720420,1.4050833,0.73696579,1.1318818,1.0130749,1.6021789
141,0.39307535,1.5589660,0.84929951,1.4365681,0.75090970,1.1349038,1.0274391,1.6271649
142,0.40138003,1.5634011,0.86090804,1.4681585,0.76540679,1.1381912,1.0411868,1.6522439
143,0.41089476,1.5678379,0.87202601,1.4998401,0.78048285,1.1417521,1.0543024,1.6774132
144,0.42165716,1.5722624,0.88265115,1.5315979,0.79616264,1.1455930,1.0667713,1.7026693
145,0.43370168,1.5766603,0.89278266,1.5634164,0.81246976,1.1497195,1.0785802,1.7280083
146,0.44705945,1.5810171,0.90242127,1.5952791,0.82942652,1.1541360,1.0897166,1.7534251
147,0.46175808,1.5853177,0.91156921,1.6271693,0.84705376,1.1588453,1.1001695,1.7789141
148,0.47782153,1.5895469,0.92023025,1.6590693,0.86537078,1.1638492,1.1099289,1.8044687
149,0.49526994,1.5936895,0.92840966,1.6909611,0.88439519,1.1691479,1.1189859,1.8300816
150,0.51411947,1.5977298,0.93611423,1.7228256,0.90414278,1.1747404,1.1273332,1.8557443
151,0.53438220,1.6016521,0.94335226,1.7546437,0.92462738,1.1806242,1.1349644,1.8814478
152,0.55606597,1.6054406,0.95013353,1.7863951,0.94586079,1.1867952,1.1418748,1.9071819
153,0.57917430,1.6090794,0.95646932,1.8180592,0.96785264,1.1932482,1.1480608,1.9329357
154,0.60370626,1.6125525,0.96237233,1.8496148,0.99061030,1.1999763,1.1535201,1.9586971
155,0.62965641,1.6158441,0.96785670,1.8810400,1.0141387,1.2069712,1.1582520,1.9844532
156,0.65701468,1.6189382,0.97293796,1.9123125,1.0384405,1.2142231,1.1622570,2.0101901
157,0.68576634,1.6218191,0.97763301,1.9434093,1.0635155,1.2217208,1.1655371,2.0358931
158,0.71589194,1.6244709,0.98196007,1.9743068,1.0893611,1.2294514,1.1680957,2.0615463
159,0.74736726,1.6268782,0.98593862,2.0049812,1.1159719,1.2374010,1.1699376,2.0871330
160,0.78016328,1.6290254,0.98958940,2.0354079,1.1433398,1.2455538,1.1710690,2.1126356
161,0.81424618,1.6308974,0.99293431,2.0655621,1.1714536,1.2538927,1.1714974,2.1380354
162,0.84957733,1.6324793,0.99599639,2.0954183,1.2002996,1.2623994,1.1712321,2.1633130
163,0.88611332,1.6337563,0.99879974,2.1249508,1.2298608,1.2710540,1.1702833,2.1884478
164,0.92380595,1.6347140,1.0013695,2.1541336,1.2601175,1.2798352,1.1686630,2.2134185
165,0.96260232,1.6353384,1.0037317,2.1829400,1.2910467,1.2887207,1.1663843,2.2382031
166,1.0024448,1.6356159,1.0059133,2.2113434,1.3226226,1.2976865,1.1634619,2.2627785
167,1.0432713,1.6355330,1.0079420,2.2393168,1.3548163,1.3067077,1.1599115,2.2871209
168,1.0850151,1.6350771,1.0098463,2.2668328,1.3875958,1.3157580,1.1557504,2.3112057
169,1.1276049,1.6342355,1.0116554,2.2938640,1.4209263,1.3248101,1.1509972,2.3350076
170,1.1709655,1.6329964,1.0133990,2.3203828,1.4547695,1.3338356,1.1456715,2.3585005
171,1.2150170,1.6313484,1.0151072,2.3463615,1.4890847,1.3428049,1.1397942,2.3816579
172,1.2596759,1.6292804,1.0168109,2.3717723,1.5238277,1.3516876,1.1333876,2.4044524
173,1.3048546,1.6267822,1.0185408,2.3965875,1.5589517,1.3604525,1.1264749,2.4268561
174,1.3504615,1.6238438,1.0203283,2.4207792,1.5944070,1.3690672,1.1190804,2.4488406
175,1.3964019,1.6204561,1.0222048,2.4443197,1.6301410,1.3774989,1.1112296,2.4703772
176,1.4425774,1.6166105,1.0242017,2.4671816,1.6660985,1.3857138,1.1029488,2.4914365
177,1.4888864,1.6122988,1.0263504,2.4893373,1.7022214,1.3936778,1.0942654,2.5119888
178,1.5352244,1.6075137,1.0286824,2.5107597,1.7384493,1.4013561,1.0852077,2.5320044
179,1.5814842,1.6022486,1.0312288,2.5314219,1.7747193,1.4087134,1.0758046,2.5514529
180,1.6275558,1.5964972,1.0340205,2.5512973,1.8109658,1.4157140,1.0660860,2.5703040
181,1.6733272,1.5902542,1.0370880,2.5703596,1.8471215,1.4223221,1.0560826,2.5885272
182,1.7186840,1.5835149,1.0404613,2.5885831,1.8831165,1.4285016,1.0458254,2.6060919
183,1.7635104,1.5762752,1.0441699,2.6059423,1.9188791,1.4342162,1.0353462,2.6229678
184,1.8076885,1.5685317,1.0482428,2.6224125,1.9543357,1.4394296,1.0246774,2.6391242
185,1.8510997,1.5602818,1.0527081,2.6379695,1.9894110,1.4441058,1.0138517,2.6545309
186,1.8936240,1.5515235,1.0575930,2.6525896,2.0240281,1.4482087,1.0029022,2.6691579
187,1.9351409,1.5422556,1.0629241,2.6662498,2.0581088,1.4517025,0.99186234,2.6829752
188,1.9755292,1.5324775,1.0687267,2.6789280,2.0915735,1.4545518,0.98076572,2.6959535
189,2.0146677,1.5221894,1.0750253,2.6906027,2.1243415,1.4567217,0.96964616,2.7080638
190,2.0524355,1.5113919,1.0818432,2.7012533,2.1563314,1.4581777,0.95853755,2.7192775
191,2.0887119,1.5000868,1.0892024,2.7108600,2.1874610,1.4588860,0.94747380,2.7295666
192,2.1233770,1.4882761,1.0971236,2.7194040,2.2176474,1.4588136,0.93648872,2.7389039
193,2.1563120,1.4759627,1.1056264,2.7268674,2.2468075,1.4579280,0.92561600,2.7472628
194,2.1873993,1.4631502,1.1147286,2.7332334,2.2748581,1.4561981,0.91488910,2.7546174
195,2.2165231,1.4498428,1.1244468,2.7384862,2.3017159,1.4535933,0.90434119,2.7609428
196,2.2435694,1.4360453,1.1347959,2.7426110,2.3272979,1.4500843,0.89400506,2.7662149
197,2.2684266,1.4217632,1.1457894,2.7455943,2.3515216,1.4456431,0.88391306,2.7704107
198,2.2909853,1.4070026,1.1574387,2.7474236,2.3743050,1.4402426,0.87409702,2.7735080
199,2.3111393,1.3917702,1.1697541,2.7480878,2.3955671,1.4338574,0.86458819,2.7754861
200,2.3287853,1.3760733,1.1827436,2.7475770,2.4152280,1.4264633,0.85541711,2.7763251
201,2.3438235,1.3599196,1.1964136,2.7458824,2.4332087,1.4180375,0.84661364,2.7760066
202,2.3561575,1.3433177,1.2107689,2.7429967,2.4494321,1.4085590,0.83820680,2.7745134
203,2.3656952,1.3262764,1.2258121,2.7389138,2.4638226,1.3980083,0.83022472,2.7718296
204,2.3723484,1.3088053,1.2415440,2.7336292,2.4763063,1.3863676,0.82269463,2.7679408
205,2.3760336,1.2909142,1.2579635,2.7271396,2.4868116,1.3736209,0.81564273,2.7628340
206,2.3766717,1.2726136,1.2750677,2.7194430,2.4952691,1.3597539,0.80909414,2.7564976
207,2.3741889,1.2539142,1.2928515,2.7105392,2.5016118,1.3447543,0.80307286,2.7489218
208,2.3685163,1.2348275,1.3113080,2.7004290,2.5057754,1.3286118,0.79760172,2.7400982
209,2.3595904,1.2153651,1.3304283,2.6891151,2.5076985,1.3113178,0.79270228,2.7300202
210,2.3473534,1.1955389,1.3502015,2.6766013,2.5073226,1.2928661,0.78839481,2.7186826
211,2.3317533,1.1753616,1.3706147,2.6628932,2.5045925,1.2732522,0.78469825,2.7060822
212,2.3127439,1.1548457,1.3916533,2.6479976,2.4994562,1.2524740,0.78163013,2.6922173
213,2.2902853,1.1340044,1.4133004,2.6319230,2.4918656,1.2305313,0.77920653,2.6770882
214,2.2643439,1.1128509,1.4355375,2.6146793,2.4817758,1.2074261,0.77744208,2.6606967
215,2.2348923,1.0913988,1.4583440,2.5962780,2.4691462,1.1831628,0.77634986,2.6430467
216,2.2019100,1.0696620,1.4816975,2.5767320,2.4539400,1.1577478,0.77594144,2.6241436
217,2.1653829,1.0476544,1.5055738,2.5560556,2.4361245,1.1311895,0.77622676,2.6039950
218,2.1253038,1.0253901,1.5299469,2.5342647,2.4156713,1.1034990,0.77721418,2.5826101
219,2.0816724,1.0028837,1.5547892,2.5113766,2.3925563,1.0746893,0.77891041,2.5599998
220,2.0344953,0.98014938,1.5800711,2.4874101,2.3667601,1.0447755,0.78132051,2.5361773
221,1.9837860,0.95720183,1.6057615,2.4623853,2.3382678,1.0137752,0.78444786,2.5111572
222,1.9295651,0.93405566,1.6318279,2.4363238,2.3070689,0.98170806,0.78829416,2.4849561
223,1.8718603,0.91072555,1.6582360,2.4092484,2.2731582,0.94859580,0.79285942,2.4575925
224,1.8107062,0.88722622,1.6849503,2.3811836,2.2365350,0.91446241,0.79814194,2.4290866
225,1.7461444,0.86357239,1.7119336,2.3521548,2.1972034,0.87933395,0.80413832,2.3994603
226,1.6782238,0.83977876,1.7391476,2.3221889,2.1551727,0.84323857,0.81084346,2.3687374
227,1.6069999,0.81585999,1.7665529,2.2913140,2.1104572,0.80620645,0.81825057,2.3369435
228,1.5325352,0.79183070,1.7941085,2.2595594,2.0630760,0.76826976,0.82635117,2.3041056
229,1.4548993,0.76770542,1.8217728,2.2269557,2.0130534,0.72946264,0.83513511,2.2702526
230,1.3741680,0.74349856,1.8495030,2.1935342,1.9604188,0.68982110,0.84459058,2.2354150
231,1.2904242,0.71922444,1.8772553,2.1593278,1.9052064,0.64938299,0.85470415,2.1996248
232,1.2037571,0.69489723,1.9049852,2.1243701,1.8474556,0.60818795,0.86546078,2.1629156
233,1.1142621,0.67053094,1.9326475,2.0886957,1.7872109,0.56627730,0.87684385,2.1253224
234,1.0220410,0.64613942,1.9601964,2.0523402,1.7245214,0.52369403,0.88883519,2.0868816
235,0.92720148,0.62173634,1.9875855,2.0153401,1.6594415,0.48048265,0.90141511,2.0476312
236,0.82985718,0.59733514,2.0147681,1.9777325,1.5920302,0.43668918,0.91456247,2.0076101
237,0.73012726,0.57294908,2.0416970,1.9395555,1.5223513,0.39236104,0.92825469,1.9668589
238,0.62813634,0.54859118,2.0683250,1.9008478,1.4504733,0.34754695,0.94246780,1.9254191
239,0.52401421,0.52427422,2.0946046,1.8616486,1.3764694,0.30229687,0.95717650,1.8833332
240,0.41789562,0.50001073,2.1204884,1.8219980,1.3004171,0.25666189,0.97235420,1.8406451
241,0.30992001,0.47581298,2.1459291,1.7819361,1.2223983,0.21069413,0.98797310,1.7973993
242,0.20023124,0.45169300,2.1708794,1.7415040,1.1424992,0.16444667,1.0040042,1.7536413
243,0.088977344,0.42766250,2.1952927,1.7007427,1.0608100,0.11797340,1.0204174,1.7094175
244,-0.023689801,0.40373296,2.2191223,1.6596937,0.97742493,0.071328987,1.0371816,1.6647750
245,-0.13761473,0.37991555,2.2423225,1.6183989,0.89244200,0.024568703,1.0542646,1.6197613
246,-0.25263872,0.35622115,2.2648479,1.5769000,0.80596278,-0.022251635,1.0716335,1.5744248
247,-0.36860009,0.33266036,2.2866539,1.5352392,0.71809231,-0.069075792,1.0892542,1.5288141
248,-0.48533453,0.30924348,2.3076967,1.4934584,0.62893887,-0.11584722,1.1070922,1.4829782
249,-0.60267543,0.28598052,2.3279335,1.4515997,0.53861381,-0.16250916,1.1251120,1.4369665
250,-0.72045419,0.26288119,2.3473224,1.4097048,0.44723135,-0.20900478,1.1432777,1.3908286
251,-0.83850062,0.23995492,2.3658226,1.3678156,0.35490833,-0.25527722,1.1615527,1.3446141
252,-0.95664320,0.21721084,2.3833947,1.3259735,0.26176406,-0.30126980,1.1799000,1.2983726
253,-1.0747095,0.19465779,2.4000002,1.2842196,0.16792004,-0.34692605,1.1982822,1.2521538
254,-1.1925265,0.17230432,2.4156024,1.2425948,0.073499761,-0.39218983,1.2166615,1.2060071
255,-1.3099209,0.15015874,2.4301658,1.2011392,-0.021371537,-0.43700549,1.2349999,1.1599816
256,-1.4267197,0.12822903,2.4436565,1.1598928,-0.11656710,-0.48131793,1.2532593,1.1141262
257,-1.5427500,0.10652294,2.4560421,1.1188947,-0.21195890,-0.52507272,1.2714015,1.0684893
258,-1.6578402,0.085047963,2.4672921,1.0781835,-0.30741789,-0.56821622,1.2893882,1.0231186
259,-1.7718195,0.063811314,2.4773777,1.0377971,-0.40281424,-0.61069566,1.3071813,0.97806142
260,-1.8845188,0.042819984,2.4862717,0.99777262,-0.49801761,-0.65245927,1.3247428,0.93336433
261,-1.9957709,0.022080722,2.4939491,0.95814625,-0.59289738,-0.69345636,1.3420350,0.88907306
262,-2.1054108,0.0016000558,2.5003867,0.91895341,-0.68732293,-0.73363743,1.3590204,0.84523248
263,-2.2132760,-0.018615704,2.5055633,0.88022853,-0.78116385,-0.77295425,1.3756621,0.80188653
264,-2.3192069,-0.038560451,2.5094597,0.84200505,-0.87429028,-0.81135998,1.3919234,0.75907808
265,-2.4230473,-0.058228270,2.5120588,0.80431535,-0.96657307,-0.84880923,1.4077684,0.71684894
266,-2.5246443,-0.077613430,2.5133457,0.76719074,-1.0578841,-0.88525817,1.4231617,0.67523969
267,-2.6238491,-0.096710368,2.5133077,0.73066133,-1.1480965,-0.92066460,1.4380686,0.63428967
268,-2.7205168,-0.11551368,2.5119342,0.69475609,-1.2370850,-0.95498803,1.4524552,0.59403689
269,-2.8145072,-0.13401811,2.5092167,0.65950272,-1.3247260,-0.98818975,1.4662883,0.55451797
270,-2.9056847,-0.15221854,2.5051492,0.62492764,-1.4108979,-1.0202329,1.4795360,0.51576806
271,-2.9939188,-0.17010995,2.4997279,0.59105597,-1.4954815,-1.0510827,1.4921668,0.47782079
272,-3.0790843,-0.18768746,2.4929510,0.55791147,-1.5783598,-1.0807060,1.5041507,0.44070822
273,-3.1610614,-0.20494628,2.4848192,0.52551652,-1.6594189,-1.1090721,1.5154586,0.40446077
274,-3.2397361,-0.22188168,2.4753355,0.49389209,-1.7385475,-1.1361522,1.5260626,0.36910717
275,-3.3150007,-0.23848904,2.4645051,0.46305770,-1.8156377,-1.1619197,1.5359359,0.33467444
276,-3.3867533,-0.25476378,2.4523352,0.43303140,-1.8905850,-1.1863501,1.5450530,0.30118781
277,-3.4548986,-0.27070136,2.4388357,0.40382978,-1.9632883,-1.2094213,1.5533898,0.26867069
278,-3.5193479,-0.28629731,2.4240183,0.37546791,-2.0336504,-1.2311133,1.5609235,0.23714467
279,-3.5800193,-0.30154715,2.4078971,0.34795934,-2.1015781,-1.2514087,1.5676327,0.20662943
280,-3.6368377,-0.31644644,2.3904883,0.32131609,-2.1669823,-1.2702920,1.5734974,0.17714277
281,-3.6897351,-0.33099075,2.3718102,0.29554867,-2.2297784,-1.2877503,1.5784991,0.14870053
282,-3.7386509,-0.34517563,2.3518832,0.27066600,-2.2898861,-1.3037731,1.5826207,0.12131664
283,-3.7835314,-0.35899663,2.3307297,0.24667549,-2.3472299,-1.3183522,1.5858469,0.095003043
284,-3.8243305,-0.37244929,2.3083740,0.22358300,-2.4017389,-1.3314818,1.5881637,0.069769709
285,-3.8610095,-0.38552909,2.2848426,0.20139283,-2.4533475,-1.3431583,1.5895587,0.045624641
286,-3.8935373,-0.39823152,2.2601636,0.18010777,-2.5019949,-1.3533807,1.5900213,0.022573857
287,-3.9218902,-0.41055199,2.2343670,0.15972908,-2.5476254,-1.3621503,1.5895424,0.00062140018
288,-3.9460521,-0.42248589,2.2074846,0.14025649,-2.5901889,-1.3694705,1.5881144,-0.020230655
289,-3.9660146,-0.43402855,2.1795496,0.12168826,-2.6296403,-1.3753475,1.5857315,-0.039982192
290,-3.9817766,-0.44517523,2.1505972,0.10402116,-2.6659401,-1.3797892,1.5823896,-0.058635037
291,-3.9933447,-0.45592117,2.1206638,0.087250521,-2.6990545,-1.3828062,1.5780861,-0.076192937
292,-4.0007330,-0.46626151,2.0897875,0.071370222,-2.7289550,-1.3844112,1.5728200,-0.092661536
293,-4.0039630,-0.47619136,2.0580074,0.056372757,-2.7556187,-1.3846189,1.5665921,-0.10804835
294,-4.0030634,-0.48570575,2.0253642,0.042249244,-2.7790286,-1.3834463,1.5594047,-0.12236273
295,-3.9980703,-0.49479965,1.9918996,0.028989461,-2.7991730,-1.3809125,1.5512618,-0.13561583
296,-3.9890269,-0.50346797,1.9576565,0.016581883,-2.8160462,-1.3770386,1.5421689,-0.14782056
297,-3.9759835,-0.51170558,1.9226788,0.0050137191,-2.8296480,-1.3718475,1.5321331,-0.15899156
298,-3.9589970,-0.51950728,1.8870110,-0.0057290482,-2.8399837,-1.3653642,1.5211630,-0.16914513
299,-3.9381312,-0.52686781,1.8506989,-0.015661620,-2.8470644,-1.3576155,1.5092690,-0.17829920
300,-3.9134565,-0.53378190,1.8137887,-0.024800335,-2.8509068,-1.3486299,1.4964626,-0.18647324
301,-3.8850494,-0.54024420,1.7763272,-0.033162628,-2.8515328,-1.3384375,1.4827570,-0.19368827
302,-3.8529929,-0.54624937,1.7383618,-0.040766977,-2.8489702,-1.3270703,1.4681667,-0.19996672
303,-3.8173755,-0.55179200,1.6999403,-0.047632852,-2.8432516,-1.3145615,1.4527077,-0.20533243
304,-3.7782919,-0.55686671,1.6611108,-0.053780669,-2.8344154,-1.3009460,1.4363973,-0.20981056
305,-3.7358419,-0.56146808,1.6219216,-0.059231732,-2.8225048,-1.2862600,1.4192541,-0.21342749
306,-3.6901306,-0.56559072,1.5824211,-0.064008179,-2.8075683,-1.2705407,1.4012978,-0.21621081
307,-3.6412683,-0.56922925,1.5426578,-0.068132926,-2.7896591,-1.2538269,1.3825496,-0.21818922
308,-3.5893697,-0.57237830,1.5026798,-0.071629613,-2.7688353,-1.2361582,1.3630317,-0.21939243
309,-3.5345542,-0.57503257,1.4625355,-0.074522539,-2.7451598,-1.2175754,1.3427673,-0.21985112
310,-3.4769451,-0.57718679,1.4222726,-0.076836610,-2.7186998,-1.1981199,1.3217807,-0.21959684
311,-3.4166696,-0.57883578,1.3819387,-0.078597273,-2.6895269,-1.1778342,1.3000973,-0.21866193
312,-3.3538587,-0.57997444,1.3415806,-0.079830461,-2.6577168,-1.1567613,1.2777433,-0.21707945
313,-3.2886462,-0.58059776,1.3012448,-0.080562528,-2.6233495,-1.1349449,1.2547459,-0.21488311
314,-3.2211692,-0.58070084,1.2609771,-0.080820189,-2.5865083,-1.1124292,1.2311329,-0.21210713
315,-3.1515671,-0.58027895,1.2208224,-0.080630460,-2.5472806,-1.0892587,1.2069330,-0.20878622
316,-3.0799820,-0.57932746,1.1808249,-0.080020594,-2.5057569,-1.0654783,1.1821755,-0.20495548
317,-3.0065575,-0.57784194,1.1410279,-0.079018021,-2.4620310,-1.0411330,1.1568904,-0.20065027
318,-2.9314391,-0.57581814,1.1014736,-0.077650285,-2.4161996,-1.0162681,1.1311082,-0.19590618
319,-2.8547735,-0.57325201,1.0622032,-0.075944988,-2.3683624,-0.99092868,1.1048599,-0.19075894
320,-2.7767085,-0.57013971,1.0232566,-0.073929723,-2.3186213,-0.96515980,1.0781768,-0.18524430
321,-2.6973925,-0.56647766,0.98467266,-0.071632020,-2.2670808,-0.93900634,1.0510907,-0.17939797
322,-2.6169740,-0.56226254,0.94648889,-0.069079284,-2.2138473,-0.91251288,1.0236336,-0.17325553
323,-2.5356018,-0.55749128,0.90874142,-0.066298736,-2.1590292,-0.88572362,0.99583781,-0.16685238
324,-2.4534243,-0.55216113,0.87146496,-0.063317359,-2.1027363,-0.85868228,0.96773569,-0.16022359
325,-2.3705890,-0.54626966,0.83469279,-0.060161841,-2.0450800,-0.83143202,0.93935973,-0.15340390
326,-2.2872428,-0.53981475,0.79845662,-0.056858519,-1.9861727,-0.80401535,0.91074243,-0.14642757
327,-2.2035311,-0.53279466,0.76278664,-0.053433329,-1.9261276,-0.77647403,0.88191626,-0.13932837
328,-2.1195977,-0.52520801,0.72771139,-0.049911750,-1.8650587,-0.74884901,0.85291359,-0.13213944
329,-2.0355846,-0.51705379,0.69325779,-0.046318756,-1.8030803,-0.72118034,0.82376660,-0.12489328
330,-1.9516316,-0.50833143,0.65945104,-0.042678768,-1.7403069,-0.69350710,0.79450726,-0.11762164
331,-1.8678760,-0.49904077,0.62631466,-0.039015607,-1.6768528,-0.66586731,0.76516726,-0.11035544
332,-1.7844523,-0.48918207,0.59387041,-0.035352448,-1.6128322,-0.63829789,0.73577793,-0.10312477
333,-1.7014922,-0.47875607,0.56213829,-0.031711780,-1.5483585,-0.61083456,0.70637023,-0.095958753
334,-1.6191240,-0.46776398,0.53113654,-0.028115360,-1.4835444,-0.58351181,0.67697462,-0.088885526
335,-1.5374724,-0.45620749,0.50088158,-0.024584182,-1.4185016,-0.55636280,0.64762110,-0.081932176
336,-1.4566584,-0.44408880,0.47138808,-0.021138431,-1.3533406,-0.52941936,0.61833910,-0.075124683
337,-1.3767993,-0.43141060,0.44266887,-0.017797459,-1.2881702,-0.50271190,0.58915742,-0.068487870
338,-1.2980077,-0.41817613,0.41473501,-0.014579744,-1.2230978,-0.47626938,0.56010426,-0.062045359
339,-1.2203922,-0.40438917,0.38759577,-0.011502867,-1.1582288,-0.45011924,0.53120709,-0.055819523
340,-1.1440567,-0.39005403,0.36125864,-0.0085834814,-1.0936664,-0.42428741,0.50249265,-0.049831447
341,-1.0691003,-0.37517559,0.33572935,-0.0058372892,-1.0295116,-0.39879824,0.47398693,-0.044100893
342,-0.99561727,-0.35975930,0.31101189,-0.0032790192,-0.96586293,-0.37367449,0.44571509,-0.038646264
343,-0.92369673,-0.34381117,0.28710855,-0.00092240704,-0.90281622,-0.34893728,0.41770146,-0.033484575
344,-0.85342263,-0.32733780,0.26401991,0.0012198222,-0.84046446,-0.32460611,0.38996950,-0.028631429
345,-0.78487361,-0.31034639,0.24174492,0.0031359682,-0.77889764,-0.30069882,0.36254175,-0.024100992
346,-0.71812287,-0.29284470,0.22028088,0.0048153677,-0.71820258,-0.27723155,0.33543985,-0.019905979
347,-0.65323808,-0.27484111,0.19962356,0.0062484039,-0.65846279,-0.25421881,0.30868448,-0.016057632
348,-0.59028133,-0.25634457,0.17976716,0.0074265133,-0.59975833,-0.23167340,0.28229535,-0.012565719
349,-0.52930906,-0.23736465,0.16070442,0.0083421905,-0.54216567,-0.20960646,0.25629120,-0.0094385171
350,-0.47037198,-0.21791149,0.14242663,0.0089889899,-0.48575759,-0.18802746,0.23068977,-0.0066828181
351,-0.41351509,-0.19799584,0.12492372,0.0093615248,-0.43060303,-0.16694422,0.20550777,-0.0043039233
352,-0.35877762,-0.17762902,0.10818427,0.0094554651,-0.37676705,-0.14636290,0.18076093,-0.0023056504
353,-0.30619307,-0.15682294,0.092195647,0.0092675311,-0.32431067,-0.12628805,0.15646393,-0.00069034117
354,-0.25578918,-0.13559008,0.076943974,0.0087954862,-0.27329087,-0.10672263,0.13263043,0.00054112683
355,-0.20758798,-0.11394351,0.062414266,0.0080381264,-0.22376045,-0.087668028,0.10927308,0.0013893249
356,-0.16160584,-0.091896821,0.048590470,0.0069952681,-0.17576799,-0.069124080,0.086403509,0.0018562540
357,-0.11785350,-0.069464182,0.035455536,0.0056677332,-0.12935784,-0.051089134,0.064032313,0.0019453229
358,-0.076336168,-0.046660281,0.022991494,0.0040573327,-0.084570054,-0.033560068,0.042169098,0.0016613219
359,-0.037053576,-0.023500335,0.011179523,0.0021668471,-0.041440347,-0.016532344,0.020822471,0.0010103942
360,-1.0023146e-07,-6.5994584e-08,3.0313004e-08,6.4237611e-09,-1.1318217e-07,-4.5419121e-08,5.7329942e-08,3.3110439e-09
