deg,XRT_AX,XRT_BX,XRT_AY,XRT_BY,SOT_AX,SOT_BX,SOT_AY,SOT_BY
valid,1,1,1,1,1,1,1,1,revB
offset,119.49642,92.390539,1976.7312,1979.7814,48.252509,20.401709,92.127960,95.219297
0,0.0000000,0.0000000,0.0000000,0.0000000,0.0000000,0.0000000,0.0000000,0.0000000
1,0.0054644730,0.011285120,-0.0042167045,-0.0036053846,0.0055111588,0.012481764,-0.0012071644,-0.0045948830
2,0.010169894,0.022744579,-0.0082340384,-0.0072533395,0.010225796,0.024953039,-0.0021083442,-0.0092089692
3,0.014097163,0.034375335,-0.012051960,-0.010951250,0.014122597,0.037400924,-0.0027099868,-0.013844487
4,0.017228400,0.046174009,-0.015670376,-0.014706228,0.017181383,0.049812450,-0.0030188884,-0.018503426
5,0.019546999,0.058136898,-0.019089149,-0.018525099,0.019383168,0.062174607,-0.0030421699,-0.023187534
6,0.021037676,0.070259983,-0.022308095,-0.022414374,0.020710203,0.074474376,-0.0027872513,-0.027898301
7,0.021686516,0.082538933,-0.025326998,-0.026380243,0.021146024,0.086698759,-0.0022618261,-0.032636954
8,0.021481014,0.094969119,-0.028145604,-0.030428548,0.020675499,0.098834812,-0.0014738337,-0.037404450
9,0.020410122,0.10754562,-0.030763634,-0.034564772,0.019284865,0.11086968,-0.00043143206,-0.042201465
10,0.018464278,0.12026325,-0.033180788,-0.038794018,0.016961766,0.12279061,0.00085703073,-0.047028389
11,0.015635445,0.13311654,-0.035396746,-0.043120999,0.013695293,0.13458503,0.0023830453,-0.051885317
12,0.011917138,0.14609978,-0.037411180,-0.047550017,0.0094760107,0.14624050,0.0041379704,-0.056772042
13,0.0073044500,0.15920702,-0.039223758,-0.052084953,0.0042959906,0.15774483,0.0061130626,-0.061688049
14,0.0017940775,0.17243207,-0.040834147,-0.056729253,-0.0018511663,0.16908604,0.0082995063,-0.066632512
15,-0.0046156647,0.18576856,-0.042242024,-0.061485911,-0.0089703056,0.18025246,0.010688444,-0.071604281
16,-0.011924827,0.19920990,-0.043447079,-0.066357463,-0.017064701,0.19123268,0.013271006,-0.076601885
17,-0.020131813,0.21274932,-0.044449023,-0.071345971,-0.026136038,0.20201564,0.016038343,-0.081623521
18,-0.029233377,0.22637989,-0.045247595,-0.076453015,-0.036184404,0.21259063,0.018981652,-0.086667056
19,-0.039224615,0.24009455,-0.045842565,-0.081679684,-0.047208275,0.22294733,0.022092211,-0.091730015
20,-0.050098970,0.25388607,-0.046233745,-0.087026566,-0.059204516,0.23307584,0.025361407,-0.096809589
21,-0.061848236,0.26774714,-0.046420994,-0.092493742,-0.072168378,0.24296669,0.028780765,-0.10190262
22,-0.074462569,0.28167034,-0.046404222,-0.098080777,-0.086093497,0.25261087,0.032341976,-0.10700562
23,-0.087930497,0.29564815,-0.046183398,-0.10378672,-0.10097190,0.26199986,0.036036930,-0.11211473
24,-0.10223894,0.30967303,-0.045758559,-0.10961009,-0.11679403,0.27112564,0.039857738,-0.11722577
25,-0.11737322,0.32373736,-0.045129809,-0.11554889,-0.13354871,0.27998075,0.043796764,-0.12233420
26,-0.13331712,0.33783349,-0.044297331,-0.12160057,-0.15122325,0.28855824,0.047846649,-0.12743515
27,-0.15005286,0.35195377,-0.043261390,-0.12776208,-0.16980335,0.29685177,0.052000337,-0.13252338
28,-0.16756117,0.36609056,-0.042022338,-0.13402981,-0.18927323,0.30485556,0.056251099,-0.13759334
29,-0.18582133,0.38023623,-0.040580620,-0.14039964,-0.20961558,0.31256444,0.060592559,-0.14263912
30,-0.20481116,0.39438319,-0.038936781,-0.14686690,-0.23081165,0.31997386,0.065018714,-0.14765448
31,-0.22450714,0.40852391,-0.037091463,-0.15342643,-0.25284123,0.32707991,0.069523956,-0.15263286
32,-0.24488437,0.42265092,-0.035045419,-0.16007250,-0.27568271,0.33387929,0.074103093,-0.15756735
33,-0.26591670,0.43675686,-0.032799509,-0.16679890,-0.29931313,0.34036939,0.078751367,-0.16245075
34,-0.28757674,0.45083445,-0.030354709,-0.17359890,-0.32370822,0.34654824,0.083464470,-0.16727552
35,-0.30983592,0.46487654,-0.027712110,-0.18046527,-0.34884241,0.35241453,0.088238564,-0.17203382
36,-0.33266454,0.47887609,-0.024872924,-0.18739028,-0.37468894,0.35796764,0.093070291,-0.17671753
37,-0.35603188,0.49282623,-0.021838484,-0.19436572,-0.40121983,0.36320761,0.097956789,-0.18131821
38,-0.37990621,0.50672023,-0.018610247,-0.20138290,-0.42840604,0.36813514,0.10289570,-0.18582716
39,-0.40425488,0.52055155,-0.015189795,-0.20843268,-0.45621740,0.37275165,0.10788520,-0.19023540
40,-0.42904438,0.53431380,-0.011578838,-0.21550546,-0.48462278,0.37705917,0.11292395,-0.19453370
41,-0.45424043,0.54800082,-0.0077792123,-0.22259121,-0.51359010,0.38106046,0.11801119,-0.19871256
42,-0.47980806,0.56160662,-0.0037928807,-0.22967948,-0.54308636,0.38475889,0.12314666,-0.20276227
43,-0.50571163,0.57512544,0.00037806553,-0.23675942,-0.57307779,0.38815851,0.12833065,-0.20667286
44,-0.53191499,0.58855175,0.0047314092,-0.24381978,-0.60352982,0.39126402,0.13356401,-0.21043419
45,-0.55838147,0.60188023,0.0092648076,-0.25084894,-0.63440723,0.39408073,0.13884809,-0.21403590
46,-0.58507403,0.61510581,0.013975795,-0.25783494,-0.66567415,0.39661458,0.14418482,-0.21746744
47,-0.61195531,0.62822366,0.018861783,-0.26476547,-0.69729420,0.39887213,0.14957664,-0.22071812
48,-0.63898771,0.64122919,0.023920065,-0.27162794,-0.72923049,0.40086052,0.15502652,-0.22377706
49,-0.66613349,0.65411808,0.029147818,-0.27840942,-0.76144573,0.40258745,0.16053795,-0.22663328
50,-0.69335482,0.66688625,0.034542107,-0.28509674,-0.79390233,0.40406119,0.16611495,-0.22927567
51,-0.72061390,0.67952990,0.040099887,-0.29167649,-0.82656239,0.40529054,0.17176201,-0.23169301
52,-0.74787301,0.69204546,0.045818010,-0.29813501,-0.85938788,0.40628480,0.17748414,-0.23387401
53,-0.77509463,0.70442965,0.051693228,-0.30445845,-0.89234061,0.40705375,0.18328680,-0.23580731
54,-0.80224146,0.71667944,0.057722198,-0.31063278,-0.92538240,0.40760766,0.18917593,-0.23748149
55,-0.82927658,0.72879205,0.063901488,-0.31664383,-0.95847505,0.40795720,0.19515788,-0.23888514
56,-0.85616346,0.74076499,0.070227584,-0.32247728,-0.99158053,0.40811348,0.20123945,-0.24000680
57,-0.88286608,0.75259599,0.076696894,-0.32811872,-1.0246610,0.40808795,0.20742784,-0.24083505
58,-0.90934900,0.76428305,0.083305757,-0.33355367,-1.0576787,0.40789245,0.21373060,-0.24135849
59,-0.93557743,0.77582442,0.090050449,-0.33876758,-1.0905965,0.40753910,0.22015567,-0.24156578
60,-0.96151731,0.78721859,0.096927189,-0.34374590,-1.1233775,0.40704033,0.22671130,-0.24144566
61,-0.98713537,0.79846427,0.10393215,-0.34847407,-1.1559851,0.40640880,0.23340605,-0.24098694
62,-1.0123992,0.80956043,0.11106146,-0.35293755,-1.1883836,0.40565743,0.24024875,-0.24017857
63,-1.0372774,0.82050622,0.11831122,-0.35712187,-1.2205377,0.40479927,0.24724851,-0.23900963
64,-1.0617395,0.83130105,0.12567751,-0.36101265,-1.2524126,0.40384756,0.25441461,-0.23746935
65,-1.0857562,0.84194448,0.13315639,-0.36459560,-1.2839746,0.40281565,0.26175655,-0.23554714
66,-1.1092991,0.85243631,0.14074391,-0.36785658,-1.3151905,0.40171696,0.26928399,-0.23323262
67,-1.1323412,0.86277649,0.14843612,-0.37078162,-1.3460280,0.40056496,0.27700670,-0.23051563
68,-1.1548568,0.87296514,0.15622910,-0.37335692,-1.3764559,0.39937311,0.28493455,-0.22738623
69,-1.1768214,0.88300256,0.16411892,-0.37556893,-1.4064437,0.39815486,0.29307746,-0.22383478
70,-1.1982117,0.89288917,0.17210172,-0.37740430,-1.4359621,0.39692360,0.30144538,-0.21985189
71,-1.2190060,0.90262554,0.18017363,-0.37885000,-1.4649827,0.39569260,0.31004826,-0.21542850
72,-1.2391839,0.91221236,0.18833088,-0.37989325,-1.4934783,0.39447500,0.31889599,-0.21055585
73,-1.2587267,0.92165039,0.19656971,-0.38052161,-1.5214230,0.39328376,0.32799837,-0.20522554
74,-1.2776169,0.93094053,0.20488645,-0.38072299,-1.5487918,0.39213164,0.33736510,-0.19942953
75,-1.2958387,0.94008372,0.21327750,-0.38048566,-1.5755611,0.39103115,0.34700573,-0.19316017
76,-1.3133779,0.94908097,0.22173936,-0.37979828,-1.6017085,0.38999452,0.35692961,-0.18641020
77,-1.3302219,0.95793333,0.23026858,-0.37864994,-1.6272131,0.38903366,0.36714587,-0.17917279
78,-1.3463595,0.96664188,0.23886186,-0.37703014,-1.6520550,0.38816015,0.37766338,-0.17144155
79,-1.3617814,0.97520772,0.24751598,-0.37492887,-1.6762160,0.38738516,0.38849072,-0.16321054
80,-1.3764797,0.98363195,0.25622784,-0.37233658,-1.6996789,0.38671949,0.39963613,-0.15447428
81,-1.3904482,0.99191563,0.26499448,-0.36924423,-1.7224283,0.38617347,0.41110750,-0.14522781
82,-1.4036826,1.0000598,0.27381306,-0.36564328,-1.7444499,0.38575695,0.42291233,-0.13546666
83,-1.4161799,1.0080655,0.28268088,-0.36152575,-1.7657309,0.38547931,0.43505766,-0.12518686
84,-1.4279389,1.0159336,0.29159538,-0.35688419,-1.7862601,0.38534937,0.44755011,-0.11438500
85,-1.4389600,1.0236649,0.30055419,-0.35171176,-1.8060275,0.38537542,0.46039577,-0.10305820
86,-1.4492453,1.0312603,0.30955505,-0.34600216,-1.8250247,0.38556516,0.47360023,-0.091204157
87,-1.4587983,1.0387203,0.31859590,-0.33974972,-1.8432447,0.38592570,0.48716852,-0.078821119
88,-1.4676242,1.0460454,0.32767483,-0.33294938,-1.8606818,0.38646351,0.50110510,-0.065907929
89,-1.4757299,1.0532361,0.33679012,-0.32559669,-1.8773320,0.38718442,0.51541381,-0.052464017
90,-1.4831237,1.0602926,0.34594022,-0.31768787,-1.8931925,0.38809360,0.53009786,-0.038489419
91,-1.4898152,1.0672149,0.35512378,-0.30921974,-1.9082621,0.38919556,0.54515982,-0.023984776
92,-1.4958157,1.0740030,0.36433960,-0.30018983,-1.9225406,0.39049408,0.56060157,-0.0089513497
93,-1.5011380,1.0806564,0.37358671,-0.29059630,-1.9360296,0.39199225,0.57642429,0.0066089753
94,-1.5057960,1.0871747,0.38286432,-0.28043798,-1.9487319,0.39369244,0.59262844,0.022693686
95,-1.5098051,1.0935572,0.39217181,-0.26971441,-1.9606514,0.39559629,0.60921375,0.039299633
96,-1.5131820,1.0998029,0.40150878,-0.25842577,-1.9717936,0.39770470,0.62617919,0.056423034
97,-1.5159446,1.1059107,0.41087502,-0.24657296,-1.9821652,0.40001784,0.64352298,0.074059462
98,-1.5181119,1.1118792,0.42027050,-0.23415755,-1.9917738,0.40253509,0.66124253,0.092203853
99,-1.5197040,1.1177066,0.42969540,-0.22118179,-2.0006286,0.40525514,0.67933449,0.11085050
100,-1.5207423,1.1233911,0.43915008,-0.20764864,-2.0087397,0.40817587,0.69779470,0.12999305
101,-1.5212489,1.1289306,0.44863511,-0.19356173,-2.0161184,0.41129445,0.71661820,0.14962452
102,-1.5212470,1.1343225,0.45815121,-0.17892537,-2.0227770,0.41460729,0.73579920,0.16973729
103,-1.5207607,1.1395642,0.46769933,-0.16374457,-2.0287288,0.41811005,0.75533112,0.19032309
104,-1.5198147,1.1446528,0.47728056,-0.14802499,-2.0339881,0.42179767,0.77520656,0.21137304
105,-1.5184345,1.1495848,0.48689619,-0.13177299,-2.0385702,0.42566436,0.79541730,0.23287764
106,-1.5166465,1.1543570,0.49654767,-0.11499556,-2.0424911,0.42970362,0.81595433,0.25482676
107,-1.5144773,1.1589654,0.50623661,-0.097700352,-2.0457676,0.43390825,0.83680780,0.27720967
108,-1.5119542,1.1634060,0.51596479,-0.079895678,-2.0484175,0.43827035,0.85796711,0.30001503
109,-1.5091049,1.1676745,0.52573415,-0.061590470,-2.0504590,0.44278136,0.87942083,0.32323095
110,-1.5059575,1.1717662,0.53554673,-0.042794283,-2.0519111,0.44743207,0.90115678,0.34684491
111,-1.5025403,1.1756763,0.54540476,-0.023517283,-2.0527933,0.45221265,0.92316201,0.37084387
112,-1.4988818,1.1793998,0.55531055,-0.0037702337,-2.0531258,0.45711263,0.94542282,0.39521419
113,-1.4950107,1.1829311,0.56526657,0.016435521,-2.0529290,0.46212098,0.96792479,0.41994175
114,-1.4909557,1.1862647,0.57527536,0.037088071,-2.0522240,0.46722610,0.99065278,0.44501185
115,-1.4867454,1.1893948,0.58533959,0.058174955,-2.0510320,0.47241585,1.0135910,0.47040931
116,-1.4824084,1.1923152,0.59546198,0.079683179,-2.0493745,0.47767760,1.0367228,0.49611846
117,-1.4779731,1.1950197,0.60564536,0.10159923,-2.0472735,0.48299821,1.0600313,0.52212315
118,-1.4734676,1.1975017,0.61589261,0.12390911,-2.0447509,0.48836412,1.0834985,0.54840676
119,-1.4689196,1.1997546,0.62620666,0.14659834,-2.0418287,0.49376134,1.1071062,0.57495226
120,-1.4643566,1.2017715,0.63659047,0.16965196,-2.0385291,0.49917551,1.1308355,0.60174218
121,-1.4598055,1.2035454,0.64704706,0.19305461,-2.0348743,0.50459189,1.1546669,0.62875866
122,-1.4552925,1.2050690,0.65757943,0.21679050,-2.0308862,0.50999546,1.1785805,0.65598346
123,-1.4508436,1.2063350,0.66819060,0.24084344,-2.0265869,0.51537089,1.2025559,0.68339801
124,-1.4464837,1.2073361,0.67888357,0.26519688,-2.0219981,0.52070263,1.2265724,0.71098337
125,-1.4422372,1.2080646,0.68966131,0.28983391,-2.0171414,0.52597492,1.2506087,0.73872031
126,-1.4381276,1.2085129,0.70052675,0.31473731,-2.0120379,0.53117182,1.2746434,0.76658932
127,-1.4341775,1.2086733,0.71148278,0.33988955,-2.0067087,0.53627726,1.2986544,0.79457063
128,-1.4304089,1.2085381,0.72253220,0.36527284,-2.0011742,0.54127509,1.3226197,0.82264421
129,-1.4268423,1.2080995,0.73367775,0.39086910,-1.9954546,0.54614910,1.3465170,0.85078985
130,-1.4234977,1.2073498,0.74492205,0.41666006,-1.9895694,0.55088308,1.3703237,0.87898713
131,-1.4203938,1.2062811,0.75626762,0.44262724,-1.9835379,0.55546081,1.3940171,0.90721548
132,-1.4175480,1.2048858,0.76771686,0.46875196,-1.9773785,0.55986619,1.4175743,0.93545419
133,-1.4149769,1.2031562,0.77927200,0.49501541,-1.9711093,0.56408317,1.4409725,0.96368243
134,-1.4126958,1.2010847,0.79093517,0.52139865,-1.9647474,0.56809589,1.4641889,0.99187932
135,-1.4107186,1.1986638,0.80270827,0.54788263,-1.9583096,0.57188863,1.4872005,1.0200239
136,-1.4090582,1.1958862,0.81459306,0.57444822,-1.9518118,0.57544593,1.5099846,1.0480952
137,-1.4077260,1.1927446,0.82659110,0.60107623,-1.9452692,0.57875256,1.5325185,1.0760721
138,-1.4067323,1.1892321,0.83870372,0.62774747,-1.9386962,0.58179360,1.5547796,1.1039338
139,-1.4060860,1.1853417,0.85093205,0.65444272,-1.9321065,0.58455447,1.5767456,1.1316594
140,-1.4057945,1.1810669,0.86327698,0.68114278,-1.9255130,0.58702095,1.5983945,1.1592279
141,-1.4058641,1.1764012,0.87573914,0.70782851,-1.9189276,0.58917922,1.6197044,1.1866186
142,-1.4062997,1.1713385,0.88831893,0.73448082,-1.9123615,0.59101590,1.6406538,1.2138110
143,-1.4071045,1.1658729,0.90101645,0.76108073,-1.9058251,0.59251811,1.6612218,1.2407845
144,-1.4082809,1.1599989,0.91383154,0.78760937,-1.8993277,0.59367343,1.6813875,1.2675189
145,-1.4098294,1.1537112,0.92676374,0.81404798,-1.8928780,0.59447001,1.7011307,1.2939941
146,-1.4117495,1.1470051,0.93981229,0.84037799,-1.8864837,0.59489656,1.7204318,1.3201903
147,-1.4140391,1.1398758,0.95297612,0.86658100,-1.8801515,0.59494236,1.7392714,1.3460878
148,-1.4166951,1.1323194,0.96625385,0.89263881,-1.8738874,0.59459733,1.7576310,1.3716675
149,-1.4197128,1.1243321,0.97964376,0.91853344,-1.8676963,0.59385205,1.7754925,1.3969102
150,-1.4230862,1.1159106,0.99314381,0.94424715,-1.8615825,0.59269775,1.7928384,1.4217972
151,-1.4268081,1.1070519,1.0067516,0.96976245,-1.8555493,0.59112635,1.8096521,1.4463103
152,-1.4308703,1.0977538,1.0204644,0.99506216,-1.8495990,0.58913049,1.8259176,1.4704314
153,-1.4352629,1.0880143,1.0342791,1.0201294,-1.8437332,0.58670356,1.8416195,1.4941431
154,-1.4399752,1.0778319,1.0481924,1.0449475,-1.8379528,0.58383967,1.8567434,1.5174280
155,-1.4449952,1.0672058,1.0622003,1.0695002,-1.8322576,0.58053372,1.8712754,1.5402696
156,-1.4503099,1.0561355,1.0762987,1.0937717,-1.8266468,0.57678138,1.8852027,1.5626514
157,-1.4559052,1.0446211,1.0904831,1.1177463,-1.8211187,0.57257911,1.8985132,1.5845577
158,-1.4617659,1.0326633,1.1047486,1.1414089,-1.8156711,0.56792418,1.9111957,1.6059732
159,-1.4678759,1.0202634,1.1190899,1.1647446,-1.8103008,0.56281465,1.9232400,1.6268830
160,-1.4742183,1.0074230,1.1335014,1.1877392,-1.8050041,0.55724942,1.9346364,1.6472728
161,-1.4807752,0.99414466,1.1479771,1.2103785,-1.7997766,0.55122820,1.9453766,1.6671289
162,-1.4875280,0.98043122,1.1625107,1.2326491,-1.7946131,0.54475153,1.9554531,1.6864380
163,-1.4944571,0.96628623,1.1770954,1.2545377,-1.7895082,0.53782075,1.9648591,1.7051874
164,-1.5015427,0.95171379,1.1917241,1.2760317,-1.7844555,0.53043804,1.9735890,1.7233651
165,-1.5087638,0.93671864,1.2063895,1.2971189,-1.7794484,0.52260640,1.9816381,1.7409596
166,-1.5160994,0.92130606,1.2210838,1.3177874,-1.7744798,0.51432964,1.9890026,1.7579599
167,-1.5235275,0.90548199,1.2357988,1.3380258,-1.7695419,0.50561238,1.9956799,1.7743557
168,-1.5310261,0.88925290,1.2505261,1.3578235,-1.7646268,0.49646001,2.0016681,1.7901374
169,-1.5385724,0.87262592,1.2652570,1.3771698,-1.7597261,0.48687874,2.0069664,1.8052959
170,-1.5461438,0.85560873,1.2799823,1.3960550,-1.7548311,0.47687554,2.0115750,1.8198228
171,-1.5537169,0.83820961,1.2946927,1.4144696,-1.7499329,0.46645812,2.0154949,1.8337102
172,-1.5612686,0.82043743,1.3093785,1.4324046,-1.7450223,0.45563496,2.0187284,1.8469510
173,-1.5687755,0.80230164,1.3240298,1.4498516,-1.7400899,0.44441524,2.0212783,1.8595387
174,-1.5762142,0.78381222,1.3386363,1.4668026,-1.7351263,0.43280885,2.0231487,1.8714674
175,-1.5835613,0.76497977,1.3531874,1.4832500,-1.7301218,0.42082637,2.0243445,1.8827318
176,-1.5907935,0.74581538,1.3676726,1.4991868,-1.7250667,0.40847904,2.0248714,1.8933275
177,-1.5978877,0.72633071,1.3820807,1.5146066,-1.7199515,0.39577871,2.0247363,1.9032504
178,-1.6048211,0.70653794,1.3964006,1.5295033,-1.7147665,0.38273787,2.0239465,1.9124972
179,-1.6115710,0.68644972,1.4106210,1.5438712,-1.7095022,0.36936957,2.0225107,1.9210654
180,-1.6181153,0.66607925,1.4247302,1.5577052,-1.7041492,0.35568743,2.0204380,1.9289529
181,-1.6244323,0.64544016,1.4387165,1.5710009,-1.6986982,0.34170557,2.0177384,1.9361584
182,-1.6305004,0.62454655,1.4525681,1.5837538,-1.6931401,0.32743863,2.0144229,1.9426812
183,-1.6362991,0.60341296,1.4662728,1.5959605,-1.6874663,0.31290169,2.0105029,1.9485211
184,-1.6418082,0.58205435,1.4798186,1.6076175,-1.6816681,0.29811026,2.0059909,1.9536787
185,-1.6470081,0.56048606,1.4931933,1.6187222,-1.6757373,0.28308026,2.0008997,1.9581551
186,-1.6518801,0.53872382,1.5063844,1.6292721,-1.6696662,0.26782796,1.9952432,1.9619521
187,-1.6564061,0.51678370,1.5193797,1.6392653,-1.6634472,0.25236994,1.9890354,1.9650720
188,-1.6605689,0.49468210,1.5321667,1.6487003,-1.6570734,0.23672310,1.9822913,1.9675177
189,-1.6643521,0.47243573,1.5447331,1.6575760,-1.6505382,0.22090457,1.9750263,1.9692927
190,-1.6677403,0.45006156,1.5570663,1.6658918,-1.6438354,0.20493171,1.9672564,1.9704011
191,-1.6707189,0.42757681,1.5691540,1.6736474,-1.6369596,0.18882203,1.9589978,1.9708476
192,-1.6732744,0.40499893,1.5809839,1.6808429,-1.6299056,0.17259322,1.9502676,1.9706373
193,-1.6753941,0.38234557,1.5925436,1.6874788,-1.6226691,0.15626305,1.9410829,1.9697759
194,-1.6770667,0.35963453,1.6038209,1.6935561,-1.6152461,0.13984936,1.9314613,1.9682695
195,-1.6782816,0.33688376,1.6148038,1.6990759,-1.6076332,0.12337004,1.9214207,1.9661250
196,-1.6790295,0.31411131,1.6254803,1.7040399,-1.5998280,0.10684294,1.9109794,1.9633495
197,-1.6793023,0.29133531,1.6358384,1.7084500,-1.5918282,0.090285895,1.9001557,1.9599507
198,-1.6790927,0.26857395,1.6458667,1.7123085,-1.5836325,0.073716636,1.8889683,1.9559367
199,-1.6783950,0.24584542,1.6555535,1.7156180,-1.5752402,0.057152789,1.8774359,1.9513161
200,-1.6772043,0.22316793,1.6648877,1.7183815,-1.5666513,0.040611824,1.8655775,1.9460978
201,-1.6755170,0.20055961,1.6738582,1.7206021,-1.5578662,0.024111024,1.8534119,1.9402913
202,-1.6733307,0.17803854,1.6824542,1.7222834,-1.5488863,0.0076674494,1.8409581,1.9339063
203,-1.6706442,0.15562271,1.6906651,1.7234292,-1.5397136,-0.0087020972,1.8282350,1.9269530
204,-1.6674574,0.13332995,1.6984809,1.7240436,-1.5303506,-0.024981100,1.8152616,1.9194419
205,-1.6637714,0.11117796,1.7058914,1.7241309,-1.5208006,-0.041153364,1.8020567,1.9113838
206,-1.6595886,0.089184226,1.7128871,1.7236957,-1.5110676,-0.057203047,1.7886388,1.9027899
207,-1.6549124,0.067366023,1.7194587,1.7227428,-1.5011562,-0.073114685,1.7750265,1.8936716
208,-1.6497473,0.045740379,1.7255974,1.7212773,-1.4910715,-0.088873226,1.7612380,1.8840408
209,-1.6440991,0.024324044,1.7312945,1.7193046,-1.4808195,-0.10446405,1.7472913,1.8739094
210,-1.6379745,0.0031334627,1.7365419,1.7168301,-1.4704067,-0.11987301,1.7332041,1.8632896
211,-1.6313814,-0.017815250,1.7413319,1.7138594,-1.4598401,-0.13508644,1.7189938,1.8521939
212,-1.6243287,-0.038506340,1.7456571,1.7103987,-1.4491273,-0.15009117,1.7046773,1.8406351
213,-1.6168264,-0.058924433,1.7495107,1.7064538,-1.4382765,-0.16487459,1.6902714,1.8286260
214,-1.6088853,-0.079054566,1.7528861,1.7020311,-1.4272965,-0.17942462,1.6757923,1.8161796
215,-1.6005173,-0.098882209,1.7557774,1.6971371,-1.4161964,-0.19372977,1.6612556,1.8033093
216,-1.5917352,-0.11839329,1.7581790,1.6917783,-1.4049859,-0.20777912,1.6466766,1.7900282
217,-1.5825526,-0.13757421,1.7600859,1.6859615,-1.3936752,-0.22156235,1.6320700,1.7763498
218,-1.5729839,-0.15641187,1.7614935,1.6796936,-1.3822748,-0.23506979,1.6174501,1.7622879
219,-1.5630444,-0.17489370,1.7623978,1.6729816,-1.3707955,-0.24829236,1.6028304,1.7478558
220,-1.5527500,-0.19300766,1.7627952,1.6658327,-1.3592487,-0.26122165,1.5882241,1.7330675
221,-1.5421174,-0.21074226,1.7626826,1.6582542,-1.3476459,-0.27384987,1.5736436,1.7179367
222,-1.5311637,-0.22808662,1.7620576,1.6502536,-1.3359988,-0.28616992,1.5591006,1.7024771
223,-1.5199067,-0.24503039,1.7609181,1.6418382,-1.3243197,-0.29817532,1.5446063,1.6867026
224,-1.5083649,-0.26156388,1.7592626,1.6330159,-1.3126206,-0.30986029,1.5301714,1.6706270
225,-1.4965570,-0.27767799,1.7570902,1.6237942,-1.3009139,-0.32121970,1.5158055,1.6542641
226,-1.4845022,-0.29336425,1.7544005,1.6141811,-1.2892123,-0.33224907,1.5015178,1.6376277
227,-1.4722200,-0.30861482,1.7511937,1.6041845,-1.2775282,-0.34294461,1.4873169,1.6207316
228,-1.4597302,-0.32342254,1.7474703,1.5938123,-1.2658742,-0.35330318,1.4732104,1.6035894
229,-1.4470529,-0.33778087,1.7432315,1.5830727,-1.2542629,-0.36332229,1.4592055,1.5862147
230,-1.4342082,-0.35168395,1.7384792,1.5719738,-1.2427068,-0.37300010,1.4453084,1.5686212
231,-1.4212165,-0.36512659,1.7332155,1.5605240,-1.2312184,-0.38233541,1.4315248,1.5508221
232,-1.4080980,-0.37810426,1.7274433,1.5487314,-1.2198098,-0.39132765,1.4178596,1.5328310
233,-1.3948731,-0.39061310,1.7211659,1.5366045,-1.2084931,-0.39997686,1.4043170,1.5146609
234,-1.3815620,-0.40264993,1.7143870,1.5241518,-1.1972803,-0.40828371,1.3909006,1.4963249
235,-1.3681848,-0.41421226,1.7071111,1.5113817,-1.1861828,-0.41624941,1.3776131,1.4778361
236,-1.3547613,-0.42529822,1.6993430,1.4983028,-1.1752120,-0.42387580,1.3644566,1.4592072
237,-1.3413112,-0.43590666,1.6910880,1.4849238,-1.1643787,-0.43116524,1.3514325,1.4404509
238,-1.3278538,-0.44603706,1.6823521,1.4712534,-1.1536934,-0.43812064,1.3385417,1.4215795
239,-1.3144080,-0.45568956,1.6731414,1.4573002,-1.1431662,-0.44474541,1.3257842,1.4026055
240,-1.3009923,-0.46486495,1.6634628,1.4430731,-1.1328068,-0.45104348,1.3131595,1.3835408
241,-1.2876247,-0.47356466,1.6533235,1.4285809,-1.1226243,-0.45701925,1.3006664,1.3643974
242,-1.2743226,-0.48179074,1.6427312,1.4138325,-1.1126272,-0.46267755,1.2883031,1.3451871
243,-1.2611030,-0.48954586,1.6316941,1.3988368,-1.1028235,-0.46802366,1.2760673,1.3259212
244,-1.2479820,-0.49683328,1.6202206,1.3836028,-1.0932206,-0.47306324,1.2639561,1.3066112
245,-1.2349753,-0.50365688,1.6083198,1.3681396,-1.0838252,-0.47780234,1.2519659,1.2872680
246,-1.2220976,-0.51002108,1.5960009,1.3524562,-1.0746436,-0.48224735,1.2400929,1.2679025
247,-1.2093630,-0.51593086,1.5832736,1.3365616,-1.0656810,-0.48640498,1.2283325,1.2485252
248,-1.1967847,-0.52139176,1.5701481,1.3204652,-1.0569421,-0.49028225,1.2166797,1.2291467
249,-1.1843752,-0.52640983,1.5566347,1.3041759,-1.0484310,-0.49388641,1.2051292,1.2097770
250,-1.1721460,-0.53099160,1.5427442,1.2877030,-1.0401509,-0.49722497,1.1936752,1.1904259
251,-1.1601077,-0.53514411,1.5284876,1.2710559,-1.0321041,-0.50030565,1.1823115,1.1711033
252,-1.1482699,-0.53887483,1.5138762,1.2542437,-1.0242924,-0.50313632,1.1710316,1.1518184
253,-1.1366414,-0.54219170,1.4989217,1.2372758,-1.0167165,-0.50572502,1.1598286,1.1325804
254,-1.1252298,-0.54510304,1.4836358,1.2201615,-1.0093765,-0.50807990,1.1486954,1.1133983
255,-1.1140418,-0.54761757,1.4680308,1.2029102,-1.0022717,-0.51020920,1.1376246,1.0942806
256,-1.1030832,-0.54974438,1.4521188,1.1855313,-0.99540043,-0.51212121,1.1266086,1.0752358
257,-1.0923587,-0.55149289,1.4359125,1.1680342,-0.98876025,-0.51382425,1.1156396,1.0562720
258,-1.0818716,-0.55287283,1.4194244,1.1504283,-0.98234790,-0.51532665,1.1047096,1.0373972
259,-1.0716247,-0.55389425,1.4026674,1.1327231,-0.97615932,-0.51663670,1.0938105,1.0186189
260,-1.0616195,-0.55456741,1.3856545,1.1149280,-0.97018961,-0.51776264,1.0829343,0.99994451
261,-1.0518563,-0.55490283,1.3683988,1.0970526,-0.96443304,-0.51871263,1.0720727,0.98138123
262,-1.0423345,-0.55491124,1.3509133,1.0791063,-0.95888310,-0.51949470,1.0612174,0.96293589
263,-1.0330525,-0.55460355,1.3332115,1.0610986,-0.95353250,-0.52011676,1.0503602,0.94461513
264,-1.0240076,-0.55399081,1.3153066,1.0430390,-0.94837315,-0.52058654,1.0394930,0.92642532
265,-1.0151960,-0.55308419,1.2972119,1.0249369,-0.94339621,-0.52091159,1.0286077,0.90837260
266,-1.0066131,-0.55189497,1.2789408,1.0068019,-0.93859213,-0.52109926,1.0176963,0.89046283
267,-0.99825312,-0.55043450,1.2605067,0.98864337,-0.93395062,-0.52115665,1.0067510,0.87270166
268,-0.99010945,-0.54871415,1.2419230,0.97047080,-0.92946072,-0.52109061,0.99576408,0.85509448
269,-0.98217446,-0.54674533,1.2232029,0.95229360,-0.92511079,-0.52090770,0.98472818,0.83764644
270,-0.97443968,-0.54453941,1.2043596,0.93412114,-0.92088858,-0.52061419,0.97363608,0.82036244
271,-0.96689573,-0.54210775,1.1854065,0.91596279,-0.91678125,-0.52021605,0.96248084,0.80324718
272,-0.95953240,-0.53946163,1.1663564,0.89782785,-0.91277538,-0.51971890,0.95125581,0.78630508
273,-0.95233870,-0.53661222,1.1472225,0.87972558,-0.90885703,-0.51912801,0.93995468,0.76954036
274,-0.94530286,-0.53357060,1.1280175,0.86166520,-0.90501178,-0.51844831,0.92857147,0.75295699
275,-0.93841241,-0.53034770,1.1087542,0.84365585,-0.90122477,-0.51768432,0.91710058,0.73655874
276,-0.93165421,-0.52695427,1.0894450,0.82570661,-0.89748071,-0.51684020,0.90553682,0.72034914
277,-0.92501449,-0.52340090,1.0701024,0.80782647,-0.89376397,-0.51591970,0.89387538,0.70433149
278,-0.91847893,-0.51969794,1.0507385,0.79002435,-0.89005862,-0.51492617,0.88211192,0.68850889
279,-0.91203265,-0.51585551,1.0313653,0.77230908,-0.88634843,-0.51386255,0.87024254,0.67288423
280,-0.90566036,-0.51188349,1.0119945,0.75468938,-0.88261697,-0.51273135,0.85826382,0.65746015
281,-0.89934631,-0.50779147,0.99263771,0.73717386,-0.87884764,-0.51153466,0.84617283,0.64223913
282,-0.89307443,-0.50358876,0.97330617,0.71977101,-0.87502373,-0.51027416,0.83396715,0.62722342
283,-0.88682833,-0.49928435,0.95401093,0.70248921,-0.87112845,-0.50895108,0.82164485,0.61241505
284,-0.88059141,-0.49488689,0.93476274,0.68533668,-0.86714500,-0.50756624,0.80920457,0.59781588
285,-0.87434688,-0.49040470,0.91557211,0.66832152,-0.86305661,-0.50612002,0.79664545,0.58342756
286,-0.86807783,-0.48584573,0.89644924,0.65145166,-0.85884662,-0.50461240,0.78396720,0.56925154
287,-0.86176731,-0.48121755,0.87740406,0.63473486,-0.85449851,-0.50304294,0.77117007,0.55528908
288,-0.85539839,-0.47652737,0.85844620,0.61817872,-0.84999594,-0.50141077,0.75825486,0.54154124
289,-0.84895419,-0.47178197,0.83958497,0.60179066,-0.84532285,-0.49971464,0.74522296,0.52800892
290,-0.84241798,-0.46698773,0.82082938,0.58557790,-0.84046349,-0.49795290,0.73207627,0.51469280
291,-0.83577323,-0.46215062,0.80218812,0.56954745,-0.83540244,-0.49612352,0.71881729,0.50159341
292,-0.82900366,-0.45727617,0.78366957,0.55370613,-0.83012473,-0.49422411,0.70544907,0.48871107
293,-0.82209335,-0.45236948,0.76528177,0.53806052,-0.82461583,-0.49225190,0.69197518,0.47604594
294,-0.81502671,-0.44743523,0.74703242,0.52261696,-0.81886175,-0.49020380,0.67839977,0.46359801
295,-0.80778864,-0.44247762,0.72892893,0.50738159,-0.81284907,-0.48807640,0.66472752,0.45136707
296,-0.80036453,-0.43750043,0.71097834,0.49236026,-0.80656499,-0.48586596,0.65096364,0.43935276
297,-0.79274034,-0.43250699,0.69318738,0.47755858,-0.79999735,-0.48356846,0.63711384,0.42755456
298,-0.78490263,-0.42750017,0.67556243,0.46298188,-0.79313476,-0.48117962,0.62318435,0.41597175
299,-0.77683868,-0.42248241,0.65810955,0.44863524,-0.78596655,-0.47869490,0.60918190,0.40460347
300,-0.76853645,-0.41745569,0.64083446,0.43452341,-0.77848289,-0.47610952,0.59511368,0.39344869
301,-0.75998472,-0.41242156,0.62374257,0.42065089,-0.77067479,-0.47341852,0.58098736,0.38250623
302,-0.75117310,-0.40738110,0.60683894,0.40702186,-0.76253414,-0.47061674,0.56681101,0.37177474
303,-0.74209206,-0.40233501,0.59012832,0.39364018,-0.75405379,-0.46769886,0.55259317,0.36125270
304,-0.73273301,-0.39728351,0.57361514,0.38050941,-0.74522753,-0.46465942,0.53834276,0.35093847
305,-0.72308833,-0.39222644,0.55730353,0.36763278,-0.73605017,-0.46149285,0.52406906,0.34083022
306,-0.71315141,-0.38716323,0.54119728,0.35501318,-0.72651756,-0.45819351,0.50978172,0.33092600
307,-0.70291670,-0.38209287,0.52529990,0.34265318,-0.71662662,-0.45475568,0.49549074,0.32122370
308,-0.69237970,-0.37701402,0.50961461,0.33055500,-0.70637534,-0.45117361,0.48120640,0.31172105
309,-0.68153707,-0.37192492,0.49414432,0.31872050,-0.69576285,-0.44744156,0.46693927,0.30241567
310,-0.67038657,-0.36682347,0.47889167,0.30715120,-0.68478943,-0.44355377,0.45270016,0.29330500
311,-0.65892717,-0.36170720,0.46385904,0.29584826,-0.67345648,-0.43950457,0.43850013,0.28438637
312,-0.64715900,-0.35657334,0.44904851,0.28481249,-0.66176664,-0.43528833,0.42435040,0.27565695
313,-0.63508343,-0.35141877,0.43446193,0.27404430,-0.64972367,-0.43089954,0.41026240,0.26711381
314,-0.62270303,-0.34624008,0.42010090,0.26354378,-0.63733260,-0.42633279,0.39624765,0.25875385
315,-0.61002163,-0.34103357,0.40596678,0.25331061,-0.62459961,-0.42158283,0.38231783,0.25057387
316,-0.59704431,-0.33579528,0.39206069,0.24334413,-0.61153214,-0.41664461,0.36848466,0.24257053
317,-0.58377739,-0.33052100,0.37838354,0.23364330,-0.59813882,-0.41151325,0.35475991,0.23474036
318,-0.57022846,-0.32520628,0.36493604,0.22420669,-0.58442949,-0.40618412,0.34115539,0.22707980
319,-0.55640636,-0.31984646,0.35171869,0.21503252,-0.57041522,-0.40065281,0.32768287,0.21958515
320,-0.54232117,-0.31443672,0.33873181,0.20611865,-0.55610826,-0.39491522,0.31435410,0.21225260
321,-0.52798422,-0.30897202,0.32597553,0.19746254,-0.54152206,-0.38896752,0.30118073,0.20507824
322,-0.51340807,-0.30344720,0.31344984,0.18906131,-0.52667124,-0.38280623,0.28817432,0.19805805
323,-0.49860649,-0.29785698,0.30115455,0.18091172,-0.51157157,-0.37642817,0.27534630,0.19118792
324,-0.48359442,-0.29219593,0.28908934,0.17301016,-0.49623997,-0.36983056,0.26270792,0.18446362
325,-0.46838800,-0.28645859,0.27725375,0.16535268,-0.48069447,-0.36301098,0.25027024,0.17788086
326,-0.45300449,-0.28063938,0.26564721,0.15793498,-0.46495418,-0.35596741,0.23804412,0.17143524
327,-0.43746226,-0.27473271,0.25426903,0.15075242,-0.44903926,-0.34869825,0.22604015,0.16512229
328,-0.42178076,-0.26873297,0.24311842,0.14380002,-0.43297091,-0.34120233,0.21426863,0.15893746
329,-0.40598048,-0.26263451,0.23219449,0.13707249,-0.41677129,-0.33347892,0.20273960,0.15287614
330,-0.39008292,-0.25643174,0.22149631,0.13056421,-0.40046353,-0.32552777,0.19146273,0.14693362
331,-0.37411051,-0.25011909,0.21102283,0.12426927,-0.38407167,-0.31734908,0.18044736,0.14110518
332,-0.35808660,-0.24369106,0.20077298,0.11818145,-0.36762060,-0.30894355,0.16970246,0.13538602
333,-0.34203542,-0.23714222,0.19074561,0.11229424,-0.35113602,-0.30031236,0.15923658,0.12977128
334,-0.32598199,-0.23046725,0.18093957,0.10660088,-0.33464441,-0.29145719,0.14905787,0.12425611
335,-0.30995207,-0.22366095,0.17135365,0.10109431,-0.31817298,-0.28238023,0.13917404,0.11883556
336,-0.29397214,-0.21671826,0.16198662,0.095767270,-0.30174956,-0.27308418,0.12959233,0.11350472
337,-0.27806931,-0.20963426,0.15283726,0.090612220,-0.28540263,-0.26357227,0.12031952,0.10825862
338,-0.26227126,-0.20240423,0.14390432,0.085621423,-0.26916120,-0.25384823,0.11136191,0.10309229
339,-0.24660618,-0.19502364,0.13518657,0.080786927,-0.25305477,-0.24391630,0.10272527,0.098000760
340,-0.23110270,-0.18748814,0.12668279,0.076100593,-0.23711326,-0.23378124,0.094414874,0.092979073
341,-0.21578986,-0.17979365,0.11839177,0.071554104,-0.22136698,-0.22344835,0.086435461,0.088022276
342,-0.20069696,-0.17193630,0.11031234,0.067138987,-0.20584651,-0.21292340,0.078791234,0.083125442
343,-0.18585356,-0.16391247,0.10244334,0.062846625,-0.19058270,-0.20221268,0.071485853,0.078283677
344,-0.17128941,-0.15571884,0.094783681,0.058668277,-0.17560655,-0.19132297,0.064522425,0.073492126
345,-0.15703432,-0.14735234,0.087332281,0.054595099,-0.16094915,-0.18026155,0.057903500,0.068745984
346,-0.14311814,-0.13881021,0.080088123,0.050618156,-0.14664165,-0.16903615,0.051631071,0.064040506
347,-0.12957064,-0.13008998,0.073050241,0.046728444,-0.13271516,-0.15765498,0.045706567,0.059371015
348,-0.11642150,-0.12118951,0.066217723,0.042916912,-0.11920066,-0.14612670,0.040130858,0.054732913
349,-0.10370017,-0.11210696,0.059589714,0.039174476,-0.10612899,-0.13446040,0.034904254,0.050121687
350,-0.091435823,-0.10284083,0.053165423,0.035492042,-0.093530715,-0.12266558,0.030026511,0.045532927
351,-0.079657297,-0.093389970,0.046944122,0.031860526,-0.081436114,-0.11075215,0.025496831,0.040962325
352,-0.068392989,-0.083753557,0.040925150,0.028270873,-0.069875065,-0.098730401,0.021313876,0.036405695
353,-0.057670799,-0.073931119,0.035107911,0.024714078,-0.058876999,-0.086610980,0.017475769,0.031858977
354,-0.047518052,-0.063922536,0.029491878,0.021181205,-0.048470827,-0.074404877,0.013980109,0.027318249
355,-0.037961429,-0.053728042,0.024076591,0.017663411,-0.038684870,-0.062123396,0.010823981,0.022779739
356,-0.029026896,-0.043348227,0.018861661,0.014151962,-0.029546793,-0.049778133,0.0080039671,0.018239830
357,-0.020739630,-0.032784039,0.013846763,0.010638258,-0.021083541,-0.037380954,0.0055161630,0.013695076
358,-0.013123957,-0.022036780,0.0090316403,0.0071138497,-0.013321273,-0.024943966,0.0033561933,0.0091422085
359,-0.0062032788,-0.011108107,0.0044160999,0.0035704614,-0.0062852986,-0.012479489,0.0015192286,0.0045781479
360,-1.6278534e-08,-3.1225042e-08,1.2037162e-08,1.0001941e-08,-1.6458976e-08,-3.4810498e-08,3.7987888e-09,1.2789172e-08
