XRT N-S vs UFSS-A
      246.550
   -0.0845519
     0.673515
     0.130438
    0.0947884
     0.170318
     0.165877
XRT N-S vs UFSS-B
      217.815
     0.759352
    -0.276852
   -0.0211711
    0.0769951
   0.00462982
    0.0829186
XRT E-W vs UFSS-A
      3961.02
    -0.305267
    -0.987494
     0.243218
     0.194959
   -0.0245011
  -0.00150155
XRT E-W vs UFSS-B
      3968.67
    -0.481150
    -0.909712
     0.322742
     0.173841
   -0.0310739
    0.0615337
SOT N-S vs UFSS-A
      109.020
    -0.367384
     0.827158
     0.207389
     0.139037
     0.105443
     0.112781
SOT N-S vs UFSS-B
      79.4371
     0.514937
    -0.170496
    0.0390311
    0.0128564
    0.0182953
  -0.00112731
SOT E-W vs UFSS-A
      189.528
    -0.179172
     -1.01369
    0.0152071
     0.242105
   -0.0285753
    0.0457471
SOT E-W vs UFSS-B
      197.649
    -0.390698
    -0.894719
    0.0725633
     0.156039
   0.00989549
    0.0657050
