XRT N-S vs UFSS-A
      244.899
     0.260340
     0.311459
    0.0569442
   -0.0994374
    0.0983301
    -0.331462
XRT N-S vs UFSS-B
      220.764
     0.428458
    -0.898873
    -0.189973
    -0.100562
    0.0374679
    -0.276588
XRT E-W vs UFSS-A
      3960.00
    -0.779744
    -0.359714
    0.0724295
   -0.0474114
    -0.106268
    0.0690850
XRT E-W vs UFSS-B
      3967.12
    -0.871661
    -0.201824
     0.151532
  -0.00449934
    -0.105208
    0.0551606
SOT N-S vs UFSS-A
      118.350
     0.222581
     0.700076
     0.306272
    0.0477558
    0.0555095
     0.204224
SOT N-S vs UFSS-B
      93.4231
     0.236413
    -0.465586
    0.0383470
    0.0261753
    0.0263199
     0.178195
SOT E-W vs UFSS-A
      177.106
    -0.637551
    -0.597555
     0.177251
     0.102792
   -0.0390410
   -0.0502178
SOT E-W vs UFSS-B
      184.431
    -0.780023
    -0.468837
     0.238632
    0.0676553
   -0.0458721
   -0.0441121
