XRT N-S vs UFSS-A
      207.832
      2.37092
     -1.83444
     0.951118
      1.58898
    -0.822115
     0.194980
XRT N-S vs UFSS-B
      171.629
     0.499138
     -1.33427
     0.139608
     0.177191
    -0.190293
   -0.0365118
XRT E-W vs UFSS-A
      3963.31
    -0.956537
    0.0868961
    -0.186565
   -0.0744237
    0.0723809
    -0.105058
XRT E-W vs UFSS-B
      3954.10
    -0.387930
     -1.05886
     0.730405
     0.201794
    0.0663049
     0.171930
SOT N-S vs UFSS-A
      72.4602
     0.696767
     -1.95679
      1.33175
     0.280348
    0.0625916
     0.451019
SOT N-S vs UFSS-B
      33.4199
     0.275815
     -1.31607
     0.299829
    0.0432702
    0.0578014
     0.148840
SOT E-W vs UFSS-A
      190.951
    -0.918686
     0.321582
    -0.307191
   -0.0526258
    0.0513911
    -0.123423
SOT E-W vs UFSS-B
      181.760
    -0.633244
    -0.756903
     0.385927
    0.0864251
    0.0840975
    0.0280801
