XRT N-S vs UFSS-A
      244.294
    0.0192178
     0.720093
   -0.0100770
     0.221820
    0.0148441
   -0.0504565
XRT N-S vs UFSS-B
      215.857
     0.841997
    -0.392045
    -0.258175
     0.158974
   -0.0493443
    -0.153732
XRT E-W vs UFSS-A
      3962.18
    -0.307005
    -0.964269
    0.0400244
     0.312636
    -0.176141
   -0.0367607
XRT E-W vs UFSS-B
      3969.57
    -0.556801
    -0.851961
     0.151512
     0.283252
   -0.0869143
  -0.00365065
SOT N-S vs UFSS-A
      104.820
  -0.00855906
      1.00341
     0.170403
     0.318810
    -0.164218
    0.0247335
SOT N-S vs UFSS-B
      75.7541
     0.509570
   -0.0665134
    0.0946235
   -0.0278817
    0.0309542
    0.0491185
SOT E-W vs UFSS-A
      192.842
    -0.290602
     -1.00982
   -0.0175739
     0.122669
    0.0680397
   -0.0733763
SOT E-W vs UFSS-B
      200.392
    -0.566142
    -0.852228
     0.156780
     0.140244
     0.118189
   0.00130986
