XRT N-S vs UFSS-A
      198.571
      1.97798
     -2.53575
      1.49958
      1.44841
    -0.547087
     0.449567
XRT N-S vs UFSS-B
      163.174
     0.627950
     -1.27933
     0.472074
    0.0524516
    0.0275240
    0.0456328
XRT E-W vs UFSS-A
      3970.47
     -1.46674
    0.0300831
    -0.275693
    -0.653869
     0.387407
   -0.0524789
XRT E-W vs UFSS-B
      3959.02
    0.0772944
     -1.22860
     0.240912
     0.558388
    -0.228981
   -0.0232243
SOT N-S vs UFSS-A
      54.1060
     0.341512
     -2.57254
      1.50150
     0.384708
     0.217423
     0.434829
SOT N-S vs UFSS-B
      16.1524
     0.285895
     -1.38888
     0.470441
    -0.104523
     0.268759
     0.171322
SOT E-W vs UFSS-A
      206.904
    -0.597135
     0.154650
    -0.421682
   -0.0487650
    0.0245790
    -0.152197
SOT E-W vs UFSS-B
      196.017
    -0.236411
     -1.60041
     0.505746
   -0.0417676
     0.180726
     0.174908
