XRT N-S vs UFSS-A
      244.761
    -0.129219
     0.644114
     0.311551
   -0.0588360
  -0.00479239
    -0.152567
XRT N-S vs UFSS-B
      216.516
     0.703525
    -0.267946
     0.170806
    -0.153824
   -0.0184176
    -0.202892
XRT E-W vs UFSS-A
      3961.55
    -0.293282
     -1.03795
    0.0857928
     0.139047
     0.140484
    0.0317877
XRT E-W vs UFSS-B
      3969.20
    -0.497609
    -0.935566
     0.145425
     0.145761
    0.0964902
    0.0863563
SOT N-S vs UFSS-A
      104.834
    -0.249015
     0.838362
     0.320961
     0.248741
     0.145501
     0.106225
SOT N-S vs UFSS-B
      75.6757
     0.645292
   -0.0523808
     0.128153
     0.131882
    0.0506888
    0.0348658
SOT E-W vs UFSS-A
      191.342
    -0.294924
    -0.987224
   -0.0149591
     0.231088
    -0.114918
   -0.0494529
SOT E-W vs UFSS-B
      199.235
    -0.510834
    -0.892660
     0.100274
     0.227112
    -0.122331
   -0.0555540
