XRT N-S vs UFSS-A
      248.838
     0.175991
     0.926006
    0.0239567
   -0.0397216
   -0.0928224
   -0.0605167
XRT N-S vs UFSS-B
      190.280
     0.800480
    0.0244505
   -0.0147681
   0.00190188
   0.00129528
   -0.0575851
XRT E-W vs UFSS-A
      3949.13
    -0.322871
    -0.879269
    0.0780698
     0.147866
    -0.105686
   -0.0271411
XRT E-W vs UFSS-B
      3960.46
    -0.370879
    -0.880569
     0.175292
    0.0802475
    -0.142997
   -0.0385421
SOT N-S vs UFSS-A
      156.760
   -0.0507873
      1.00695
     0.168838
    0.0654773
     0.109279
   -0.0503638
SOT N-S vs UFSS-B
      96.1746
     0.534188
    0.0494693
     0.135797
    0.0569506
    0.0808967
   -0.0616364
SOT E-W vs UFSS-A
      130.593
    -0.224162
    -0.899887
    0.0108457
     0.115036
   -0.0306569
   -0.0481894
SOT E-W vs UFSS-B
      142.253
    -0.265305
    -0.786498
     0.104146
    0.0532934
   -0.0293911
   -0.0813878
