deg,XRT_AX,XRT_BX,XRT_AY,XRT_BY,SOT_AX,SOT_BX,SOT_AY,SOT_BY
valid,1,1,1,1,1,1,1,1,revB
offset,121.48546,112.75272,1983.7550,1986.4653,52.568092,43.434095,98.764446,101.74604
0,0.0000000,0.0000000,0.0000000,0.0000000,0.0000000,0.0000000,0.0000000,0.0000000
1,0.016729291,0.022723374,-0.0016864349,-0.0052584711,0.011433590,0.016048962,-0.0017602949,-0.0070020155
2,0.032872111,0.045488920,-0.0034494366,-0.010707215,0.022317180,0.032440182,-0.0031407750,-0.013808481
3,0.048394909,0.068278219,-0.0052956590,-0.016343302,0.032619662,0.049154913,-0.0041467087,-0.020412911
4,0.063265286,0.091073150,-0.0072311486,-0.022163036,0.042310657,0.066173548,-0.0047836469,-0.026809095
5,0.077452079,0.11385592,-0.0092613176,-0.028161966,0.051360595,0.083475651,-0.0050574048,-0.032991113
6,0.090925446,0.13660912,-0.011390918,-0.034334890,0.059740778,0.10104001,-0.0049740433,-0.038953359
7,0.10365694,0.15931574,-0.013624020,-0.040675874,0.067423454,0.11884468,-0.0045398494,-0.044690555
8,0.11561959,0.18195920,-0.015963988,-0.047178259,0.074381885,0.13686703,-0.0037613161,-0.050197767
9,0.12678796,0.20452342,-0.018413461,-0.053834679,0.080590408,0.15508379,-0.0026451221,-0.055470424
10,0.13713824,0.22699281,-0.020974334,-0.060637080,0.086024499,0.17347114,-0.0011981108,-0.060504324
11,0.14664828,0.24935234,-0.023647744,-0.067576734,0.090660832,0.19200469,0.00057273056,-0.065295653
12,0.15529767,0.27158751,-0.026434050,-0.074644259,0.094477339,0.21065961,0.0026602927,-0.069840991
13,0.16306779,0.29368444,-0.029332827,-0.081829643,0.097453258,0.22941065,0.0050573657,-0.074137322
14,0.16994186,0.31562987,-0.032342851,-0.089122267,0.099569189,0.24823221,0.0077566611,-0.078182046
15,0.17590496,0.33741116,-0.035462091,-0.096510923,0.10080714,0.26709837,0.010750834,-0.081972977
16,0.18094412,0.35901636,-0.038687706,-0.10398385,0.10115057,0.28598300,0.014032503,-0.085508356
17,0.18504830,0.38043418,-0.042016037,-0.11152874,0.10058443,0.30485979,0.017594277,-0.088786848
18,0.18820848,0.40165402,-0.045442605,-0.11913280,0.099095196,0.32370230,0.021428771,-0.091807546
19,0.19041762,0.42266602,-0.048962116,-0.12678275,0.096670926,0.34248407,0.025528632,-0.094569972
20,0.19167071,0.44346102,-0.052568457,-0.13446485,0.093301254,0.36117862,0.029886559,-0.097074074
21,0.19196481,0.46403061,-0.056254706,-0.14216496,0.088977444,0.37975956,0.034495324,-0.099320222
22,0.19129901,0.48436711,-0.060013136,-0.14986856,0.083692397,0.39820063,0.039347794,-0.10130920
23,0.18967445,0.50446359,-0.063835225,-0.15756076,0.077440681,0.41647575,0.044436949,-0.10304223
24,0.18709433,0.52431389,-0.067711667,-0.16522636,0.070218537,0.43455914,0.049755905,-0.10452089
25,0.18356392,0.54391258,-0.071632387,-0.17284987,0.062023896,0.45242529,0.055297932,-0.10574720
26,0.17909047,0.56325499,-0.075586556,-0.18041556,0.052856380,0.47004911,0.061056471,-0.10672354
27,0.17368328,0.58233721,-0.079562606,-0.18790746,0.042717310,0.48740592,0.067025158,-0.10745268
28,0.16735363,0.60115605,-0.083548256,-0.19530944,0.031609702,0.50447154,0.073197833,-0.10793773
29,0.16011476,0.61970908,-0.087530530,-0.20260522,0.019538262,0.52122236,0.079568564,-0.10818215
30,0.15198183,0.63799458,-0.091495782,-0.20977839,0.0065093791,0.53763537,0.086131662,-0.10818976
31,0.14297190,0.65601155,-0.095429721,-0.21681249,-0.0074688912,0.55368822,0.092881692,-0.10796464
32,0.13310384,0.67375968,-0.099317445,-0.22369100,-0.022386841,0.56935928,0.099813491,-0.10751120
33,0.12239836,0.69123937,-0.10314346,-0.23039741,-0.038233131,0.58462768,0.10692218,-0.10683412
34,0.11087786,0.70845165,-0.10689173,-0.23691524,-0.054994818,0.59947337,0.11420318,-0.10593832
35,0.098566464,0.72539822,-0.11054569,-0.24322806,-0.072657379,0.61387716,0.12165222,-0.10482896
36,0.085489884,0.74208139,-0.11408829,-0.24931955,-0.091204745,0.62782078,0.12926534,-0.10351143
37,0.071675394,0.75850408,-0.11750204,-0.25517355,-0.11061934,0.64128688,0.13703891,-0.10199126
38,0.057151746,0.77466977,-0.12076904,-0.26077404,-0.13088211,0.65425914,0.14496965,-0.10027419
39,0.041949097,0.79058249,-0.12387101,-0.26610521,-0.15197257,0.66672222,0.15305461,-0.098366071
40,0.026098930,0.80624680,-0.12678936,-0.27115149,-0.17386887,0.67866187,0.16129119,-0.096272878
41,0.0096339725,0.82166773,-0.12950521,-0.27589758,-0.19654781,0.69006494,0.16967715,-0.094000667
42,-0.0074118910,0.83685077,-0.13199942,-0.28032850,-0.21998489,0.70091937,0.17821060,-0.091555560
43,-0.025003704,0.85180184,-0.13425269,-0.28442956,-0.24415442,0.71121428,0.18689002,-0.088943709
44,-0.043105530,0.86652724,-0.13624554,-0.28818647,-0.26902951,0.72093995,0.19571424,-0.086171277
45,-0.061680549,0.88103362,-0.13795840,-0.29158530,-0.29458216,0.73008785,0.20468246,-0.083244406
46,-0.080691149,0.89532795,-0.13937162,-0.29461257,-0.32078334,0.73865066,0.21379424,-0.080169190
47,-0.10009902,0.90941747,-0.14046558,-0.29725521,-0.34760300,0.74662230,0.22304948,-0.076951653
48,-0.11986528,0.92330969,-0.14122067,-0.29950066,-0.37501020,0.75399792,0.23244847,-0.073597714
49,-0.13995052,0.93701228,-0.14161737,-0.30133682,-0.40297314,0.76077389,0.24199181,-0.070113168
50,-0.16031498,0.95053311,-0.14163630,-0.30275213,-0.43145924,0.76694786,0.25168046,-0.066503655
51,-0.18091858,0.96388014,-0.14125828,-0.30373556,-0.46043521,0.77251873,0.26151573,-0.062774635
52,-0.20172108,0.97706143,-0.14046434,-0.30427664,-0.48986711,0.77748663,0.27149923,-0.058931360
53,-0.22268215,0.99008510,-0.13923580,-0.30436548,-0.51972047,0.78185294,0.28163290,-0.054978855
54,-0.24376148,1.0029592,-0.13755434,-0.30399281,-0.54996030,0.78562029,0.29191900,-0.050921888
55,-0.26491890,1.0156919,-0.13540198,-0.30314993,-0.58055121,0.78879254,0.30236006,-0.046764945
56,-0.28611448,1.0282911,-0.13276118,-0.30182882,-0.61145749,0.79137473,0.31295890,-0.042512215
57,-0.30730860,1.0407647,-0.12961490,-0.30002206,-0.64264316,0.79337313,0.32371862,-0.038167559
58,-0.32846209,1.0531204,-0.12594659,-0.29772290,-0.67407204,0.79479517,0.33464257,-0.033734494
59,-0.34953632,1.0653657,-0.12174029,-0.29492526,-0.70570787,0.79564944,0.34573433,-0.029216171
60,-0.37049329,1.0775080,-0.11698064,-0.29162374,-0.73751436,0.79594564,0.35699769,-0.024615358
61,-0.39129574,1.0895542,-0.11165293,-0.28781360,-0.76945527,0.79569457,0.36843668,-0.019934417
62,-0.41190722,1.1015110,-0.10574317,-0.28349079,-0.80149446,0.79490813,0.38005547,-0.015175297
63,-0.43229222,1.1133849,-0.099238083,-0.27865197,-0.83359603,0.79359919,0.39185842,-0.010339508
64,-0.45241622,1.1251818,-0.092125198,-0.27329448,-0.86572432,0.79178167,0.40385005,-0.0054281152
65,-0.47224581,1.1369072,-0.084392844,-0.26741635,-0.89784403,0.78947041,0.41603496,-0.00044172208
66,-0.49174874,1.1485664,-0.076030208,-0.26101631,-0.92992028,0.78668117,0.42841789,0.0046195383
67,-0.51089405,1.1601640,-0.067027366,-0.25409378,-0.96191868,0.78343060,0.44100366,0.0097560133
68,-0.52965209,1.1717041,-0.057375317,-0.24664888,-0.99380538,0.77973613,0.45379712,0.014968539
69,-0.54799462,1.1831904,-0.047066014,-0.23868239,-1.0255472,0.77561601,0.46680319,0.020258445
70,-0.56589490,1.1946260,-0.036092391,-0.23019579,-1.0571115,0.77108919,0.48002678,0.025627560
71,-0.58332771,1.2060134,-0.024448394,-0.22119123,-1.0884666,0.76617528,0.49347281,0.031078215
72,-0.60026944,1.2173546,-0.012129001,-0.21167150,-1.1195816,0.76089453,0.50714614,0.036613244
73,-0.61669815,1.2286507,0.00086974805,-0.20164006,-1.1504262,0.75526774,0.52105159,0.042235982
74,-0.63259360,1.2399024,0.014550737,-0.19110099,-1.1809714,0.74931624,0.53519389,0.047950264
75,-0.64793732,1.2511098,0.028915750,-0.18005903,-1.2111889,0.74306177,0.54957768,0.053760422
76,-0.66271263,1.2622722,0.043965460,-0.16851948,-1.2410516,0.73652649,0.56420745,0.059671276
77,-0.67690468,1.2733882,0.059699413,-0.15648830,-1.2705333,0.72973289,0.57908754,0.065688128
78,-0.69050051,1.2844558,0.076116014,-0.14397196,-1.2996090,0.72270372,0.59422211,0.071816755
79,-0.70348904,1.2954723,0.093212524,-0.13097756,-1.3282549,0.71546193,0.60961514,0.078063392
80,-0.71586112,1.3064342,0.11098505,-0.11751269,-1.3564483,0.70803065,0.62527035,0.084434725
81,-0.72760952,1.3173374,0.12942854,-0.10358549,-1.3841678,0.70043308,0.64119123,0.090937873
82,-0.73872896,1.3281770,0.14853678,-0.089204613,-1.4113933,0.69269244,0.65738101,0.097580372
83,-0.74921610,1.3389475,0.16830241,-0.074379171,-1.4381057,0.68483193,0.67384261,0.10437016
84,-0.75906957,1.3496427,0.18871692,-0.059118755,-1.4642876,0.67687463,0.69057865,0.11131555
85,-0.76828993,1.3602556,0.20977063,-0.043433389,-1.4899226,0.66884350,0.70759139,0.11842521
86,-0.77687967,1.3707786,0.23145274,-0.027333516,-1.5149959,0.66076125,0.72488276,0.12570816
87,-0.78484321,1.3812033,0.25375133,-0.010829969,-1.5394938,0.65265033,0.74245431,0.13317372
88,-0.79218685,1.3915209,0.27665335,0.0060660502,-1.5634041,0.64453286,0.76030718,0.14083150
89,-0.79891878,1.4017217,0.30014467,0.023342994,-1.5867161,0.63643055,0.77844213,0.14869136
90,-0.80504900,1.4117954,0.32421009,0.040988997,-1.6094200,0.62836468,0.79685945,0.15676341
91,-0.81058934,1.4217313,0.34883332,0.058991900,-1.6315080,0.62035601,0.81555902,0.16505793
92,-0.81555338,1.4315179,0.37399708,0.077339273,-1.6529732,0.61242478,0.83454023,0.17358540
93,-0.81995640,1.4411432,0.39968306,0.096018445,-1.6738101,0.60459057,0.85380203,0.18235642
94,-0.82381536,1.4505946,0.42587199,0.11501652,-1.6940148,0.59687235,0.87334286,0.19138172
95,-0.82714881,1.4598592,0.45254364,0.13432043,-1.7135845,0.58928837,0.89316067,0.20067207
96,-0.82997687,1.4689234,0.47967687,0.15391690,-1.7325177,0.58185611,0.91325288,0.21023829
97,-0.83232112,1.4777732,0.50724966,0.17379256,-1.7508143,0.57459228,0.93361643,0.22009121
98,-0.83420456,1.4863942,0.53523916,0.19393389,-1.7684753,0.56751275,0.95424769,0.23024162
99,-0.83565154,1.4947717,0.56362170,0.21432728,-1.7855031,0.56063252,0.97514252,0.24070024
100,-0.83668766,1.5028905,0.59237286,0.23495907,-1.8019011,0.55396565,0.99629624,0.25147768
101,-0.83733972,1.5107353,0.62146749,0.25581553,-1.8176741,0.54752530,1.0177036,0.26258440
102,-0.83763563,1.5182903,0.65087977,0.27688294,-1.8328279,0.54132361,1.0393589,0.27403068
103,-0.83760429,1.5255395,0.68058323,0.29814754,-1.8473692,0.53537175,1.0612557,0.28582660
104,-0.83727555,1.5324670,0.71055084,0.31959564,-1.8613061,0.52967983,1.0833872,0.29798195
105,-0.83668011,1.5390563,0.74075501,0.34121356,-1.8746473,0.52425694,1.1057459,0.31050624
106,-0.83584940,1.5452912,0.77116767,0.36298769,-1.8874028,0.51911108,1.1283239,0.32340863
107,-0.83481550,1.5511552,0.80176032,0.38490454,-1.8995833,0.51424914,1.1511127,0.33669794
108,-0.83361106,1.5566319,0.83250406,0.40695068,-1.9112004,0.50967694,1.1741032,0.35038255
109,-0.83226917,1.5617048,0.86336965,0.42911284,-1.9222664,0.50539917,1.1972857,0.36447040
110,-0.83082329,1.5663577,0.89432758,0.45137786,-1.9327945,0.50141941,1.2206503,0.37896897
111,-0.82930712,1.5705742,0.92534810,0.47373278,-1.9427984,0.49774008,1.2441863,0.39388519
112,-0.82775453,1.5743385,0.95640128,0.49616477,-1.9522927,0.49436251,1.2678825,0.40922546
113,-0.82619944,1.5776345,0.98745708,0.51866122,-1.9612921,0.49128689,1.2917274,0.42499559
114,-0.82467573,1.5804468,1.0184854,0.54120971,-1.9698124,0.48851229,1.3157088,0.44120076
115,-0.82321712,1.5827600,1.0494560,0.56379805,-1.9778693,0.48603666,1.3398141,0.45784552
116,-0.82185708,1.5845593,1.0803390,0.58641425,-1.9854791,0.48385684,1.3640304,0.47493373
117,-0.82062874,1.5858300,1.1111042,0.60904660,-1.9926586,0.48196861,1.3883442,0.49246853
118,-0.81956478,1.5865582,1.1417219,0.63168359,-1.9994245,0.48036666,1.4127416,0.51045234
119,-0.81869733,1.5867301,1.1721624,0.65431401,-2.0057940,0.47904461,1.4372083,0.52888679
120,-0.81805787,1.5863326,1.2023962,0.67692688,-2.0117843,0.47799510,1.4617298,0.54777275
121,-0.81767716,1.5853534,1.2323944,0.69951152,-2.0174126,0.47720971,1.4862909,0.56711025
122,-0.81758512,1.5837803,1.2621281,0.72205750,-2.0226963,0.47667908,1.5108765,0.58689851
123,-0.81781075,1.5816022,1.2915690,0.74455469,-2.0276527,0.47639290,1.5354707,0.60713588
124,-0.81838205,1.5788084,1.3206894,0.76699323,-2.0322988,0.47633994,1.5600578,0.62781984
125,-0.81932593,1.5753890,1.3494617,0.78936354,-2.0366517,0.47650811,1.5846215,0.64894698
126,-0.82066811,1.5713349,1.3778593,0.81165635,-2.0407281,0.47688447,1.6091454,0.67051298
127,-0.82243309,1.5666378,1.4058559,0.83386265,-2.0445445,0.47745529,1.6336128,0.69251263
128,-0.82464402,1.5612902,1.4334259,0.85597372,-2.0481170,0.47820608,1.6580069,0.71493976
129,-0.82732267,1.5552853,1.4605444,0.87798113,-2.0514614,0.47912166,1.6823108,0.73778729
130,-0.83048933,1.5486174,1.4871873,0.89987673,-2.0545931,0.48018616,1.7065072,0.76104718
131,-0.83416277,1.5412816,1.5133312,0.92165262,-2.0575268,0.48138311,1.7305791,0.78471048
132,-0.83836019,1.5332739,1.5389535,0.94330121,-2.0602770,0.48269550,1.7545090,0.80876725
133,-0.84309714,1.5245912,1.5640325,0.96481513,-2.0628572,0.48410577,1.7782797,0.83320665
134,-0.84838748,1.5152315,1.5885473,0.98618730,-2.0652806,0.48559593,1.8018738,0.85801686
135,-0.85424334,1.5051938,1.6124779,1.0074109,-2.0675596,0.48714757,1.8252740,0.88318514
136,-0.86067507,1.4944780,1.6358052,1.0284793,-2.0697061,0.48874192,1.8484630,0.90869783
137,-0.86769122,1.4830849,1.6585113,1.0493861,-2.0717309,0.49035995,1.8714236,0.93454033
138,-0.87529850,1.4710166,1.6805789,1.0701251,-2.0736444,0.49198237,1.8941387,0.96069714
139,-0.88350176,1.4582761,1.7019921,1.0906906,-2.0754560,0.49358970,1.9165912,0.98715188
140,-0.89230395,1.4448673,1.7227358,1.1110766,-2.0771744,0.49516237,1.9387644,1.0138873
141,-0.90170613,1.4307954,1.7427960,1.1312777,-2.0788072,0.49668073,1.9606415,1.0408852
142,-0.91170747,1.4160664,1.7621598,1.1512884,-2.0803615,0.49812511,1.9822064,1.0681267
143,-0.92230520,1.4006875,1.7808152,1.1711037,-2.0818433,0.49947592,2.0034426,1.0955919
144,-0.93349467,1.3846668,1.7987515,1.1907183,-2.0832577,0.50071367,2.0243344,1.1232604
145,-0.94526931,1.3680135,1.8159592,1.2101275,-2.0846089,0.50181902,2.0448662,1.1511108
146,-0.95762065,1.3507379,1.8324295,1.2293264,-2.0859004,0.50277289,2.0650226,1.1791209
147,-0.97053836,1.3328510,1.8481550,1.2483103,-2.0871343,0.50355645,2.0847889,1.2072682
148,-0.98401026,1.3143652,1.8631295,1.2670746,-2.0883124,0.50415122,2.1041504,1.2355290
149,-0.99802234,1.2952935,1.8773476,1.2856149,-2.0894350,0.50453912,2.1230930,1.2638793
150,-1.0125588,1.2756501,1.8908052,1.3039268,-2.0905018,0.50470251,2.1416031,1.2922946
151,-1.0276021,1.2554500,1.9034993,1.3220058,-2.0915116,0.50462423,2.1596674,1.3207494
152,-1.0431330,1.2347091,1.9154278,1.3398476,-2.0924622,0.50428769,2.1772731,1.3492182
153,-1.0591305,1.2134443,1.9265901,1.3574480,-2.0933505,0.50367688,2.1944079,1.3776746
154,-1.0755721,1.1916731,1.9369862,1.3748027,-2.0941727,0.50277645,2.2110601,1.4060920
155,-1.0924338,1.1694141,1.9466174,1.3919074,-2.0949239,0.50157173,2.2272184,1.4344433
156,-1.1096898,1.1466865,1.9554860,1.4087579,-2.0955986,0.50004877,2.2428721,1.4627013
157,-1.1273133,1.1235102,1.9635953,1.4253497,-2.0961904,0.49819443,2.2580111,1.4908380
158,-1.1452759,1.0999061,1.9709495,1.4416787,-2.0966922,0.49599634,2.2726259,1.5188257
159,-1.1635479,1.0758955,1.9775540,1.4577405,-2.0970960,0.49344302,2.2867075,1.5466361
160,-1.1820984,1.0515003,1.9834149,1.4735306,-2.0973933,0.49052385,2.3002475,1.5742410
161,-1.2008955,1.0267432,1.9885394,1.4890446,-2.0975748,0.48722914,2.3132383,1.6016119
162,-1.2199060,1.0016473,1.9929354,1.5042780,-2.0976306,0.48355013,2.3256727,1.6287205
163,-1.2390961,0.97623633,1.9966119,1.5192260,-2.0975503,0.47947906,2.3375443,1.6555381
164,-1.2584308,0.95053426,1.9995785,1.5338840,-2.0973228,0.47500916,2.3488472,1.6820365
165,-1.2778745,0.92456565,2.0018457,1.5482471,-2.0969366,0.47013465,2.3595763,1.7081873
166,-1.2973908,0.89835533,2.0034248,1.5623106,-2.0963797,0.46485084,2.3697270,1.7339624
167,-1.3169428,0.87192848,2.0043277,1.5760693,-2.0956398,0.45915404,2.3792955,1.7593338
168,-1.3364931,0.84531051,2.0045670,1.5895181,-2.0947040,0.45304167,2.3882787,1.7842739
169,-1.3560039,0.81852704,2.0041561,1.6026518,-2.0935595,0.44651221,2.3966739,1.8087553
170,-1.3754370,0.79160387,2.0031088,1.6154651,-2.0921927,0.43956521,2.4044793,1.8327509
171,-1.3947542,0.76456687,2.0014395,1.6279524,-2.0905904,0.43220133,2.4116936,1.8562341
172,-1.4139170,0.73744197,1.9991633,1.6401082,-2.0887387,0.42442229,2.4183163,1.8791790
173,-1.4328871,0.71025512,1.9962956,1.6519268,-2.0866239,0.41623093,2.4243475,1.9015597
174,-1.4516261,0.68303218,1.9928523,1.6634023,-2.0842324,0.40763115,2.4297878,1.9233513
175,-1.4700960,0.65579893,1.9888496,1.6745288,-2.0815502,0.39862791,2.4346386,1.9445292
176,-1.4882591,0.62858098,1.9843042,1.6853003,-2.0785637,0.38922726,2.4389019,1.9650698
177,-1.5060779,0.60140373,1.9792330,1.6957106,-2.0752593,0.37943627,2.4425802,1.9849499
178,-1.5235157,0.57429233,1.9736532,1.7057534,-2.0716238,0.36926305,2.4456768,2.0041472
179,-1.5405362,0.54727160,1.9675823,1.7154224,-2.0676438,0.35871674,2.4481953,2.0226400
180,-1.5571040,0.52036602,1.9610378,1.7247112,-2.0633066,0.34780742,2.4501401,2.0404078
181,-1.5731842,0.49359964,1.9540375,1.7336132,-2.0585996,0.33654618,2.4515162,2.0574306
182,-1.5887431,0.46699605,1.9465991,1.7421217,-2.0535108,0.32494502,2.4523289,2.0736894
183,-1.6037479,0.44057836,1.9387406,1.7502303,-2.0480285,0.31301685,2.4525842,2.0891664
184,-1.6181667,0.41436910,1.9304798,1.7579320,-2.0421416,0.30077544,2.4522885,2.1038443
185,-1.6319690,0.38839023,1.9218346,1.7652203,-2.0358394,0.28823541,2.4514490,2.1177074
186,-1.6451254,0.36266305,1.9128226,1.7720883,-2.0291121,0.27541217,2.4500728,2.1307405
187,-1.6576078,0.33720821,1.9034616,1.7785293,-2.0219501,0.26232190,2.4481680,2.1429298
188,-1.6693895,0.31204560,1.8937691,1.7845365,-2.0143450,0.24898146,2.4457427,2.1542625
189,-1.6804454,0.28719440,1.8837622,1.7901030,-2.0062887,0.23540843,2.4428057,2.1647269
190,-1.6907518,0.26267297,1.8734582,1.7952222,-1.9977741,0.22162098,2.4393661,2.1743126
191,-1.7002865,0.23849887,1.8628738,1.7998875,-1.9887949,0.20763789,2.4354332,2.1830100
192,-1.7090292,0.21468877,1.8520256,1.8040921,-1.9793456,0.19347844,2.4310168,2.1908112
193,-1.7169610,0.19125849,1.8409296,1.8078296,-1.9694216,0.17916241,2.4261269,2.1977090
194,-1.7240651,0.16822291,1.8296018,1.8110935,-1.9590192,0.16471001,2.4207739,2.2036977
195,-1.7303262,0.14559600,1.8180576,1.8138776,-1.9481358,0.15014180,2.4149684,2.2087727
196,-1.7357309,0.12339074,1.8063120,1.8161757,-1.9367694,0.13547871,2.4087211,2.2129308
197,-1.7402679,0.10161916,1.7943796,1.8179818,-1.9249193,0.12074189,2.4020431,2.2161699
198,-1.7439276,0.080292275,1.7822745,1.8192901,-1.9125859,0.10595272,2.3949455,2.2184890
199,-1.7467022,0.059420086,1.7700103,1.8200950,-1.8997702,0.091132760,2.3874396,2.2198885
200,-1.7485862,0.039011578,1.7576002,1.8203911,-1.8864746,0.076303636,2.3795370,2.2203701
201,-1.7495757,0.019074695,1.7450567,1.8201732,-1.8727025,0.061487038,2.3712492,2.2199367
202,-1.7496691,-0.00038365920,1.7323918,1.8194365,-1.8584583,0.046704640,2.3625877,2.2185921
203,-1.7488665,-0.019357629,1.7196172,1.8181763,-1.8437475,0.031978049,2.3535643,2.2163418
204,-1.7471702,-0.037842407,1.7067437,1.8163884,-1.8285766,0.017328748,2.3441906,2.2131922
205,-1.7445843,-0.055834238,1.6937815,1.8140688,-1.8129532,0.0027780401,2.3344783,2.2091509
206,-1.7411150,-0.073330410,1.6807405,1.8112139,-1.7968860,-0.011653006,2.3244390,2.2042267
207,-1.7367703,-0.090329253,1.6676299,1.8078204,-1.7803847,-0.025943610,2.3140843,2.1984295
208,-1.7315603,-0.10683013,1.6544580,1.8038855,-1.7634602,-0.040073335,2.3034257,2.1917705
209,-1.7254967,-0.12283342,1.6412329,1.7994066,-1.7461241,-0.054022137,2.2924746,2.1842618
210,-1.7185933,-0.13834052,1.6279619,1.7943818,-1.7283893,-0.067770419,2.2812423,2.1759167
211,-1.7108657,-0.15335381,1.6146517,1.7888093,-1.7102696,-0.081299080,2.2697400,2.1667494
212,-1.7023311,-0.16787664,1.6013084,1.7826881,-1.6917798,-0.094589564,2.2579784,2.1567752
213,-1.6930088,-0.18191334,1.5879375,1.7760175,-1.6729354,-0.10762391,2.2459685,2.1460104
214,-1.6829193,-0.19546914,1.5745439,1.7687973,-1.6537532,-0.12038478,2.2337208,2.1344723
215,-1.6720851,-0.20855019,1.5611319,1.7610277,-1.6342506,-0.13285553,2.2212455,2.1221789
216,-1.6605300,-0.22116350,1.5477053,1.7527098,-1.6144459,-0.14502024,2.2085528,2.1091492
217,-1.6482796,-0.23331696,1.5342673,1.7438447,-1.5943582,-0.15686373,2.1956525,2.0954031
218,-1.6353606,-0.24501926,1.5208204,1.7344345,-1.5740074,-0.16837165,2.1825541,2.0809612
219,-1.6218012,-0.25627985,1.5073668,1.7244816,-1.5534141,-0.17953046,2.1692669,2.0658449
220,-1.6076310,-0.26710896,1.4939081,1.7139892,-1.5325995,-0.19032749,2.1557998,2.0500761
221,-1.5928806,-0.27751752,1.4804453,1.7029607,-1.5115855,-0.20075098,2.1421614,2.0336777
222,-1.5775817,-0.28751713,1.4669790,1.6914004,-1.4903946,-0.21079007,2.1283600,2.0166730
223,-1.5617673,-0.29712001,1.4535093,1.6793133,-1.4690497,-0.22043486,2.1144036,1.9990858
224,-1.5454711,-0.30633899,1.4400360,1.6667046,-1.4475743,-0.22967643,2.1002997,1.9809406
225,-1.5287278,-0.31518742,1.4265582,1.6535803,-1.4259922,-0.23850685,2.0860556,1.9622623
226,-1.5115726,-0.32367916,1.4130749,1.6399472,-1.4043277,-0.24691917,2.0716781,1.9430760
227,-1.4940417,-0.33182854,1.3995846,1.6258125,-1.3826052,-0.25490751,2.0571737,1.9234075
228,-1.4761716,-0.33965028,1.3860854,1.6111840,-1.3608495,-0.26246698,2.0425487,1.9032828
229,-1.4579994,-0.34715947,1.3725752,1.5960702,-1.3390855,-0.26959374,2.0278086,1.8827280
230,-1.4395627,-0.35437151,1.3590516,1.5804803,-1.3173382,-0.27628501,2.0129590,1.8617696
231,-1.4208990,-0.36130205,1.3455118,1.5644237,-1.2956327,-0.28253906,1.9980048,1.8404342
232,-1.4020463,-0.36796697,1.3319529,1.5479110,-1.2739942,-0.28835518,1.9829505,1.8187486
233,-1.3830426,-0.37438232,1.3183719,1.5309529,-1.2524474,-0.29373373,1.9678005,1.7967393
234,-1.3639257,-0.38056424,1.3047653,1.5135610,-1.2310174,-0.29867610,1.9525586,1.7744333
235,-1.3447335,-0.38652897,1.2911299,1.4957473,-1.2097288,-0.30318471,1.9372283,1.7518573
236,-1.3255034,-0.39229273,1.2774620,1.4775244,-1.1886060,-0.30726299,1.9218127,1.7290379
237,-1.3062727,-0.39787172,1.2637580,1.4589056,-1.1676730,-0.31091538,1.9063147,1.7060015
238,-1.2870783,-0.40328207,1.2500143,1.4399045,-1.1469535,-0.31414728,1.8907365,1.6827744
239,-1.2679562,-0.40853974,1.2362271,1.4205354,-1.1264707,-0.31696509,1.8750804,1.6593828
240,-1.2489422,-0.41366055,1.2223928,1.4008131,-1.1062474,-0.31937612,1.8593481,1.6358523
241,-1.2300711,-0.41866006,1.2085077,1.3807530,-1.0863056,-0.32138859,1.8435410,1.6122084
242,-1.2113770,-0.42355356,1.1945683,1.3603706,-1.0666669,-0.32301163,1.8276603,1.5884762
243,-1.1928932,-0.42835604,1.1805710,1.3396823,-1.0473520,-0.32425520,1.8117067,1.5646802
244,-1.1746518,-0.43308209,1.1665125,1.3187047,-1.0283811,-0.32513008,1.7956809,1.5408446
245,-1.1566839,-0.43774592,1.1523896,1.2974549,-1.0097735,-0.32564785,1.7795831,1.5169932
246,-1.1390195,-0.44236126,1.1381993,1.2759503,-0.99154743,-0.32582082,1.7634134,1.4931489
247,-1.1216873,-0.44694137,1.1239388,1.2542087,-0.97372055,-0.32566203,1.7471716,1.4693344
248,-1.1047148,-0.45149896,1.1096054,1.2322484,-0.95630941,-0.32518515,1.7308572,1.4455716
249,-1.0881280,-0.45604618,1.0951969,1.2100877,-0.93932957,-0.32440449,1.7144697,1.4218817
250,-1.0719516,-0.46059456,1.0807111,1.1877455,-0.92279559,-0.32333494,1.6980082,1.3982853
251,-1.0562087,-0.46515502,1.0661462,1.1652408,-0.90672093,-0.32199190,1.6814718,1.3748023
252,-1.0409207,-0.46973777,1.0515009,1.1425928,-0.89111795,-0.32039128,1.6648594,1.3514519
253,-1.0261077,-0.47435235,1.0367739,1.1198210,-0.87599785,-0.31854940,1.6481697,1.3282523
254,-1.0117878,-0.47900753,1.0219645,1.0969450,-0.86137064,-0.31648294,1.6314014,1.3052213
255,-0.99797777,-0.48371137,1.0070724,1.0739846,-0.84724514,-0.31420895,1.6145530,1.2823755
256,-0.98469227,-0.48847111,0.99209736,1.0509595,-0.83362894,-0.31174472,1.5976232,1.2597309
257,-0.97194436,-0.49329321,0.97703987,1.0278897,-0.82052834,-0.30910777,1.5806103,1.2373025
258,-0.95974525,-0.49818330,0.96190068,1.0047952,-0.80794839,-0.30631581,1.5635127,1.2151047
259,-0.94810432,-0.50314618,0.94668096,0.98169595,-0.79589284,-0.30338662,1.5463290,1.1931507
260,-0.93702909,-0.50818578,0.93138233,0.95861181,-0.78436413,-0.30033807,1.5290575,1.1714530
261,-0.92652519,-0.51330518,0.91600682,0.93556268,-0.77336338,-0.29718801,1.5116967,1.1500231
262,-0.91659639,-0.51850659,0.90055691,0.91256830,-0.76289042,-0.29395426,1.4942451,1.1288717
263,-0.90724457,-0.52379131,0.88503549,0.88964830,-0.75294372,-0.29065452,1.4767015,1.1080085
264,-0.89846974,-0.52915980,0.86944592,0.86682211,-0.74352045,-0.28730633,1.4590644,1.0874424
265,-0.89027001,-0.53461160,0.85379199,0.84410899,-0.73461647,-0.28392701,1.4413327,1.0671813
266,-0.88264165,-0.54014537,0.83807792,0.82152794,-0.72622632,-0.28053362,1.4235054,1.0472322
267,-0.87557907,-0.54575889,0.82230836,0.79909769,-0.71834326,-0.27714288,1.4055815,1.0276012
268,-0.86907486,-0.55144906,0.80648841,0.77683666,-0.71095926,-0.27377117,1.3875603,1.0082935
269,-0.86311983,-0.55721191,0.79062356,0.75476294,-0.70406505,-0.27043443,1.3694414,0.98931339
270,-0.85770301,-0.56304261,0.77471974,0.73289423,-0.69765009,-0.26714811,1.3512243,0.97066443
271,-0.85281172,-0.56893548,0.75878328,0.71124784,-0.69170268,-0.26392717,1.3329090,0.95234915
272,-0.84843159,-0.57488402,0.74282087,0.68984064,-0.68620990,-0.26078599,1.3144955,0.93436929
273,-0.84454661,-0.58088091,0.72683962,0.66868902,-0.68115770,-0.25773835,1.2959844,0.91672576
274,-0.84113920,-0.58691804,0.71084699,0.64780889,-0.67653093,-0.25479735,1.2773761,0.89941866
275,-0.83819025,-0.59298652,0.69485076,0.62721563,-0.67231335,-0.25197544,1.2586716,0.88244730
276,-0.83567919,-0.59907671,0.67885908,0.60692406,-0.66848770,-0.24928430,1.2398722,0.86581020
277,-0.83358404,-0.60517828,0.66288039,0.58694842,-0.66503575,-0.24673486,1.2209793,0.84950517
278,-0.83188150,-0.61128018,0.64692342,0.56730234,-0.66193833,-0.24433725,1.2019948,0.83352927
279,-0.83054701,-0.61737069,0.63099717,0.54799882,-0.65917536,-0.24210075,1.1829208,0.81787888
280,-0.82955481,-0.62343750,0.61511089,0.52905020,-0.65672597,-0.24003378,1.1637597,0.80254972
281,-0.82887806,-0.62946767,0.59927406,0.51046816,-0.65456850,-0.23814388,1.1445143,0.78753687
282,-0.82848890,-0.63544771,0.58349635,0.49226365,-0.65268056,-0.23643767,1.1251879,0.77283479
283,-0.82835850,-0.64136362,0.56778761,0.47444694,-0.65103913,-0.23492082,1.1057839,0.75843740
284,-0.82845724,-0.64720091,0.55215782,0.45702752,-0.64962059,-0.23359805,1.0863061,0.74433807
285,-0.82875468,-0.65294463,0.53661710,0.44001416,-0.64840077,-0.23247312,1.0667587,0.73052965
286,-0.82921978,-0.65857946,0.52117566,0.42341484,-0.64735508,-0.23154878,1.0471463,0.71700454
287,-0.82982088,-0.66408970,0.50584376,0.40723679,-0.64645850,-0.23082681,1.0274738,0.70375469
288,-0.83052587,-0.66945933,0.49063170,0.39148642,-0.64568569,-0.23030797,1.0077465,0.69077167
289,-0.83130226,-0.67467208,0.47554981,0.37616933,-0.64501107,-0.22999201,0.98796985,0.67804668
290,-0.83211729,-0.67971144,0.46060836,0.36129034,-0.64440886,-0.22987766,0.96814994,0.66557060
291,-0.83293802,-0.68456071,0.44581760,0.34685343,-0.64385319,-0.22996268,0.94829304,0.65333400
292,-0.83373142,-0.68920309,0.43118766,0.33286175,-0.64331811,-0.23024378,0.92840581,0.64132725
293,-0.83446451,-0.69362164,0.41672859,0.31931766,-0.64277775,-0.23071670,0.90849522,0.62954045
294,-0.83510441,-0.69779944,0.40245029,0.30622265,-0.64220630,-0.23137618,0.88856859,0.61796358
295,-0.83561848,-0.70171953,0.38836247,0.29357740,-0.64157816,-0.23221599,0.86863354,0.60658646
296,-0.83597438,-0.70536504,0.37447466,0.28138179,-0.64086798,-0.23322895,0.84869802,0.59539880
297,-0.83614022,-0.70871916,0.36079615,0.26963483,-0.64005072,-0.23440692,0.82877025,0.58439028
298,-0.83608461,-0.71176527,0.34733597,0.25833476,-0.63910174,-0.23574086,0.80885877,0.57355052
299,-0.83577680,-0.71448691,0.33410287,0.24747900,-0.63799688,-0.23722084,0.78897236,0.56286918
300,-0.83518671,-0.71686790,0.32110528,0.23706416,-0.63671250,-0.23883605,0.76912011,0.55233597
301,-0.83428511,-0.71889230,0.30835128,0.22708607,-0.63522559,-0.24057485,0.74931130,0.54194065
302,-0.83304362,-0.72054453,0.29584860,0.21753980,-0.63351378,-0.24242480,0.72955550,0.53167313
303,-0.83143487,-0.72180939,0.28360457,0.20841965,-0.63155548,-0.24437267,0.70986245,0.52152345
304,-0.82943255,-0.72267206,0.27162610,0.19971917,-0.62932988,-0.24640454,0.69024212,0.51148185
305,-0.82701150,-0.72311822,0.25991968,0.19143119,-0.62681706,-0.24850575,0.67070464,0.50153876
306,-0.82414777,-0.72313402,0.24849132,0.18354786,-0.62399801,-0.25066102,0.65126033,0.49168488
307,-0.82081875,-0.72270616,0.23734655,0.17606061,-0.62085471,-0.25285445,0.63191965,0.48191116
308,-0.81700318,-0.72182192,0.22649042,0.16896022,-0.61737021,-0.25506957,0.61269316,0.47220885
309,-0.81268124,-0.72046918,0.21592744,0.16223685,-0.61352864,-0.25728942,0.59359157,0.46256956
310,-0.80783466,-0.71863647,0.20566160,0.15588002,-0.60931527,-0.25949654,0.57462565,0.45298520
311,-0.80244668,-0.71631300,0.19569634,0.14987869,-0.60471658,-0.26167308,0.55580624,0.44344809
312,-0.79650223,-0.71348870,0.18603453,0.14422126,-0.59972031,-0.26380081,0.53714424,0.43395094
313,-0.78998786,-0.71015422,0.17667848,0.13889558,-0.59431546,-0.26586120,0.51865056,0.42448687
314,-0.78289190,-0.70630099,0.16762991,0.13388903,-0.58849237,-0.26783546,0.50033611,0.41504944
315,-0.77520440,-0.70192123,0.15888995,0.12918851,-0.58224273,-0.26970458,0.48221181,0.40563266
316,-0.76691725,-0.69700797,0.15045912,0.12478050,-0.57555965,-0.27144942,0.46428852,0.39623102
317,-0.75802415,-0.69155507,0.14233735,0.12065106,-0.56843762,-0.27305076,0.44657703,0.38683946
318,-0.74852070,-0.68555726,0.13452395,0.11678591,-0.56087262,-0.27448932,0.42908806,0.37745345
319,-0.73840434,-0.67901013,0.12701765,0.11317043,-0.55286208,-0.27574587,0.41183224,0.36806895
320,-0.72767446,-0.67191016,0.11981655,0.10978970,-0.54440492,-0.27680124,0.39482005,0.35868242
321,-0.71633234,-0.66425473,0.11291814,0.10662855,-0.53550156,-0.27763642,0.37806184,0.34929086
322,-0.70438118,-0.65604211,0.10631932,0.10367160,-0.52615395,-0.27823258,0.36156779,0.33989178
323,-0.69182611,-0.64727150,0.10001640,0.10090328,-0.51636554,-0.27857115,0.34534787,0.33048323
324,-0.67867420,-0.63794301,0.094005097,0.098307867,-0.50614131,-0.27863388,0.32941188,0.32106378
325,-0.66493439,-0.62805768,0.088280550,0.095869551,-0.49548775,-0.27840287,0.31376936,0.31163252
326,-0.65061753,-0.61761746,0.082837336,0.093572444,-0.48441290,-0.27786065,0.29842962,0.30218907
327,-0.63573637,-0.60662523,0.077669476,0.091400634,-0.47292626,-0.27699023,0.28340170,0.29273360
328,-0.62030546,-0.59508476,0.072770457,0.089338218,-0.46103886,-0.27577514,0.26869437,0.28326675
329,-0.60434121,-0.58300076,0.068133245,0.087369344,-0.44876319,-0.27419950,0.25431606,0.27378971
330,-0.58786180,-0.57037881,0.063750303,0.085478244,-0.43611320,-0.27224805,0.24027493,0.26430415
331,-0.57088714,-0.55722539,0.059613614,0.083649280,-0.42310427,-0.26990624,0.22657876,0.25481224
332,-0.55343884,-0.54354784,0.055714701,0.081866975,-0.40975320,-0.26716021,0.21323503,0.24531662
333,-0.53554017,-0.52935437,0.052044649,0.080116053,-0.39607814,-0.26399691,0.20025081,0.23582041
334,-0.51721598,-0.51465401,0.048594133,0.078381476,-0.38209858,-0.26040407,0.18763282,0.22632716
335,-0.49849265,-0.49945661,0.045353442,0.076648480,-0.36783532,-0.25637032,0.17538740,0.21684086
336,-0.47939802,-0.48377282,0.042312506,0.074902609,-0.35331040,-0.25188515,0.16352045,0.20736594
337,-0.45996137,-0.46761406,0.039460928,0.073129755,-0.33854708,-0.24693903,0.15203750,0.19790721
338,-0.44021325,-0.45099247,0.036788012,0.071316183,-0.32356978,-0.24152337,0.14094363,0.18846986
339,-0.42018550,-0.43392093,0.034282792,0.069448574,-0.30840401,-0.23563058,0.13024351,0.17905943
340,-0.39991113,-0.41641300,0.031934071,0.067514049,-0.29307636,-0.22925414,0.11994136,0.16968181
341,-0.37942423,-0.39848286,0.029730447,0.065500203,-0.27761439,-0.22238855,0.11004098,0.16034319
342,-0.35875990,-0.38014536,0.027660352,0.063395137,-0.26204661,-0.21502942,0.10054568,0.15105008
343,-0.33795415,-0.36141588,0.025712085,0.061187483,-0.24640239,-0.20717345,0.091458359,0.14180921
344,-0.31704383,-0.34231039,0.023873849,0.058866432,-0.23071191,-0.19881850,0.082781440,0.13262759
345,-0.29606651,-0.32284534,0.022133785,0.056421761,-0.21500610,-0.18996352,0.074516893,0.12351241
346,-0.27506039,-0.30303766,0.020480013,0.053843857,-0.19931652,-0.18060866,0.066666233,0.11447108
347,-0.25406422,-0.28290472,0.018900665,0.051123741,-0.18367536,-0.17075521,0.059230515,0.10551114
348,-0.23311719,-0.26246427,0.017383925,0.048253087,-0.16811533,-0.16040563,0.052210341,0.096640283
349,-0.21225881,-0.24173440,0.015918066,0.045224244,-0.15266956,-0.14956357,0.045605860,0.087866307
350,-0.19152883,-0.22073353,0.014491487,0.042030253,-0.13737157,-0.13823385,0.039416772,0.079197083
351,-0.17096716,-0.19948031,0.013092754,0.038664866,-0.12225517,-0.12642245,0.033642337,0.070640537
352,-0.15061371,-0.17799365,0.011710633,0.035122559,-0.10735438,-0.11413652,0.028281374,0.062204618
353,-0.13050831,-0.15629259,0.010334134,0.031398544,-0.092703364,-0.10138439,0.023332277,0.053897271
354,-0.11069065,-0.13439634,0.0089525391,0.027488785,-0.078336325,-0.088175502,0.018793016,0.045726409
355,-0.091200098,-0.11232417,0.0075554490,0.023390004,-0.064287449,-0.074520454,0.014661151,0.037699888
356,-0.072075663,-0.090095414,0.0061328121,0.019099689,-0.050590815,-0.060430945,0.010933842,0.029825481
357,-0.053355862,-0.067729395,0.0046749634,0.014616102,-0.037280313,-0.045919771,0.0076078590,0.022110849
358,-0.035078625,-0.045245390,0.0031726582,0.0099382845,-0.024389568,-0.031000792,0.0046795960,0.014563517
359,-0.017281199,-0.022662593,0.0016171062,0.0050660548,-0.011951857,-0.015688912,0.0021450840,0.0071908473
360,-4.7438647e-08,-6.3292390e-08,4.6027253e-09,1.4396846e-08,-3.2622268e-08,-4.4261590e-08,5.4431979e-09,1.9792921e-08
