XRT N-S vs UFSS-A
      191.415
     -1.39689
     -3.59692
      1.55213
     -1.15405
     0.635797
     0.107349
XRT N-S vs UFSS-B
      189.739
    -0.943736
     -1.56799
     0.241550
    -0.809795
     0.232511
    -0.199955
XRT E-W vs UFSS-A
      3996.26
     -10.9172
     0.582975
    -0.141380
     -6.78064
      3.31162
   -0.0671898
XRT E-W vs UFSS-B
      3976.42
     -9.05862
     -1.46277
     0.857714
     -5.73649
      2.87600
     0.286647
SOT N-S vs UFSS-A
      45.1307
     -1.07646
     -3.88386
      1.83128
    -0.854615
     0.472588
     0.327767
SOT N-S vs UFSS-B
      45.4479
     -2.48230
     -1.92601
     0.599459
     -1.70911
     0.627695
     0.149360
SOT E-W vs UFSS-A
      223.765
     0.396155
     0.880157
    -0.753367
     0.948410
    -0.380541
    -0.278441
SOT E-W vs UFSS-B
      205.647
     0.261822
     -1.21153
     0.213128
     0.734845
    -0.213097
   -0.0582324
