XRT N-S vs UFSS-A
      243.828
     0.637800
     0.298256
    0.0680688
    -0.199544
    0.0666714
    0.0337286
XRT N-S vs UFSS-B
      193.611
     0.507828
    -0.606817
   -0.0111301
    -0.122185
   -0.0195150
   -0.0680990
XRT E-W vs UFSS-A
      3951.90
    -0.949909
    -0.489851
     0.113466
    -0.118248
  -0.00272585
    0.0127505
XRT E-W vs UFSS-B
      3960.28
     -1.03290
    -0.363512
     0.108878
   -0.0173683
    -0.109096
    0.0670505
SOT N-S vs UFSS-A
      134.683
     0.582822
     0.529269
     0.237571
    0.0285880
   0.00598155
    0.0461596
SOT N-S vs UFSS-B
      82.8519
     0.396530
    -0.538019
     0.181931
    0.0677826
   -0.0207157
   -0.0150940
SOT E-W vs UFSS-A
      150.289
    -0.711141
    -0.459371
     0.211908
   -0.0745671
   -0.0568044
    0.0658017
SOT E-W vs UFSS-B
      159.134
    -0.750767
    -0.446798
     0.235694
    0.0165544
   -0.0706339
    0.0430747
