deg,XRT_AX,XRT_BX,XRT_AY,XRT_BY,SOT_AX,SOT_BX,SOT_AY,SOT_BY
valid,1,1,1,1,1,1,1,1,revB
offset,122.46671,113.21979,1982.6868,1985.4427,54.608202,45.138278,96.822520,99.645131
0,0.0000000,0.0000000,0.0000000,0.0000000,0.0000000,0.0000000,0.0000000,0.0000000
1,0.0047137994,0.012244265,-0.014456474,-0.016874314,0.010419652,0.015194416,-0.010125991,-0.0058623679
2,0.0088415531,0.024528689,-0.028505390,-0.033612977,0.019992309,0.030042203,-0.020030664,-0.011638926
3,0.012380574,0.036856433,-0.042119622,-0.050186739,0.028687888,0.044528934,-0.029703294,-0.017331001
4,0.015329356,0.049230960,-0.055272517,-0.066566016,0.036477913,0.058641140,-0.039133367,-0.022939841
5,0.017687553,0.061655996,-0.067937965,-0.082720974,0.043335575,0.072366332,-0.048310590,-0.028466608
6,0.019455956,0.074135503,-0.080090465,-0.098621602,0.049235801,0.085693032,-0.057224915,-0.033912364
7,0.020636460,0.086673638,-0.091705189,-0.11423779,0.054155311,0.098610786,-0.065866549,-0.039278069
8,0.021232036,0.099274724,-0.10275805,-0.12953943,0.058072671,0.11111019,-0.074225969,-0.044564569
9,0.021246697,0.11194320,-0.11322575,-0.14449645,0.060968342,0.12318289,-0.082293939,-0.049772585
10,0.020685458,0.12468361,-0.12308585,-0.15907893,0.062824729,0.13482161,-0.090061521,-0.054902709
11,0.019554298,0.13750053,-0.13231685,-0.17325719,0.063626215,0.14602017,-0.097520087,-0.059955392
12,0.017860118,0.15039854,-0.14089820,-0.18700182,0.063359200,0.15677347,-0.10466133,-0.064930936
13,0.015610695,0.16338222,-0.14881038,-0.20028381,0.062012128,0.16707749,-0.11147727,-0.069829487
14,0.012814635,0.17645605,-0.15603493,-0.21307460,0.059575515,0.17692931,-0.11796028,-0.074651025
15,0.0094813253,0.18962443,-0.16255452,-0.22534617,0.056041966,0.18632714,-0.12410307,-0.079395354
16,0.0056208814,0.20289160,-0.16835301,-0.23707108,0.051406190,0.19527022,-0.12989872,-0.084062100
17,0.0012440956,0.21626160,-0.17341542,-0.24822261,0.045665009,0.20375892,-0.13534065,-0.088650698
18,-0.0036376174,0.22973827,-0.17772805,-0.25877476,0.038817363,0.21179465,-0.14042266,-0.093160384
19,-0.0090122765,0.24332518,-0.18127846,-0.26870236,0.030864308,0.21937990,-0.14513894,-0.097590194
20,-0.014867390,0.25702559,-0.18405553,-0.27798115,0.021809009,0.22651820,-0.14948402,-0.10193895
21,-0.021190016,0.27084242,-0.18604948,-0.28658778,0.011656728,0.23321410,-0.15345285,-0.10620526
22,-0.027966815,0.28477823,-0.18725188,-0.29449997,0.00041480886,0.23947314,-0.15704072,-0.11038750
23,-0.035184118,0.29883516,-0.18765570,-0.30169648,-0.011907346,0.24530188,-0.16024332,-0.11448382
24,-0.042827976,0.31301491,-0.18725530,-0.30815723,-0.025298302,0.25070780,-0.16305672,-0.11849215
25,-0.050884227,0.32731871,-0.18604647,-0.31386330,-0.039744625,0.25569933,-0.16547737,-0.12241016
26,-0.059338551,0.34174726,-0.18402642,-0.31879704,-0.055230918,0.26028578,-0.16750208,-0.12623529
27,-0.068176535,0.35630074,-0.18119377,-0.32294208,-0.071739861,0.26447734,-0.16912806,-0.12996472
28,-0.077383723,0.37097876,-0.17754862,-0.32628339,-0.089252259,0.26828502,-0.17035288,-0.13359539
29,-0.086945683,0.38578034,-0.17309247,-0.32880730,-0.10774709,0.27172063,-0.17117445,-0.13712398
30,-0.096848060,0.40070386,-0.16782825,-0.33050158,-0.12720157,0.27479672,-0.17159107,-0.14054692
31,-0.10707663,0.41574709,-0.16176035,-0.33135541,-0.14759118,0.27752656,-0.17160138,-0.14386038
32,-0.11761737,0.43090710,-0.15489451,-0.33135949,-0.16888979,0.27992411,-0.17120437,-0.14706028
33,-0.12845649,0.44618031,-0.14723792,-0.33050599,-0.19106965,0.28200392,-0.17039936,-0.15014225
34,-0.13958050,0.46156242,-0.13879912,-0.32878863,-0.21410153,0.28378115,-0.16918602,-0.15310170
35,-0.15097625,0.47704841,-0.12958799,-0.32620267,-0.23795475,0.28527148,-0.16756432,-0.15593377
36,-0.16263099,0.49263255,-0.11961576,-0.32274492,-0.26259726,0.28649109,-0.16553455,-0.15863333
37,-0.17453243,0.50830837,-0.10889495,-0.31841377,-0.28799574,0.28745657,-0.16309729,-0.16119503
38,-0.18666874,0.52406863,-0.097439336,-0.31320918,-0.31411568,0.28818493,-0.16025344,-0.16361323
39,-0.19902864,0.53990537,-0.085263927,-0.30713269,-0.34092145,0.28869349,-0.15700416,-0.16588207
40,-0.21160140,0.55580985,-0.072384922,-0.30018742,-0.36837639,0.28899987,-0.15335086,-0.16799544
41,-0.22437692,0.57177259,-0.058819667,-0.29237806,-0.39644293,0.28912191,-0.14929525,-0.16994700
42,-0.23734572,0.58778334,-0.044586608,-0.28371086,-0.42508264,0.28907763,-0.14483926,-0.17173018
43,-0.25049900,0.60383113,-0.029705245,-0.27419359,-0.45425634,0.28888518,-0.13998506,-0.17333818
44,-0.26382867,0.61990421,-0.014196084,-0.26383559,-0.48392421,0.28856279,-0.13473502,-0.17476398
45,-0.27732736,0.63599014,0.0019194211,-0.25264767,-0.51404586,0.28812869,-0.12909175,-0.17600037
46,-0.29098844,0.65207571,0.018618919,-0.24064214,-0.54458045,0.28760109,-0.12305804,-0.17703993
47,-0.30480607,0.66814705,0.035879220,-0.22783273,-0.57548677,0.28699812,-0.11663685,-0.17787505
48,-0.31877519,0.68418958,0.053676355,-0.21423460,-0.60672335,0.28633777,-0.10983134,-0.17849793
49,-0.33289151,0.70018805,0.071985639,-0.19986430,-0.63824854,0.28563782,-0.10264480,-0.17890064
50,-0.34715159,0.71612658,0.090781731,-0.18473968,-0.67002065,0.28491583,-0.095080678,-0.17907505
51,-0.36155278,0.73198864,0.11003870,-0.16887991,-0.70199799,0.28418907,-0.087142546,-0.17901291
52,-0.37609324,0.74775713,0.12973008,-0.15230539,-0.73413899,0.28347447,-0.078834100,-0.17870584
53,-0.39077196,0.76341438,0.14982897,-0.13503770,-0.76640232,0.28278857,-0.070159142,-0.17814534
54,-0.40558873,0.77894219,0.17030806,-0.11709956,-0.79874696,0.28214746,-0.061121570,-0.17732280
55,-0.42054415,0.79432184,0.19113972,-0.098514780,-0.83113227,0.28156679,-0.051725364,-0.17622954
56,-0.43563960,0.80953417,0.21229607,-0.079308179,-0.86351815,0.28106165,-0.041974577,-0.17485678
57,-0.45087726,0.82455958,0.23374906,-0.059505532,-0.89586504,0.28064660,-0.031873324,-0.17319571
58,-0.46626005,0.83937809,0.25547050,-0.039133504,-0.92813410,0.28033556,-0.021425771,-0.17123747
59,-0.48179162,0.85396938,0.27743218,-0.018219587,-0.96028720,0.28014183,-0.010636124,-0.16897317
60,-0.49747636,0.86831281,0.29960590,0.0032079780,-0.99228709,0.28007804,0.00049138012,-0.16639393
61,-0.51331933,0.88238752,0.32196358,0.025120263,-1.0240974,0.28015608,0.011952481,-0.16349087
62,-0.52932624,0.89617240,0.34447727,0.047487732,-1.0556828,0.28038710,0.023742905,-0.16025516
63,-0.54550344,0.90964620,0.36711928,0.070280311,-1.0870090,0.28078150,0.035858372,-0.15667798
64,-0.56185784,0.92278756,0.38986221,0.093467469,-1.1180429,0.28134883,0.048294605,-0.15275062
65,-0.57839691,0.93557505,0.41267902,0.11701829,-1.1487525,0.28209786,0.061047333,-0.14846445
66,-0.59512863,0.94798724,0.43554310,0.14090154,-1.1791071,0.28303648,0.074112301,-0.14381091
67,-0.61206143,0.96000274,0.45842835,0.16508578,-1.2090774,0.28417169,0.087485272,-0.13878162
68,-0.62920415,0.97160024,0.48130921,0.18953941,-1.2386353,0.28550964,0.10116203,-0.13336831
69,-0.64656599,0.98275859,0.50416073,0.21423074,-1.2677545,0.28705555,0.11513840,-0.12756290
70,-0.66415647,0.99345686,0.52695865,0.23912812,-1.2964097,0.28881371,0.12941023,-0.12135746
71,-0.68198538,1.0036743,0.54967941,0.26419995,-1.3245774,0.29078750,0.14397339,-0.11474432
72,-0.70006268,1.0133907,0.57230025,0.28941483,-1.3522356,0.29297935,0.15882381,-0.10771598
73,-0.71839850,1.0225858,0.59479924,0.31474157,-1.3793639,0.29539076,0.17395743,-0.10026524
74,-0.73700307,1.0312403,0.61715534,0.34014932,-1.4059435,0.29802227,0.18937026,-0.092385119
75,-0.75588661,1.0393348,0.63934841,0.36560760,-1.4319572,0.30087349,0.20505832,-0.084068956
76,-0.77505936,1.0468509,0.66135930,0.39108640,-1.4573894,0.30394307,0.22101767,-0.075310380
77,-0.79453142,1.0537705,0.68316986,0.41655627,-1.4822265,0.30722874,0.23724442,-0.066103351
78,-0.81431278,1.0600763,0.70476299,0.44198834,-1.5064560,0.31072731,0.25373470,-0.056442168
79,-0.83441317,1.0657516,0.72612267,0.46735443,-1.5300677,0.31443465,0.27048466,-0.046321498
80,-0.85484209,1.0707804,0.74723397,0.49262712,-1.5530526,0.31834575,0.28749050,-0.035736387
81,-0.87560865,1.0751476,0.76808314,0.51777977,-1.5754037,0.32245469,0.30474841,-0.024682280
82,-0.89672160,1.0788389,0.78865754,0.54278662,-1.5971154,0.32675472,0.32225461,-0.013155039
83,-0.91818920,1.0818408,0.80894575,0.56762286,-1.6181840,0.33123821,0.34000534,-0.0011509612
84,-0.94001918,1.0841407,0.82893754,0.59226464,-1.6386072,0.33589672,0.35799683,0.011333208
85,-0.96221870,1.0857272,0.84862388,0.61668916,-1.6583846,0.34072101,0.37622530,0.024300256
86,-0.98479427,1.0865896,0.86799697,0.64087473,-1.6775170,0.34570107,0.39468697,0.037752488
87,-1.0077517,1.0867186,0.88705025,0.66480076,-1.6960071,0.35082616,0.41337804,0.051691715
88,-1.0310959,1.0861056,0.90577836,0.68844787,-1.7138590,0.35608484,0.43229468,0.066119237
89,-1.0548313,1.0847434,0.92417722,0.71179791,-1.7310781,0.36146496,0.45143302,0.081035831
90,-1.0789611,1.0826258,0.94224392,0.73483397,-1.7476714,0.36695377,0.47078914,0.096441739
91,-1.1034878,1.0797479,0.95997682,0.75754044,-1.7636474,0.37253792,0.49035908,0.11233665
92,-1.1284127,1.0761059,0.97737545,0.77990305,-1.7790156,0.37820347,0.51013879,0.12871972
93,-1.1537363,1.0716974,0.99444055,0.80190884,-1.7937870,0.38393600,0.53012417,0.14558949
94,-1.1794580,1.0665210,1.0111740,0.82354628,-1.8079738,0.38972058,0.55031102,0.16294398
95,-1.2055760,1.0605768,1.0275789,0.84480517,-1.8215892,0.39554188,0.57069504,0.18078058
96,-1.2320874,1.0538661,1.0436595,0.86567675,-1.8346478,0.40138416,0.59127182,0.19909611
97,-1.2589881,1.0463916,1.0594209,0.88615366,-1.8471648,0.40723134,0.61203685,0.21788679
98,-1.2862727,1.0381572,1.0748697,0.90622997,-1.8591568,0.41306704,0.63298545,0.23714824
99,-1.3139348,1.0291681,1.0900130,0.92590116,-1.8706409,0.41887467,0.65411285,0.25687546
100,-1.3419663,1.0194309,1.1048595,0.94516413,-1.8816351,0.42463739,0.67541408,0.27706286
101,-1.3703583,1.0089536,1.1194183,0.96401719,-1.8921584,0.43033823,0.69688404,0.29770422
102,-1.3991002,0.99774547,1.1336997,0.98246007,-1.9022300,0.43596013,0.71851743,0.31879272
103,-1.4281801,0.98581703,1.1477149,1.0004939,-1.9118701,0.44148597,0.74030879,0.34032091
104,-1.4575850,0.97318020,1.1614757,1.0181210,-1.9210991,0.44689863,0.76225243,0.36228076
105,-1.4873003,0.95984818,1.1749949,1.0353454,-1.9299379,0.45218101,0.78434250,0.38466359
106,-1.5173100,0.94583545,1.1882859,1.0521721,-1.9384078,0.45731615,0.80657288,0.40746015
107,-1.5475970,0.93115779,1.2013628,1.0686077,-1.9465303,0.46228721,0.82893728,0.43066057
108,-1.5781425,0.91583220,1.2142403,1.0846596,-1.9543270,0.46707754,0.85142913,0.45425439
109,-1.6089267,0.89987693,1.2269334,1.1003370,-1.9618196,0.47167075,0.87404164,0.47823057
110,-1.6399281,0.88331141,1.2394581,1.1156498,-1.9690299,0.47605071,0.89676777,0.50257748
111,-1.6711242,0.86615626,1.2518304,1.1306093,-1.9759796,0.48020165,0.91960021,0.52728291
112,-1.7024908,0.84843322,1.2640668,1.1452278,-1.9826902,0.48410816,0.94253138,0.55233410
113,-1.7340028,0.83016515,1.2761841,1.1595186,-1.9891829,0.48775529,0.96555345,0.57771775
114,-1.7656336,0.81137595,1.2881993,1.1734961,-1.9954786,0.49112850,0.98865828,0.60342001
115,-1.7973555,0.79209055,1.3001297,1.1871755,-2.0015979,0.49421381,1.0118375,0.62942650
116,-1.8291394,0.77233487,1.3119925,1.2005729,-2.0075610,0.49699777,1.0350823,0.65572234
117,-1.8609554,0.75213573,1.3238050,1.2137054,-2.0133873,0.49946750,1.0583839,0.68229214
118,-1.8927721,0.73152086,1.3355846,1.2265905,-2.0190958,0.50161078,1.0817328,0.70912006
119,-1.9245573,0.71051880,1.3473485,1.2392467,-2.0247047,0.50341601,1.1051196,0.73618976
120,-1.9562776,0.68915887,1.3591138,1.2516928,-2.0302315,0.50487232,1.1285344,0.76348450
121,-1.9878988,0.66747112,1.3708973,1.2639484,-2.0356930,0.50596953,1.1519669,0.79098707
122,-2.0193858,0.64548624,1.3827155,1.2760336,-2.0411048,0.50669824,1.1754067,0.81867988
123,-2.0507024,0.62323554,1.3945846,1.2879685,-2.0464821,0.50704982,1.1988431,0.84654497
124,-2.0818120,0.60075086,1.4065204,1.2997740,-2.0518385,0.50701644,1.2222649,0.87456398
125,-2.1126770,0.57806452,1.4185383,1.3114711,-2.0571872,0.50659109,1.2456610,0.90271824
126,-2.1432592,0.55520926,1.4306530,1.3230807,-2.0625397,0.50576764,1.2690195,0.93098874
127,-2.1735200,0.53221814,1.4428787,1.3346242,-2.0679069,0.50454079,1.2923287,0.95935620
128,-2.2034201,0.50912454,1.4552289,1.3461228,-2.0732983,0.50290614,1.3155762,0.98780105
129,-2.2329199,0.48596201,1.4677165,1.3575977,-2.0787222,0.50086018,1.3387498,1.0163035
130,-2.2619795,0.46276427,1.4803535,1.3690699,-2.0841858,0.49840029,1.3618366,1.0448435
131,-2.2905586,0.43956510,1.4931512,1.3805604,-2.0896948,0.49552480,1.3848238,1.0734008
132,-2.3186169,0.41639830,1.5061201,1.3920896,-2.0952538,0.49223291,1.4076981,1.1019551
133,-2.3461140,0.39329759,1.5192697,1.4036778,-2.1008662,0.48852478,1.4304461,1.1304857
134,-2.3730092,0.37029654,1.5326084,1.4153449,-2.1065340,0.48440146,1.4530542,1.1589722
135,-2.3992624,0.34742854,1.5461441,1.4271100,-2.1122577,0.47986494,1.4755085,1.1873937
136,-2.4248332,0.32472669,1.5598832,1.4389920,-2.1180368,0.47491810,1.4977951,1.2157294
137,-2.4496819,0.30222374,1.5738312,1.4510089,-2.1238693,0.46956476,1.5198997,1.2439585
138,-2.4737687,0.27995202,1.5879927,1.4631782,-2.1297518,0.46380959,1.5418080,1.2720603
139,-2.4970547,0.25794339,1.6023709,1.4755163,-2.1356798,0.45765819,1.5635054,1.3000138
140,-2.5195013,0.23622915,1.6169681,1.4880392,-2.1416472,0.45111698,1.5849775,1.3277983
141,-2.5410706,0.21483998,1.6317853,1.5007616,-2.1476470,0.44419327,1.6062095,1.3553932
142,-2.5617253,0.19380587,1.6468224,1.5136975,-2.1536707,0.43689519,1.6271865,1.3827779
143,-2.5814291,0.17315607,1.6620780,1.5268598,-2.1597086,0.42923165,1.6478937,1.4099320
144,-2.6001465,0.15291902,1.6775497,1.5402605,-2.1657497,0.42121238,1.6683163,1.4368351
145,-2.6178431,0.13312228,1.6932337,1.5539101,-2.1717821,0.41284786,1.6884392,1.4634673
146,-2.6344853,0.11379248,1.7091252,1.5678184,-2.1777924,0.40414928,1.7082475,1.4898086
147,-2.6500411,0.094955274,1.7252179,1.5819937,-2.1837664,0.39512854,1.7277264,1.5158394
148,-2.6644793,0.076635264,1.7415045,1.5964431,-2.1896886,0.38579822,1.7468610,1.5415405
149,-2.6777703,0.058855958,1.7579764,1.6111726,-2.1955428,0.37617150,1.7656364,1.5668926
150,-2.6898858,0.041639718,1.7746240,1.6261867,-2.2013117,0.36626217,1.7840380,1.5918772
151,-2.7007991,0.025007717,1.7914363,1.6414885,-2.2069769,0.35608460,1.8020511,1.6164758
152,-2.7104849,0.0089798857,1.8084012,1.6570801,-2.2125196,0.34565363,1.8196613,1.6406703
153,-2.7189196,-0.0064251239,1.8255056,1.6729618,-2.2179198,0.33498462,1.8368543,1.6644433
154,-2.7260813,-0.021189980,1.8427351,1.6891328,-2.2231570,0.32409334,1.8536160,1.6877774
155,-2.7319499,-0.035298707,1.8600742,1.7055906,-2.2282100,0.31299597,1.8699325,1.7106559
156,-2.7365069,-0.048736719,1.8775067,1.7223316,-2.2330572,0.30170902,1.8857901,1.7330625
157,-2.7397360,-0.061490851,1.8950149,1.7393506,-2.2376761,0.29024932,1.9011755,1.7549814
158,-2.7416227,-0.073549384,1.9125804,1.7566409,-2.2420443,0.27863395,1.9160755,1.7763972
159,-2.7421543,-0.084902073,1.9301839,1.7741945,-2.2461386,0.26688018,1.9304774,1.7972951
160,-2.7413204,-0.095540161,1.9478050,1.7920019,-2.2499357,0.25500548,1.9443686,1.8176609
161,-2.7391124,-0.10545640,1.9654226,1.8100524,-2.2534121,0.24302742,1.9577372,1.8374808
162,-2.7355242,-0.11464507,1.9830147,1.8283335,-2.2565442,0.23096363,1.9705713,1.8567417
163,-2.7305513,-0.12310198,2.0005587,1.8468318,-2.2593084,0.21883176,1.9828597,1.8754311
164,-2.7241918,-0.13082448,2.0180312,1.8655322,-2.2616809,0.20664945,1.9945914,1.8935369
165,-2.7164459,-0.13781145,2.0354082,1.8844185,-2.2636382,0.19443425,2.0057562,1.9110479
166,-2.7073158,-0.14406333,2.0526649,1.9034731,-2.2651572,0.18220359,2.0163440,1.9279533
167,-2.6968061,-0.14958210,2.0697764,1.9226771,-2.2662147,0.16997474,2.0263454,1.9442430
168,-2.6849236,-0.15437125,2.0867171,1.9420106,-2.2667881,0.15776473,2.0357515,1.9599076
169,-2.6716774,-0.15843580,2.1034608,1.9614523,-2.2668552,0.14559035,2.0445538,1.9749383
170,-2.6570786,-0.16178229,2.1199815,1.9809798,-2.2663943,0.13346808,2.0527447,1.9893270
171,-2.6411408,-0.16441873,2.1362523,2.0005699,-2.2653843,0.12141404,2.0603167,2.0030663
172,-2.6238796,-0.16635460,2.1522467,2.0201980,-2.2638048,0.10944396,2.0672634,2.0161493
173,-2.6053129,-0.16760083,2.1679377,2.0398388,-2.2616362,0.097573144,2.0735785,2.0285700
174,-2.5854609,-0.16816974,2.1832983,2.0594660,-2.2588597,0.085816404,2.0792569,2.0403230
175,-2.5643456,-0.16807508,2.1983016,2.0790524,-2.2554573,0.074188047,2.0842935,2.0514036
176,-2.5419914,-0.16733190,2.2129207,2.0985702,-2.2514121,0.062701825,2.0886844,2.0618076
177,-2.5184247,-0.16595658,2.2271289,2.1179906,-2.2467082,0.051370901,2.0924262,2.0715318
178,-2.4936740,-0.16396677,2.2408998,2.1372845,-2.2413308,0.040207816,2.0955160,2.0805734
179,-2.4677697,-0.16138137,2.2542071,2.1564220,-2.2352662,0.029224456,2.0979517,2.0889306
180,-2.4407441,-0.15822041,2.2670251,2.1753728,-2.2285021,0.018432021,2.0997321,2.0966019
181,-2.4126317,-0.15450511,2.2793282,2.1941060,-2.2210272,0.0078409989,2.1008565,2.1035867
182,-2.3834684,-0.15025772,2.2910916,2.2125906,-2.2128318,-0.0025388633,2.1013248,2.1098852
183,-2.3532922,-0.14550157,2.3022910,2.2307952,-2.2039074,-0.012698582,2.1011380,2.1154978
184,-2.3221426,-0.14026091,2.3129026,2.2486883,-2.1942471,-0.022629958,2.1002974,2.1204261
185,-2.2900608,-0.13456095,2.3229034,2.2662381,-2.1838452,-0.032325600,2.0988053,2.1246720
186,-2.2570895,-0.12842772,2.3322712,2.2834129,-2.1726977,-0.041778937,2.0966647,2.1282381
187,-2.2232731,-0.12188806,2.3409845,2.3001811,-2.1608022,-0.050984234,2.0938791,2.1311276
188,-2.1886570,-0.11496954,2.3490229,2.3165112,-2.1481576,-0.059936608,2.0904532,2.1333445
189,-2.1532883,-0.10770037,2.3563665,2.3323718,-2.1347646,-0.068632031,2.0863918,2.1348932
190,-2.1172149,-0.10010939,2.3629969,2.3477320,-2.1206256,-0.077067346,2.0817010,2.1357787
191,-2.0804863,-0.092225943,2.3688965,2.3625610,-2.1057442,-0.085240264,2.0763872,2.1360067
192,-2.0431526,-0.084079843,2.3740487,2.3768288,-2.0901261,-0.093149369,2.0704577,2.1355833
193,-2.0052650,-0.075701293,2.3784383,2.3905055,-2.0737783,-0.10079412,2.0639204,2.1345153
194,-1.9668757,-0.067120813,2.3820510,2.4035623,-2.0567097,-0.10817484,2.0567840,2.1328099
195,-1.9280372,-0.058369173,2.3848740,2.4159708,-2.0389308,-0.11529272,2.0490578,2.1304749
196,-1.8888030,-0.049477319,2.3868955,2.4277033,-2.0204535,-0.12214982,2.0407517,2.1275185
197,-1.8492271,-0.040476303,2.3881052,2.4387331,-2.0012916,-0.12874901,2.0318764,2.1239495
198,-1.8093636,-0.031397210,2.3884942,2.4490344,-1.9814603,-0.13509404,2.0224432,2.1197769
199,-1.7692672,-0.022271086,2.3880547,2.4585823,-1.9609766,-0.14118944,2.0124638,2.1150105
200,-1.7289926,-0.013128870,2.3867805,2.4673530,-1.9398588,-0.14704054,2.0019507,2.1096603
201,-1.6885949,-0.0040013167,2.3846668,2.4753238,-1.9181269,-0.15265348,1.9909169,2.1037366
202,-1.6481287,0.0050810654,2.3817100,2.4824731,-1.8958024,-0.15803513,1.9793761,2.0972504
203,-1.6076489,0.014088090,2.3779084,2.4887808,-1.8729081,-0.16319309,1.9673424,2.0902126
204,-1.5672099,0.022989958,2.3732612,2.4942277,-1.8494685,-0.16813568,1.9548303,2.0826349
205,-1.5268658,0.031757326,2.3677696,2.4987961,-1.8255091,-0.17287188,1.9418551,2.0745290
206,-1.4866702,0.040361372,2.3614359,2.5024699,-1.8010570,-0.17741131,1.9284322,2.0659069
207,-1.4466764,0.048773859,2.3542640,2.5052342,-1.7761403,-0.18176423,1.9145778,2.0567812
208,-1.4069366,0.056967197,2.3462593,2.5070756,-1.7507886,-0.18594145,1.9003082,2.0471642
209,-1.3675025,0.064914509,2.3374286,2.5079823,-1.7250324,-0.18995431,1.8856402,2.0370689
210,-1.3284249,0.072589682,2.3277802,2.5079440,-1.6989034,-0.19381469,1.8705910,2.0265083
211,-1.2897535,0.079967433,2.3173238,2.5069521,-1.6724341,-0.19753489,1.8551781,2.0154956
212,-1.2515370,0.087023356,2.3060704,2.5049994,-1.6456581,-0.20112765,1.8394192,2.0040442
213,-1.2138229,0.093733980,2.2940327,2.5020805,-1.6186099,-0.20460608,1.8233325,1.9921675
214,-1.1766575,0.10007682,2.2812245,2.4981918,-1.5913246,-0.20798363,1.8069361,1.9798792
215,-1.1400856,0.10603041,2.2676610,2.4933309,-1.5638381,-0.21127404,1.7902486,1.9671931
216,-1.1041506,0.11157437,2.2533587,2.4874977,-1.5361868,-0.21449127,1.7732886,1.9541228
217,-1.0688944,0.11668944,2.2383354,2.4806932,-1.5084078,-0.21764951,1.7560749,1.9406822
218,-1.0343574,0.12135751,2.2226102,2.4729206,-1.4805384,-0.22076308,1.7386263,1.9268852
219,-1.0005780,0.12556166,2.2062033,2.4641844,-1.4526164,-0.22384640,1.7209619,1.9127458
220,-0.96759313,0.12928622,2.1891360,2.4544911,-1.4246798,-0.22691394,1.7031006,1.8982777
221,-0.93543772,0.13251675,2.1714307,2.4438487,-1.3967668,-0.22998019,1.6850613,1.8834948
222,-0.90414488,0.13524010,2.1531110,2.4322668,-1.3689157,-0.23305958,1.6668632,1.8684110
223,-0.87374571,0.13744445,2.1342013,2.4197568,-1.3411646,-0.23616645,1.6485251,1.8530401
224,-0.84426933,0.13911927,2.1147270,2.4063317,-1.3135516,-0.23931501,1.6300657,1.8373955
225,-0.81574278,0.14025542,2.0947145,2.3920061,-1.2861146,-0.24251927,1.6115039,1.8214911
226,-0.78819099,0.14084510,2.0741908,2.3767960,-1.2588912,-0.24579301,1.5928581,1.8053402
227,-0.76163674,0.14088187,2.0531838,2.3607191,-1.2319186,-0.24914972,1.5741467,1.7889561
228,-0.73610060,0.14036069,2.0317220,2.3437945,-1.2052335,-0.25260255,1.5553877,1.7723521
229,-0.71160094,0.13927789,2.0098346,2.3260429,-1.1788718,-0.25616429,1.5365991,1.7555411
230,-0.68815387,0.13763119,1.9875512,2.3074862,-1.1528691,-0.25984731,1.5177984,1.7385361
231,-0.66577323,0.13541969,1.9649020,2.2881477,-1.1272601,-0.26366351,1.4990029,1.7213497
232,-0.64447058,0.13264387,1.9419177,2.2680522,-1.1020784,-0.26762427,1.4802295,1.7039945
233,-0.62425516,0.12930558,1.9186292,2.2472254,-1.0773570,-0.27174044,1.4614948,1.6864825
234,-0.60513393,0.12540800,1.8950676,2.2256944,-1.0531277,-0.27602228,1.4428149,1.6688260
235,-0.58711153,0.12095567,1.8712643,2.2034875,-1.0294213,-0.28047942,1.4242055,1.6510368
236,-0.57019033,0.11595446,1.8472509,2.1806338,-1.0062672,-0.28512082,1.4056820,1.6331263
237,-0.55437036,0.11041151,1.8230589,2.1571635,-0.98369381,-0.28995476,1.3872591,1.6151060
238,-0.53964943,0.10433526,1.7987197,2.1331079,-0.96172806,-0.29498878,1.3689511,1.5969869
239,-0.52602305,0.097735370,1.7742648,2.1084988,-0.94039550,-0.30022966,1.3507719,1.5787799
240,-0.51348454,0.090622742,1.7497255,2.0833691,-0.91972021,-0.30568341,1.3327345,1.5604954
241,-0.50202499,0.083009444,1.7251326,2.0577521,-0.89972474,-0.31135519,1.3148519,1.5421437
242,-0.49163336,0.074908696,1.7005169,2.0316819,-0.88043005,-0.31724936,1.2971359,1.5237347
243,-0.48229645,0.066334824,1.6759087,2.0051932,-0.86185545,-0.32336939,1.2795982,1.5052783
244,-0.47399902,0.057303224,1.6513376,1.9783208,-0.84401856,-0.32971787,1.2622496,1.4867838
245,-0.46672378,0.047830314,1.6268330,1.9511003,-0.82693523,-0.33629652,1.2451004,1.4682602
246,-0.46045148,0.037933492,1.6024236,1.9235673,-0.81061954,-0.34310613,1.2281602,1.4497165
247,-0.45516092,0.027631085,1.5781373,1.8957577,-0.79508375,-0.35014656,1.2114379,1.4311611
248,-0.45082910,0.016942307,1.5540014,1.8677076,-0.78033824,-0.35741675,1.1949418,1.4126023
249,-0.44743120,0.0058871979,1.5300423,1.8394530,-0.76639153,-0.36491468,1.1786796,1.3940479
250,-0.44494068,-0.0055134206,1.5062858,1.8110299,-0.75325019,-0.37263742,1.1626581,1.3755056
251,-0.44332937,-0.017238004,1.4827564,1.7824742,-0.74091889,-0.38058106,1.1468837,1.3569827
252,-0.44256753,-0.029264340,1.4594780,1.7538215,-0.72940033,-0.38874078,1.1313619,1.3384864
253,-0.44262395,-0.041569602,1.4364733,1.7251073,-0.71869529,-0.39711078,1.1160976,1.3200232
254,-0.44346600,-0.054130414,1.4137640,1.6963665,-0.70880254,-0.40568435,1.1010949,1.3015997
255,-0.44505974,-0.066922901,1.3913706,1.6676336,-0.69971895,-0.41445387,1.0863572,1.2832220
256,-0.44737002,-0.079922754,1.3693124,1.6389426,-0.69143939,-0.42341077,1.0718875,1.2648961
257,-0.45036052,-0.093105288,1.3476078,1.6103270,-0.68395683,-0.43254562,1.0576877,1.2466275
258,-0.45399392,-0.10644550,1.3262737,1.5818193,-0.67726228,-0.44184808,1.0437593,1.2284217
259,-0.45823194,-0.11991815,1.3053258,1.5534516,-0.67134488,-0.45130697,1.0301029,1.2102835
260,-0.46303545,-0.13349778,1.2847784,1.5252549,-0.66619187,-0.46091026,1.0167187,1.1922180
261,-0.46836457,-0.14715881,1.2646448,1.4972594,-0.66178867,-0.47064512,1.0036060,1.1742296
262,-0.47417878,-0.16087559,1.2449366,1.4694943,-0.65811887,-0.48049791,0.99076351,1.1563227
263,-0.48043700,-0.17462246,1.2256642,1.4419879,-0.65516431,-0.49045425,0.97818936,1.1385013
264,-0.48709772,-0.18837380,1.2068367,1.4147672,-0.65290510,-0.50049904,0.96588099,1.1207692
265,-0.49411908,-0.20210412,1.1884616,1.3878581,-0.65131968,-0.51061647,0.95383526,1.1031301
266,-0.50145897,-0.21578805,1.1705450,1.3612854,-0.65038489,-0.52079009,0.94204841,1.0855873
267,-0.50907514,-0.22940049,1.1530919,1.3350725,-0.65007599,-0.53100282,0.93051612,1.0681441
268,-0.51692531,-0.24291660,1.1361056,1.3092417,-0.65036677,-0.54123701,0.91923349,1.0508033
269,-0.52496726,-0.25631187,1.1195881,1.2838137,-0.65122958,-0.55147448,0.90819510,1.0335678
270,-0.53315894,-0.26956218,1.1035400,1.2588080,-0.65263541,-0.56169655,0.89739499,1.0164402
271,-0.54145854,-0.28264385,1.0879604,1.2342426,-0.65455401,-0.57188409,0.88682670,0.99942278
272,-0.54982464,-0.29553368,1.0728473,1.2101341,-0.65695388,-0.58201757,0.87648330,0.98251785
273,-0.55821625,-0.30820904,1.0581971,1.1864974,-0.65980243,-0.59207711,0.86635742,0.96572747
274,-0.56659295,-0.32064785,1.0440049,1.1633462,-0.66306603,-0.60204253,0.85644123,0.94905355
275,-0.57491495,-0.33282867,1.0302646,1.1406925,-0.66671011,-0.61189338,0.84672652,0.93249784
276,-0.58314321,-0.34473074,1.0169688,1.1185467,-0.67069924,-0.62160902,0.83720469,0.91606197
277,-0.59123949,-0.35633401,1.0041087,1.0969178,-0.67499723,-0.63116865,0.82786681,0.89974744
278,-0.59916649,-0.36761917,0.99167450,1.0758130,-0.67956721,-0.64055139,0.81870361,0.88355560
279,-0.60688788,-0.37856772,0.97965514,1.0552382,-0.68437176,-0.64973629,0.80970551,0.86748772
280,-0.61436839,-0.38916195,0.96803842,1.0351976,-0.68937297,-0.65870242,0.80086271,0.85154493
281,-0.62157392,-0.39938503,0.95681105,1.0156937,-0.69453258,-0.66742891,0.79216512,0.83572827
282,-0.62847158,-0.40922100,0.94595874,0.99672775,-0.69981204,-0.67589500,0.78360249,0.82003869
283,-0.63502975,-0.41865478,0.93546620,0.97829917,-0.70517264,-0.68408011,0.77516435,0.80447706
284,-0.64121820,-0.42767227,0.92531719,0.96040599,-0.71057560,-0.69196387,0.76684011,0.78904414
285,-0.64700808,-0.43626026,0.91549461,0.94304474,-0.71598218,-0.69952620,0.75861905,0.77374066
286,-0.65237205,-0.44440656,0.90598055,0.92621042,-0.72135379,-0.70674733,0.75049036,0.75856725
287,-0.65728427,-0.45209991,0.89675633,0.90989662,-0.72665208,-0.71360789,0.74244319,0.74352447
288,-0.66172049,-0.45933009,0.88780257,0.89409550,-0.73183903,-0.72008893,0.73446663,0.72861287
289,-0.66565807,-0.46608785,0.87909928,0.87879786,-0.73687709,-0.72617199,0.72654981,0.71383290
290,-0.66907605,-0.47236496,0.87062588,0.86399313,-0.74172925,-0.73183914,0.71868186,0.69918498
291,-0.67195516,-0.47815419,0.86236130,0.84966948,-0.74635916,-0.73707304,0.71085198,0.68466951
292,-0.67427787,-0.48344935,0.85428404,0.83581383,-0.75073120,-0.74185696,0.70304947,0.67028683
293,-0.67602840,-0.48824523,0.84637224,0.82241190,-0.75481061,-0.74617485,0.69526375,0.65603725
294,-0.67719275,-0.49253765,0.83860375,0.80944827,-0.75856357,-0.75001141,0.68748436,0.64192105
295,-0.67775874,-0.49632342,0.83095620,0.79690646,-0.76195728,-0.75335205,0.67970106,0.62793850
296,-0.67771599,-0.49960033,0.82340706,0.78476894,-0.76496006,-0.75618302,0.67190376,0.61408982
297,-0.67705592,-0.50236716,0.81593376,0.77301726,-0.76754146,-0.75849140,0.66408265,0.60037523
298,-0.67577182,-0.50462365,0.80851368,0.76163204,-0.76967229,-0.76026514,0.65622813,0.58679493
299,-0.67385877,-0.50637048,0.80112431,0.75059311,-0.77132477,-0.76149311,0.64833091,0.57334910
300,-0.67131368,-0.50760925,0.79374324,0.73987952,-0.77247253,-0.76216513,0.64038199,0.56003790
301,-0.66813528,-0.50834247,0.78634831,0.72946966,-0.77309076,-0.76227199,0.63237270,0.54686149
302,-0.66432409,-0.50857353,0.77891761,0.71934131,-0.77315622,-0.76180549,0.62429471,0.53382000
303,-0.65988240,-0.50830666,0.77142961,0.70947169,-0.77264735,-0.76075845,0.61614007,0.52091356
304,-0.65481426,-0.50754693,0.76386318,0.69983760,-0.77154429,-0.75912475,0.60790121,0.50814229
305,-0.64912546,-0.50630017,0.75619769,0.69041544,-0.76982897,-0.75689933,0.59957100,0.49550628
306,-0.64282346,-0.50457301,0.74841306,0.68118131,-0.76748516,-0.75407825,0.59114269,0.48300564
307,-0.63591740,-0.50237278,0.74048982,0.67211110,-0.76449851,-0.75065865,0.58261001,0.47064044
308,-0.62841802,-0.49970751,0.73240921,0.66318055,-0.76085658,-0.74663879,0.57396714,0.45841075
309,-0.62033767,-0.49658587,0.72415317,0.65436534,-0.75654890,-0.74201807,0.56520874,0.44631662
310,-0.61169020,-0.49301717,0.71570449,0.64564116,-0.75156700,-0.73679703,0.55632993,0.43435809
311,-0.60249095,-0.48901127,0.70704677,0.63698380,-0.74590445,-0.73097732,0.54732638,0.42253518
312,-0.59275670,-0.48457858,0.69816455,0.62836925,-0.73955683,-0.72456177,0.53819423,0.41084788
313,-0.58250557,-0.47973000,0.68904334,0.61977372,-0.73252183,-0.71755431,0.52893016,0.39929619
314,-0.57175702,-0.47447686,0.67966963,0.61117376,-0.72479919,-0.70996004,0.51953137,0.38788006
315,-0.56053173,-0.46883094,0.67003100,0.60254635,-0.71639075,-0.70178515,0.50999560,0.37659942
316,-0.54885159,-0.46280434,0.66011612,0.59386893,-0.70730045,-0.69303699,0.50032114,0.36545419
317,-0.53673958,-0.45640950,0.64991478,0.58511950,-0.69753429,-0.68372397,0.49050680,0.35444424
318,-0.52421973,-0.44965913,0.63941798,0.57627672,-0.68710038,-0.67385562,0.48055197,0.34356943
319,-0.51131706,-0.44256617,0.62861792,0.56731990,-0.67600887,-0.66344252,0.47045656,0.33282957
320,-0.49805746,-0.43514376,0.61750802,0.55822916,-0.66427196,-0.65249631,0.46022106,0.32222444
321,-0.48446766,-0.42740515,0.60608300,0.54898543,-0.65190388,-0.64102965,0.44984648,0.31175378
322,-0.47057514,-0.41936372,0.59433884,0.53957054,-0.63892086,-0.62905620,0.43933439,0.30141730
323,-0.45640803,-0.41103287,0.58227285,0.52996729,-0.62534106,-0.61659058,0.42868692,0.29121466
324,-0.44199507,-0.40242604,0.56988366,0.52015948,-0.61118458,-0.60364837,0.41790671,0.28114547
325,-0.42736550,-0.39355663,0.55717123,0.51013198,-0.59647339,-0.59024604,0.40699694,0.27120930
326,-0.41254899,-0.38443795,0.54413688,0.49987081,-0.58123127,-0.57640092,0.39596133,0.26140568
327,-0.39757556,-0.37508320,0.53078326,0.48936311,-0.56548378,-0.56213119,0.38480409,0.25173406
328,-0.38247550,-0.36550545,0.51711438,0.47859728,-0.54925820,-0.54745581,0.37352996,0.24219388
329,-0.36727929,-0.35571755,0.50313562,0.46756296,-0.53258344,-0.53239448,0.36214415,0.23278449
330,-0.35201751,-0.34573211,0.48885366,0.45625107,-0.51549000,-0.51696762,0.35065239,0.22350520
331,-0.33672080,-0.33556152,0.47427654,0.44465389,-0.49800988,-0.50119629,0.33906084,0.21435526
332,-0.32141972,-0.32521782,0.45941360,0.43276504,-0.48017653,-0.48510219,0.32737615,0.20533388
333,-0.30614472,-0.31471274,0.44427550,0.42057953,-0.46202473,-0.46870754,0.31560538,0.19644018
334,-0.29092604,-0.30405764,0.42887416,0.40809378,-0.44359057,-0.45203512,0.30375604,0.18767324
335,-0.27579366,-0.29326350,0.41322275,0.39530563,-0.42491128,-0.43510812,0.29183604,0.17903209
336,-0.26077719,-0.28234086,0.39733568,0.38221436,-0.40602521,-0.41795018,0.27985368,0.17051569
337,-0.24590583,-0.27129981,0.38122852,0.36882073,-0.38697173,-0.40058527,0.26781764,0.16212294
338,-0.23120830,-0.26015000,0.36491805,0.35512692,-0.36779110,-0.38303765,0.25573693,0.15385269
339,-0.21671274,-0.24890056,0.34842210,0.34113660,-0.34852440,-0.36533186,0.24362092,0.14570373
340,-0.20244671,-0.23756012,0.33175964,0.32685487,-0.32921343,-0.34749258,0.23147928,0.13767480
341,-0.18843704,-0.22613678,0.31495063,0.31228830,-0.30990059,-0.32954467,0.21932199,0.12976459
342,-0.17470986,-0.21463811,0.29801602,0.29744491,-0.29062882,-0.31151301,0.20715927,0.12197172
343,-0.16129046,-0.20307110,0.28097772,0.28233412,-0.27144144,-0.29342256,0.19500161,0.11429480
344,-0.14820332,-0.19144220,0.26385848,0.26696678,-0.25238209,-0.27529818,0.18285973,0.10673235
345,-0.13547198,-0.17975728,0.24668191,0.25135511,-0.23349462,-0.25716468,0.17074453,0.099282876
346,-0.12311906,-0.16802163,0.22947236,0.23551269,-0.21482295,-0.23904670,0.15866713,0.091944842
347,-0.11116617,-0.15623996,0.21225492,0.21945444,-0.19641100,-0.22096867,0.14663877,0.084716672
348,-0.099633884,-0.14441639,0.19505529,0.20319656,-0.17830257,-0.20295477,0.13467085,0.077596763
349,-0.088541716,-0.13255448,0.17789977,0.18675650,-0.16054123,-0.18502884,0.12277486,0.070583485
350,-0.077908067,-0.12065719,0.16081517,0.17015295,-0.14317022,-0.16721437,0.11096242,0.063675189
351,-0.067750203,-0.10872694,0.14382876,0.15340574,-0.12623235,-0.14953442,0.099245161,0.056870210
352,-0.058084233,-0.096765548,0.12696818,0.13653583,-0.10976988,-0.13201158,0.087634796,0.050166871
353,-0.048925078,-0.084774320,0.11026137,0.11956524,-0.093824450,-0.11466791,0.076143043,0.043563494
354,-0.040286460,-0.072754006,0.093736540,0.10251703,-0.078436939,-0.097524886,0.064781617,0.037058404
355,-0.032180884,-0.060704837,0.077422043,0.085415168,-0.063647394,-0.080603388,0.053562208,0.030649931
356,-0.024619625,-0.048626538,0.061346340,0.068284559,-0.049494925,-0.063923613,0.042496460,0.024336426
357,-0.017612725,-0.036518350,0.045537918,0.051150916,-0.036017611,-0.047505051,0.031595944,0.018116261
358,-0.011168986,-0.024379049,0.030025213,0.034040725,-0.023252409,-0.031366442,0.020872143,0.011987836
359,-0.0052959728,-0.012206971,0.014836545,0.016981166,-0.011235065,-0.015525733,0.010336426,0.0059495923
360,-1.3959152e-08,-3.4092196e-08,4.0857458e-08,4.7219601e-08,-3.0209165e-08,-4.2841805e-08,2.8536761e-08,1.6469272e-08
