XRT N-S vs UFSS-A
      247.828
     0.583735
     0.370264
     0.198013
    0.0449563
   -0.0432078
     0.141693
XRT N-S vs UFSS-B
      204.888
     0.566285
    -0.680563
     0.121985
    0.0863089
    -0.111967
    0.0471876
XRT E-W vs UFSS-A
      3952.77
    -0.765913
    -0.434877
    0.0871480
   -0.0690468
   -0.0521839
    0.0151024
XRT E-W vs UFSS-B
      3963.34
    -0.774756
    -0.356471
     0.127431
    0.0144088
   -0.0418406
   -0.0510352
SOT N-S vs UFSS-A
      147.071
     0.612210
     0.601059
     0.258281
     0.116109
  -0.00735654
    0.0536669
SOT N-S vs UFSS-B
      102.692
     0.461128
    -0.510234
    0.0959306
    0.0480574
   -0.0181010
  -0.00606725
SOT E-W vs UFSS-A
      146.827
    -0.659260
    -0.523933
     0.134550
    0.0398661
   -0.0269612
    0.0646841
SOT E-W vs UFSS-B
      157.774
    -0.702425
    -0.461574
     0.165878
    0.0413695
    0.0144642
    0.0335141
