XRT N-S vs UFSS-A
      182.544
      3.21887
     -3.77125
      1.87470
      2.01587
    -0.895039
     0.636738
XRT N-S vs UFSS-B
      158.920
    0.0136162
     -1.89521
     0.401885
    -0.222009
     0.153284
     0.171206
XRT E-W vs UFSS-A
      3975.99
     -1.95299
     0.749254
    -0.393187
    -0.694194
     0.320468
   -0.0415563
XRT E-W vs UFSS-B
      3957.80
     -1.00075
     -1.21504
     0.760590
    -0.268112
     0.124893
     0.522250
SOT N-S vs UFSS-A
      43.0436
      1.50668
     -4.06732
      2.16453
     0.836360
  -0.00880854
     0.559863
SOT N-S vs UFSS-B
      16.0063
     0.625945
     -2.20487
     0.781505
     0.340596
    0.0455258
     0.228809
SOT E-W vs UFSS-A
      212.254
     -1.55671
      1.18237
    -0.794543
    -0.315766
     0.183582
    -0.588410
SOT E-W vs UFSS-B
      192.782
    0.0298889
    -0.772062
     0.201872
     0.566653
    -0.164994
    -0.175103
