deg,XRT_AX,XRT_BX,XRT_AY,XRT_BY,SOT_AX,SOT_BX,SOT_AY,SOT_BY
valid,1,1,1,1,1,1,1,1,revB
offset,124.82598,111.05380,1979.2791,1983.5809,66.452525,52.239720,82.312380,86.840864
0,0.0000000,0.0000000,0.0000000,0.0000000,0.0000000,0.0000000,0.0000000,0.0000000
1,0.030887177,0.013172333,-0.012567050,-0.0062046419,0.020435326,0.0040794978,-0.015252473,-0.0092935797
2,0.061463862,0.026730353,-0.025076520,-0.012427717,0.040526360,0.0085003427,-0.030297102,-0.018692250
3,0.091682361,0.040655512,-0.037519261,-0.018672515,0.060255314,0.013270275,-0.045116767,-0.028193005
4,0.12149512,0.054928345,-0.049885903,-0.024942069,0.079604910,0.018396498,-0.059694524,-0.037792492
5,0.15085486,0.069528516,-0.062166878,-0.031239158,0.098558392,0.023885655,-0.074013650,-0.047487019
6,0.17971461,0.084434855,-0.074352453,-0.037566307,0.11709956,0.029743799,-0.088057687,-0.057272575
7,0.20802791,0.099625408,-0.086432747,-0.043925791,0.13521277,0.035976370,-0.10181048,-0.067144846
8,0.23574883,0.11507748,-0.098397766,-0.050319635,0.15288297,0.042588173,-0.11525622,-0.077099227
9,0.26283210,0.13076770,-0.11023742,-0.056749623,0.17009573,0.049583351,-0.12837948,-0.087130846
10,0.28923323,0.14667206,-0.12194157,-0.063217297,0.18683720,0.056965374,-0.14116526,-0.097234574
11,0.31490858,0.16276595,-0.13350003,-0.069723963,0.20309419,0.064737013,-0.15359904,-0.10740505
12,0.33981549,0.17902427,-0.14490261,-0.076270696,0.21885415,0.072900328,-0.16566678,-0.11763669
13,0.36391233,0.19542144,-0.15613914,-0.082858348,0.23410519,0.081456651,-0.17735499,-0.12792371
14,0.38715865,0.21193148,-0.16719951,-0.089487549,0.24883609,0.090406575,-0.18865073,-0.13826015
15,0.40951523,0.22852808,-0.17807368,-0.096158720,0.26303631,0.099749944,-0.19954169,-0.14863989
16,0.43094420,0.24518462,-0.18875169,-0.10287207,0.27669597,0.10948584,-0.21001617,-0.15905665
17,0.45140908,0.26187429,-0.19922376,-0.10962761,0.28980592,0.11961259,-0.22006315,-0.16950403
18,0.47087494,0.27857013,-0.20948024,-0.11642517,0.30235768,0.13012773,-0.22967229,-0.17997552
19,0.48930840,0.29524510,-0.21951165,-0.12326438,0.31434347,0.14102804,-0.23883397,-0.19046454
20,0.50667777,0.31187212,-0.22930875,-0.13014469,0.32575622,0.15230952,-0.24753931,-0.20096439
21,0.52295308,0.32842419,-0.23886252,-0.13706539,0.33658957,0.16396740,-0.25578020,-0.21146837
22,0.53810617,0.34487440,-0.24816421,-0.14402562,0.34683785,0.17599615,-0.26354929,-0.22196970
23,0.55211079,0.36119605,-0.25720533,-0.15102434,0.35649608,0.18838945,-0.27084005,-0.23246160
24,0.56494257,0.37736268,-0.26597774,-0.15806037,0.36556001,0.20114025,-0.27764675,-0.24293726
25,0.57657920,0.39334813,-0.27447359,-0.16513241,0.37402604,0.21424073,-0.28396448,-0.25338992
26,0.58700036,0.40912668,-0.28268539,-0.17223902,0.38189129,0.22768237,-0.28978919,-0.26381281
27,0.59618787,0.42467300,-0.29060604,-0.17937862,0.38915356,0.24145588,-0.29511767,-0.27419920
28,0.60412568,0.43996232,-0.29822881,-0.18654953,0.39581130,0.25555131,-0.29994754,-0.28454245
29,0.61079991,0.45497042,-0.30554738,-0.19374997,0.40186364,0.26995799,-0.30427729,-0.29483595
30,0.61619893,0.46967377,-0.31255586,-0.20097805,0.40731035,0.28466460,-0.30810629,-0.30507318
31,0.62031334,0.48404949,-0.31924880,-0.20823178,0.41215186,0.29965915,-0.31143472,-0.31524773
32,0.62313599,0.49807550,-0.32562120,-0.21550911,0.41638922,0.31492904,-0.31426366,-0.32535326
33,0.62466206,0.51173054,-0.33166853,-0.22280787,0.42002410,0.33046107,-0.31659501,-0.33538357
34,0.62488901,0.52499422,-0.33738675,-0.23012586,0.42305875,0.34624144,-0.31843151,-0.34533258
35,0.62381664,0.53784711,-0.34277227,-0.23746079,0.42549605,0.36225583,-0.31977675,-0.35519433
36,0.62144703,0.55027074,-0.34782204,-0.24481030,0.42733942,0.37848939,-0.32063511,-0.36496300
37,0.61778462,0.56224769,-0.35253350,-0.25217200,0.42859284,0.39492678,-0.32101179,-0.37463293
38,0.61283614,0.57376163,-0.35690459,-0.25954343,0.42926083,0.41155220,-0.32091278,-0.38419860
39,0.60661061,0.58479736,-0.36093377,-0.26692210,0.42934844,0.42834943,-0.32034482,-0.39365465
40,0.59911936,0.59534084,-0.36462002,-0.27430545,0.42886121,0.44530186,-0.31931541,-0.40299589
41,0.59037595,0.60537927,-0.36796285,-0.28169091,0.42780516,0.46239254,-0.31783278,-0.41221727
42,0.58039620,0.61490106,-0.37096226,-0.28907586,0.42618679,0.47960416,-0.31590583,-0.42131394
43,0.56919809,0.62389595,-0.37361878,-0.29645766,0.42401302,0.49691919,-0.31354415,-0.43028120
44,0.55680181,0.63235495,-0.37593346,-0.30383364,0.42129120,0.51431981,-0.31075798,-0.43911451
45,0.54322962,0.64027044,-0.37790785,-0.31120108,0.41802910,0.53178801,-0.30755816,-0.44780952
46,0.52850589,0.64763615,-0.37954399,-0.31855726,0.41423485,0.54930563,-0.30395610,-0.45636204
47,0.51265699,0.65444720,-0.38084442,-0.32589943,0.40991694,0.56685436,-0.29996377,-0.46476804
48,0.49571125,0.66070011,-0.38181219,-0.33322481,0.40508421,0.58441584,-0.29559365,-0.47302366
49,0.47769890,0.66639282,-0.38245078,-0.34053060,0.39974580,0.60197163,-0.29085868,-0.48112519
50,0.45865203,0.67152467,-0.38276415,-0.34781397,0.39391118,0.61950332,-0.28577226,-0.48906908
51,0.43860447,0.67609647,-0.38275670,-0.35507206,0.38759005,0.63699252,-0.28034816,-0.49685192
52,0.41759173,0.68011043,-0.38243329,-0.36230202,0.38079240,0.65442091,-0.27460053,-0.50447046
53,0.39565097,0.68357020,-0.38179915,-0.36950092,0.37352841,0.67177031,-0.26854383,-0.51192157
54,0.37282086,0.68648087,-0.38085993,-0.37666584,0.36580852,0.68902270,-0.26219278,-0.51920226
55,0.34914153,0.68884894,-0.37962168,-0.38379380,0.35764332,0.70616025,-0.25556234,-0.52630966
56,0.32465445,0.69068230,-0.37809077,-0.39088181,0.34904359,0.72316536,-0.24866766,-0.53324099
57,0.29940238,0.69199025,-0.37627394,-0.39792682,0.34002025,0.74002074,-0.24152404,-0.53999359
58,0.27342925,0.69278346,-0.37417822,-0.40492576,0.33058434,0.75670938,-0.23414688,-0.54656490
59,0.24678008,0.69307393,-0.37181096,-0.41187549,0.32074704,0.77321465,-0.22655163,-0.55295243
60,0.21950085,0.69287500,-0.36917976,-0.41877284,0.31051958,0.78952030,-0.21875376,-0.55915377
61,0.19163845,0.69220129,-0.36629247,-0.42561456,0.29991329,0.80561052,-0.21076869,-0.56516655
62,0.16324052,0.69106868,-0.36315718,-0.43239738,0.28893955,0.82146994,-0.20261179,-0.57098848
63,0.13435541,0.68949426,-0.35978214,-0.43911794,0.27760976,0.83708370,-0.19429830,-0.57661729
64,0.10503200,0.68749631,-0.35617580,-0.44577280,0.26593535,0.85243746,-0.18584331,-0.58205074
65,0.075319673,0.68509425,-0.35234672,-0.45235847,0.25392776,0.86751745,-0.17726167,-0.58728659
66,0.045268148,0.68230858,-0.34830359,-0.45887137,0.24159842,0.88231047,-0.16856802,-0.59232263
67,0.014927402,0.67916085,-0.34405520,-0.46530783,0.22895870,0.89680394,-0.15977670,-0.59715662
68,-0.015652447,0.67567358,-0.33961037,-0.47166410,0.21601996,0.91098593,-0.15090171,-0.60178630
69,-0.046421247,0.67187024,-0.33497797,-0.47793631,0.20279351,0.92484517,-0.14195671,-0.60620938
70,-0.077328917,0.66777518,-0.33016684,-0.48412052,0.18929056,0.93837108,-0.13295491,-0.61042353
71,-0.10832555,0.66341355,-0.32518583,-0.49021266,0.17552227,0.95155379,-0.12390913,-0.61442635
72,-0.13936154,0.65881128,-0.32004372,-0.49620855,0.16149969,0.96438415,-0.11483166,-0.61821539
73,-0.17038766,0.65399495,-0.31474919,-0.50210390,0.14723378,0.97685377,-0.10573432,-0.62178809
74,-0.20135517,0.64899181,-0.30931083,-0.50789427,0.13273539,0.98895503,-0.096628346,-0.62514183
75,-0.23221595,0.64382964,-0.30373707,-0.51357512,0.11801525,1.0006811,-0.087524430,-0.62827387
76,-0.26292254,0.63853670,-0.29803620,-0.51914177,0.10308394,1.0120258,-0.078432642,-0.63118137
77,-0.29342832,0.63314169,-0.29221630,-0.52458938,0.087951948,1.0229840,-0.069362419,-0.63386137
78,-0.32368754,0.62767364,-0.28628521,-0.52991300,0.072629582,1.0335512,-0.060322543,-0.63631077
79,-0.35365542,0.62216184,-0.28025057,-0.53510749,0.057127024,1.0437237,-0.051321110,-0.63852633
80,-0.38328828,0.61663580,-0.27411972,-0.54016760,0.041454297,1.0534987,-0.042365515,-0.64050470
81,-0.41254361,0.61112514,-0.26789970,-0.54508791,0.025621274,1.0628741,-0.033462427,-0.64224233
82,-0.44138012,0.60565951,-0.26159727,-0.54986282,0.0096376637,1.0718488,-0.024617778,-0.64373555
83,-0.46975787,0.60026856,-0.25521881,-0.55448661,-0.0064869821,1.0804224,-0.015836739,-0.64498051
84,-0.49763834,0.59498181,-0.24877036,-0.55895338,-0.022743276,1.0885952,-0.0071237174,-0.64597319
85,-0.52498447,0.58982862,-0.24225759,-0.56325705,-0.039121995,1.0963684,0.0015176611,-0.64670941
86,-0.55176077,0.58483806,-0.23568576,-0.56739140,-0.055614079,1.1037442,0.010084557,-0.64718480
87,-0.57793337,0.58003891,-0.22905970,-0.57135004,-0.072210631,1.1107252,0.018574924,-0.64739485
88,-0.60347007,0.57545950,-0.22238385,-0.57512641,-0.088902921,1.1173149,0.026987511,-0.64733482
89,-0.62834043,0.57112773,-0.21566216,-0.57871379,-0.10568237,1.1235178,0.035321866,-0.64699983
90,-0.65251579,0.56707089,-0.20889814,-0.58210530,-0.12254058,1.1293387,0.043578331,-0.64638483
91,-0.67596933,0.56331569,-0.20209483,-0.58529389,-0.13946928,1.1347834,0.051758041,-0.64548456
92,-0.69867614,0.55988813,-0.19525477,-0.58827238,-0.15646038,1.1398585,0.059862916,-0.64429363
93,-0.72061321,0.55681345,-0.18838004,-0.59103340,-0.17350592,1.1445709,0.067895653,-0.64280646
94,-0.74175951,0.55411606,-0.18147219,-0.59356946,-0.19059809,1.1489284,0.075859716,-0.64101731
95,-0.76209599,0.55181948,-0.17453227,-0.59587291,-0.20772922,1.1529394,0.083759321,-0.63892029
96,-0.78160563,0.54994625,-0.16756084,-0.59793597,-0.22489179,1.1566128,0.091599420,-0.63650936
97,-0.80027343,0.54851794,-0.16055793,-0.59975073,-0.24207839,1.1599583,0.099385687,-0.63377834
98,-0.81808645,0.54755501,-0.15352305,-0.60130914,-0.25928174,1.1629857,0.10712449,-0.63072093
99,-0.83503381,0.54707680,-0.14645521,-0.60260306,-0.27649469,1.1657058,0.11482288,-0.62733070
100,-0.85110669,0.54710147,-0.13935292,-0.60362422,-0.29371020,1.1681295,0.12248856,-0.62360111
101,-0.86629833,0.54764594,-0.13221415,-0.60436426,-0.31092132,1.1702683,0.13012985,-0.61952552
102,-0.88060406,0.54872586,-0.12503639,-0.60481473,-0.32812121,1.1721341,0.13775568,-0.61509723
103,-0.89402121,0.55035556,-0.11781664,-0.60496710,-0.34530315,1.1737391,0.14537553,-0.61030943
104,-0.90654918,0.55254800,-0.11055140,-0.60481278,-0.36246046,1.1750958,0.15299943,-0.60515531
105,-0.91818937,0.55531474,-0.10323671,-0.60434312,-0.37958657,1.1762171,0.16063791,-0.59962797
106,-0.92894517,0.55866591,-0.095868132,-0.60354944,-0.39667498,1.1771161,0.16830196,-0.59372052
107,-0.93882192,0.56261018,-0.088440785,-0.60242303,-0.41371925,1.1778061,0.17600300,-0.58742607
108,-0.94782691,0.56715473,-0.080949353,-0.60095516,-0.43071302,1.1783006,0.18375283,-0.58073774
109,-0.95596928,0.57230521,-0.073388103,-0.59913711,-0.44764996,1.1786132,0.19156361,-0.57364866
110,-0.96326005,0.57806575,-0.065750901,-0.59696017,-0.46452381,1.1787575,0.19944782,-0.56615206
111,-0.96971199,0.58443895,-0.058031233,-0.59441568,-0.48132835,1.1787474,0.20741819,-0.55824122
112,-0.97533967,0.59142581,-0.050222224,-0.59149502,-0.49805738,1.1785966,0.21548766,-0.54990952
113,-0.98015929,0.59902580,-0.042316665,-0.58818965,-0.51470475,1.1783189,0.22366939,-0.54115046
114,-0.98418872,0.60723679,-0.034307030,-0.58449110,-0.53126433,1.1779278,0.23197663,-0.53195768
115,-0.98744738,0.61605512,-0.026185507,-0.58039103,-0.54773003,1.1774370,0.24042275,-0.52232500
116,-0.98995619,0.62547551,-0.017944018,-0.57588119,-0.56409576,1.1768598,0.24902114,-0.51224640
117,-0.99173751,0.63549116,-0.0095742503,-0.57095350,-0.58035544,1.1762095,0.25778521,-0.50171610
118,-0.99281505,0.64609370,-0.0010676831,-0.56560004,-0.59650303,1.1754991,0.26672829,-0.49072854
119,-0.99321380,0.65727325,0.0075843846,-0.55981307,-0.61253247,1.1747413,0.27586363,-0.47927843
120,-0.99295997,0.66901839,0.016390803,-0.55358505,-0.62843773,1.1739485,0.28520435,-0.46736074
121,-0.99208088,0.68131624,0.025360541,-0.54690866,-0.64421277,1.1731328,0.29476334,-0.45497076
122,-0.99060490,0.69415243,0.034502658,-0.53977683,-0.65985155,1.1723060,0.30455328,-0.44210414
123,-0.98856136,0.70751116,0.043826265,-0.53218276,-0.67534805,1.1714794,0.31458657,-0.42875684
124,-0.98598044,0.72137525,0.053340500,-0.52411993,-0.69069625,1.1706639,0.32487525,-0.41492522
125,-0.98289315,0.73572614,0.063054491,-0.51558212,-0.70589011,1.1698699,0.33543103,-0.40060606
126,-0.97933114,0.75054396,0.072977323,-0.50656344,-0.72092363,1.1691073,0.34626516,-0.38579654
127,-0.97532672,0.76580755,0.083118007,-0.49705835,-0.73579078,1.1683855,0.35738845,-0.37049430
128,-0.97091267,0.78149452,0.093485442,-0.48706168,-0.75048558,1.1677134,0.36881120,-0.35469745
129,-0.96612223,0.79758132,0.10408839,-0.47656864,-0.76500201,1.1670992,0.38054317,-0.33840461
130,-0.96098894,0.81404326,0.11493542,-0.46557487,-0.77933410,1.1665506,0.39259352,-0.32161490
131,-0.95554661,0.83085456,0.12603491,-0.45407641,-0.79347590,1.1660748,0.40497082,-0.30432799
132,-0.94982918,0.84798846,0.13739499,-0.44206976,-0.80742145,1.1656780,0.41768293,-0.28654408
133,-0.94387066,0.86541722,0.14902350,-0.42955190,-0.82116486,1.1653661,0.43073706,-0.26826399
134,-0.93770503,0.88311222,0.16092798,-0.41652027,-0.83470024,1.1651440,0.44413966,-0.24948910
135,-0.93136614,0.90104404,0.17311564,-0.40297284,-0.84802176,1.1650163,0.45789644,-0.23022142
136,-0.92488764,0.91918245,0.18559329,-0.38890809,-0.86112363,1.1649865,0.47201230,-0.21046358
137,-0.91830289,0.93749659,0.19836735,-0.37432503,-0.87400011,1.1650578,0.48649133,-0.19021887
138,-0.91164486,0.95595495,0.21144381,-0.35922323,-0.88664552,1.1652322,0.50133678,-0.16949122
139,-0.90494607,0.97452547,0.22482819,-0.34360286,-0.89905427,1.1655113,0.51655102,-0.14828526
140,-0.89823848,0.99317565,0.23852551,-0.32746462,-0.91122083,1.1658960,0.53213552,-0.12660629
141,-0.89155344,1.0118726,0.25254029,-0.31080986,-0.92313976,1.1663863,0.54809087,-0.10446030
142,-0.88492160,1.0305830,0.26687647,-0.29364052,-0.93480573,1.1669814,0.56441671,-0.081853991
143,-0.87837284,1.0492734,0.28153745,-0.27595916,-0.94621350,1.1676801,0.58111173,-0.058794794
144,-0.87193618,1.0679103,0.29652602,-0.25776899,-0.95735798,1.1684802,0.59817369,-0.035290846
145,-0.86563976,1.0864597,0.31184434,-0.23907387,-0.96823418,1.1693788,0.61559937,-0.011351015
146,-0.85951070,1.1048881,0.32749396,-0.21987829,-0.97883726,1.1703723,0.63338458,0.013015099
147,-0.85357512,1.1231617,0.34347574,-0.20018744,-0.98916254,1.1714566,0.65152415,0.037797163
148,-0.84785802,1.1412469,0.35978988,-0.18000716,-0.99920549,1.1726266,0.67001195,0.062984108
149,-0.84238328,1.1591105,0.37643587,-0.15934397,-1.0089618,1.1738768,0.68884084,0.088564134
150,-0.83717353,1.1767194,0.39341249,-0.13820507,-1.0184272,1.1752008,0.70800273,0.11452471
151,-0.83225019,1.1940409,0.41071782,-0.11659837,-1.0275979,1.1765917,0.72748855,0.14085256
152,-0.82763339,1.2110428,0.42834917,-0.094532432,-1.0364700,1.1780420,0.74728828,0.16753372
153,-0.82334190,1.2276934,0.44630312,-0.072016535,-1.0450401,1.1795435,0.76739093,0.19455347
154,-0.81939314,1.2439616,0.46457551,-0.049060638,-1.0533048,1.1810875,0.78778460,0.22189642
155,-0.81580315,1.2598169,0.48316139,-0.025675391,-1.0612612,1.1826648,0.80845643,0.24954646
156,-0.81258653,1.2752296,0.50205506,-0.0018721287,-1.0689064,1.1842655,0.82939270,0.27748680
157,-0.80975642,1.2901707,0.52125005,0.022337133,-1.0762379,1.1858794,0.85057877,0.30569998
158,-0.80732454,1.3046122,0.54073913,0.046939701,-1.0832535,1.1874957,0.87199915,0.33416789
159,-0.80530108,1.3185268,0.56051428,0.071922213,-1.0899514,1.1891032,0.89363755,0.36287178
160,-0.80369480,1.3318883,0.58056674,0.097270645,-1.0963297,1.1906904,0.91547681,0.39179226
161,-0.80251292,1.3446717,0.60088697,0.12297032,-1.1023873,1.1922452,0.93749905,0.42090938
162,-0.80176120,1.3568527,0.62146468,0.14900592,-1.1081232,1.1937554,0.95968563,0.45020256
163,-0.80144389,1.3684085,0.64228886,0.17536150,-1.1135367,1.1952084,0.98201717,0.47965071
164,-0.80156379,1.3793172,0.66334772,0.20202050,-1.1186275,1.1965914,1.0044737,0.50923218
165,-0.80212219,1.3895585,0.68462880,0.22896575,-1.1233956,1.1978912,1.0270344,0.53892482
166,-0.80311897,1.3991130,0.70611890,0.25617951,-1.1278415,1.1990945,1.0496782,0.56870601
167,-0.80455255,1.4079628,0.72780413,0.28364345,-1.1319660,1.2001881,1.0723832,0.59855268
168,-0.80641994,1.4160913,0.74966995,0.31133872,-1.1357702,1.2011583,1.0951270,0.62844134
169,-0.80871680,1.4234833,0.77170115,0.33924592,-1.1392556,1.2019915,1.1178869,0.65834809
170,-0.81143741,1.4301251,0.79388189,0.36734514,-1.1424242,1.2026741,1.1406396,0.68824871
171,-0.81457475,1.4360042,0.81619572,0.39561601,-1.1452784,1.2031926,1.1633617,0.71811863
172,-0.81812054,1.4411099,0.83862564,0.42403766,-1.1478207,1.2035332,1.1860290,0.74793301
173,-0.82206524,1.4454327,0.86115404,0.45258882,-1.1500544,1.2036826,1.2086175,0.77766674
174,-0.82639815,1.4489646,0.88376282,0.48124779,-1.1519830,1.2036273,1.2311028,0.80729452
175,-0.83110742,1.4516994,0.90643338,0.50999248,-1.1536103,1.2033543,1.2534602,0.83679085
176,-0.83618011,1.4536320,0.92914664,0.53880044,-1.1549408,1.2028504,1.2756650,0.86613009
177,-0.84160226,1.4547590,0.95188308,0.56764891,-1.1559792,1.2021029,1.2976925,0.89528652
178,-0.84735894,1.4550787,0.97462280,0.59651483,-1.1567305,1.2010995,1.3195178,0.92423434
179,-0.85343428,1.4545906,0.99734551,0.62537484,-1.1572004,1.1998279,1.3411162,0.95294774
180,-0.85981157,1.4532959,1.0200306,0.65420537,-1.1573948,1.1982764,1.3624630,0.98140091
181,-0.86647333,1.4511973,1.0426572,0.68298265,-1.1573200,1.1964335,1.3835337,1.0095681
182,-0.87340132,1.4482987,1.0652041,0.71168271,-1.1569827,1.1942883,1.4043039,1.0374238
183,-0.88057665,1.4446058,1.0876500,0.74028146,-1.1563900,1.1918304,1.4247495,1.0649423
184,-0.88797987,1.4401256,1.1099732,0.76875470,-1.1555495,1.1890495,1.4448467,1.0920985
185,-0.89559097,1.4348664,1.1321521,0.79707816,-1.1544689,1.1859364,1.4645721,1.1188671
186,-0.90338951,1.4288381,1.1541649,0.82522752,-1.1531565,1.1824819,1.4839027,1.1452235
187,-0.91135466,1.4220519,1.1759898,0.85317848,-1.1516208,1.1786778,1.5028158,1.1711432
188,-0.91946529,1.4145200,1.1976048,0.88090675,-1.1498707,1.1745162,1.5212893,1.1966018
189,-0.92770003,1.4062564,1.2189882,0.90838812,-1.1479154,1.1699902,1.5393017,1.2215758
190,-0.93603735,1.3972759,1.2401181,0.93559849,-1.1457645,1.1650931,1.5568321,1.2460417
191,-0.94445562,1.3875947,1.2609729,0.96251389,-1.1434277,1.1598191,1.5738601,1.2699768
192,-0.95293319,1.3772302,1.2815311,0.98911054,-1.1409152,1.1541633,1.5903661,1.2933585
193,-0.96144847,1.3662006,1.3017713,1.0153648,-1.1382373,1.1481211,1.6063312,1.3161653
194,-0.96997998,1.3545254,1.3216725,1.0412535,-1.1354047,1.1416889,1.6217372,1.3383757
195,-0.97850643,1.3422252,1.3412139,1.0667534,-1.1324281,1.1348639,1.6365669,1.3599693
196,-0.98700680,1.3293212,1.3603749,1.0918419,-1.1293188,1.1276438,1.6508037,1.3809261
197,-0.99546037,1.3158356,1.3791354,1.1164966,-1.1260879,1.1200274,1.6644320,1.4012269
198,-1.0038468,1.3017916,1.3974757,1.1406955,-1.1227469,1.1120139,1.6774371,1.4208531
199,-1.0121463,1.2872130,1.4153765,1.1644170,-1.1193073,1.1036035,1.6898053,1.4397870
200,-1.0203394,1.2721242,1.4328189,1.1876401,-1.1157809,1.0947973,1.7015238,1.4580117
201,-1.0284075,1.2565504,1.4497845,1.2103440,-1.1121795,1.0855969,1.7125808,1.4755109
202,-1.0363322,1.2405174,1.4662557,1.2325088,-1.1085151,1.0760049,1.7229655,1.4922695
203,-1.0440962,1.2240513,1.4822151,1.2541148,-1.1047996,1.0660248,1.7326682,1.5082729
204,-1.0516828,1.2071787,1.4976463,1.2751431,-1.1010450,1.0556604,1.7416803,1.5235078
205,-1.0590759,1.1899266,1.5125332,1.2955752,-1.0972634,1.0449169,1.7499941,1.5379614
206,-1.0662604,1.1723225,1.5268606,1.3153936,-1.0934668,1.0337998,1.7576031,1.5516223
207,-1.0732222,1.1543937,1.5406139,1.3345811,-1.0896672,1.0223156,1.7645020,1.5644796
208,-1.0799478,1.1361679,1.5537793,1.3531214,-1.0858766,1.0104714,1.7706865,1.5765238
209,-1.0864249,1.1176730,1.5663437,1.3709989,-1.0821068,0.99827522,1.7761534,1.5877462
210,-1.0926421,1.0989368,1.5782948,1.3881985,-1.0783695,0.98573563,1.7809006,1.5981390
211,-1.0985889,1.0799870,1.5896212,1.4047063,-1.0746764,0.97286200,1.7849274,1.6076958
212,-1.1042561,1.0608512,1.6003122,1.4205089,-1.0710389,0.95966434,1.7882339,1.6164110
213,-1.1096352,1.0415571,1.6103580,1.4355937,-1.0674682,0.94615333,1.7908213,1.6242799
214,-1.1147191,1.0221317,1.6197497,1.4499490,-1.0639755,0.93234029,1.7926922,1.6312992
215,-1.1195017,1.0026021,1.6284793,1.4635641,-1.0605715,0.91823717,1.7938501,1.6374666
216,-1.1239779,0.98299490,1.6365396,1.4764287,-1.0572668,0.90385647,1.7942995,1.6427805
217,-1.1281437,0.96333622,1.6439244,1.4885340,-1.0540716,0.88921128,1.7940463,1.6472410
218,-1.1319965,0.94365177,1.6506284,1.4998715,-1.0509959,0.87431522,1.7930971,1.6508487
219,-1.1355345,0.92396671,1.6566471,1.5104341,-1.0480492,0.85918240,1.7914598,1.6536055
220,-1.1387570,0.90430561,1.6619772,1.5202151,-1.0452409,0.84382740,1.7891430,1.6555145
221,-1.1416648,0.88469238,1.6666162,1.5292093,-1.0425797,0.82826523,1.7861567,1.6565796
222,-1.1442592,0.86515027,1.6705625,1.5374120,-1.0400741,0.81251132,1.7825116,1.6568059
223,-1.1465431,0.84570176,1.6738154,1.5448194,-1.0377322,0.79658145,1.7782193,1.6561996
224,-1.1485202,0.82636856,1.6763752,1.5514291,-1.0355614,0.78049174,1.7732924,1.6547677
225,-1.1501952,0.80717155,1.6782433,1.5572391,-1.0335689,0.76425860,1.7677444,1.6525185
226,-1.1515740,0.78813075,1.6794218,1.5622486,-1.0317612,0.74789869,1.7615896,1.6494610
227,-1.1526632,0.76926525,1.6799139,1.5664578,-1.0301445,0.73142889,1.7548430,1.6456054
228,-1.1534705,0.75059323,1.6797234,1.5698677,-1.0287242,0.71486629,1.7475204,1.6409627
229,-1.1540047,0.73213188,1.6788553,1.5724802,-1.0275055,0.69822806,1.7396385,1.6355449
230,-1.1542751,0.71389740,1.6773155,1.5742982,-1.0264926,0.68153154,1.7312144,1.6293651
231,-1.1542921,0.69590496,1.6751106,1.5753256,-1.0256894,0.66479408,1.7222660,1.6224369
232,-1.1540667,0.67816870,1.6722480,1.5755671,-1.0250992,0.64803307,1.7128117,1.6147751
233,-1.1536107,0.66070167,1.6687362,1.5750282,-1.0247247,0.63126589,1.7028705,1.6063951
234,-1.1529367,0.64351587,1.6645843,1.5737156,-1.0245678,0.61450986,1.6924619,1.5973133
235,-1.1520578,0.62662219,1.6598023,1.5716364,-1.0246299,0.59778220,1.6816057,1.5875466
236,-1.1509877,0.61003042,1.6544008,1.5687990,-1.0249119,0.58110000,1.6703222,1.5771129
237,-1.1497405,0.59374925,1.6483913,1.5652124,-1.0254137,0.56448018,1.6586322,1.5660307
238,-1.1483311,0.57778625,1.6417859,1.5608864,-1.0261349,0.54793944,1.6465565,1.5543191
239,-1.1467745,0.56214791,1.6345975,1.5558318,-1.0270742,0.53149423,1.6341163,1.5419980
240,-1.1450860,0.54683958,1.6268396,1.5500600,-1.0282297,0.51516074,1.6213329,1.5290877
241,-1.1432815,0.53186553,1.6185262,1.5435831,-1.0295989,0.49895481,1.6082280,1.5156091
242,-1.1413767,0.51722897,1.6096721,1.5364142,-1.0311786,0.48289195,1.5948231,1.5015836
243,-1.1393878,0.50293199,1.6002924,1.5285668,-1.0329649,0.46698726,1.5811397,1.4870333
244,-1.1373309,0.48897566,1.5904030,1.5200554,-1.0349533,0.45125544,1.5671996,1.4719804
245,-1.1352222,0.47536000,1.5800200,1.5108947,-1.0371385,0.43571073,1.5530243,1.4564476
246,-1.1330777,0.46208403,1.5691602,1.5011006,-1.0395146,0.42036689,1.5386353,1.4404582
247,-1.1309133,0.44914576,1.5578406,1.4906891,-1.0420752,0.40523716,1.5240538,1.4240353
248,-1.1287450,0.43654227,1.5460786,1.4796771,-1.0448130,0.39033426,1.5093008,1.4072027
249,-1.1265882,0.42426969,1.5338921,1.4680818,-1.0477203,0.37567033,1.4943972,1.3899842
250,-1.1244582,0.41232326,1.5212990,1.4559210,-1.0507887,0.36125694,1.4793635,1.3724039
251,-1.1223698,0.40069738,1.5083178,1.4432131,-1.0540091,0.34710504,1.4642199,1.3544859
252,-1.1203374,0.38938559,1.4949669,1.4299768,-1.0573718,0.33322494,1.4489860,1.3362545
253,-1.1183748,0.37838070,1.4812651,1.4162312,-1.0608666,0.31962632,1.4336811,1.3177339
254,-1.1164955,0.36767474,1.4672311,1.4019958,-1.0644828,0.30631819,1.4183241,1.2989484
255,-1.1147120,0.35725907,1.4528839,1.3872904,-1.0682090,0.29330888,1.4029333,1.2799223
256,-1.1130365,0.34712440,1.4382424,1.3721353,-1.0720333,0.28060600,1.3875265,1.2606798
257,-1.1114801,0.33726083,1.4233256,1.3565507,-1.0759433,0.26821649,1.3721206,1.2412448
258,-1.1100534,0.32765793,1.4081524,1.3405575,-1.0799262,0.25614655,1.3567323,1.2216411
259,-1.1087660,0.31830476,1.3927418,1.3241764,-1.0839686,0.24440168,1.3413774,1.2018926
260,-1.1076267,0.30918992,1.3771125,1.3074285,-1.0880568,0.23298661,1.3260710,1.1820224
261,-1.1066432,0.30030164,1.3612831,1.2903348,-1.0921764,0.22190538,1.3108275,1.1620538
262,-1.1058224,0.29162780,1.3452720,1.2729167,-1.0963130,0.21116127,1.2956606,1.1420094
263,-1.1051700,0.28315598,1.3290976,1.2551955,-1.1004516,0.20075684,1.2805831,1.1219117
264,-1.1046909,0.27487356,1.3127777,1.2371924,-1.1045768,0.19069390,1.2656071,1.1017826
265,-1.1043887,0.26676770,1.2963301,1.2189288,-1.1086730,0.18097357,1.2507439,1.0816438
266,-1.1042659,0.25882548,1.2797721,1.2004260,-1.1127245,0.17159621,1.2360039,1.0615162
267,-1.1043240,0.25103390,1.2631207,1.1817051,-1.1167149,0.16256149,1.2213967,1.0414205
268,-1.1045632,0.24337993,1.2463926,1.1627872,-1.1206281,0.15386836,1.2069310,1.0213767
269,-1.1049825,0.23585063,1.2296039,1.1436932,-1.1244474,0.14551510,1.1926145,1.0014041
270,-1.1055798,0.22843310,1.2127705,1.1244440,-1.1281562,0.13749931,1.1784543,0.98152180
271,-1.1063517,0.22111465,1.1959077,1.1050599,-1.1317376,0.12981792,1.1644564,0.96174790
272,-1.1072936,0.21388276,1.1790302,1.0855614,-1.1351748,0.12246722,1.1506260,0.94210001
273,-1.1083997,0.20672518,1.1621524,1.0659685,-1.1384509,0.11544289,1.1369673,0.92259505
274,-1.1096629,0.19962996,1.1452879,1.0463008,-1.1415489,0.10873998,1.1234838,0.90324923
275,-1.1110750,0.19258553,1.1284501,1.0265779,-1.1444518,0.10235300,1.1101779,0.88407805
276,-1.1126266,0.18558069,1.1116514,1.0068188,-1.1471428,0.096275859,1.0970513,0.86509628
277,-1.1143070,0.17860473,1.0949039,0.98704206,-1.1496051,0.090501973,1.0841047,0.84631792
278,-1.1161042,0.17164741,1.0782190,0.96726606,-1.1518221,0.085024236,1.0713381,0.82775622
279,-1.1180054,0.16469904,1.0616075,0.94750859,-1.1537772,0.079835071,1.0587505,0.80942363
280,-1.1199963,0.15775051,1.0450794,0.92778705,-1.1554541,0.074926452,1.0463403,0.79133184
281,-1.1220618,0.15079333,1.0286443,0.90811835,-1.1568367,0.070289942,1.0341048,0.77349169
282,-1.1241854,0.14381966,1.0123109,0.88851891,-1.1579093,0.065916716,1.0220407,0.75591325
283,-1.1263498,0.13682237,0.99608747,0.86900462,-1.1586563,0.061797600,1.0101440,0.73860575
284,-1.1285366,0.12979502,0.97998140,0.84959086,-1.1590625,0.057923100,0.99840979,0.72157761
285,-1.1307266,0.12273195,0.96399951,0.83029243,-1.1591131,0.054283440,0.98683260,0.70483641
286,-1.1328994,0.11562826,0.94814794,0.81112360,-1.1587937,0.050868592,0.97540624,0.68838893
287,-1.1350340,0.10847986,0.93243213,0.79209805,-1.1580903,0.047668317,0.96412387,0.67224110
288,-1.1371084,0.10128348,0.91685687,0.77322884,-1.1569893,0.044672195,0.95297803,0.65639805
289,-1.1391000,0.094036672,0.90142628,0.75452847,-1.1554777,0.041869665,0.94196071,0.64086408
290,-1.1409855,0.086737878,0.88614380,0.73600879,-1.1535430,0.039250061,0.93106335,0.62564269
291,-1.1427408,0.079386383,0.87101224,0.71768106,-1.1511732,0.036802647,0.92027689,0.61073658
292,-1.1443415,0.071982357,0.85603376,0.69955588,-1.1483569,0.034516655,0.90959180,0.59614765
293,-1.1457624,0.064526853,0.84120987,0.68164323,-1.1450833,0.032381319,0.89899812,0.58187703
294,-1.1469783,0.057021811,0.82654149,0.66395245,-1.1413422,0.030385918,0.88848554,0.56792507
295,-1.1479631,0.049470056,0.81202891,0.64649223,-1.1371242,0.028519802,0.87804338,0.55429138
296,-1.1486909,0.041875300,0.79767185,0.62927062,-1.1324203,0.026772438,0.86766066,0.54097484
297,-1.1491353,0.034242130,0.78346943,0.61229502,-1.1272224,0.025133438,0.85732618,0.52797359
298,-1.1492700,0.026576006,0.76942025,0.59557218,-1.1215232,0.023592596,0.84702849,0.51528508
299,-1.1490684,0.018883242,0.75552236,0.57910821,-1.1153159,0.022139924,0.83675600,0.50290611
300,-1.1485040,0.011170997,0.74177330,0.56290858,-1.1085947,0.020765682,0.82649699,0.49083276
301,-1.1475507,0.0034472533,0.72817011,0.54697813,-1.1013543,0.019460413,0.81623968,0.47906055
302,-1.1461822,-0.0042792017,0.71470940,0.53132106,-1.0935904,0.018214974,0.80597223,0.46758432
303,-1.1443727,-0.011998801,0.70138730,0.51594096,-1.0852994,0.017020565,0.79568284,0.45639838
304,-1.1420966,-0.019701222,0.68819955,0.50084078,-1.0764785,0.015868758,0.78535976,0.44549645
305,-1.1393290,-0.027375417,0.67514150,0.48602288,-1.0671260,0.014751528,0.77499134,0.43487172
306,-1.1360452,-0.035009647,0.66220814,0.47148903,-1.0572406,0.013661279,0.76456610,0.42451688
307,-1.1322214,-0.042591508,0.64939412,0.45724041,-1.0468220,0.012590865,0.75407273,0.41442415
308,-1.1278342,-0.050107977,0.63669381,0.44327762,-1.0358709,0.011533620,0.74350016,0.40458529
309,-1.1228611,-0.057545444,0.62410128,0.42960072,-1.0243888,0.010483377,0.73283759,0.39499166
310,-1.1172806,-0.064889755,0.61161039,0.41620919,-1.0123778,0.0094344892,0.72207456,0.38563421
311,-1.1110718,-0.072126256,0.59921476,0.40310203,-0.99984114,0.0083818511,0.71120094,0.37650356
312,-1.1042150,-0.079239836,0.58690784,0.39027769,-0.98678278,0.0073209134,0.70020703,0.36758999
313,-1.0966915,-0.086214974,0.57468295,0.37773414,-0.97320755,0.0062477003,0.68908353,0.35888348
314,-1.0884838,-0.093035788,0.56253327,0.36546886,-0.95912113,0.0051588234,0.67782163,0.35037377
315,-1.0795755,-0.099686085,0.55045189,0.35347887,-0.94453001,0.0040514937,0.66641302,0.34205036
316,-1.0699515,-0.10614941,0.53843188,0.34176076,-0.92944155,0.0029235317,0.65484994,0.33390254
317,-1.0595981,-0.11240910,0.52646624,0.33031070,-0.91386389,0.0017733765,0.64312518,0.32591945
318,-1.0485031,-0.11844835,0.51454802,0.31912442,-0.89780601,0.00060009138,0.63123215,0.31809011
319,-1.0366554,-0.12425023,0.50267027,0.30819732,-0.88127765,-0.00059663080,0.61916488,0.31040340
320,-1.0240457,-0.12979778,0.49082615,0.29752440,-0.86428937,-0.0018164655,0.60691804,0.30284816
321,-1.0106662,-0.13507406,0.47900887,0.28710033,-0.84685247,-0.0030584557,0.59448701,0.29541318
322,-0.99651069,-0.14006218,0.46721182,0.27691947,-0.82897902,-0.0043210132,0.58186784,0.28808723
323,-0.98157464,-0.14474538,0.45542850,0.26697587,-0.81068180,-0.0056019219,0.56905731,0.28085914
324,-0.96585519,-0.14910708,0.44365262,0.25726331,-0.79197433,-0.0068983429,0.55605295,0.27371774
325,-0.94935120,-0.15313093,0.43187810,0.24777531,-0.77287078,-0.0082068222,0.54285303,0.26665196
326,-0.93206331,-0.15680089,0.42009908,0.23850516,-0.75338603,-0.0095232990,0.52945659,0.25965086
327,-0.91399394,-0.16010125,0.40830997,0.22944594,-0.73353557,-0.010843117,0.51586344,0.25270361
328,-0.89514734,-0.16301669,0.39650549,0.22059054,-0.71333555,-0.012161039,0.50207420,0.24579955
329,-0.87552957,-0.16553239,0.38468063,0.21193169,-0.69280267,-0.013471256,0.48809026,0.23892820
330,-0.85514854,-0.16763401,0.37283073,0.20346198,-0.67195422,-0.014767413,0.47391382,0.23207930
331,-0.83401403,-0.16930776,0.36095150,0.19517384,-0.65080804,-0.016042617,0.45954786,0.22524284
332,-0.81213765,-0.17054050,0.34903898,0.18705965,-0.62938246,-0.017289464,0.44499618,0.21840904
333,-0.78953292,-0.17131973,0.33708964,0.17911167,-0.60769629,-0.018500059,0.43026337,0.21156844
334,-0.76621516,-0.17163365,0.32510034,0.17132211,-0.58576881,-0.019666037,0.41535479,0.20471184
335,-0.74220158,-0.17147126,0.31306834,0.16368315,-0.56361969,-0.020778590,0.40027661,0.19783039
336,-0.71751120,-0.17082231,0.30099138,0.15618693,-0.54126901,-0.021828492,0.38503575,0.19091558
337,-0.69216488,-0.16967742,0.28886762,0.14882561,-0.51873719,-0.022806127,0.36963990,0.18395926
338,-0.66618523,-0.16802811,0.27669568,0.14159135,-0.49604497,-0.023701517,0.35409748,0.17695363
339,-0.63959666,-0.16586679,0.26447465,0.13447635,-0.47321339,-0.024504352,0.33841766,0.16989130
340,-0.61242530,-0.16318686,0.25220410,0.12747287,-0.45026373,-0.025204024,0.32261029,0.16276528
341,-0.58469897,-0.15998267,0.23988408,0.12057323,-0.42721748,-0.025789656,0.30668594,0.15556899
342,-0.55644713,-0.15624963,0.22751514,0.11376985,-0.40409633,-0.026250134,0.29065581,0.14829627
343,-0.52770087,-0.15198419,0.21509829,0.10705524,-0.38092210,-0.026574145,0.27453177,0.14094142
344,-0.49849281,-0.14718387,0.20263506,0.10042203,-0.35771674,-0.026750211,0.25832628,0.13349915
345,-0.46885708,-0.14184728,0.19012746,0.093862992,-0.33450227,-0.026766721,0.24205240,0.12596463
346,-0.43882924,-0.13597416,0.17757799,0.087371035,-0.31130075,-0.026611970,0.22572371,0.11833350
347,-0.40844624,-0.12956537,0.16498965,0.080939228,-0.28813425,-0.026274196,0.20935436,0.11060183
348,-0.37774632,-0.12262292,0.15236589,0.074560812,-0.26502480,-0.025741615,0.19295895,0.10276619
349,-0.34676898,-0.11514998,0.13971067,0.068229209,-0.24199439,-0.025002459,0.17655254,0.094823586
350,-0.31555486,-0.10715088,0.12702840,0.061938035,-0.21906490,-0.024045015,0.16015061,0.086771491
351,-0.28414570,-0.098631099,0.11432395,0.055681108,-0.19625809,-0.022857658,0.14376900,0.078607850
352,-0.25258423,-0.089597304,0.10160264,0.049452456,-0.17359554,-0.021428893,0.12742392,0.070331063
353,-0.22091412,-0.080057310,0.088870226,0.043246327,-0.15109864,-0.019747389,0.11113185,0.061939989
354,-0.18917985,-0.070020091,0.076132877,0.037057198,-0.12878857,-0.017802019,0.094909542,0.053433941
355,-0.15742665,-0.059495766,0.063397176,0.030879775,-0.10668623,-0.015581893,0.078773948,0.044812677
356,-0.12570041,-0.048495589,0.050670095,0.024709006,-0.084812224,-0.013076397,0.062742205,0.036076396
357,-0.094047569,-0.037031927,0.037958978,0.018540082,-0.063186854,-0.010275226,0.046831578,0.027225730
358,-0.062515017,-0.025118246,0.025271522,0.012368441,-0.041830061,-0.0071684227,0.031059414,0.018261734
359,-0.031150016,-0.012769086,0.012615760,0.0061897717,-0.020761410,-0.0037464065,0.015443106,0.0091858754
360,-8.6523372e-08,-3.6179216e-08,3.5117637e-08,1.7280399e-08,-5.7451018e-08,-1.0908060e-08,4.2808239e-08,2.5767861e-08
