XRT N-S vs UFSS-A
      248.343
     0.438824
     0.488111
     0.350994
     0.224571
     0.212292
   -0.0582052
XRT N-S vs UFSS-B
      223.232
     0.232061
    -0.569734
     0.161521
     0.164448
    0.0627421
    -0.156914
XRT E-W vs UFSS-A
      3959.57
    -0.785601
    -0.551783
     0.144192
   0.00403957
   -0.0747667
    0.0417677
XRT E-W vs UFSS-B
      3967.76
    -0.890657
    -0.360125
     0.323883
    0.0279667
   -0.0373824
    0.0330223
SOT N-S vs UFSS-A
      131.701
     0.525073
     0.528897
     0.294253
    0.0233255
    0.0222652
    0.0498004
SOT N-S vs UFSS-B
      105.712
     0.412096
    -0.545896
    0.0317447
   -0.0171404
   -0.0838237
   -0.0532422
SOT E-W vs UFSS-A
      165.917
    -0.687445
    -0.670620
    0.0839692
    0.0351076
    -0.120007
   -0.0106115
SOT E-W vs UFSS-B
      174.340
    -0.879430
    -0.515475
     0.273220
     0.161566
   -0.0654767
    0.0247745
