XRT N-S vs UFSS-A
      236.980
    -0.238692
     0.705217
     0.205499
    0.0756001
   -0.0231873
     0.134476
XRT N-S vs UFSS-B
      179.750
     0.772485
    -0.253569
    0.0820138
  -0.00553951
   -0.0328316
    0.0103858
XRT E-W vs UFSS-A
      3952.73
    -0.359857
     -1.05590
    0.0123251
     0.226156
   -0.0567863
   -0.0337787
XRT E-W vs UFSS-B
      3959.17
    -0.527291
    -0.940710
     0.119718
     0.329095
  -0.00483164
   -0.0753075
SOT N-S vs UFSS-A
      94.0756
    -0.472279
     0.961851
     0.162191
     0.280275
    0.0783959
     0.137194
SOT N-S vs UFSS-B
      35.1244
     0.505670
    -0.125946
    0.0110054
     0.154512
    0.0171665
    0.0371648
SOT E-W vs UFSS-A
      182.929
    -0.204787
    -0.995115
    0.0816719
     0.175089
    0.0363107
   -0.0418040
SOT E-W vs UFSS-B
      189.598
    -0.410909
    -0.932723
     0.122129
     0.307212
    0.0329637
   -0.0154618
