XRT N-S vs UFSS-A
      198.500
      2.07774
     -3.06961
      1.57865
      1.05934
    -0.324229
     0.435186
XRT N-S vs UFSS-B
      195.506
     0.858442
     -1.23654
  -0.00591398
     0.473169
    -0.184523
   -0.0814930
XRT E-W vs UFSS-A
      3980.25
     -1.86480
     0.523089
    -0.475596
    -0.600831
     0.266073
    -0.188754
XRT E-W vs UFSS-B
      3964.99
    -0.422844
     -1.25477
     0.596805
     0.225228
   -0.0641141
     0.149524
SOT N-S vs UFSS-A
      60.4652
      1.37683
     -3.73519
      2.52526
     0.433915
     0.142954
     0.854399
SOT N-S vs UFSS-B
      57.1696
     0.222407
     -1.83870
     0.697107
    -0.116061
     0.194356
     0.257444
SOT E-W vs UFSS-A
      213.042
     -1.40877
     0.910477
    -0.675178
    -0.283713
     0.152866
    -0.404897
SOT E-W vs UFSS-B
      197.477
    -0.165977
     -1.12142
     0.538371
     0.406408
    -0.178981
     0.190113
