XRT N-S vs UFSS-A
      235.491
     0.638929
     0.432394
     0.195369
   -0.0109175
    0.0819108
   -0.0205511
XRT N-S vs UFSS-B
      237.950
     0.525064
    -0.568163
   -0.0448972
   -0.0324494
   0.00376923
   -0.0348908
XRT E-W vs UFSS-A
      3977.65
    -0.828043
    -0.508053
    0.0631427
     0.113846
   -0.0713547
    0.0367602
XRT E-W vs UFSS-B
      3977.58
    -0.903234
    -0.433733
     0.159116
  0.000829431
   -0.0174522
   -0.0172475
SOT N-S vs UFSS-A
      144.348
     0.561058
     0.531470
     0.313122
    0.0104171
    0.0973025
   -0.0121367
SOT N-S vs UFSS-B
      146.924
     0.426560
    -0.552902
    0.0996021
    0.0401521
    0.0285045
    0.0115264
SOT E-W vs UFSS-A
      170.681
    -0.732098
    -0.551175
    0.0627610
     0.111043
   -0.0451935
    -0.112305
SOT E-W vs UFSS-B
      170.576
    -0.742732
    -0.478954
     0.220796
    0.0556666
    0.0284176
    0.0132291
