XRT N-S vs UFSS-A
      242.186
     0.287031
     0.177939
     0.385590
   -0.0147083
    0.0644029
    0.0300409
XRT N-S vs UFSS-B
      220.688
     0.276728
    -0.743949
    0.0152468
   -0.0885241
    0.0617069
    -0.115757
XRT E-W vs UFSS-A
      3961.29
    -0.732734
    -0.497593
    0.0435616
    0.0402416
   -0.0538777
    -0.248764
XRT E-W vs UFSS-B
      3966.77
    -0.814068
    -0.542440
     0.227594
     0.169367
   -0.0247555
    -0.134750
SOT N-S vs UFSS-A
      110.682
     0.383079
     0.343730
     0.432024
     0.199308
   -0.0185943
     0.153355
SOT N-S vs UFSS-B
      88.4173
     0.311733
    -0.599253
    0.0315067
   0.00451041
   -0.0491199
   -0.0338005
SOT E-W vs UFSS-A
      183.972
    -0.618106
    -0.335935
    0.0445603
     0.194328
    -0.154350
    -0.123638
SOT E-W vs UFSS-B
      189.590
    -0.629048
    -0.496258
     0.233921
     0.199811
   -0.0777160
    0.0297378
