XRT N-S vs UFSS-A
      192.409
      3.02616
     -3.46162
      2.29675
      1.77417
    -0.742364
      1.02015
XRT N-S vs UFSS-B
      173.880
     0.366722
     -1.87059
     0.738136
   -0.0860305
     0.127917
     0.395614
XRT E-W vs UFSS-A
      3974.38
     -1.09768
     0.914861
    -0.541194
    -0.173200
   -0.0432263
    -0.425004
XRT E-W vs UFSS-B
      3959.24
    -0.242111
     -1.09112
     0.615668
     0.264910
    -0.183244
     0.206150
SOT N-S vs UFSS-A
      55.0460
     0.623055
     -3.20785
      1.85461
     0.137744
    0.0963887
     0.501925
SOT N-S vs UFSS-B
      32.9555
     0.618114
     -1.83573
     0.645814
     0.322274
    -0.127241
     0.273597
SOT E-W vs UFSS-A
      206.488
    -0.658383
     0.739764
    -0.449851
     0.251117
   -0.0810245
    -0.205223
SOT E-W vs UFSS-B
      192.070
    -0.701096
     -1.02695
     0.379851
    0.0730206
    0.0547671
    0.0350448
