deg,XRT_AX,XRT_BX,XRT_AY,XRT_BY,SOT_AX,SOT_BX,SOT_AY,SOT_BY
valid,1,1,1,1,1,1,1,1,revB
offset,92.756111,83.441349,1988.1483,1978.8103,22.078602,12.712397,105.61408,95.933113
0,0.0000000,0.0000000,0.0000000,0.0000000,0.0000000,0.0000000,0.0000000,0.0000000
1,0.090538003,0.016600006,-0.033874771,0.013646429,0.090213488,0.027186970,-0.033583486,0.0060644500
2,0.17865023,0.033527203,-0.066725040,0.026837092,0.17973788,0.054810443,-0.066887138,0.012379776
3,0.26432939,0.050797995,-0.098558098,0.039552167,0.26846440,0.082827262,-0.099877323,0.018917010
4,0.34757483,0.068429088,-0.12938364,0.051773689,0.35628855,0.11119484,-0.13252206,0.025647379
5,0.42839243,0.086437390,-0.15921368,0.063485568,0.44311027,0.13987125,-0.16479106,0.032542373
6,0.50679433,0.10483992,-0.18806246,0.074673606,0.52883405,0.16881526,-0.19665578,0.039573804
7,0.58279880,0.12365370,-0.21594638,0.085325509,0.61336906,0.19798644,-0.22808944,0.046713874
8,0.65642996,0.14289568,-0.24288384,0.095430890,0.69662930,0.22734523,-0.25906704,0.053935232
9,0.72771756,0.16258264,-0.26889521,0.10498127,0.77853360,0.25685298,-0.28956543,0.061211037
10,0.79669678,0.18273108,-0.29400267,0.11397008,0.85900580,0.28647201,-0.31956327,0.068515016
11,0.86340790,0.20335712,-0.31823011,0.12239263,0.93797477,0.31616572,-0.34904108,0.075821519
12,0.92789609,0.22447645,-0.34160302,0.13024614,1.0153745,0.34589858,-0.37798125,0.083105579
13,0.99021113,0.24610421,-0.36414840,0.13752966,1.0911440,0.37563620,-0.40636800,0.090342959
14,1.0504071,0.26825487,-0.38589457,0.14424410,1.1652277,0.40534543,-0.43418744,0.097510206
15,1.1085420,0.29094222,-0.40687113,0.15039218,1.2375750,0.43499433,-0.46142751,0.10458470
16,1.1646778,0.31417921,-0.42710878,0.15597838,1.3081405,0.46455225,-0.48807799,0.11154471
17,1.2188796,0.33797792,-0.44663920,0.16100896,1.3768842,0.49398987,-0.51413048,0.11836941
18,1.2712158,0.36234944,-0.46549495,0.16549185,1.4437711,0.52327923,-0.53957837,0.12503895
19,1.3217575,0.38730382,-0.48370933,0.16943664,1.5087713,0.55239373,-0.56441683,0.13153450
20,1.3705783,0.41285001,-0.50131623,0.17285453,1.5718601,0.58130821,-0.58864277,0.13783824
21,1.4177540,0.43899574,-0.51835004,0.17575829,1.6330179,0.60999895,-0.61225479,0.14393346
22,1.4633622,0.46574752,-0.53484549,0.17816218,1.6922299,0.63844364,-0.63525316,0.14980454
23,1.5074819,0.49311053,-0.55083754,0.18008189,1.7494863,0.66662150,-0.65763976,0.15543698
24,1.5501936,0.52108857,-0.56636127,0.18153449,1.8047821,0.69451317,-0.67941804,0.16081748
25,1.5915783,0.54968403,-0.58145171,0.18253838,1.8581171,0.72210082,-0.70059296,0.16593388
26,1.6317180,0.57889783,-0.59614376,0.18311318,1.9094954,0.74936808,-0.72117096,0.17077526
27,1.6706946,0.60872938,-0.61047205,0.18327968,1.9589260,0.77630009,-0.74115987,0.17533190
28,1.7085902,0.63917652,-0.62447084,0.18305980,2.0064219,0.80288347,-0.76056883,0.17959530
29,1.7454864,0.67023553,-0.63817387,0.18247645,2.0520006,0.82910630,-0.77940829,0.18355823
30,1.7814643,0.70190105,-0.65161430,0.18155348,2.0956834,0.85495815,-0.79768990,0.18721470
31,1.8166039,0.73416613,-0.66482454,0.18031564,2.1374957,0.88043003,-0.81542641,0.19055996
32,1.8509843,0.76702212,-0.67783622,0.17878844,2.1774666,0.90551438,-0.83263166,0.19359053
33,1.8846828,0.80045874,-0.69068000,0.17699808,2.2156288,0.93020505,-0.84932046,0.19630417
34,1.9177753,0.83446403,-0.70338557,0.17497142,2.2520185,0.95449728,-0.86550853,0.19869991
35,1.9503355,0.86902438,-0.71598149,0.17273580,2.2866749,0.97838768,-0.88121241,0.20077799
36,1.9824349,0.90412450,-0.72849512,0.17031906,2.3196406,1.0018742,-0.89644940,0.20253991
37,2.0141429,0.93974744,-0.74095256,0.16774937,2.3509607,1.0249560,-0.91123746,0.20398835
38,2.0455257,0.97587465,-0.75337854,0.16505520,2.3806833,1.0476335,-0.92559511,0.20512721
39,2.0766472,1.0124859,-0.76579638,0.16226522,2.4088587,1.0699086,-0.93954141,0.20596156
40,2.1075680,1.0495595,-0.77822791,0.15940818,2.4355397,1.0917840,-0.95309580,0.20649763
41,2.1383454,1.0870721,-0.79069340,0.15651290,2.4607811,1.1132638,-0.96627808,0.20674277
42,2.1690336,1.1249989,-0.80321154,0.15360810,2.4846395,1.1343530,-0.97910827,0.20670545
43,2.1996832,1.1633135,-0.81579936,0.15072240,2.5071732,1.1550578,-0.99160659,0.20639518
44,2.2303410,1.2019882,-0.82847221,0.14788419,2.5284421,1.1753853,-1.0037933,0.20582254
45,2.2610503,1.2409940,-0.84124370,0.14512155,2.5485071,1.1953436,-1.0156888,0.20499909
46,2.2918503,1.2803005,-0.85412569,0.14246220,2.5674305,1.2149415,-1.0273131,0.20393737
47,2.3227767,1.3198759,-0.86712828,0.13993341,2.5852752,1.2341889,-1.0386864,0.20265085
48,2.3538607,1.3596876,-0.88025977,0.13756192,2.6021048,1.2530962,-1.0498286,0.20115386
49,2.3851297,1.3997016,-0.89352665,0.13537388,2.6179835,1.2716748,-1.0607590,0.19946160
50,2.4166070,1.4398829,-0.90693363,0.13339477,2.6329754,1.2899366,-1.0714969,0.19759005
51,2.4483119,1.4801957,-0.92048360,0.13164937,2.6471451,1.3078940,-1.0820609,0.19555594
52,2.4802595,1.5206032,-0.93417766,0.13016164,2.6605569,1.3255602,-1.0924692,0.19337670
53,2.5124607,1.5610678,-0.94801514,0.12895470,2.6732748,1.3429486,-1.1027394,0.19107041
54,2.5449225,1.6015515,-0.96199362,0.12805076,2.6853623,1.3600733,-1.1128883,0.18865577
55,2.5776479,1.6420153,-0.97610895,0.12747108,2.6968822,1.3769485,-1.1229322,0.18615200
56,2.6106358,1.6824201,-0.99035530,0.12723589,2.7078965,1.3935890,-1.1328866,0.18357882
57,2.6438814,1.7227261,-1.0047252,0.12736439,2.7184665,1.4100095,-1.1427660,0.18095640
58,2.6773759,1.7628933,-1.0192094,0.12787465,2.7286519,1.4262251,-1.1525841,0.17830528
59,2.7111070,1.8028817,-1.0337975,0.12878363,2.7385115,1.4422512,-1.1623539,0.17564636
60,2.7450587,1.8426509,-1.0484772,0.13010709,2.7481024,1.4581028,-1.1720872,0.17300077
61,2.7792117,1.8821608,-1.0632349,0.13185962,2.7574803,1.4737953,-1.1817948,0.17038990
62,2.8135432,1.9213713,-1.0780556,0.13405453,2.7666993,1.4893441,-1.1914867,0.16783528
63,2.8480275,1.9602426,-1.0929232,0.13670391,2.7758114,1.5047642,-1.2011715,0.16535856
64,2.8826356,1.9987350,-1.1078200,0.13981858,2.7848670,1.5200707,-1.2108570,0.16298141
65,2.9173360,2.0368097,-1.1227275,0.14340803,2.7939144,1.5352785,-1.2205496,0.16072553
66,2.9520945,2.0744282,-1.1376260,0.14748048,2.8029996,1.5504022,-1.2302550,0.15861256
67,2.9868744,2.1115525,-1.1524947,0.15204284,2.8121668,1.5654560,-1.2399773,0.15666399
68,3.0216368,2.1481458,-1.1673121,0.15710070,2.8214577,1.5804540,-1.2497197,0.15490117
69,3.0563409,2.1841718,-1.1820559,0.16265833,2.8309118,1.5954099,-1.2594841,0.15334523
70,3.0909440,2.2195954,-1.1967028,0.16871873,2.8405660,1.6103368,-1.2692714,0.15201702
71,3.1254021,2.2543825,-1.2112294,0.17528355,2.8504551,1.6252476,-1.2790813,0.15093706
72,3.1596695,2.2885001,-1.2256113,0.18235321,2.8606113,1.6401545,-1.2889122,0.15012549
73,3.1936998,2.3219168,-1.2398240,0.18992683,2.8710644,1.6550693,-1.2987616,0.14960207
74,3.2274456,2.3546022,-1.2538425,0.19800229,2.8818416,1.6700033,-1.3086257,0.14938603
75,3.2608589,2.3865276,-1.2676419,0.20657625,2.8929676,1.6849670,-1.3184996,0.14949614
76,3.2938913,2.4176656,-1.2811969,0.21564418,2.9044648,1.6999706,-1.3283775,0.14995059
77,3.3264946,2.4479909,-1.2944824,0.22520038,2.9163530,1.7150234,-1.3382523,0.15076696
78,3.3586205,2.4774794,-1.3074733,0.23523803,2.9286494,1.7301344,-1.3481161,0.15196222
79,3.3902212,2.5061091,-1.3201447,0.24574921,2.9413690,1.7453115,-1.3579599,0.15355263
80,3.4212495,2.5338597,-1.3324721,0.25672496,2.9545243,1.7605623,-1.3677739,0.15555378
81,3.4516592,2.5607130,-1.3444314,0.26815530,2.9681254,1.7758936,-1.3775472,0.15798048
82,3.4814053,2.5866527,-1.3559991,0.28002930,2.9821801,1.7913113,-1.3872682,0.16084677
83,3.5104441,2.6116645,-1.3671523,0.29233512,2.9966941,1.8068209,-1.3969244,0.16416590
84,3.5387336,2.6357362,-1.3778686,0.30506005,3.0116709,1.8224270,-1.4065028,0.16795028
85,3.5662335,2.6588578,-1.3881266,0.31819061,3.0271116,1.8381336,-1.4159893,0.17221145
86,3.5929059,2.6810215,-1.3979059,0.33171252,3.0430158,1.8539439,-1.4253694,0.17696009
87,3.6187149,2.7022217,-1.4071870,0.34561084,3.0593806,1.8698606,-1.4346281,0.18220597
88,3.6436273,2.7224549,-1.4159513,0.35987000,3.0762019,1.8858853,-1.4437498,0.18795795
89,3.6676125,2.7417201,-1.4241817,0.37447385,3.0934732,1.9020194,-1.4527185,0.19422397
90,3.6906429,2.7600184,-1.4318621,0.38940572,3.1111870,1.9182633,-1.4615176,0.20101100
91,3.7126940,2.7773533,-1.4389777,0.40464852,3.1293337,1.9346169,-1.4701305,0.20832510
92,3.7337444,2.7937306,-1.4455153,0.42018475,3.1479027,1.9510793,-1.4785401,0.21617133
93,3.7537764,2.8091583,-1.4514630,0.43599662,3.1668821,1.9676491,-1.4867294,0.22455383
94,3.7727754,2.8236468,-1.4568103,0.45206608,3.1862584,1.9843244,-1.4946810,0.23347573
95,3.7907311,2.8372086,-1.4615484,0.46837488,3.2060177,2.0011024,-1.5023777,0.24293925
96,3.8076364,2.8498586,-1.4656702,0.48490466,3.2261446,2.0179801,-1.5098022,0.25294560
97,3.8234887,2.8616139,-1.4691701,0.50163701,3.2466232,2.0349537,-1.5169375,0.26349506
98,3.8382891,2.8724938,-1.4720442,0.51855353,3.2674369,2.0520190,-1.5237665,0.27458698
99,3.8520427,2.8825196,-1.4742905,0.53563587,3.2885685,2.0691715,-1.5302727,0.28621974
100,3.8647590,2.8917148,-1.4759085,0.55286585,3.3100004,2.0864060,-1.5364396,0.29839082
101,3.8764517,2.9001051,-1.4768996,0.57022546,3.3317148,2.1037169,-1.5422513,0.31109679
102,3.8871387,2.9077178,-1.4772671,0.58769698,3.3536937,2.1210985,-1.5476925,0.32433332
103,3.8968420,2.9145825,-1.4770160,0.60526298,3.3759190,2.1385445,-1.5527481,0.33809523
104,3.9055881,2.9207304,-1.4761530,0.62290643,3.3983728,2.1560485,-1.5574038,0.35237645
105,3.9134077,2.9261946,-1.4746868,0.64061072,3.4210375,2.1736035,-1.5616461,0.36717013
106,3.9203357,2.9310099,-1.4726277,0.65835975,3.4438956,2.1912027,-1.5654621,0.38246859
107,3.9264112,2.9352126,-1.4699880,0.67613794,3.4669303,2.2088389,-1.5688396,0.39826338
108,3.9316773,2.9388406,-1.4667815,0.69393030,3.4901252,2.2265046,-1.5717675,0.41454532
109,3.9361814,2.9419331,-1.4630240,0.71172250,3.5134648,2.2441925,-1.5742355,0.43130448
110,3.9399747,2.9445309,-1.4587327,0.72950086,3.5369343,2.2618950,-1.5762341,0.44853028
111,3.9431122,2.9466756,-1.4539266,0.74725246,3.5605197,2.2796046,-1.5777552,0.46621148
112,3.9456526,2.9484103,-1.4486263,0.76496512,3.5842080,2.2973137,-1.5787915,0.48433622
113,3.9476585,2.9497788,-1.4428541,0.78262746,3.6079876,2.3150147,-1.5793368,0.50289206
114,3.9491954,2.9508258,-1.4366334,0.80022895,3.6318477,2.3327002,-1.5793862,0.52186601
115,3.9503325,2.9515970,-1.4299894,0.81775990,3.6557790,2.3503629,-1.5789360,0.54124458
116,3.9511420,2.9521384,-1.4229486,0.83521152,3.6797733,2.3679955,-1.5779837,0.56101382
117,3.9516988,2.9524967,-1.4155386,0.85257594,3.7038239,2.3855912,-1.5765278,0.58115933
118,3.9520806,2.9527189,-1.4077883,0.86984619,3.7279257,2.4031429,-1.5745686,0.60166635
119,3.9523676,2.9528524,-1.3997279,0.88701627,3.7520748,2.4206443,-1.5721072,0.62251973
120,3.9526422,2.9529445,-1.3913884,0.90408114,3.7762692,2.4380890,-1.5691464,0.64370405
121,3.9529887,2.9530425,-1.3828019,0.92103670,3.8005082,2.4554711,-1.5656902,0.66520359
122,3.9534932,2.9531938,-1.3740013,0.93787985,3.8247927,2.4727849,-1.5617438,0.68700243
123,3.9542433,2.9534452,-1.3650201,0.95460844,3.8491255,2.4900251,-1.5573140,0.70908443
124,3.9553276,2.9538434,-1.3558927,0.97122130,3.8735108,2.5071870,-1.5524089,0.73143334
125,3.9568358,2.9544342,-1.3466539,0.98771821,3.8979545,2.5242659,-1.5470379,0.75403276
126,3.9588583,2.9552630,-1.3373390,1.0040999,3.9224642,2.5412578,-1.5412116,0.77686626
127,3.9614854,2.9563743,-1.3279836,1.0203681,3.9470490,2.5581591,-1.5349423,0.79991737
128,3.9648080,2.9578116,-1.3186233,1.0365253,3.9717199,2.5749667,-1.5282433,0.82316960
129,3.9689162,2.9596174,-1.3092941,1.0525751,3.9964890,2.5916779,-1.5211294,0.84660655
130,3.9738998,2.9618329,-1.3000318,1.0685219,4.0213704,2.6082905,-1.5136164,0.87021188
131,3.9798475,2.9644982,-1.2908722,1.0843707,4.0463795,2.6248028,-1.5057216,0.89396938
132,3.9868470,2.9676517,-1.2818505,1.1001278,4.0715330,2.6412137,-1.4974634,0.91786298
133,3.9949843,2.9713304,-1.2730018,1.1157997,4.0968493,2.6575223,-1.4888613,0.94187682
134,4.0043435,2.9755695,-1.2643607,1.1313943,4.1223479,2.6737287,-1.4799362,0.96599523
135,4.0150065,2.9804025,-1.2559610,1.1469195,4.1480494,2.6898330,-1.4707097,0.99020282
136,4.0270529,2.9858609,-1.2478359,1.1623844,4.1739760,2.7058362,-1.4612046,1.0144845
137,4.0405594,2.9919744,-1.2400176,1.1777985,4.2001504,2.7217396,-1.4514447,1.0388254
138,4.0555993,2.9987704,-1.2325374,1.1931719,4.2265967,2.7375450,-1.4414548,1.0632110
139,4.0722429,3.0062741,-1.2254255,1.2085150,4.2533396,2.7532547,-1.4312603,1.0876273
140,4.0905564,3.0145085,-1.2187108,1.2238390,4.2804047,2.7688716,-1.4208875,1.1120605
141,4.1106023,3.0234942,-1.2124211,1.2391552,4.3078180,2.7843989,-1.4103635,1.1364973
142,4.1324385,3.0332494,-1.2065825,1.2544755,4.3356062,2.7998403,-1.3997159,1.1609247
143,4.1561185,3.0437897,-1.2012196,1.2698118,4.3637963,2.8151998,-1.3889731,1.1853303
144,4.1816909,3.0551281,-1.1963556,1.2851765,4.3924155,2.8304820,-1.3781638,1.2097021
145,4.2091990,3.0672751,-1.1920118,1.3005819,4.4214913,2.8456918,-1.3673171,1.2340286
146,4.2386810,3.0802383,-1.1882075,1.3160406,4.4510509,2.8608343,-1.3564626,1.2582985
147,4.2701692,3.0940226,-1.1849604,1.3315650,4.4811213,2.8759150,-1.3456301,1.2825015
148,4.3036905,3.1086303,-1.1822859,1.3471676,4.5117295,2.8909398,-1.3348495,1.3066274
149,4.3392652,3.1240606,-1.1801976,1.3628608,4.5429017,2.9059148,-1.3241507,1.3306666
150,4.3769079,3.1403101,-1.1787068,1.3786568,4.5746635,2.9208462,-1.3135639,1.3546100
151,4.4166263,3.1573723,-1.1778225,1.3945675,4.6070398,2.9357405,-1.3031190,1.3784491
152,4.4584217,3.1752380,-1.1775515,1.4106045,4.6400547,2.9506043,-1.2928457,1.4021759
153,4.5022889,3.1938950,-1.1778983,1.4267791,4.6737307,2.9654443,-1.2827735,1.4257827
154,4.5482154,3.2133283,-1.1788648,1.4431020,4.7080897,2.9802672,-1.2729316,1.4492625
155,4.5961820,3.2335201,-1.1804507,1.4595836,4.7431516,2.9950800,-1.2633485,1.4726088
156,4.6461623,3.2544494,-1.1826531,1.4762335,4.7789351,3.0098893,-1.2540526,1.4958155
157,4.6981226,3.2760928,-1.1854666,1.4930608,4.8154571,3.0247018,-1.2450712,1.5188769
158,4.7520222,3.2984239,-1.1888832,1.5100738,4.8527325,3.0395242,-1.2364313,1.5417880
159,4.8078129,3.3214135,-1.1928925,1.5272802,4.8907743,3.0543630,-1.2281587,1.5645439
160,4.8654393,3.3450298,-1.1974814,1.5446865,4.9295934,3.0692243,-1.2202787,1.5871405
161,4.9248388,3.3692382,-1.2026343,1.5622988,4.9691983,3.0841141,-1.2128153,1.6095740
162,4.9859411,3.3940016,-1.2083330,1.5801220,5.0095949,3.0990382,-1.2057917,1.6318407
163,5.0486691,3.4192804,-1.2145567,1.5981598,5.0507869,3.1140020,-1.1992299,1.6539377
164,5.1129383,3.4450325,-1.2212822,1.6164153,5.0927750,3.1290103,-1.1931506,1.6758623
165,5.1786568,3.4712134,-1.2284837,1.6348903,5.1355573,3.1440678,-1.1875733,1.6976119
166,5.2457262,3.4977763,-1.2361330,1.6535853,5.1791287,3.1591786,-1.1825161,1.7191846
167,5.3140406,3.5246724,-1.2441993,1.6724998,5.2234812,3.1743461,-1.1779957,1.7405784
168,5.3834877,3.5518504,-1.2526496,1.6916321,5.2686038,3.1895733,-1.1740273,1.7617919
169,5.4539485,3.5792575,-1.2614485,1.7109792,5.3144819,3.2048627,-1.1706247,1.7828237
170,5.5252973,3.6068385,-1.2705583,1.7305368,5.3610980,3.2202159,-1.1677997,1.8036726
171,5.5974025,3.6345370,-1.2799392,1.7502992,5.4084308,3.2356338,-1.1655628,1.8243377
172,5.6701261,3.6622944,-1.2895492,1.7702596,5.4564558,3.2511169,-1.1639227,1.8448180
173,5.7433244,3.6900511,-1.2993443,1.7904096,5.5051449,3.2666646,-1.1628863,1.8651130
174,5.8168482,3.7177456,-1.3092784,1.8107395,5.5544663,3.2822756,-1.1624585,1.8852218
175,5.8905428,3.7453156,-1.3193039,1.8312384,5.6043847,3.2979477,-1.1626428,1.9051440
176,5.9642487,3.7726974,-1.3293710,1.8518936,5.6548611,3.3136779,-1.1634404,1.9248788
177,6.0378016,3.7998264,-1.3394286,1.8726913,5.7058528,3.3294622,-1.1648507,1.9444257
178,6.1110326,3.8266372,-1.3494240,1.8936163,5.7573135,3.3452957,-1.1668714,1.9637840
179,6.1837690,3.8530637,-1.3593029,1.9146518,5.8091931,3.3611726,-1.1694980,1.9829529
180,6.2558341,3.8790392,-1.3690100,1.9357799,5.8614378,3.3770861,-1.1727240,2.0019316
181,6.3270481,3.9044968,-1.3784887,1.9569810,5.9139903,3.3930282,-1.1765413,2.0207190
182,6.3972280,3.9293691,-1.3876813,1.9782344,5.9667895,3.4089900,-1.1809393,2.0393141
183,6.4661882,3.9535888,-1.3965293,1.9995178,6.0197708,3.4249617,-1.1859059,2.0577153
184,6.5337410,3.9770888,-1.4049734,2.0208080,6.0728659,3.4409321,-1.1914267,2.0759212
185,6.5996968,3.9998019,-1.4129538,2.0420800,6.1260035,3.4568893,-1.1974856,2.0939297
186,6.6638647,4.0216615,-1.4204102,2.0633080,6.1791082,3.4728201,-1.2040643,2.1117389
187,6.7260525,4.0426015,-1.4272820,2.0844648,6.2321020,3.4887101,-1.2111429,2.1293461
188,6.7860680,4.0625567,-1.4335084,2.1055219,6.2849032,3.5045442,-1.2186994,2.1467487
189,6.8437184,4.0814623,-1.4390286,2.1264498,6.3374273,3.5203058,-1.2267100,2.1639433
190,6.8988116,4.0992550,-1.4437820,2.1472181,6.3895865,3.5359775,-1.2351492,2.1809266
191,6.9511560,4.1158724,-1.4477084,2.1677951,6.4412905,3.5515408,-1.2439896,2.1976946
192,7.0005615,4.1312533,-1.4507480,2.1881484,6.4924460,3.5669759,-1.2532020,2.2142428
193,7.0468395,4.1453383,-1.4528416,2.2082444,6.5429574,3.5822623,-1.2627559,2.2305666
194,7.0898036,4.1580692,-1.4539308,2.2280489,6.5927266,3.5973783,-1.2726189,2.2466606
195,7.1292701,4.1693899,-1.4539583,2.2475269,6.6416530,3.6123012,-1.2827571,2.2625191
196,7.1650583,4.1792459,-1.4528677,2.2666427,6.6896343,3.6270073,-1.2931352,2.2781359
197,7.1969909,4.1875848,-1.4506041,2.2853599,6.7365663,3.6414721,-1.3037164,2.2935044
198,7.2248946,4.1943565,-1.4471137,2.3036417,6.7823429,3.6556699,-1.3144629,2.3086173
199,7.2486006,4.1995128,-1.4423448,2.3214507,6.8268567,3.6695745,-1.3253353,2.3234670
200,7.2679447,4.2030082,-1.4362468,2.3387492,6.8699991,3.6831585,-1.3362931,2.3380452
201,7.2827683,4.2047996,-1.4287715,2.3554993,6.9116602,3.6963940,-1.3472950,2.3523433
202,7.2929181,4.2048464,-1.4198725,2.3716627,6.9517295,3.7092521,-1.3582984,2.3663519
203,7.2982471,4.2031108,-1.4095055,2.3872011,6.9900959,3.7217032,-1.3692601,2.3800614
204,7.2986148,4.1995577,-1.3976286,2.4020762,7.0266478,3.7337174,-1.3801360,2.3934615
205,7.2938874,4.1941550,-1.3842023,2.4162496,7.0612737,3.7452637,-1.3908814,2.4065415
206,7.2839384,4.1868735,-1.3691898,2.4296833,7.0938620,3.7563108,-1.4014509,2.4192902
207,7.2686492,4.1776872,-1.3525567,2.4423394,7.1243018,3.7668270,-1.4117987,2.4316958
208,7.2479087,4.1665729,-1.3342717,2.4541804,7.1524825,3.7767800,-1.4218787,2.4437461
209,7.2216145,4.1535110,-1.3143061,2.4651692,7.1782946,3.7861372,-1.4316446,2.4554286
210,7.1896726,4.1384847,-1.2926346,2.4752693,7.2016296,3.7948657,-1.4410499,2.4667301
211,7.1519978,4.1214808,-1.2692346,2.4844447,7.2223806,3.8029323,-1.4500481,2.4776372
212,7.1085145,4.1024894,-1.2440870,2.4926602,7.2404423,3.8103038,-1.4585927,2.4881360
213,7.0591562,4.0815038,-1.2171759,2.4998816,7.2557111,3.8169467,-1.4666376,2.4982122
214,7.0038663,4.0585207,-1.1884887,2.5060753,7.2680860,3.8228277,-1.4741369,2.5078512
215,6.9425979,4.0335405,-1.1580165,2.5112089,7.2774681,3.8279133,-1.4810453,2.5170382
216,6.8753145,4.0065668,-1.1257535,2.5152510,7.2837614,3.8321703,-1.4873178,2.5257579
217,6.8019899,3.9776064,-1.0916977,2.5181716,7.2868727,3.8355657,-1.4929104,2.5339948
218,6.7226082,3.9466700,-1.0558508,2.5199416,7.2867122,3.8380669,-1.4977796,2.5417333
219,6.6371642,3.9137714,-1.0182179,2.5205336,7.2831934,3.8396413,-1.5018830,2.5489574
220,6.5456635,3.8789277,-0.97880789,2.5199215,7.2762336,3.8402572,-1.5051791,2.5556512
221,6.4481224,3.8421597,-0.93763345,2.5180807,7.2657539,3.8398830,-1.5076277,2.5617985
222,6.3445683,3.8034912,-0.89471084,2.5149881,7.2516798,3.8384879,-1.5091896,2.5673829
223,6.2350392,3.7629495,-0.85006005,2.5106227,7.2339408,3.8360420,-1.5098271,2.5723883
224,6.1195845,3.7205649,-0.80370482,2.5049647,7.2124715,3.8325157,-1.5095039,2.5767983
225,5.9982641,3.6763711,-0.75567255,2.4979964,7.1872110,3.8278805,-1.5081853,2.5805967
226,5.8711492,3.6304048,-0.70599436,2.4897020,7.1581036,3.8221090,-1.5058382,2.5837674
227,5.7383217,3.5827058,-0.65470496,2.4800676,7.1250985,3.8151743,-1.5024311,2.5862942
228,5.5998743,3.5333167,-0.60184272,2.4690812,7.0881508,3.8070511,-1.4979347,2.5881614
229,5.4559104,3.4822832,-0.54744954,2.4567329,7.0472208,3.7977149,-1.4923212,2.5893533
230,5.3065441,3.4296536,-0.49157083,2.4430150,7.0022747,3.7871425,-1.4855651,2.5898546
231,5.1518996,3.3754789,-0.43425543,2.4279219,6.9532845,3.7753121,-1.4776428,2.5896501
232,4.9921119,3.3198128,-0.37555557,2.4114500,6.9002285,3.7622031,-1.4685329,2.5887252
233,4.8273255,3.2627115,-0.31552674,2.3935982,6.8430909,3.7477965,-1.4582163,2.5870655
234,4.6576950,3.2042334,-0.25422766,2.3743675,6.7818622,3.7320745,-1.4466762,2.5846573
235,4.4833847,3.1444392,-0.19172011,2.3537610,6.7165396,3.7150213,-1.4338980,2.5814871
236,4.3045681,3.0833917,-0.12806890,2.3317845,6.6471265,3.6966224,-1.4198696,2.5775422
237,4.1214276,3.0211557,-0.063341711,2.3084458,6.5736329,3.6768650,-1.4045813,2.5728103
238,3.9341547,2.9577981,0.0023910061,2.2837550,6.4960757,3.6557382,-1.3880261,2.5672798
239,3.7429490,2.8933871,0.069056160,2.2577247,6.4144783,3.6332327,-1.3701992,2.5609399
240,3.5480183,2.8279927,0.13657815,2.2303697,6.3288708,3.6093412,-1.3510987,2.5537803
241,3.3495783,2.7616864,0.20487900,2.2017072,6.2392902,3.5840580,-1.3307250,2.5457916
242,3.1478517,2.6945410,0.27387852,2.1717566,6.1457803,3.5573798,-1.3090813,2.5369652
243,2.9430683,2.6266302,0.34349443,2.1405397,6.0483914,3.5293048,-1.2861734,2.5272933
244,2.7354644,2.5580290,0.41364254,2.1080804,5.9471810,3.4998334,-1.2620098,2.5167690
245,2.5252824,2.4888130,0.48423689,2.0744050,5.8422130,3.4689680,-1.2366015,2.5053863
246,2.3127703,2.4190588,0.55518992,2.0395419,5.7335581,3.4367131,-1.2099622,2.4931404
247,2.0981814,2.3488432,0.62641266,2.0035218,5.6212936,3.4030753,-1.1821083,2.4800270
248,1.8817736,2.2782436,0.69781487,1.9663773,5.5055033,3.3680631,-1.1530586,2.4660433
249,1.6638089,2.2073376,0.76930523,1.9281433,5.3862776,3.3316874,-1.1228349,2.4511872
250,1.4445534,2.1362029,0.84079154,1.8888567,5.2637131,3.2939610,-1.0914611,2.4354580
251,1.2242762,2.0649170,0.91218087,1.8485562,5.1379127,3.2548988,-1.0589639,2.4188559
252,1.0032491,1.9935573,0.98337975,1.8072825,5.0089854,3.2145181,-1.0253724,2.4013823
253,0.78174630,1.9222008,1.0542944,1.7650782,4.8770462,3.1728381,-0.99071823,2.3830397
254,0.56004349,1.8509239,1.1248307,1.7219875,4.7422158,3.1298801,-0.95503533,2.3638319
255,0.33841768,1.7798026,1.1948949,1.6780566,4.6046207,3.0856677,-0.91835998,2.3437637
256,0.11714647,1.7089116,1.2643932,1.6333329,4.4643925,3.0402264,-0.88073078,2.3228413
257,-0.10349240,1.6383252,1.3332323,1.5878657,4.3216683,2.9935839,-0.84218848,2.3010721
258,-0.32322164,1.5681161,1.4013193,1.5417055,4.1765903,2.9457699,-0.80277600,2.2784646
259,-0.54176485,1.4983561,1.4685624,1.4949042,4.0293053,2.8968161,-0.76253830,2.2550286
260,-0.75884716,1.4291156,1.5348705,1.4475150,3.8799647,2.8467562,-0.72152231,2.2307752
261,-0.97419566,1.3604633,1.6001538,1.3995923,3.7287243,2.7956258,-0.67977683,2.2057167
262,-1.1875400,1.2924665,1.6643237,1.3511914,3.5757440,2.7434625,-0.63735246,2.1798665
263,-1.3986127,1.2251907,1.7272932,1.3023687,3.4211874,2.6903056,-0.59430148,2.1532395
264,-1.6071501,1.1586995,1.7889770,1.2531814,3.2652217,2.6361965,-0.55067778,2.1258516
265,-1.8128924,1.0930547,1.8492915,1.2036874,3.1080174,2.5811779,-0.50653671,2.0977201
266,-2.0155842,1.0283160,1.9081552,1.1539453,2.9497478,2.5252947,-0.46193501,2.0688633
267,-2.2149755,0.96454067,1.9654888,1.1040141,2.7905890,2.4685930,-0.41693069,2.0393008
268,-2.4108214,0.90178413,2.0212153,1.0539533,2.6307194,2.4111206,-0.37158290,2.0090535
269,-2.6028832,0.84009926,2.0752603,1.0038227,2.4703194,2.3529270,-0.32595182,1.9781433
270,-2.7909285,0.77953656,2.1275518,0.95368226,2.3095713,2.2940629,-0.28009854,1.9465931
271,-2.9747315,0.72014406,2.1780209,0.90359192,2.1486586,2.2345803,-0.23408496,1.9144271
272,-3.1540741,0.66196726,2.2266013,0.85361165,1.9877660,2.1745325,-0.18797362,1.8816705
273,-3.3287454,0.60504900,2.2732300,0.80380122,1.8270789,2.1139742,-0.14182761,1.8483495
274,-3.4985427,0.54942952,2.3178470,0.75422009,1.6667831,2.0529609,-0.095710425,1.8144914
275,-3.6632718,0.49514631,2.3603956,0.70492735,1.5070647,1.9915493,-0.049685857,1.7801243
276,-3.8227469,0.44223414,2.4008226,0.65598154,1.3481092,1.9297969,-0.0038178380,1.7452774
277,-3.9767915,0.39072498,2.4390782,0.60744055,1.1901018,1.8677620,0.041829671,1.7099806
278,-4.1252384,0.34064800,2.4751161,0.55936157,1.0332267,1.8055038,0.087192816,1.6742648
279,-4.2679301,0.29202958,2.5088940,0.51180088,0.87766675,1.7430820,0.13220798,1.6381615
280,-4.4047188,0.24489322,2.5403729,0.46481381,0.72360338,1.6805568,0.17681190,1.6017032
281,-4.5354671,0.19925961,2.5695179,0.41845462,0.57121602,1.6179889,0.22094182,1.5649228
282,-4.6600477,0.15514661,2.5962979,0.37277637,0.42068187,1.5554393,0.26453560,1.5278539
283,-4.7783441,0.11256924,2.6206857,0.32783084,0.27217559,1.4929692,0.30753183,1.4905309
284,-4.8902503,0.071539718,2.6426581,0.28366843,0.12586897,1.4306401,0.34987000,1.4529884
285,-4.9956714,0.032067479,2.6621959,0.24033805,-0.018069400,1.3685132,0.39149057,1.4152617
286,-5.0945233,-0.0058408000,2.6792839,0.19788704,-0.15947442,1.3066500,0.43233510,1.3773864
287,-5.1867332,-0.042181160,2.6939110,0.15636106,-0.29818476,1.2451115,0.47234641,1.3393985
288,-5.2722393,-0.076952318,2.7060700,0.11580403,-0.43404320,1.1839585,0.51146865,1.3013341
289,-5.3509911,-0.11015562,2.7157578,0.076258027,-0.56689684,1.1232515,0.54964741,1.2632297
290,-5.4229493,-0.14179498,2.7229755,0.037763220,-0.69659746,1.0630505,0.58682986,1.2251219
291,-5.4880861,-0.17187684,2.7277279,0.00035778364,-0.82300172,1.0034147,0.62296482,1.1870475
292,-5.5463845,-0.20041006,2.7300240,-0.035922162,-0.94597142,0.94440291,0.65800290,1.1490430
293,-5.5978391,-0.22740590,2.7298768,-0.071042623,-1.0653738,0.88607286,0.69189655,1.1111452
294,-5.6424553,-0.25287790,2.7273030,-0.10497179,-1.1810816,0.82848153,0.72460019,1.0733906
295,-5.6802498,-0.27684183,2.7223232,-0.13768008,-1.2929737,0.77168489,0.75607026,1.0358157
296,-5.7112500,-0.29931559,2.7149619,-0.16914022,-1.4009347,0.71573781,0.78626536,0.99845638
297,-5.7354942,-0.32031910,2.7052471,-0.19932726,-1.5048557,0.66069398,0.81514626,0.96134864
298,-5.7530312,-0.33987424,2.6932106,-0.22821862,-1.6046341,0.60660583,0.84267602,0.92452788
299,-5.7639202,-0.35800474,2.6788877,-0.25579414,-1.7001740,0.55352442,0.86882004,0.88802911
300,-5.7682306,-0.37473607,2.6623171,-0.28203609,-1.7913862,0.50149938,0.89354612,0.85188681
301,-5.7660421,-0.39009532,2.6435408,-0.30692920,-1.8781885,0.45057881,0.91682453,0.81613492
302,-5.7574436,-0.40411114,2.6226042,-0.33046070,-1.9605056,0.40080920,0.93862803,0.78080675
303,-5.7425339,-0.41681358,2.5995558,-0.35262029,-2.0382695,0.35223536,0.95893196,0.74593489
304,-5.7214207,-0.42823400,2.5744468,-0.37340019,-2.1114193,0.30490037,0.97771425,0.71155120
305,-5.6942208,-0.43840497,2.5473317,-0.39279509,-2.1799016,0.25884546,0.99495544,0.67768671
306,-5.6610594,-0.44736010,2.5182674,-0.41080221,-2.2436702,0.21411001,1.0106387,0.64437161
307,-5.6220699,-0.45513400,2.4873136,-0.42742125,-2.3026865,0.17073141,1.0247500,0.61163514
308,-5.5773936,-0.46176209,2.4545324,-0.44265436,-2.3569194,0.12874508,1.0372779,0.57950555
309,-5.5271793,-0.46728051,2.4199881,-0.45650618,-2.4063452,0.088184371,1.0482136,0.54801009
310,-5.4715829,-0.47172603,2.3837474,-0.46898374,-2.4509478,0.049080525,1.0575512,0.51717491
311,-5.4107670,-0.47513588,2.3458788,-0.48009649,-2.4907185,0.011462638,1.0652872,0.48702503
312,-5.3449006,-0.47754765,2.3064526,-0.48985621,-2.5256563,-0.024642388,1.0714211,0.45758431
313,-5.2741583,-0.47899918,2.2655410,-0.49827703,-2.5557674,-0.059209878,1.0759549,0.42887536
314,-5.1987206,-0.47952846,2.2232175,-0.50537532,-2.5810656,-0.092217413,1.0788933,0.40091957
315,-5.1187726,-0.47917347,2.1795570,-0.51116967,-2.6015717,-0.12364486,1.0802437,0.37373702
316,-5.0345042,-0.47797208,2.1346357,-0.51568085,-2.6173142,-0.15347440,1.0800158,0.34734644
317,-4.9461094,-0.47596199,2.0885306,-0.51893171,-2.6283283,-0.18169052,1.0782223,0.32176523
318,-4.8537859,-0.47318055,2.0413196,-0.52094714,-2.6346565,-0.20828007,1.0748780,0.29700936
319,-4.7577346,-0.46966468,1.9930814,-0.52175398,-2.6363480,-0.23323223,1.0700004,0.27309342
320,-4.6581592,-0.46545078,1.9438951,-0.52138098,-2.6334589,-0.25653852,1.0636094,0.25003053
321,-4.5552656,-0.46057463,1.8938399,-0.51985869,-2.6260518,-0.27819283,1.0557271,0.22783235
322,-4.4492616,-0.45507126,1.8429955,-0.51721938,-2.6141958,-0.29819137,1.0463780,0.20650908
323,-4.3403564,-0.44897489,1.7914413,-0.51349697,-2.5979661,-0.31653269,1.0355888,0.18606938
324,-4.2287601,-0.44231883,1.7392567,-0.50872695,-2.5774442,-0.33321766,1.0233882,0.16652047
325,-4.1146833,-0.43513541,1.6865206,-0.50294626,-2.5527172,-0.34824942,1.0098073,0.14786799
326,-3.9983365,-0.42745586,1.6333115,-0.49619319,-2.5238780,-0.36163342,0.99487874,0.13011611
327,-3.8799299,-0.41931028,1.5797070,-0.48850734,-2.4910249,-0.37337731,0.97863734,0.11326747
328,-3.7596727,-0.41072754,1.5257841,-0.47992945,-2.4542613,-0.38349097,0.96111961,0.097323185
329,-3.6377729,-0.40173522,1.4716188,-0.47050134,-2.4136956,-0.39198646,0.94236379,0.082282862
330,-3.5144366,-0.39235956,1.4172856,-0.46026581,-2.3694409,-0.39887793,0.92240972,0.068144613
331,-3.3898679,-0.38262541,1.3628581,-0.44926651,-2.3216146,-0.40418166,0.90129874,0.054905055
332,-3.2642683,-0.37255612,1.3084084,-0.43754784,-2.2703384,-0.40791594,0.87907361,0.042559334
333,-3.1378364,-0.36217361,1.2540068,-0.42515487,-2.2157378,-0.41010102,0.85577838,0.031101138
334,-3.0107671,-0.35149820,1.1997221,-0.41213318,-2.1579419,-0.41075911,0.83145827,0.020522723
335,-2.8832521,-0.34054868,1.1456211,-0.39852880,-2.0970831,-0.40991426,0.80615962,0.010814934
336,-2.7554788,-0.32934223,1.0917690,-0.38438810,-2.0332970,-0.40759233,0.77992972,0.0019672339
337,-2.6276301,-0.31789441,1.0382284,-0.36975762,-1.9667217,-0.40382089,0.75281671,-0.0060322639
338,-2.4998842,-0.30621916,0.98506028,-0.35468405,-1.8974977,-0.39862919,0.72486950,-0.013196764
339,-2.3724144,-0.29432876,0.93232294,-0.33921405,-1.8257678,-0.39204806,0.69613762,-0.019540753
340,-2.2453885,-0.28223385,0.88007251,-0.32339417,-1.7516767,-0.38410984,0.66667111,-0.025079958
341,-2.1189687,-0.26994343,0.82836259,-0.30727077,-1.6753702,-0.37484832,0.63652042,-0.029831305
342,-1.9933115,-0.25746484,0.77724430,-0.29088985,-1.5969958,-0.36429863,0.60573631,-0.033812880
343,-1.8685669,-0.24480381,0.72676610,-0.27429702,-1.5167017,-0.35249715,0.57436969,-0.037043873
344,-1.7448790,-0.23196447,0.67697381,-0.25753735,-1.4346366,-0.33948149,0.54247154,-0.039544538
345,-1.6223850,-0.21894937,0.62791051,-0.24065529,-1.3509497,-0.32529034,0.51009279,-0.041336134
346,-1.5012156,-0.20575948,0.57961649,-0.22369456,-1.2657901,-0.30996339,0.47728424,-0.042440879
347,-1.3814945,-0.19239428,0.53212923,-0.20669806,-1.1793067,-0.29354127,0.44409638,-0.042881889
348,-1.2633382,-0.17885176,0.48548334,-0.18970780,-1.0916476,-0.27606545,0.41057935,-0.042683122
349,-1.1468564,-0.16512850,0.43971055,-0.17276479,-1.0029603,-0.25757814,0.37678281,-0.041869323
350,-1.0321513,-0.15121967,0.39483969,-0.15590894,-0.91339107,-0.23812218,0.34275582,-0.040465959
351,-0.91931769,-0.13711914,0.35089665,-0.13917901,-0.82308462,-0.21774100,0.30854678,-0.038499160
352,-0.80844306,-0.12281947,0.30790443,-0.12261252,-0.73218409,-0.19647849,0.27420331,-0.035995655
353,-0.69960742,-0.10831208,0.26588309,-0.10624566,-0.64083059,-0.17437893,0.23977212,-0.032982708
354,-0.59288326,-0.093587195,0.22484979,-0.090113230,-0.54916305,-0.15148685,0.20529900,-0.029488054
355,-0.48833562,-0.078634007,0.18481881,-0.074248592,-0.45731789,-0.12784702,0.17082867,-0.025539832
356,-0.38602203,-0.063440709,0.14580156,-0.058683574,-0.36542884,-0.10350428,0.13640471,-0.021166521
357,-0.28599261,-0.047994580,0.10780663,-0.043448430,-0.27362666,-0.078503510,0.10206948,-0.016396869
358,-0.18829010,-0.032282069,0.070839812,-0.028571785,-0.18203895,-0.052889502,0.067864067,-0.011259829
359,-0.092949909,-0.016288878,0.034904176,-0.014080582,-0.090789934,-0.026706894,0.033828177,-0.0057844912
360,-2.5585346e-07,-4.5851081e-08,9.5899850e-08,-3.8671487e-08,-2.5243446e-07,-7.5166982e-08,9.4011796e-08,-1.6535054e-08
