XRT N-S vs UFSS-A
      217.695
     0.819584
     -2.06994
      1.54741
     0.371719
     0.117184
     0.654679
XRT N-S vs UFSS-B
      209.479
   -0.0918937
     -1.29861
     0.211815
    -0.175799
     0.209992
   -0.0569025
XRT E-W vs UFSS-A
      3971.02
     -1.31994
     0.197400
    -0.366891
    -0.355826
    0.0948318
    -0.378923
XRT E-W vs UFSS-B
      3964.23
    -0.546199
    -0.818165
     0.455108
     0.202200
    -0.101286
     0.185771
SOT N-S vs UFSS-A
      85.2929
   -0.0781953
     -1.62383
      1.23011
    -0.514492
     0.508965
     0.318675
SOT N-S vs UFSS-B
      75.4178
     0.251698
     -1.33414
     0.345554
    -0.106446
     0.173402
     0.181736
SOT E-W vs UFSS-A
      197.290
    -0.870282
     0.224527
    -0.230468
    0.0902942
   -0.0991189
    -0.130042
SOT E-W vs UFSS-B
      190.623
    -0.409883
    -0.854966
     0.506693
     0.282726
    -0.148629
     0.143888
