XRT N-S vs UFSS-A
      178.827
      2.50634
     -4.63307
      2.49458
      1.32381
    -0.515040
      1.07342
XRT N-S vs UFSS-B
      163.398
     0.592624
     -2.05548
     0.384238
     0.182607
    -0.172695
     0.204009
XRT E-W vs UFSS-A
      3980.85
     -1.99106
     0.910868
    -0.617947
    -0.847674
     0.419204
    -0.316744
XRT E-W vs UFSS-B
      3959.24
    0.0720501
     -1.31529
     0.446319
     0.456474
    -0.175710
     0.102530
SOT N-S vs UFSS-A
      34.6985
      1.59693
     -4.41429
      2.41367
     0.554012
    0.0490759
     0.612168
SOT N-S vs UFSS-B
      17.1679
      1.25057
     -2.15233
     0.822762
     0.496469
    -0.269872
     0.194883
SOT E-W vs UFSS-A
      219.824
     -1.31679
      1.12653
    -0.666719
    -0.170547
   -0.0315273
    -0.390753
SOT E-W vs UFSS-B
      199.543
    -0.953992
     -1.11249
     0.292877
   -0.0776592
     0.148164
    -0.189887
