deg,XRT_AX,XRT_BX,XRT_AY,XRT_BY,SOT_AX,SOT_BX,SOT_AY,SOT_BY
valid,1,1,1,1,1,1,1,1,revB
offset,126.39149,109.44130,1978.2173,1983.6026,68.076129,50.585038,81.271027,86.842341
0,0.0000000,0.0000000,0.0000000,0.0000000,0.0000000,0.0000000,0.0000000,0.0000000
1,0.0098667000,0.014910549,-0.0086388036,-0.0095058843,0.0058151525,0.018888010,-0.0039149841,-0.0041160835
2,0.019239946,0.029859192,-0.017569648,-0.019237616,0.011125191,0.037711720,-0.0078030954,-0.0082864259
3,0.028112613,0.044848203,-0.026778519,-0.029180812,0.015923654,0.056460108,-0.011663352,-0.012509071
4,0.036478519,0.059879706,-0.036250242,-0.039320245,0.020204936,0.075122312,-0.015494682,-0.016781614
5,0.044332426,0.074955648,-0.045968515,-0.049639887,0.023964296,0.093687644,-0.019295918,-0.021101209
6,0.051670036,0.090077780,-0.055915950,-0.060122939,0.027197852,0.11214560,-0.023065790,-0.025464567
7,0.058487989,0.10524763,-0.066074113,-0.070751881,0.029902590,0.13048588,-0.026802924,-0.029867966
8,0.064783854,0.12046650,-0.076423570,-0.081508503,0.032076351,0.14869838,-0.030505831,-0.034307256
9,0.070556117,0.13573543,-0.086943931,-0.092373959,0.033717837,0.16677322,-0.034172904,-0.038777863
10,0.075804174,0.15105516,-0.097613903,-0.10332880,0.034826596,0.18470074,-0.037802411,-0.043274798
11,0.080528313,0.16642617,-0.10841134,-0.11435305,0.035403018,0.20247153,-0.041392489,-0.047792667
12,0.084729699,0.18184860,-0.11931330,-0.12542619,0.035448322,0.22007643,-0.044941137,-0.052325679
13,0.088410352,0.19732230,-0.13029609,-0.13652729,0.034964547,0.23750651,-0.048446212,-0.056867655
14,0.091573133,0.21284673,-0.14133534,-0.14763499,0.033954532,0.25475313,-0.051905419,-0.061412038
15,0.094221714,0.22842102,-0.15240605,-0.15872759,0.032421905,0.27180790,-0.055316306,-0.065951909
16,0.096360557,0.24404394,-0.16348267,-0.16978308,0.030371061,0.28866271,-0.058676259,-0.070479995
17,0.097994887,0.25971386,-0.17453914,-0.18077922,0.027807145,0.30530975,-0.061982495,-0.074988681
18,0.099130662,0.27542877,-0.18554897,-0.19169356,0.024736030,0.32174149,-0.065232055,-0.079470029
19,0.099774545,0.29118625,-0.19648529,-0.20250351,0.021164291,0.33795068,-0.068421800,-0.083915786
20,0.099933870,0.30698349,-0.20732093,-0.21318637,0.017099185,0.35393039,-0.071548403,-0.088317403
21,0.099616613,0.32281724,-0.21802850,-0.22371945,0.012548621,0.36967397,-0.074608346,-0.092666048
22,0.098831350,0.33868386,-0.22858042,-0.23408004,0.0075211356,0.38517511,-0.077597911,-0.096952622
23,0.097587229,0.35457927,-0.23894903,-0.24424551,0.0020258625,0.40042777,-0.080513181,-0.10116778
24,0.095893930,0.37049896,-0.24910663,-0.25419335,-0.0039274968,0.41542625,-0.083350030,-0.10530194
25,0.093761626,0.38643801,-0.25902556,-0.26390124,-0.010328704,0.43016514,-0.086104120,-0.10934530
26,0.091200945,0.40239106,-0.26867827,-0.27334707,-0.017167015,0.44463938,-0.088770900,-0.11328788
27,0.088222931,0.41835233,-0.27803738,-0.28250902,-0.024431216,0.45884418,-0.091345601,-0.11711949
28,0.084839003,0.43431562,-0.28707576,-0.29136559,-0.032109651,0.47277509,-0.093823229,-0.12082981
29,0.081060914,0.45027432,-0.29576659,-0.29989567,-0.040190262,0.48642798,-0.096198572,-0.12440835
30,0.076900711,0.46622138,-0.30408343,-0.30807855,-0.048660623,0.49979901,-0.098466189,-0.12784452
31,0.072370693,0.48214938,-0.31200028,-0.31589403,-0.057507973,0.51288468,-0.10062041,-0.13112762
32,0.067483368,0.49805049,-0.31949165,-0.32332241,-0.066719251,0.52568176,-0.10265535,-0.13424685
33,0.062251412,0.51391650,-0.32653263,-0.33034454,-0.076281138,0.53818738,-0.10456488,-0.13719136
34,0.056687630,0.52973883,-0.33309893,-0.33694190,-0.086180088,0.55039891,-0.10634266,-0.13995025
35,0.050804910,0.54550852,-0.33916697,-0.34309661,-0.096402366,0.56231407,-0.10798211,-0.14251260
36,0.044616185,0.56121628,-0.34471391,-0.34879148,-0.10693408,0.57393086,-0.10947643,-0.14486749
37,0.038134392,0.57685248,-0.34971773,-0.35401002,-0.11776124,0.58524756,-0.11081861,-0.14700399
38,0.031372433,0.59240718,-0.35415727,-0.35873653,-0.12886974,0.59626273,-0.11200141,-0.14891123
39,0.024343131,0.60787015,-0.35801228,-0.36295609,-0.14024548,0.60697524,-0.11301739,-0.15057839
40,0.017059199,0.62323085,-0.36126350,-0.36665461,-0.15187430,0.61738422,-0.11385889,-0.15199471
41,0.0095331965,0.63847851,-0.36389266,-0.36981886,-0.16374209,0.62748904,-0.11451804,-0.15314954
42,0.0017774943,0.65360210,-0.36588256,-0.37243647,-0.17583481,0.63728937,-0.11498680,-0.15403233
43,-0.0061957591,0.66859039,-0.36721711,-0.37449599,-0.18813850,0.64678511,-0.11525692,-0.15463267
44,-0.014374673,0.68343194,-0.36788134,-0.37598691,-0.20063933,0.65597643,-0.11531997,-0.15494030
45,-0.022747647,0.69811514,-0.36786147,-0.37689966,-0.21332362,0.66486370,-0.11516735,-0.15494512
46,-0.031303402,0.71262824,-0.36714496,-0.37722564,-0.22617789,0.67344756,-0.11479030,-0.15463724
47,-0.040031011,0.72695935,-0.36572046,-0.37695722,-0.23918887,0.68172885,-0.11417991,-0.15400695
48,-0.048919926,0.74109650,-0.36357794,-0.37608779,-0.25234355,0.68970862,-0.11332713,-0.15304478
49,-0.057960005,0.75502762,-0.36070863,-0.37461173,-0.26562918,0.69738816,-0.11222276,-0.15174150
50,-0.067141537,0.76874063,-0.35710510,-0.37252443,-0.27903332,0.70476891,-0.11085751,-0.15008812
51,-0.076455265,0.78222341,-0.35276123,-0.36982232,-0.29254386,0.71185252,-0.10922197,-0.14807595
52,-0.085892406,0.79546384,-0.34767228,-0.36650283,-0.30614903,0.71864083,-0.10730665,-0.14569657
53,-0.095444670,0.80844984,-0.34183484,-0.36256443,-0.31983744,0.72513582,-0.10510199,-0.14294187
54,-0.10510428,0.82116941,-0.33524689,-0.35800661,-0.33359807,0.73133967,-0.10259835,-0.13980405
55,-0.11486398,0.83361062,-0.32790776,-0.35282987,-0.34742035,0.73725466,-0.099786066,-0.13627566
56,-0.12471707,0.84576167,-0.31981818,-0.34703571,-0.36129410,0.74288326,-0.096655449,-0.13234959
57,-0.13465736,0.85761089,-0.31098022,-0.34062665,-0.37520960,0.74822803,-0.093196797,-0.12801908
58,-0.14467926,0.86914681,-0.30139733,-0.33360618,-0.38915760,0.75329168,-0.089400419,-0.12327776
59,-0.15477773,0.88035814,-0.29107432,-0.32597878,-0.40312929,0.75807702,-0.085256657,-0.11811961
60,-0.16494829,0.89123382,-0.28001733,-0.31774988,-0.41711637,0.76258697,-0.080755898,-0.11253905
61,-0.17518704,0.90176306,-0.26823383,-0.30892585,-0.43111100,0.76682454,-0.075888601,-0.10653087
62,-0.18549065,0.91193533,-0.25573261,-0.29951396,-0.44510587,0.77079281,-0.070645313,-0.10009028
63,-0.19585635,0.92174043,-0.24252373,-0.28952241,-0.45909414,0.77449496,-0.065016692,-0.093212918
64,-0.20628194,0.93116848,-0.22861851,-0.27896025,-0.47306948,0.77793422,-0.058993526,-0.085894859
65,-0.21676579,0.94020996,-0.21402952,-0.26783736,-0.48702609,0.78111388,-0.052566756,-0.078132604
66,-0.22730680,0.94885572,-0.19877050,-0.25616446,-0.50095865,0.78403728,-0.045727499,-0.069923105
67,-0.23790442,0.95709705,-0.18285637,-0.24395303,-0.51486236,0.78670781,-0.038467067,-0.061263764
68,-0.24855861,0.96492563,-0.16630319,-0.23121532,-0.52873289,0.78912887,-0.030776993,-0.052152437
69,-0.25926986,0.97233362,-0.14912810,-0.21796428,-0.54256645,0.79130391,-0.022649051,-0.042587444
70,-0.27003914,0.97931362,-0.13134928,-0.20421357,-0.55635970,0.79323636,-0.014075278,-0.032567567
71,-0.28086791,0.98585874,-0.11298592,-0.18997746,-0.57010979,0.79492970,-0.0050480007,-0.022092055
72,-0.29175807,0.99196259,-0.094058161,-0.17527085,-0.58381436,0.79638737,0.0044401472,-0.011160628
73,-0.30271197,0.99761931,-0.074587053,-0.16010920,-0.59747147,0.79761285,0.014396198,0.00022652379
74,-0.31373234,1.0028236,-0.054594499,-0.14450851,-0.61107965,0.79860956,0.024826830,0.012068739
75,-0.32482233,1.0075706,-0.034103205,-0.12848525,-0.62463784,0.79938093,0.035738344,0.024364885
76,-0.33598541,1.0118563,-0.013136621,-0.11205633,-0.63814541,0.79993036,0.047136640,0.037113355
77,-0.34722542,1.0156769,0.0082811080,-0.095239100,-0.65160210,0.80026122,0.059027198,0.050312076
78,-0.35854646,1.0190295,0.030125208,-0.078051228,-0.66500805,0.80037683,0.071415054,0.063958506
79,-0.36995291,1.0219116,0.052370330,-0.060510718,-0.67836373,0.80028049,0.084304780,0.078049637
80,-0.38144941,1.0243214,0.074990613,-0.042635841,-0.69166998,0.79997544,0.097700462,0.092582000
81,-0.39304077,1.0262578,0.097959742,-0.024445096,-0.70492790,0.79946486,0.11160568,0.10755167
82,-0.40473198,1.0277202,0.12125101,-0.0059571656,-0.71813891,0.79875191,0.12602349,0.12295427
83,-0.41652818,1.0287086,0.14483739,0.012809128,-0.73130470,0.79783966,0.14095641,0.13878496
84,-0.42843458,1.0292237,0.16869159,0.031834869,-0.74442717,0.79673112,0.15640638,0.15503849
85,-0.44045648,1.0292669,0.19278611,0.051101088,-0.75750844,0.79542925,0.17237476,0.17170915
86,-0.45259919,1.0288400,0.21709331,0.070588811,-0.77055084,0.79393695,0.18886233,0.18879081
87,-0.46486801,1.0279457,0.24158548,0.090279094,-0.78355681,0.79225702,0.20586923,0.20627691
88,-0.47726820,1.0265872,0.26623491,0.11015307,-0.79652897,0.79039222,0.22339499,0.22416049
89,-0.48980494,1.0247681,0.29101394,0.13019200,-0.80947001,0.78834521,0.24143850,0.24243418
90,-0.50248328,1.0224931,0.31589500,0.15037730,-0.82238269,0.78611862,0.25999796,0.26109022
91,-0.51530811,1.0197670,0.34085072,0.17069056,-0.83526985,0.78371495,0.27907093,0.28012046
92,-0.52828412,1.0165955,0.36585396,0.19111365,-0.84813430,0.78113668,0.29865427,0.29951638
93,-0.54141579,1.0129848,0.39087787,0.21162868,-0.86097888,0.77838616,0.31874415,0.31926908
94,-0.55470732,1.0089415,0.41589597,0.23221809,-0.87380636,0.77546572,0.33933605,0.33936933
95,-0.56816260,1.0044731,0.44088217,0.25286465,-0.88661944,0.77237757,0.36042473,0.35980754
96,-0.58178519,0.99958737,0.46581087,0.27355152,-0.89942075,0.76912389,0.38200422,0.38057379
97,-0.59557829,0.99429261,0.49065697,0.29426226,-0.91221277,0.76570675,0.40406785,0.40165785
98,-0.60954469,0.98859771,0.51539596,0.31498089,-0.92499783,0.76212817,0.42660820,0.42304917
99,-0.62368673,0.98251199,0.54000394,0.33569186,-0.93777809,0.75839010,0.44961714,0.44473691
100,-0.63800632,0.97604527,0.56445769,0.35638016,-0.95055551,0.75449441,0.47308577,0.46670994
101,-0.65250485,0.96920777,0.58873470,0.37703126,-0.96333179,0.75044294,0.49700451,0.48895688
102,-0.66718321,0.96201014,0.61281322,0.39763120,-0.97610842,0.74623741,0.52136299,0.51146606
103,-0.68204171,0.95446341,0.63667232,0.41816657,-0.98888657,0.74187955,0.54615015,0.53422560
104,-0.69708012,0.94657899,0.66029189,0.43862455,-1.0016671,0.73737097,0.57135418,0.55722336
105,-0.71229762,0.93836863,0.68365271,0.45899292,-1.0144507,0.73271327,0.59696256,0.58044699
106,-0.72769274,0.92984438,0.70673647,0.47926005,-1.0272374,0.72790798,0.62296204,0.60388396
107,-0.74326342,0.92101859,0.72952578,0.49941498,-1.0400272,0.72295659,0.64933867,0.62752150
108,-0.75900692,0.91190385,0.75200426,0.51944735,-1.0528196,0.71786054,0.67607779,0.65134671
109,-0.77491983,0.90251300,0.77415650,0.53934746,-1.0656136,0.71262123,0.70316407,0.67534650
110,-0.79099809,0.89285905,0.79596809,0.55910626,-1.0784079,0.70724005,0.73058147,0.69950762
111,-0.80723692,0.88295521,0.81742570,0.57871537,-1.0912008,0.70171831,0.75831332,0.72381670
112,-0.82363085,0.87281482,0.83851701,0.59816706,-1.1039900,0.69605733,0.78634227,0.74826024
113,-0.84017371,0.86245130,0.85923079,0.61745424,-1.1167730,0.69025839,0.81465035,0.77282463
114,-0.85685861,0.85187819,0.87955687,0.63657051,-1.1295466,0.68432276,0.84321899,0.79749615
115,-0.87367795,0.84110905,0.89948619,0.65551010,-1.1423074,0.67825168,0.87202898,0.82226101
116,-0.89062341,0.83015746,0.91901073,0.67426789,-1.1550512,0.67204638,0.90106057,0.84710534
117,-0.90768598,0.81903699,0.93812359,0.69283941,-1.1677737,0.66570809,0.93029343,0.87201521
118,-0.92485592,0.80776115,0.95681894,0.71122079,-1.1804698,0.65923803,0.95970671,0.89697663
119,-0.94212280,0.79634338,0.97509205,0.72940881,-1.1931341,0.65263742,0.98927904,0.92197560
120,-0.95947549,0.78479702,0.99293923,0.74740083,-1.2057606,0.64590748,1.0189886,0.94699808
121,-0.97690220,0.77313526,1.0103579,0.76519480,-1.2183431,0.63904945,1.0488130,0.97203001
122,-0.99439046,0.76137112,1.0273464,0.78278923,-1.2308747,0.63206455,1.0787295,0.99705735
123,-1.0119271,0.74951743,1.0439042,0.80018319,-1.2433479,0.62495404,1.1087151,1.0220661
124,-1.0294985,0.73758678,1.0600318,0.81737627,-1.2557552,0.61771921,1.1387461,1.0470421
125,-1.0470902,0.72559153,1.0757307,0.83436856,-1.2680883,0.61036132,1.1687986,1.0719716
126,-1.0646873,0.71354372,1.0910032,0.85116065,-1.2803385,0.60288171,1.1988486,1.0968405
127,-1.0822742,0.70145512,1.1058526,0.86775356,-1.2924968,0.59528171,1.2288716,1.1216349
128,-1.0998350,0.68933715,1.1202832,0.88414874,-1.3045538,0.58756269,1.2588427,1.1463411
129,-1.1173531,0.67720085,1.1343001,0.90034805,-1.3164997,0.57972606,1.2887371,1.1709453
130,-1.1348113,0.66505690,1.1479092,0.91635372,-1.3283242,0.57177325,1.3185297,1.1954339
131,-1.1521924,0.65291557,1.1611172,0.93216832,-1.3400168,0.56370574,1.3481952,1.2197932
132,-1.1694783,0.64078670,1.1739315,0.94779471,-1.3515666,0.55552504,1.3777082,1.2440098
133,-1.1866509,0.62867968,1.1863605,0.96323605,-1.3629626,0.54723270,1.4070433,1.2680704
134,-1.2036915,0.61660344,1.1984128,0.97849573,-1.3741931,0.53883032,1.4361750,1.2919617
135,-1.2205812,0.60456640,1.2100980,0.99357736,-1.3852467,0.53031954,1.4650778,1.3156707
136,-1.2373009,0.59257650,1.2214262,1.0084847,-1.3961112,0.52170203,1.4937262,1.3391843
137,-1.2538312,0.58064116,1.2324078,1.0232217,-1.4067747,0.51297954,1.5220948,1.3624898
138,-1.2701526,0.56876727,1.2430540,1.0377924,-1.4172247,0.50415383,1.5501583,1.3855744
139,-1.2862454,0.55696116,1.2533763,1.0522009,-1.4274490,0.49522672,1.5778917,1.4084256
140,-1.3020898,0.54522861,1.2633865,1.0664514,-1.4374349,0.48620009,1.6052699,1.4310311
141,-1.3176662,0.53357486,1.2730968,1.0805479,-1.4471699,0.47707584,1.6322681,1.4533788
142,-1.3329546,0.52200455,1.2825196,1.0944947,-1.4566412,0.46785593,1.6588620,1.4754565
143,-1.3479354,0.51052175,1.2916677,1.1082957,-1.4658363,0.45854238,1.6850273,1.4972524
144,-1.3625890,0.49912994,1.3005539,1.1219549,-1.4747424,0.44913723,1.7107401,1.5187550
145,-1.3768959,0.48783204,1.3091912,1.1354762,-1.4833470,0.43964257,1.7359769,1.5399528
146,-1.3908368,0.47663035,1.3175925,1.1488633,-1.4916376,0.43006055,1.7607147,1.5608344
147,-1.4043927,0.46552660,1.3257710,1.1621196,-1.4996017,0.42039333,1.7849308,1.5813889
148,-1.4175449,0.45452194,1.3337396,1.1752483,-1.5072273,0.41064315,1.8086029,1.6016055
149,-1.4302750,0.44361692,1.3415111,1.1882524,-1.5145023,0.40081224,1.8317094,1.6214734
150,-1.4425651,0.43281152,1.3490984,1.2011348,-1.5214148,0.39090291,1.8542291,1.6409823
151,-1.4543975,0.42210516,1.3565140,1.2138977,-1.5279533,0.38091748,1.8761414,1.6601220
152,-1.4657554,0.41149669,1.3637701,1.2265432,-1.5341067,0.37085830,1.8974263,1.6788825
153,-1.4766220,0.40098439,1.3708787,1.2390730,-1.5398641,0.36072775,1.9180646,1.6972540
154,-1.4869815,0.39056604,1.3778515,1.2514885,-1.5452148,0.35052824,1.9380374,1.7152271
155,-1.4968185,0.38023884,1.3846997,1.2637905,-1.5501488,0.34026221,1.9573267,1.7327925
156,-1.5061184,0.36999952,1.3914341,1.2759795,-1.5546564,0.32993209,1.9759153,1.7499410
157,-1.5148672,0.35984429,1.3980650,1.2880555,-1.5587283,0.31954035,1.9937867,1.7666640
158,-1.5230517,0.34976888,1.4046022,1.3000182,-1.5623559,0.30908948,2.0109250,1.7829529
159,-1.5306595,0.33976855,1.4110550,1.3118665,-1.5655309,0.29858195,2.0273152,1.7987992
160,-1.5376791,0.32983813,1.4174319,1.3235991,-1.5682457,0.28802026,2.0429432,1.8141951
161,-1.5440995,0.31997201,1.4237409,1.3352140,-1.5704932,0.27740691,2.0577957,1.8291326
162,-1.5499110,0.31016421,1.4299894,1.3467089,-1.5722670,0.26674438,2.0718600,1.8436042
163,-1.5551047,0.30040833,1.4361840,1.3580806,-1.5735611,0.25603517,2.0851247,1.8576026
164,-1.5596726,0.29069765,1.4423306,1.3693259,-1.5743706,0.24528175,2.0975790,1.8711208
165,-1.5636077,0.28102510,1.4484343,1.3804405,-1.5746908,0.23448659,2.1092131,1.8841518
166,-1.5669040,0.27138332,1.4544995,1.3914200,-1.5745181,0.22365215,2.1200180,1.8966894
167,-1.5695565,0.26176468,1.4605298,1.4022593,-1.5738493,0.21278084,2.1299859,1.9087271
168,-1.5715614,0.25216128,1.4665278,1.4129527,-1.5726821,0.20187507,2.1391096,1.9202589
169,-1.5729158,0.24256503,1.4724956,1.4234941,-1.5710151,0.19093723,2.1473831,1.9312793
170,-1.5736180,0.23296763,1.4784341,1.4338768,-1.5688474,0.17996967,2.1548013,1.9417826
171,-1.5736674,0.22336062,1.4843437,1.4440935,-1.5661790,0.16897468,2.1613601,1.9517638
172,-1.5730643,0.21373542,1.4902237,1.4541366,-1.5630107,0.15795456,2.1670562,1.9612180
173,-1.5718104,0.20408336,1.4960725,1.4639979,-1.5593441,0.14691154,2.1718874,1.9701405
174,-1.5699084,0.19439567,1.5018879,1.4736688,-1.5551817,0.13584780,2.1758526,1.9785269
175,-1.5673621,0.18466358,1.5076666,1.4831400,-1.5505266,0.12476549,2.1789514,1.9863733
176,-1.5641766,0.17487828,1.5134046,1.4924020,-1.5453829,0.11366671,2.1811845,1.9936758
177,-1.5603578,0.16503102,1.5190969,1.5014449,-1.5397556,0.10255349,2.1825536,2.0004310
178,-1.5559131,0.15511308,1.5247377,1.5102581,-1.5336501,0.091427829,2.1830613,2.0066357
179,-1.5508506,0.14511585,1.5303205,1.5188310,-1.5270732,0.080291648,2.1827113,2.0122869
180,-1.5451800,0.13503081,1.5358380,1.5271524,-1.5200320,0.069146818,2.1815079,2.0173821
181,-1.5389116,0.12484963,1.5412819,1.5352109,-1.5125347,0.057995149,2.1794567,2.0219190
182,-1.5320572,0.11456414,1.5466434,1.5429947,-1.5045902,0.046838387,2.1765641,2.0258954
183,-1.5246292,0.10416637,1.5519127,1.5504918,-1.4962082,0.035678212,2.1728372,2.0293098
184,-1.5166415,0.093648607,1.5570795,1.5576900,-1.4873992,0.024516242,2.1682844,2.0321606
185,-1.5081086,0.083003410,1.5621327,1.5645768,-1.4781742,0.013354026,2.1629146,2.0344468
186,-1.4990463,0.072223627,1.5670606,1.5711395,-1.4685454,0.0021930478,2.1567378,2.0361676
187,-1.4894712,0.061302436,1.5718510,1.5773656,-1.4585253,-0.0089652768,2.1497646,2.0373224
188,-1.4794008,0.050233367,1.5764908,1.5832420,-1.4481272,-0.020119599,2.1420067,2.0379110
189,-1.4688535,0.039010327,1.5809668,1.5887560,-1.4373653,-0.031268637,2.1334764,2.0379337
190,-1.4578487,0.027627628,1.5852649,1.5938945,-1.4262541,-0.042411176,2.1241868,2.0373907
191,-1.4464063,0.016080008,1.5893708,1.5986447,-1.4148090,-0.053546066,2.1141518,2.0362829
192,-1.4345474,0.0043626571,1.5932696,1.6029938,-1.4030458,-0.064672223,2.1033861,2.0346113
193,-1.4222934,-0.0075287656,1.5969463,1.6069289,-1.3909809,-0.075788626,2.0919048,2.0323774
194,-1.4096666,-0.019598108,1.6003853,1.6104375,-1.3786312,-0.086894314,2.0797240,2.0295827
195,-1.3966900,-0.031848706,1.6035709,1.6135071,-1.3660143,-0.097988387,2.0668603,2.0262293
196,-1.3833871,-0.044283367,1.6064872,1.6161255,-1.3531480,-0.10907000,2.0533309,2.0223196
197,-1.3697818,-0.056904354,1.6091180,1.6182806,-1.3400507,-0.12013838,2.0391535,2.0178562
198,-1.3558987,-0.069713368,1.6114471,1.6199609,-1.3267410,-0.13119277,2.0243466,2.0128421
199,-1.3417628,-0.082711536,1.6134583,1.6211550,-1.3132380,-0.14223249,2.0089290,2.0072807
200,-1.3273994,-0.095899400,1.6151352,1.6218519,-1.2995611,-0.15325691,1.9929200,2.0011756
201,-1.3128342,-0.10927690,1.6164616,1.6220411,-1.2857298,-0.16426541,1.9763394,1.9945307
202,-1.2980931,-0.12284339,1.6174214,1.6217125,-1.2717641,-0.17525745,1.9592074,1.9873503
203,-1.2832022,-0.13659757,1.6179986,1.6208564,-1.2576838,-0.18623249,1.9415447,1.9796391
204,-1.2681880,-0.15053757,1.6181773,1.6194639,-1.2435093,-0.19719003,1.9233721,1.9714021
205,-1.2530767,-0.16466085,1.6179422,1.6175263,-1.2292608,-0.20812960,1.9047110,1.9626444
206,-1.2378948,-0.17896429,1.6172779,1.6150358,-1.2149585,-0.21905075,1.8855828,1.9533717
207,-1.2226687,-0.19344411,1.6161698,1.6119851,-1.2006228,-0.22995303,1.8660094,1.9435899
208,-1.2074249,-0.20809590,1.6146035,1.6083675,-1.1862739,-0.24083601,1.8460128,1.9333053
209,-1.1921894,-0.22291466,1.6125649,1.6041772,-1.1719321,-0.25169928,1.8256151,1.9225245
210,-1.1769883,-0.23789474,1.6100409,1.5994089,-1.1576173,-0.26254240,1.8048386,1.9112543
211,-1.1618473,-0.25302989,1.6070185,1.5940583,-1.1433495,-0.27336493,1.7837057,1.8995019
212,-1.1467920,-0.26831325,1.6034856,1.5881216,-1.1291483,-0.28416642,1.7622390,1.8872750
213,-1.1318472,-0.28373734,1.5994308,1.5815960,-1.1150332,-0.29494641,1.7404608,1.8745812
214,-1.1170377,-0.29929414,1.5948432,1.5744795,-1.1010232,-0.30570440,1.7183938,1.8614289
215,-1.1023877,-0.31497501,1.5897129,1.5667709,-1.0871370,-0.31643986,1.6960604,1.8478264
216,-1.0879207,-0.33077077,1.5840307,1.5584699,-1.0733930,-0.32715223,1.6734831,1.8337825
217,-1.0736597,-0.34667168,1.5777883,1.5495770,-1.0598092,-0.33784089,1.6506840,1.8193063
218,-1.0596272,-0.36266747,1.5709781,1.5400939,-1.0464029,-0.34850518,1.6276855,1.8044071
219,-1.0458449,-0.37874738,1.5635936,1.5300228,-1.0331912,-0.35914439,1.6045095,1.7890946
220,-1.0323336,-0.39490012,1.5556293,1.5193671,-1.0201903,-0.36975772,1.5811779,1.7733788
221,-1.0191135,-0.41111395,1.5470806,1.5081310,-1.0074161,-0.38034432,1.5577122,1.7572698
222,-1.0062039,-0.42737668,1.5379439,1.4963197,-0.99488370,-0.39090326,1.5341337,1.7407781
223,-0.99362330,-0.44367567,1.5282166,1.4839393,-0.98260760,-0.40143352,1.5104636,1.7239145
224,-0.98138913,-0.45999788,1.5178973,1.4709970,-0.97060161,-0.41193400,1.4867225,1.7066900
225,-0.96951796,-0.47632992,1.5069855,1.4575007,-0.95887879,-0.42240348,1.4629309,1.6891159
226,-0.95802532,-0.49265802,1.4954820,1.4434594,-0.94745146,-0.43284068,1.4391088,1.6712036
227,-0.94692573,-0.50896807,1.4833886,1.4288830,-0.93633114,-0.44324416,1.4152759,1.6529650
228,-0.93623261,-0.52524569,1.4707083,1.4137823,-0.92552855,-0.45361242,1.3914513,1.6344121
229,-0.92595831,-0.54147622,1.4574450,1.3981689,-0.91505357,-0.46394381,1.3676540,1.6155569
230,-0.91611405,-0.55764477,1.4436042,1.3820556,-0.90491521,-0.47423654,1.3439022,1.5964119
231,-0.90670988,-0.57373621,1.4291920,1.3654559,-0.89512161,-0.48448874,1.3202138,1.5769898
232,-0.89775470,-0.58973526,1.4142160,1.3483840,-0.88568001,-0.49469836,1.2966062,1.5573033
233,-0.88925622,-0.60562648,1.3986850,1.3308552,-0.87659673,-0.50486323,1.2730963,1.5373653
234,-0.88122092,-0.62139433,1.3826085,1.3128857,-0.86787716,-0.51498104,1.2497003,1.5171892
235,-0.87365409,-0.63702316,1.3659977,1.2944921,-0.85952575,-0.52504932,1.2264341,1.4967880
236,-0.86655976,-0.65249728,1.3488644,1.2756922,-0.85154600,-0.53506547,1.2033129,1.4761754
237,-0.85994073,-0.66780099,1.3312217,1.2565042,-0.84394046,-0.54502671,1.1803514,1.4553648
238,-0.85379857,-0.68291860,1.3130839,1.2369473,-0.83671069,-0.55493012,1.1575635,1.4343699
239,-0.84813360,-0.69783445,1.2944662,1.2170412,-0.82985731,-0.56477261,1.1349629,1.4132047
240,-0.84294488,-0.71253299,1.2753848,1.1968063,-0.82337996,-0.57455095,1.1125623,1.3918828
241,-0.83823024,-0.72699874,1.2558570,1.1762635,-0.81727731,-0.58426172,1.0903741,1.3704185
242,-0.83398630,-0.74121640,1.2359009,1.1554345,-0.81154707,-0.59390135,1.0684099,1.3488256
243,-0.83020842,-0.75517083,1.2155358,1.1343413,-0.80618601,-0.60346609,1.0466807,1.3271183
244,-0.82689079,-0.76884709,1.1947816,1.1130066,-0.80118993,-0.61295204,1.0251969,1.3053107
245,-0.82402638,-0.78223049,1.1736593,1.0914532,-0.79655372,-0.62235512,1.0039683,1.2834170
246,-0.82160701,-0.79530661,1.1521907,1.0697047,-0.79227133,-0.63167108,0.98300411,1.2614513
247,-0.81962333,-0.80806131,1.1303980,1.0477848,-0.78833581,-0.64089553,0.96231276,1.2394278
248,-0.81806487,-0.82048078,1.1083047,1.0257176,-0.78473932,-0.65002388,0.94190219,1.2173607
249,-0.81692009,-0.83255159,1.0859346,1.0035274,-0.78147317,-0.65905141,0.92177965,1.1952640
250,-0.81617633,-0.84426067,1.0633121,0.98123875,-0.77852779,-0.66797321,0.90195181,1.1731519
251,-0.81581994,-0.85559535,1.0404625,0.95887632,-0.77589283,-0.67678423,0.88242470,1.1510382
252,-0.81583625,-0.86654342,1.0174112,0.93646491,-0.77355712,-0.68547925,0.86320375,1.1289369
253,-0.81620964,-0.87709311,0.99418439,0.91402937,-0.77150873,-0.69405292,0.84429378,1.1068617
254,-0.81692355,-0.88723313,0.97080852,0.89159455,-0.76973500,-0.70249972,0.82569903,1.0848265
255,-0.81796056,-0.89695272,0.94731042,0.86918527,-0.76822256,-0.71081400,0.80742314,1.0628446
256,-0.81930240,-0.90624162,0.92371720,0.84682621,-0.76695737,-0.71898997,0.78946918,1.0409296
257,-0.82093003,-0.91509011,0.90005622,0.82454194,-0.76592477,-0.72702170,0.77183965,1.0190946
258,-0.82282364,-0.92348906,0.87635496,0.80235679,-0.76510949,-0.73490314,0.75453653,0.99735280
259,-0.82496276,-0.93142989,0.85264106,0.78029486,-0.76449571,-0.74262811,0.73756121,0.97571695
260,-0.82732625,-0.93890465,0.82894216,0.75837992,-0.76406708,-0.75019034,0.72091460,0.95419977
261,-0.82989241,-0.94590596,0.80528588,0.73663540,-0.76380680,-0.75758343,0.70459707,0.93281368
262,-0.83263901,-0.95242709,0.78169977,0.71508430,-0.76369762,-0.76480089,0.68860851,0.91157088
263,-0.83554331,-0.95846193,0.75821122,0.69374919,-0.76372189,-0.77183613,0.67294831,0.89048331
264,-0.83858219,-0.96400503,0.73484740,0.67265211,-0.76386163,-0.77868249,0.65761543,0.86956265
265,-0.84173215,-0.96905158,0.71163522,0.65181454,-0.76409856,-0.78533324,0.64260835,0.84882028
266,-0.84496939,-0.97359742,0.68860123,0.63125739,-0.76441414,-0.79178157,0.62792512,0.82826730
267,-0.84826986,-0.97763905,0.66577159,0.61100089,-0.76478964,-0.79802063,0.61356341,0.80791449
268,-0.85160935,-0.98117367,0.64317200,0.59106460,-0.76520615,-0.80404351,0.59952046,0.78777231
269,-0.85496350,-0.98419911,0.62082762,0.57146735,-0.76564466,-0.80984329,0.58579315,0.76785087
270,-0.85830789,-0.98671389,0.59876304,0.55222717,-0.76608610,-0.81541300,0.57237801,0.74815995
271,-0.86161813,-0.98871717,0.57700221,0.53336131,-0.76651138,-0.82074568,0.55927121,0.72870896
272,-0.86486984,-0.99020882,0.55556837,0.51488616,-0.76690146,-0.82583435,0.54646863,0.70950693
273,-0.86803879,-0.99118932,0.53448402,0.49681723,-0.76723735,-0.83067205,0.53396583,0.69056251
274,-0.87110092,-0.99165984,0.51377085,0.47916909,-0.76750023,-0.83525184,0.52175809,0.67188397
275,-0.87403241,-0.99162218,0.49344970,0.46195539,-0.76767144,-0.83956681,0.50984044,0.65347916
276,-0.87680973,-0.99107876,0.47354049,0.44518879,-0.76773254,-0.84361011,0.49820767,0.63535551
277,-0.87940971,-0.99003266,0.45406219,0.42888095,-0.76766538,-0.84737492,0.48685434,0.61752004
278,-0.88180959,-0.98848756,0.43503279,0.41304250,-0.76745211,-0.85085452,0.47577481,0.59997935
279,-0.88398707,-0.98644773,0.41646923,0.39768302,-0.76707527,-0.85404224,0.46496326,0.58273957
280,-0.88592038,-0.98391804,0.39838735,0.38281103,-0.76651778,-0.85693155,0.45441371,0.56580642
281,-0.88758831,-0.98090393,0.38080192,0.36843394,-0.76576306,-0.85951597,0.44412002,0.54918515
282,-0.88897030,-0.97741138,0.36372651,0.35455809,-0.76479497,-0.86178919,0.43407594,0.53288056
283,-0.89004645,-0.97344693,0.34717354,0.34118869,-0.76359795,-0.86374500,0.42427511,0.51689699
284,-0.89079757,-0.96901760,0.33115421,0.32832983,-0.76215699,-0.86537735,0.41471107,0.50123830
285,-0.89120527,-0.96413094,0.31567848,0.31598448,-0.76045773,-0.86668035,0.40537729,0.48590790
286,-0.89125195,-0.95879495,0.30075507,0.30415447,-0.75848642,-0.86764826,0.39626719,0.47090873
287,-0.89092089,-0.95301809,0.28639139,0.29284052,-0.75623004,-0.86827554,0.38737415,0.45624325
288,-0.89019625,-0.94680924,0.27259359,0.28204218,-0.75367626,-0.86855683,0.37869151,0.44191345
289,-0.88906313,-0.94017770,0.25936649,0.27175792,-0.75081352,-0.86848700,0.37021262,0.42792085
290,-0.88750759,-0.93313313,0.24671362,0.26198506,-0.74763106,-0.86806110,0.36193084,0.41426650
291,-0.88551673,-0.92568554,0.23463717,0.25271984,-0.74411890,-0.86727445,0.35383953,0.40095096
292,-0.88307864,-0.91784528,0.22313802,0.24395737,-0.74026792,-0.86612257,0.34593211,0.38797435
293,-0.88018250,-0.90962299,0.21221571,0.23569171,-0.73606986,-0.86460125,0.33820202,0.37533631
294,-0.87681857,-0.90102958,0.20186847,0.22791585,-0.73151736,-0.86270656,0.33064280,0.36303602
295,-0.87297822,-0.89207620,0.19209324,0.22062173,-0.72660394,-0.86043480,0.32324802,0.35107220
296,-0.86865395,-0.88277423,0.18288563,0.21380029,-0.72132407,-0.85778259,0.31601136,0.33944313
297,-0.86383941,-0.87313521,0.17423999,0.20744145,-0.71567313,-0.85474682,0.30892659,0.32814665
298,-0.85852941,-0.86317086,0.16614938,0.20153420,-0.70964747,-0.85132469,0.30198758,0.31718013
299,-0.85271993,-0.85289303,0.15860563,0.19606657,-0.70324442,-0.84751370,0.29518832,0.30654055
300,-0.84640813,-0.84231365,0.15159936,0.19102570,-0.69646225,-0.84331168,0.28852291,0.29622445
301,-0.83959236,-0.83144474,0.14511996,0.18639787,-0.68930022,-0.83871678,0.28198559,0.28622795
302,-0.83227217,-0.82029836,0.13915569,0.18216850,-0.68175858,-0.83372748,0.27557073,0.27654680
303,-0.82444828,-0.80888658,0.13369366,0.17832227,-0.67383857,-0.82834259,0.26927286,0.26717633
304,-0.81612260,-0.79722147,0.12871990,0.17484306,-0.66554239,-0.82256130,0.26308664,0.25811149
305,-0.80729823,-0.78531503,0.12421938,0.17171408,-0.65687322,-0.81638312,0.25700689,0.24934690
306,-0.79797943,-0.77317923,0.12017605,0.16891786,-0.64783525,-0.80980793,0.25102859,0.24087678
307,-0.78817163,-0.76082592,0.11657292,0.16643631,-0.63843359,-0.80283596,0.24514688,0.23269504
308,-0.77788139,-0.74826685,0.11339204,0.16425080,-0.62867433,-0.79546783,0.23935706,0.22479527
309,-0.76711641,-0.73551361,0.11061461,0.16234215,-0.61856450,-0.78770450,0.23365460,0.21717071
310,-0.75588549,-0.72257762,0.10822104,0.16069073,-0.60811206,-0.77954733,0.22803516,0.20981435
311,-0.74419853,-0.70947012,0.10619092,0.15927648,-0.59732587,-0.77099805,0.22249454,0.20271888
312,-0.73206646,-0.69620212,0.10450319,0.15807898,-0.58621570,-0.76205874,0.21702873,0.19587672
313,-0.71950127,-0.68278441,0.10313609,0.15707750,-0.57479217,-0.75273188,0.21163387,0.18928005
314,-0.70651594,-0.66922749,0.10206731,0.15625106,-0.56306676,-0.74302034,0.20630631,0.18292084
315,-0.69312443,-0.65554162,0.10127399,0.15557847,-0.55105176,-0.73292735,0.20104252,0.17679083
316,-0.67934162,-0.64173672,0.10073281,0.15503838,-0.53876028,-0.72245651,0.19583918,0.17088157
317,-0.66518330,-0.62782244,0.10042005,0.15460938,-0.52620616,-0.71161182,0.19069312,0.16518443
318,-0.65066611,-0.61380807,0.10031167,0.15426998,-0.51340400,-0.70039763,0.18560132,0.15969064
319,-0.63580753,-0.59970255,0.10038332,0.15399876,-0.50036910,-0.68881867,0.18056095,0.15439128
320,-0.62062581,-0.58551448,0.10061049,0.15377433,-0.48711740,-0.67688005,0.17556932,0.14927734
321,-0.60513991,-0.57125206,0.10096852,0.15357546,-0.47366550,-0.66458722,0.17062390,0.14433968
322,-0.58936951,-0.55692312,0.10143267,0.15338110,-0.46003060,-0.65194600,0.16572231,0.13956911
323,-0.57333492,-0.54253510,0.10197821,0.15317042,-0.44623042,-0.63896257,0.16086231,0.13495636
324,-0.55705703,-0.52809502,0.10258049,0.15292292,-0.43228323,-0.62564346,0.15604182,0.13049215
325,-0.54055729,-0.51360950,0.10321497,0.15261841,-0.41820776,-0.61199551,0.15125888,0.12616716
326,-0.52385764,-0.49908474,0.10385734,0.15223714,-0.40402318,-0.59802594,0.14651169,0.12197209
327,-0.50698046,-0.48452650,0.10448355,0.15175978,-0.38974903,-0.58374226,0.14179854,0.11789766
328,-0.48994850,-0.46994015,0.10506988,0.15116751,-0.37540523,-0.56915231,0.13711788,0.11393464
329,-0.47278488,-0.45533061,0.10559302,0.15044206,-0.36101198,-0.55426426,0.13246826,0.11007384
330,-0.45551297,-0.44070236,0.10603014,0.14956577,-0.34658974,-0.53908654,0.12784837,0.10630619
331,-0.43815638,-0.42605948,0.10635892,0.14852160,-0.33215919,-0.52362790,0.12325697,0.10262271
332,-0.42073892,-0.41140562,0.10655765,0.14729322,-0.31774117,-0.50789736,0.11869296,0.099014524
333,-0.40328448,-0.39674400,0.10660526,0.14586502,-0.30335664,-0.49190422,0.11415532,0.095472931
334,-0.38581703,-0.38207743,0.10648140,0.14422216,-0.28902664,-0.47565803,0.10964313,0.091989374
335,-0.36836057,-0.36740831,0.10616649,0.14235061,-0.27477224,-0.45916858,0.10515558,0.088555481
336,-0.35093903,-0.35273865,0.10564176,0.14023719,-0.26061447,-0.44244590,0.10069191,0.085163079
337,-0.33357628,-0.33807004,0.10488935,0.13786960,-0.24657433,-0.42550024,0.096251469,0.081804213
338,-0.31629601,-0.32340374,0.10389228,0.13523645,-0.23267269,-0.40834207,0.091833680,0.078471161
339,-0.29912173,-0.30874058,0.10263460,0.13232729,-0.21893028,-0.39098205,0.087438034,0.075156454
340,-0.28207670,-0.29408109,0.10110133,0.12913264,-0.20536762,-0.37343102,0.083064096,0.071852890
341,-0.26518387,-0.27942541,0.099278597,0.12564404,-0.19200499,-0.35569999,0.078711498,0.068553554
342,-0.24846586,-0.26477339,0.097153602,0.12185400,-0.17886239,-0.33780011,0.074379935,0.065251828
343,-0.23194489,-0.25012454,0.094714702,0.11775612,-0.16595949,-0.31974271,0.070069164,0.061941408
344,-0.21564272,-0.23547810,0.091951429,0.11334501,-0.15331560,-0.30153920,0.065779002,0.058616320
345,-0.19958064,-0.22083302,0.088854522,0.10861638,-0.14094962,-0.28320114,0.061509320,0.055270933
346,-0.18377943,-0.20618799,0.085415956,0.10356701,-0.12887999,-0.26474015,0.057260048,0.051899968
347,-0.16825925,-0.19154148,0.081628965,0.098194775,-0.11712469,-0.24616797,0.053031166,0.048498517
348,-0.15303971,-0.17689171,0.077488069,0.092498645,-0.10570116,-0.22749638,0.048822711,0.045062046
349,-0.13813971,-0.16223674,0.072989084,0.086478693,-0.094626297,-0.20873723,0.044634768,0.041586414
350,-0.12357752,-0.14757443,0.068129147,0.080136094,-0.083916404,-0.18990238,0.040467478,0.038067877
351,-0.10937067,-0.13290251,0.062906718,0.073473126,-0.073587168,-0.17100373,0.036321031,0.034503099
352,-0.095535939,-0.11821855,0.057321593,0.066493160,-0.063653627,-0.15205320,0.032195672,0.030889161
353,-0.082089328,-0.10352004,0.051374908,0.059200661,-0.054130140,-0.13306268,0.028091700,0.027223567
354,-0.069046040,-0.088804379,0.045069140,0.051601169,-0.045030364,-0.11404404,0.024009469,0.023504253
355,-0.056420444,-0.074068904,0.038408104,0.043701293,-0.036367229,-0.095009121,0.019949391,0.019729587
356,-0.044226056,-0.059310919,0.031396946,0.035508695,-0.028152912,-0.075969702,0.015911936,0.015898382
357,-0.032475520,-0.044527715,0.024042136,0.027032069,-0.020398819,-0.056937500,0.011897637,0.012009893
358,-0.021180591,-0.029716596,0.016351452,0.018281122,-0.013115568,-0.037924150,0.0079070935,0.0080638243
359,-0.010352117,-0.014874905,0.0083339659,0.0092665531,-0.0063129711,-0.018941191,0.0039409717,0.0040603289
360,-2.8195956e-08,-4.1530029e-08,2.3671646e-08,2.6181397e-08,-1.6914370e-08,-5.2752149e-08,1.0954309e-08,1.1401326e-08
