deg,XRT_AX,XRT_BX,XRT_AY,XRT_BY,SOT_AX,SOT_BX,SOT_AY,SOT_BY
valid,1,1,1,1,1,1,1,1,revB
offset,84.819493,101.03058,2000.8999,1985.7121,14.140316,30.765114,121.87671,106.13535
0,0.0000000,0.0000000,0.0000000,0.0000000,0.0000000,0.0000000,0.0000000,0.0000000
1,0.10023440,0.024965965,-0.035984783,0.017288458,0.069602998,0.034969528,-0.033111743,0.0069940331
2,0.19895683,0.049501757,-0.071810789,0.034193666,0.14033295,0.069837969,-0.066596659,0.014011065
3,0.29607574,0.073600208,-0.10742402,0.050706071,0.21207311,0.10458170,-0.10040963,0.021041810
4,0.39150561,0.097256178,-0.14277254,0.066817207,0.28470757,0.13917838,-0.13450594,0.028077502
5,0.48516708,0.12046653,-0.17780663,0.082519680,0.35812152,0.17360702,-0.16884136,0.035109886
6,0.57698696,0.14323011,-0.21247881,0.097807159,0.43220141,0.20784788,-0.20337223,0.042131223
7,0.66689833,0.16554769,-0.24674395,0.11267436,0.50683519,0.24188255,-0.23805555,0.049134284
8,0.75484054,0.18742197,-0.28055938,0.12711700,0.58191244,0.27569393,-0.27284903,0.056112347
9,0.84075922,0.20885748,-0.31388491,0.14113183,0.65732460,0.30926617,-0.30771119,0.063059192
10,0.92460633,0.22986059,-0.34668291,0.15471657,0.73296516,0.34258472,-0.34260140,0.069969094
11,1.0063401,0.25043939,-0.37891837,0.16786989,0.80872979,0.37563627,-0.37747999,0.076836819
12,1.0859249,0.27060369,-0.41055896,0.18059140,0.88451652,0.40840874,-0.41230828,0.083657617
13,1.1633316,0.29036493,-0.44157500,0.19288162,0.96022592,0.44089128,-0.44704863,0.090427208
14,1.2385368,0.30973611,-0.47193958,0.20474192,1.0357612,0.47307422,-0.48166453,0.097141780
15,1.3115236,0.32873173,-0.50162851,0.21617457,1.1110285,0.50494906,-0.51612065,0.10379797
16,1.3822807,0.34736771,-0.53062036,0.22718261,1.1859367,0.53650841,-0.55038286,0.11039288
17,1.4508029,0.36566130,-0.55889647,0.23776990,1.2603979,0.56774601,-0.58441829,0.11692402
18,1.5170907,0.38363103,-0.58644091,0.24794105,1.3343274,0.59865663,-0.61819538,0.12338933
19,1.5811502,0.40129657,-0.61324052,0.25770138,1.4076437,0.62923609,-0.65168391,0.12978717
20,1.6429930,0.41867872,-0.63928485,0.26705691,1.4802689,0.65948120,-0.68485503,0.13611629
21,1.7026360,0.43579924,-0.66456615,0.27601433,1.5521283,0.68938972,-0.71768128,0.14237583
22,1.7601012,0.45268083,-0.68907932,0.28458094,1.6231510,0.71896030,-0.75013664,0.14856530
23,1.8154158,0.46934695,-0.71282187,0.29276464,1.6932696,0.74819248,-0.78219652,0.15468457
24,1.8686114,0.48582184,-0.73579387,0.30057387,1.7624206,0.77708659,-0.81383780,0.16073386
25,1.9197246,0.50213029,-0.75799792,0.30801760,1.8305440,0.80564376,-0.84503884,0.16671371
26,1.9687961,0.51829766,-0.77943902,0.31510530,1.8975839,0.83386584,-0.87577946,0.17262499
27,2.0158708,0.53434970,-0.80012455,0.32184688,1.9634879,0.86175535,-0.90604099,0.17846886
28,2.0609977,0.55031250,-0.82006419,0.32825265,2.0282077,0.88931545,-0.93580623,0.18424679
29,2.1042293,0.56621235,-0.83926980,0.33433334,2.0916989,0.91654988,-0.96505945,0.18996051
30,2.1456217,0.58207568,-0.85775537,0.34010001,2.1539208,0.94346292,-0.99378641,0.19561201
31,2.1852341,0.59792893,-0.87553688,0.34556404,2.2148367,0.97005933,-1.0219743,0.20120356
32,2.2231288,0.61379845,-0.89263224,0.35073709,2.2744139,0.99634431,-1.0496118,0.20673762
33,2.2593708,0.62971043,-0.90906118,0.35563109,2.3326233,1.0223234,-1.0766890,0.21221691
34,2.2940274,0.64569080,-0.92484508,0.36025818,2.3894398,1.0480027,-1.1031974,0.21764434
35,2.3271683,0.66176509,-0.94000695,0.36463069,2.4448421,1.0733882,-1.1291297,0.22302302
36,2.3588650,0.67795839,-0.95457122,0.36876112,2.4988126,1.0984864,-1.1544803,0.22835624
37,2.3891908,0.69429523,-0.96856369,0.37266211,2.5513374,1.1233041,-1.1792446,0.23364747
38,2.4182203,0.71079950,-0.98201135,0.37634639,2.6024062,1.1478479,-1.2034193,0.23890035
39,2.4460294,0.72749436,-0.99494228,0.37982678,2.6520123,1.1721249,-1.2270026,0.24411863
40,2.4726947,0.74440216,-1.0073855,0.38311615,2.7001525,1.1961420,-1.2499936,0.24930624
41,2.4982937,0.76154437,-1.0193709,0.38622742,2.7468271,1.2199061,-1.2723926,0.25446723
42,2.5229039,0.77894145,-1.0309290,0.38917349,2.7920396,1.2434244,-1.2942011,0.25960575
43,2.5466033,0.79661287,-1.0420910,0.39196726,2.8357968,1.2667036,-1.3154217,0.26472607
44,2.5694695,0.81457693,-1.0528882,0.39462160,2.8781086,1.2897507,-1.3360578,0.26983256
45,2.5915800,0.83285079,-1.0633526,0.39714931,2.9189878,1.3125722,-1.3561139,0.27492968
46,2.6130113,0.85145035,-1.0735161,0.39956313,2.9584505,1.3351748,-1.3755954,0.28002199
47,2.6338395,0.87039020,-1.0834106,0.40187571,2.9965152,1.3575648,-1.3945083,0.28511409
48,2.6541393,0.88968359,-1.0930680,0.40409960,3.0332032,1.3797482,-1.4128598,0.29021069
49,2.6739843,0.90934236,-1.1025199,0.40624721,3.0685386,1.4017310,-1.4306574,0.29531653
50,2.6934464,0.92937689,-1.1117974,0.40833084,3.1025474,1.4235186,-1.4479096,0.30043644
51,2.7125960,0.94979609,-1.1209314,0.41036264,3.1352585,1.4451165,-1.4646252,0.30557529
52,2.7315015,0.97060731,-1.1299519,0.41235461,3.1667026,1.4665294,-1.4808138,0.31073798
53,2.7502293,0.99181638,-1.1388882,0.41431858,3.1969124,1.4877621,-1.4964853,0.31592950
54,2.7688434,1.0134275,-1.1477687,0.41626623,3.2259227,1.5088187,-1.5116501,0.32115483
55,2.7874055,1.0354434,-1.1566210,0.41820904,3.2537700,1.5297032,-1.5263189,0.32641903
56,2.8059746,1.0578650,-1.1654715,0.42015833,3.2804923,1.5504191,-1.5405028,0.33172718
57,2.8246071,1.0806918,-1.1743452,0.42212521,3.3061291,1.5709694,-1.5542131,0.33708439
58,2.8433564,1.1039214,-1.1832661,0.42412063,3.3307213,1.5913569,-1.5674611,0.34249582
59,2.8622732,1.1275501,-1.1922567,0.42615535,3.3543109,1.6115838,-1.5802584,0.34796665
60,2.8814048,1.1515723,-1.2013379,0.42823991,3.3769411,1.6316522,-1.5926167,0.35350210
61,2.9007956,1.1759810,-1.2105293,0.43038469,3.3986558,1.6515635,-1.6045475,0.35910741
62,2.9204863,1.2007674,-1.2198486,0.43259989,3.4194997,1.6713188,-1.6160624,0.36478786
63,2.9405149,1.2259212,-1.2293119,0.43489548,3.4395183,1.6909188,-1.6271730,0.37054877
64,2.9609154,1.2514308,-1.2389335,0.43728130,3.4587574,1.7103639,-1.6378904,0.37639549
65,2.9817187,1.2772826,-1.2487258,0.43976699,3.4772631,1.7296540,-1.6482258,0.38233340
66,3.0029522,1.3034620,-1.2586994,0.44236200,3.4950820,1.7487887,-1.6581899,0.38836791
67,3.0246396,1.3299525,-1.2688629,0.44507565,3.5122605,1.7677673,-1.6677935,0.39450449
68,3.0468014,1.3567367,-1.2792230,0.44791706,3.5288451,1.7865887,-1.6770465,0.40074862
69,3.0694544,1.3837953,-1.2897843,0.45089523,3.5448822,1.8052514,-1.6859589,0.40710585
70,3.0926118,1.4111082,-1.3005494,0.45401899,3.5604179,1.8237539,-1.6945399,0.41358175
71,3.1162836,1.4386539,-1.3115189,0.45729702,3.5754977,1.8420941,-1.7027986,0.42018195
72,3.1404762,1.4664094,-1.3226914,0.46073791,3.5901670,1.8602699,-1.7107433,0.42691212
73,3.1651928,1.4943512,-1.3340632,0.46435007,3.6044702,1.8782788,-1.7183820,0.43377799
74,3.1904330,1.5224541,-1.3456287,0.46814184,3.6184513,1.8961181,-1.7257220,0.44078532
75,3.2161935,1.5506925,-1.3573805,0.47212143,3.6321533,1.9137851,-1.7327700,0.44793993
76,3.2424677,1.5790396,-1.3693087,0.47629694,3.6456184,1.9312769,-1.7395324,0.45524771
77,3.2692458,1.6074677,-1.3814019,0.48067640,3.6588879,1.9485903,-1.7460145,0.46271458
78,3.2965154,1.6359486,-1.3936463,0.48526774,3.6720019,1.9657223,-1.7522214,0.47034654
79,3.3242608,1.6644533,-1.4060267,0.49007882,3.6849995,1.9826697,-1.7581575,0.47814963
80,3.3524641,1.6929524,-1.4185255,0.49511743,3.6979186,1.9994292,-1.7638263,0.48612994
81,3.3811045,1.7214156,-1.4311237,0.50039130,3.7107957,2.0159976,-1.7692308,0.49429364
82,3.4101587,1.7498127,-1.4438003,0.50590809,3.7236662,2.0323719,-1.7743735,0.50264695
83,3.4396015,1.7781129,-1.4565329,0.51167544,3.7365641,2.0485490,-1.7792560,0.51119614
84,3.4694050,1.8062853,-1.4692974,0.51770091,3.7495218,2.0645259,-1.7838795,0.51994753
85,3.4995399,1.8342987,-1.4820679,0.52399204,3.7625706,2.0802997,-1.7882442,0.52890750
86,3.5299747,1.8621221,-1.4948176,0.53055635,3.7757400,2.0958680,-1.7923501,0.53808250
87,3.5606765,1.8897243,-1.5075179,0.53740130,3.7890582,2.1112283,-1.7961964,0.54747899
88,3.5916107,1.9170745,-1.5201393,0.54453433,3.8025520,2.1263783,-1.7997815,0.55710350
89,3.6227416,1.9441420,-1.5326509,0.55196287,3.8162464,2.1413162,-1.8031035,0.56696260
90,3.6540325,1.9708964,-1.5450210,0.55969430,3.8301650,2.1560405,-1.8061600,0.57706289
91,3.6854455,1.9973078,-1.5572169,0.56773599,3.8443299,2.1705497,-1.8089478,0.58741101
92,3.7169423,2.0233467,-1.5692050,0.57609526,3.8587616,2.1848431,-1.8114633,0.59801361
93,3.7484838,2.0489843,-1.5809513,0.58477944,3.8734793,2.1989201,-1.8137025,0.60887737
94,3.7800308,2.0741925,-1.5924210,0.59379579,3.8885003,2.2127806,-1.8156611,0.62000898
95,3.8115439,2.0989438,-1.6035788,0.60315155,3.9038407,2.2264249,-1.8173340,0.63141513
96,3.8429836,2.1232117,-1.6143895,0.61285391,3.9195152,2.2398538,-1.8187161,0.64310252
97,3.8743108,2.1469705,-1.6248173,0.62291001,3.9355369,2.2530687,-1.8198019,0.65507781
98,3.9054867,2.1701955,-1.6348266,0.63332695,3.9519176,2.2660712,-1.8205855,0.66734765
99,3.9364733,2.1928633,-1.6443818,0.64411175,3.9686677,2.2788637,-1.8210608,0.67991865
100,3.9672333,2.2149513,-1.6534475,0.65527134,3.9857963,2.2914490,-1.8212216,0.69279739
101,3.9977302,2.2364383,-1.6619888,0.66681260,4.0033113,2.3038305,-1.8210615,0.70599036
102,4.0279289,2.2573044,-1.6699712,0.67874227,4.0212194,2.3160121,-1.8205740,0.71950401
103,4.0577955,2.2775309,-1.6773608,0.69106701,4.0395261,2.3279983,-1.8197526,0.73334467
104,4.0872976,2.2971005,-1.6841244,0.70379333,4.0582357,2.3397942,-1.8185907,0.74751860
105,4.1164043,2.3159974,-1.6902300,0.71692760,4.0773516,2.3514055,-1.8170818,0.76203194
106,4.1450867,2.3342072,-1.6956461,0.73047604,4.0968764,2.3628383,-1.8152195,0.77689068
107,4.1733176,2.3517171,-1.7003428,0.74444469,4.1168114,2.3740994,-1.8129977,0.79210068
108,4.2010720,2.3685159,-1.7042913,0.75883938,4.1371573,2.3851964,-1.8104102,0.80766764
109,4.2283271,2.3845938,-1.7074641,0.77366574,4.1579140,2.3961370,-1.8074513,0.82359706
110,4.2550622,2.3999428,-1.7098354,0.78892914,4.1790808,2.4069300,-1.8041155,0.83989426
111,4.2812593,2.4145564,-1.7113808,0.80463472,4.2006562,2.4175842,-1.8003977,0.85656434
112,4.3069025,2.4284299,-1.7120779,0.82078730,4.2226381,2.4281093,-1.7962932,0.87361216
113,4.3319790,2.4415602,-1.7119059,0.83739143,4.2450242,2.4385156,-1.7917978,0.89104232
114,4.3564782,2.4539459,-1.7108459,0.85445131,4.2678116,2.4488135,-1.7869076,0.90885916
115,4.3803925,2.4655873,-1.7088814,0.87197079,4.2909970,2.4590143,-1.7816195,0.92706671
116,4.4037170,2.4764862,-1.7059976,0.88995334,4.3145770,2.4691294,-1.7759308,0.94566870
117,4.4264497,2.4866464,-1.7021822,0.90840202,4.3385478,2.4791710,-1.7698397,0.96466852
118,4.4485913,2.4960732,-1.6974251,0.92731946,4.3629056,2.4891515,-1.7633448,0.98406920
119,4.4701456,2.5047734,-1.6917184,0.94670785,4.3876467,2.4990836,-1.7564456,1.0038734
120,4.4911192,2.5127557,-1.6850569,0.96656885,4.4127670,2.5089805,-1.7491422,1.0240834
121,4.5115216,2.5200302,-1.6774376,0.98690365,4.4382627,2.5188557,-1.7414356,1.0447010
122,4.5313651,2.5266086,-1.6688604,1.0077129,4.4641303,2.5287229,-1.7333278,1.0657277
123,4.5506652,2.5325042,-1.6593274,1.0289966,4.4903662,2.5385959,-1.7248213,1.0871644
124,4.5694398,2.5377316,-1.6488436,1.0507543,4.5169670,2.5484891,-1.7159198,1.1090115
125,4.5877099,2.5423071,-1.6374164,1.0729848,4.5439300,2.5584167,-1.7066278,1.1312691
126,4.6054989,2.5462483,-1.6250561,1.0956864,4.5712524,2.5683930,-1.6969507,1.1539366
127,4.6228333,2.5495739,-1.6117756,1.1188564,4.5989320,2.5784325,-1.6868949,1.1770129
128,4.6397418,2.5523041,-1.5975904,1.1424919,4.6269670,2.5885497,-1.6764678,1.2004964
129,4.6562556,2.5544603,-1.5825189,1.1665888,4.6553560,2.5987591,-1.6656777,1.2243849
130,4.6724085,2.5560649,-1.5665819,1.1911426,4.6840983,2.6090748,-1.6545342,1.2486756
131,4.6882364,2.5571416,-1.5498030,1.2161478,4.7131934,2.6195112,-1.6430475,1.2733651
132,4.7037774,2.5577149,-1.5322084,1.2415981,4.7426416,2.6300822,-1.6312290,1.2984492
133,4.7190715,2.5578101,-1.5138271,1.2674867,4.7724438,2.6408015,-1.6190913,1.3239235
134,4.7341606,2.5574537,-1.4946904,1.2938054,4.8026012,2.6516826,-1.6066477,1.3497824
135,4.7490884,2.5566726,-1.4748321,1.3205458,4.8331159,2.6627386,-1.5939127,1.3760200
136,4.7639001,2.5554946,-1.4542886,1.3476980,4.8639905,2.6739821,-1.5809018,1.4026296
137,4.7786422,2.5539479,-1.4330986,1.3752517,4.8952281,2.6854253,-1.5676314,1.4296038
138,4.7933624,2.5520612,-1.4113032,1.4031953,4.9268324,2.6970799,-1.5541188,1.4569345
139,4.8081097,2.5498637,-1.3889455,1.4315166,4.9588080,2.7089571,-1.5403826,1.4846129
140,4.8229334,2.5473848,-1.3660711,1.4602023,4.9911595,2.7210672,-1.5264419,1.5126294
141,4.8378840,2.5446542,-1.3427272,1.4892381,5.0238926,2.7334200,-1.5123169,1.5409738
142,4.8530120,2.5417015,-1.3189632,1.5186088,5.0570132,2.7460247,-1.4980287,1.5696349
143,4.8683684,2.5385565,-1.2948304,1.5482983,5.0905277,2.7588893,-1.4835991,1.5986010
144,4.8840040,2.5352488,-1.2703817,1.5782894,5.1244432,2.7720214,-1.4690509,1.6278596
145,4.8999695,2.5318079,-1.2456716,1.6085641,5.1587669,2.7854275,-1.4544075,1.6573974
146,4.9163153,2.5282628,-1.2207560,1.6391033,5.1935065,2.7991130,-1.4396930,1.6872003
147,4.9330910,2.5246424,-1.1956923,1.6698868,5.2286702,2.8130827,-1.4249323,1.7172535
148,4.9503453,2.5209749,-1.1705390,1.7008938,5.2642661,2.8273399,-1.4101507,1.7475415
149,4.9681261,2.5172879,-1.1453556,1.7321021,5.3003029,2.8418873,-1.3953743,1.7780479
150,4.9864797,2.5136085,-1.1202027,1.7634889,5.3367891,2.8567260,-1.3806296,1.8087557
151,5.0054510,2.5099630,-1.0951414,1.7950302,5.3737335,2.8718563,-1.3659435,1.8396471
152,5.0250832,2.5063766,-1.0702335,1.8267012,5.4111448,2.8872772,-1.3513433,1.8707035
153,5.0454175,2.5028738,-1.0455414,1.8584761,5.4490318,2.9029864,-1.3368568,1.9019057
154,5.0664931,2.4994781,-1.0211277,1.8903283,5.4874028,2.9189803,-1.3225118,1.9332337
155,5.0883465,2.4962115,-0.99705492,1.9222301,5.5262663,2.9352541,-1.3083364,1.9646668
156,5.1110119,2.4930953,-0.97338583,1.9541531,5.5656303,2.9518018,-1.2943590,1.9961836
157,5.1345207,2.4901492,-0.95018282,1.9860681,5.6055024,2.9686156,-1.2806078,2.0277621
158,5.1589010,2.4873915,-0.92750797,2.0179450,5.6458896,2.9856869,-1.2671112,2.0593797
159,5.1841782,2.4848394,-0.90542278,2.0497528,5.6867987,3.0030053,-1.2538972,2.0910129
160,5.2103741,2.4825082,-0.88398808,2.0814599,5.7282355,3.0205592,-1.2409940,2.1226379
161,5.2375069,2.4804120,-0.86326379,2.1130340,5.7702052,3.0383355,-1.2284294,2.1542301
162,5.2655914,2.4785630,-0.84330879,2.1444420,5.8127121,3.0563197,-1.2162308,2.1857644
163,5.2946381,2.4769720,-0.82418075,2.1756501,5.8557596,3.0744959,-1.2044253,2.2172153
164,5.3246540,2.4756478,-0.80593598,2.2066240,5.8993501,3.0928468,-1.1930396,2.2485564
165,5.3556416,2.4745976,-0.78862924,2.2373288,5.9434848,3.1113535,-1.1820998,2.2797612
166,5.3875993,2.4738268,-0.77231360,2.2677290,5.9881639,3.1299959,-1.1716314,2.3108026
167,5.4205212,2.4733388,-0.75704026,2.2977889,6.0333858,3.1487525,-1.1616591,2.3416531
168,5.4543966,2.4731355,-0.74285844,2.3274719,6.0791481,3.1676002,-1.1522070,2.3722846
169,5.4892106,2.4732164,-0.72981521,2.3567414,6.1254466,3.1865147,-1.1432983,2.4026691
170,5.5249433,2.4735795,-0.71795531,2.3855603,6.1722754,3.2054703,-1.1349551,2.4327778
171,5.5615704,2.4742207,-0.70732109,2.4138913,6.2196272,3.2244399,-1.1271989,2.4625819
172,5.5990625,2.4751338,-0.69795230,2.4416968,6.2674929,3.2433954,-1.1200498,2.4920522
173,5.6373855,2.4763111,-0.68988599,2.4689391,6.3158614,3.2623071,-1.1135269,2.5211593
174,5.6765006,2.4777425,-0.68315641,2.4955802,6.3647198,3.2811441,-1.1076481,2.5498739
175,5.7163638,2.4794163,-0.67779485,2.5215825,6.4140534,3.2998746,-1.1024302,2.5781661
176,5.7569265,2.4813187,-0.67382957,2.5469078,6.4638451,3.3184654,-1.0978884,2.6060064
177,5.7981351,2.4834340,-0.67128566,2.5715186,6.5140759,3.3368822,-1.0940367,2.6333648
178,5.8399311,2.4857449,-0.67018499,2.5953771,6.5647246,3.3550899,-1.0908876,2.6602117
179,5.8822515,2.4882320,-0.67054607,2.6184459,6.6157679,3.3730522,-1.0884522,2.6865172
180,5.9250281,2.4908740,-0.67238402,2.6406877,6.6671798,3.3907319,-1.0867400,2.7122517
181,5.9681885,2.4936483,-0.67571047,2.6620657,6.7189324,3.4080910,-1.0857589,2.7373858
182,6.0116555,2.4965302,-0.68053348,2.6825435,6.7709953,3.4250907,-1.0855152,2.7618900
183,6.0553472,2.4994934,-0.68685755,2.7020851,6.8233356,3.4416914,-1.0860134,2.7857352
184,6.0991778,2.5025101,-0.69468348,2.7206550,6.8759180,3.4578528,-1.0872567,2.8088927
185,6.1430569,2.5055510,-0.70400843,2.7382183,6.9287047,3.4735342,-1.0892460,2.8313337
186,6.1868901,2.5085853,-0.71482583,2.7547409,6.9816556,3.4886942,-1.0919808,2.8530303
187,6.2305791,2.5115807,-0.72712536,2.7701893,7.0347280,3.5032910,-1.0954587,2.8739546
188,6.2740217,2.5145036,-0.74089298,2.7845308,7.0878767,3.5172826,-1.0996755,2.8940793
189,6.3171122,2.5173195,-0.75611090,2.7977336,7.1410539,3.5306264,-1.1046252,2.9133776
190,6.3597416,2.5199922,-0.77275761,2.8097668,7.1942097,3.5432799,-1.1102998,2.9318234
191,6.4017975,2.5224850,-0.79080788,2.8206006,7.2472913,3.5552004,-1.1166896,2.9493908
192,6.4431646,2.5247598,-0.81023278,2.8302061,7.3002437,3.5663451,-1.1237831,2.9660549
193,6.4837248,2.5267779,-0.83099975,2.8385556,7.3530096,3.5766715,-1.1315668,2.9817914
194,6.5233577,2.5284998,-0.85307264,2.8456226,7.4055292,3.5861371,-1.1400253,2.9965766
195,6.5619404,2.5298853,-0.87641174,2.8513817,7.4577404,3.5946995,-1.1491416,3.0103877
196,6.5993481,2.5308936,-0.90097388,2.8558090,7.5095790,3.6023169,-1.1588967,3.0232028
197,6.6354544,2.5314835,-0.92671247,2.8588817,7.5609783,3.6089479,-1.1692697,3.0350005
198,6.6701312,2.5316136,-0.95357762,2.8605787,7.6118699,3.6145515,-1.1802383,3.0457607
199,6.7032495,2.5312420,-0.98151620,2.8608802,7.6621830,3.6190874,-1.1917780,3.0554640
200,6.7346792,2.5303269,-1.0104720,2.8597678,7.7118451,3.6225161,-1.2038630,3.0640921
201,6.7642898,2.5288264,-1.0403857,2.8572249,7.7607818,3.6247988,-1.2164654,3.0716275
202,6.7919505,2.5266990,-1.0711953,2.8532364,7.8089168,3.6258975,-1.2295560,3.0780540
203,6.8175305,2.5239030,-1.1028357,2.8477887,7.8561723,3.6257754,-1.2431038,3.0833563
204,6.8408995,2.5203975,-1.1352394,2.8408700,7.9024690,3.6243966,-1.2570765,3.0875203
205,6.8619278,2.5161417,-1.1683364,2.8324704,7.9477260,3.6217266,-1.2714400,3.0905330
206,6.8804867,2.5110957,-1.2020543,2.8225815,7.9918612,3.6177320,-1.2861591,3.0923826
207,6.8964488,2.5052201,-1.2363185,2.8111969,8.0347915,3.6123806,-1.3011971,3.0930584
208,6.9096885,2.4984764,-1.2710524,2.7983118,8.0764327,3.6056419,-1.3165159,3.0925511
209,6.9200821,2.4908272,-1.3061775,2.7839235,8.1166995,3.5974868,-1.3320763,3.0908525
210,6.9275081,2.4822359,-1.3416137,2.7680309,8.1555062,3.5878877,-1.3478380,3.0879556
211,6.9318480,2.4726673,-1.3772791,2.7506351,8.1927664,3.5768189,-1.3637597,3.0838550
212,6.9329857,2.4620874,-1.4130909,2.7317390,8.2283932,3.5642561,-1.3797988,3.0785463
213,6.9308090,2.4504634,-1.4489649,2.7113473,8.2622998,3.5501770,-1.3959120,3.0720265
214,6.9252087,2.4377643,-1.4848159,2.6894667,8.2943989,3.5345614,-1.4120554,3.0642940
215,6.9160800,2.4239605,-1.5205580,2.6661060,8.3246037,3.5173906,-1.4281841,3.0553484
216,6.9033219,2.4090242,-1.5561047,2.6412757,8.3528273,3.4986482,-1.4442526,3.0451909
217,6.8868382,2.3929293,-1.5913693,2.6149886,8.3789836,3.4783198,-1.4602150,3.0338238
218,6.8665374,2.3756517,-1.6262647,2.5872590,8.4029870,3.4563932,-1.4760248,3.0212509
219,6.8423329,2.3571690,-1.6607039,2.5581036,8.4247526,3.4328582,-1.4916354,3.0074773
220,6.8141438,2.3374612,-1.6946002,2.5275406,8.4441967,3.4077069,-1.5069998,2.9925097
221,6.7818945,2.3165101,-1.7278673,2.4955904,8.4612368,3.3809338,-1.5220709,2.9763557
222,6.7455154,2.2943000,-1.7604194,2.4622753,8.4757917,3.3525356,-1.5368016,2.9590247
223,6.7049430,2.2708173,-1.7921718,2.4276193,8.4877818,3.3225111,-1.5511448,2.9405273
224,6.6601201,2.2460507,-1.8230406,2.3916485,8.4971292,3.2908620,-1.5650538,2.9208754
225,6.6109963,2.2199913,-1.8529433,2.3543905,8.5037581,3.2575918,-1.5784820,2.9000822
226,6.5575276,2.1926328,-1.8817988,2.3158749,8.5075948,3.2227070,-1.5913832,2.8781623
227,6.4996771,2.1639712,-1.9095275,2.2761332,8.5085678,3.1862159,-1.6037119,2.8551316
228,6.4374153,2.1340051,-1.9360518,2.2351983,8.5066083,3.1481299,-1.6154229,2.8310072
229,6.3707197,2.1027357,-1.9612959,2.1931050,8.5016500,3.1084622,-1.6264719,2.8058077
230,6.2995753,2.0701668,-1.9851865,2.1498896,8.4936296,3.0672291,-1.6368155,2.7795526
231,6.2239748,2.0363047,-2.0076523,2.1055902,8.4824869,3.0244488,-1.6464112,2.7522628
232,6.1439186,2.0011584,-2.0286249,2.0602462,8.4681647,2.9801422,-1.6552173,2.7239605
233,6.0594148,1.9647396,-2.0480382,2.0138986,8.4506094,2.9343326,-1.6631934,2.6946687
234,5.9704794,1.9270625,-2.0658294,1.9665898,8.4297709,2.8870458,-1.6703005,2.6644120
235,5.8771366,1.8881442,-2.0819385,1.9183636,8.4056028,2.8383097,-1.6765005,2.6332157
236,5.7794183,1.8480041,-2.0963086,1.8692651,8.3780625,2.7881548,-1.6817570,2.6011063
237,5.6773647,1.8066646,-2.1088864,1.8193405,8.3471115,2.7366139,-1.6860351,2.5681114
238,5.5710238,1.7641502,-2.1196217,1.7686375,8.3127154,2.6837219,-1.6893014,2.5342596
239,5.4604519,1.7204886,-2.1284682,1.7172045,8.2748442,2.6295163,-1.6915243,2.4995802
240,5.3457132,1.6757094,-2.1353831,1.6650912,8.2334720,2.5740365,-1.6926738,2.4641036
241,5.2268800,1.6298451,-2.1403275,1.6123481,8.1885778,2.5173242,-1.6927219,2.4278612
242,5.1040323,1.5829306,-2.1432664,1.5590268,8.1401451,2.4594230,-1.6916423,2.3908848
243,4.9772583,1.5350031,-2.1441687,1.5051795,8.0881621,2.4003786,-1.6894110,2.3532074
244,4.8466537,1.4861021,-2.1430075,1.4508592,8.0326219,2.3402390,-1.6860058,2.3148625
245,4.7123219,1.4362695,-2.1397602,1.3961195,7.9735225,2.2790536,-1.6814067,2.2758842
246,4.5743740,1.3855494,-2.1344080,1.3410146,7.9108670,2.2168739,-1.6755959,2.2363075
247,4.4329283,1.3339878,-2.1269369,1.2855992,7.8446634,2.1537530,-1.6685578,2.1961677
248,4.2881104,1.2816330,-2.1173368,1.2299284,7.7749250,2.0897460,-1.6602791,2.1555008
249,4.1400528,1.2285352,-2.1056022,1.1740575,7.7016701,2.0249091,-1.6507488,2.1143431
250,3.9888951,1.1747464,-2.0917319,1.1180421,7.6249226,1.9593004,-1.6399583,2.0727315
251,3.8347833,1.1203204,-2.0757291,1.0619381,7.5447112,1.8929792,-1.6279013,2.0307032
252,3.6778699,1.0653126,-2.0576014,1.0058012,7.4610701,1.8260062,-1.6145740,1.9882957
253,3.5183134,1.0097802,-2.0373609,0.94968708,7.3740389,1.7584432,-1.5999752,1.9455466
254,3.3562785,0.95378160,-2.0150240,0.89365150,7.2836621,1.6903533,-1.5841058,1.9024941
255,3.1919351,0.89737663,-1.9906113,0.83774987,7.1899898,1.6218004,-1.5669697,1.8591760
256,3.0254587,0.84062636,-1.9641480,0.78203733,7.0930773,1.5528496,-1.5485727,1.8156307
257,2.8570298,0.78359297,-1.9356634,0.72656864,6.9929850,1.4835665,-1.5289237,1.7718964
258,2.6868337,0.72633962,-1.9051910,0.67139813,6.8897784,1.4140177,-1.5080335,1.7280111
259,2.5150598,0.66893033,-1.8727685,0.61657955,6.7835283,1.3442701,-1.4859159,1.6840132
260,2.3419017,0.61142986,-1.8384377,0.56216604,6.6743105,1.2743913,-1.4625869,1.6399405
261,2.1675569,0.55390355,-1.8022443,0.50821004,6.5622056,1.2044492,-1.4380650,1.5958309
262,1.9922260,0.49641725,-1.7642379,0.45476317,6.4472993,1.1345119,-1.4123710,1.5517220
263,1.8161127,0.43903712,-1.7244720,0.40187622,6.3296819,1.0646479,-1.3855284,1.5076510
264,1.6394232,0.38182955,-1.6830036,0.34959901,6.2094483,0.99492541,-1.3575628,1.4636549
265,1.4623661,0.32486101,-1.6398934,0.29798036,6.0866983,0.92541275,-1.3285023,1.4197703
266,1.2851518,0.26819787,-1.5952053,0.24706799,5.9615358,0.85617802,-1.2983771,1.3760332
267,1.1079920,0.21190635,-1.5490067,0.19690845,5.8340690,0.78728903,-1.2672197,1.3324794
268,0.93109971,0.15605232,-1.5013680,0.14754708,5.7044104,0.71881316,-1.2350649,1.2891438
269,0.75468846,0.10070119,-1.4523628,0.099027899,5.5726765,0.65081729,-1.2019494,1.2460611
270,0.57897207,0.045917766,-1.4020671,0.051393593,5.4389873,0.58336765,-1.1679120,1.2032650
271,0.40416424,-0.0082338497,-1.3505600,0.0046854071,5.3034667,0.51652976,-1.1329936,1.1607888
272,0.23047811,-0.061690432,-1.2979228,-0.041056884,5.1662422,0.45036826,-1.0972369,1.1186650
273,0.058125883,-0.11438973,-1.2442393,-0.085795043,5.0274441,0.38494688,-1.0606864,1.0769252
274,-0.11268159,-0.16627062,-1.1895951,-0.12949241,4.8872063,0.32032826,-1.0233883,1.0356005
275,-0.28173519,-0.21727318,-1.1340782,-0.17211398,4.7456651,0.25657392,-0.98539066,0.99472086
276,-0.44882797,-0.26733888,-1.0777780,-0.21362641,4.6029598,0.19374412,-0.94674286,0.95431558
277,-0.61375550,-0.31641063,-1.0207855,-0.25399810,4.4592319,0.13189777,-0.90749587,0.91441294
278,-0.77631629,-0.36443295,-0.96319319,-0.29319918,4.3146254,0.071092334,-0.86770202,0.87504032
279,-0.93631214,-0.41135205,-0.90509454,-0.33120162,4.1692858,0.011383767,-0.82741490,0.83622413
280,-1.0935486,-0.45711594,-0.84658408,-0.36797919,4.0233609,-0.047173601,-0.78668925,0.79798979
281,-1.2478351,-0.50167452,-0.78775704,-0.40350756,3.8769997,-0.10452713,-0.74558090,0.76036167
282,-1.3989858,-0.54497973,-0.72870917,-0.43776424,3.7303524,-0.16062598,-0.70414663,0.72336311
283,-1.5468193,-0.58698557,-0.66953657,-0.47072869,3.5835705,-0.21542112,-0.66244405,0.68701638
284,-1.6911595,-0.62764825,-0.61033544,-0.50238228,3.4368060,-0.26886548,-0.62053151,0.65134265
285,-1.8318357,-0.66692623,-0.55120191,-0.53270831,3.2902115,-0.32091397,-0.57846799,0.61636198
286,-1.9686829,-0.70478034,-0.49223178,-0.56169206,3.1439401,-0.37152355,-0.53631297,0.58209330
287,-2.1015423,-0.74117379,-0.43352037,-0.58932077,2.9981445,-0.42065330,-0.49412630,0.54855440
288,-2.2302613,-0.77607230,-0.37516231,-0.61558361,2.8529776,-0.46826448,-0.45196813,0.51576193
289,-2.3546942,-0.80944415,-0.31725127,-0.64047177,2.7085913,-0.51432055,-0.40989874,0.48373135
290,-2.4747018,-0.84126018,-0.25987987,-0.66397835,2.5651373,-0.55878726,-0.36797849,0.45247698
291,-2.5901524,-0.87149392,-0.20313939,-0.68609844,2.4227659,-0.60163265,-0.32626761,0.42201193
292,-2.7009216,-0.90012157,-0.14711964,-0.70682907,2.2816262,-0.64282710,-0.28482617,0.39234815
293,-2.8068927,-0.92712205,-0.091908722,-0.72616919,2.1418659,-0.68234340,-0.24371391,0.36349640
294,-2.9079566,-0.95247707,-0.037592894,-0.74411967,2.0036309,-0.72015671,-0.20299015,0.33546628
295,-3.0040123,-0.97617109,0.015743636,-0.76068328,1.8670651,-0.75624464,-0.16271366,0.30826618
296,-3.0949672,-0.99819140,0.068018877,-0.77586465,1.7323100,-0.79058723,-0.12294257,0.28190334
297,-3.1807368,-1.0185281,0.11915322,-0.78967026,1.5995049,-0.82316697,-0.083734222,0.25638382
298,-3.2612450,-1.0371740,0.16906959,-0.80210840,1.4687861,-0.85396885,-0.045145097,0.23171253
299,-3.3364245,-1.0541249,0.21769363,-0.81318913,1.3402871,-0.88298028,-0.0072306819,0.20789323
300,-3.4062165,-1.0693792,0.26495381,-0.82292426,1.2141382,-0.91019118,0.029954626,0.18492856
301,-3.4705711,-1.0829383,0.31078157,-0.83132731,1.0904662,-0.93559389,0.066357620,0.16282001
302,-3.5294472,-1.0948063,0.35511151,-0.83841343,0.96939463,-0.95918323,0.10192639,0.14156799
303,-3.5828124,-1.1049899,0.39788141,-0.84419943,0.85104279,-0.98095643,0.13661041,0.12117183
304,-3.6306434,-1.1134986,0.43903246,-0.84870365,0.73552622,-1.0009131,0.17036065,0.10162979
305,-3.6729256,-1.1203446,0.47850926,-0.85194595,0.62295622,-1.0190554,0.20312964,0.082939078
306,-3.7096533,-1.1255428,0.51626001,-0.85394769,0.51343969,-1.0353876,0.23487159,0.065095893
307,-3.7408298,-1.1291103,0.55223654,-0.85473160,0.40707904,-1.0499164,0.26554244,0.048095435
308,-3.7664669,-1.1310671,0.58639442,-0.85432179,0.30397191,-1.0626508,0.29509994,0.031931938
309,-3.7865854,-1.1314355,0.61869300,-0.85274365,0.20421113,-1.0736021,0.32350377,0.016598692
310,-3.8012145,-1.1302401,0.64909551,-0.85002382,0.10788450,-1.0827837,0.35071557,0.0020880764
311,-3.8103921,-1.1275080,0.67756909,-0.84619011,0.015074671,-1.0902112,0.37669898,-0.011608411
312,-3.8141642,-1.1232682,0.70408484,-0.84127143,-0.074140952,-1.0959021,0.40141978,-0.024500125
313,-3.8125853,-1.1175521,0.72861784,-0.83529774,-0.15969035,-1.0998763,0.42484588,-0.036597237
314,-3.8057178,-1.1103932,0.75114719,-0.82829999,-0.24150699,-1.1021553,0.44694740,-0.047910706
315,-3.7936322,-1.1018266,0.77165601,-0.82031003,-0.31952991,-1.1027627,0.46769669,-0.058452242
316,-3.7764065,-1.0918896,0.79013146,-0.81136055,-0.39370381,-1.1017239,0.48706843,-0.068234269
317,-3.7541264,-1.0806211,0.80656470,-0.80148504,-0.46397909,-1.0990660,0.50503959,-0.077269893
318,-3.7268846,-1.0680618,0.82095093,-0.79071768,-0.53031198,-1.0948180,0.52158952,-0.085572866
319,-3.6947812,-1.0542537,0.83328931,-0.77909327,-0.59266450,-1.0890103,0.53669996,-0.093157545
320,-3.6579227,-1.0392404,0.84358296,-0.76664721,-0.65100457,-1.0816749,0.55035504,-0.10003886
321,-3.6164224,-1.0230669,0.85183888,-0.75341537,-0.70530598,-1.0728453,0.56254133,-0.10623226
322,-3.5703997,-1.0057791,0.85806795,-0.73943405,-0.75554844,-1.0625563,0.57324781,-0.11175371
323,-3.5199801,-0.98742437,0.86228482,-0.72473993,-0.80171756,-1.0508440,0.58246593,-0.11661961
324,-3.4652944,-0.96805079,0.86450787,-0.70936993,-0.84380486,-1.0377459,0.59018954,-0.12084679
325,-3.4064792,-0.94770739,0.86475912,-0.69336124,-0.88180772,-1.0233004,0.59641496,-0.12445246
326,-3.3436758,-0.92644388,0.86306412,-0.67675115,-0.91572938,-1.0075469,0.60114091,-0.12745415
327,-3.2770304,-0.90431062,0.85945190,-0.65957705,-0.94557886,-0.99052592,0.60436850,-0.12986972
328,-3.2066932,-0.88135841,0.85395482,-0.64187636,-0.97137094,-0.97227877,0.60610127,-0.13171727
329,-3.1328188,-0.85763844,0.84660852,-0.62368641,-0.99312607,-0.95284748,0.60634507,-0.13301514
330,-3.0555653,-0.83320212,0.83745172,-0.60504444,-1.0108703,-0.93227479,0.60510811,-0.13378185
331,-2.9750941,-0.80810097,0.82652617,-0.58598749,-1.0246352,-0.91060401,0.60240089,-0.13403607
332,-2.8915694,-0.78238649,0.81387648,-0.56655236,-1.0344578,-0.88787895,0.59823614,-0.13379658
333,-2.8051583,-0.75611008,0.79955000,-0.54677556,-1.0403803,-0.86414383,0.59262882,-0.13308227
334,-2.7160297,-0.72932285,0.78359666,-0.52669320,-1.0424502,-0.83944316,0.58559604,-0.13191202
335,-2.6243547,-0.70207557,0.76606883,-0.50634100,-1.0407200,-0.81382169,0.57715700,-0.13030476
336,-2.5303057,-0.67441852,0.74702119,-0.48575418,-1.0352473,-0.78732432,0.56733298,-0.12827938
337,-2.4340562,-0.64640136,0.72651056,-0.46496744,-1.0260943,-0.75999599,0.55614721,-0.12585469
338,-2.3357805,-0.61807306,0.70459570,-0.44401489,-1.0133278,-0.73188160,0.54362487,-0.12304945
339,-2.2356531,-0.58948177,0.68133721,-0.42292999,-0.99701918,-0.70302594,0.52979296,-0.11988225
340,-2.1338487,-0.56067471,0.65679733,-0.40174555,-0.97724407,-0.67347361,0.51468027,-0.11637157
341,-2.0305415,-0.53169809,0.63103977,-0.38049363,-0.95408222,-0.64326894,0.49831731,-0.11253568
342,-1.9259051,-0.50259697,0.60412955,-0.35920552,-0.92761731,-0.61245587,0.48073618,-0.10839264
343,-1.8201119,-0.47341521,0.57613282,-0.33791169,-0.89793678,-0.58107796,0.46197055,-0.10396028
344,-1.7133331,-0.44419537,0.54711667,-0.31664179,-0.86513159,-0.54917822,0.44205554,-0.099256163
345,-1.6057378,-0.41497859,0.51714900,-0.29542455,-0.82929607,-0.51679911,0.42102762,-0.094297558
346,-1.4974933,-0.38580455,0.48629830,-0.27428780,-0.79052769,-0.48398246,0.39892459,-0.089101426
347,-1.3887644,-0.35671139,0.45463348,-0.25325841,-0.74892683,-0.45076937,0.37578538,-0.083684391
348,-1.2797132,-0.32773559,0.42222374,-0.23236227,-0.70459659,-0.41720018,0.35165008,-0.078062721
349,-1.1704988,-0.29891198,0.38913834,-0.21162429,-0.65764258,-0.38331442,0.32655975,-0.072252306
350,-1.0612768,-0.27027360,0.35544646,-0.19106831,-0.60817265,-0.34915072,0.30055637,-0.066268643
351,-0.95219939,-0.24185171,0.32121702,-0.17071715,-0.55629673,-0.31474678,0.27368274,-0.060126817
352,-0.84341486,-0.21367569,0.28651854,-0.15059255,-0.50212655,-0.28013930,0.24598237,-0.053841485
353,-0.73506730,-0.18577301,0.25141893,-0.13071519,-0.44577544,-0.24536398,0.21749941,-0.047426862
354,-0.62729646,-0.15816922,0.21598537,-0.11110463,-0.38735810,-0.21045543,0.18827853,-0.040896706
355,-0.52023746,-0.13088785,0.18028411,-0.091779341,-0.32699035,-0.17544714,0.15836482,-0.034264310
356,-0.41402061,-0.10395047,0.14438039,-0.072756667,-0.26478894,-0.14037147,0.12780371,-0.027542487
357,-0.30877115,-0.077376561,0.10833822,-0.054052847,-0.20087127,-0.10525958,0.096640861,-0.020743566
358,-0.20460912,-0.051183603,0.072220252,-0.035682995,-0.13535520,-0.070141446,0.064922082,-0.013879378
359,-0.10164915,-0.025386994,0.036087690,-0.017661104,-0.068358811,-0.035045792,0.032693224,-0.0069612544
360,-2.8154183e-07,-7.0214114e-08,1.0052031e-07,-4.8736865e-08,-1.9242093e-07,-9.7637326e-08,9.1775945e-08,-1.9463144e-08
