deg,XRT_AX,XRT_BX,XRT_AY,XRT_BY,SOT_AX,SOT_BX,SOT_AY,SOT_BY
valid,1,1,1,1,1,1,1,1,revB
offset,124.72093,98.059551,1975.7446,1980.7861,77.271835,49.540523,70.987757,76.349055
0,0.0000000,0.0000000,0.0000000,0.0000000,0.0000000,0.0000000,0.0000000,0.0000000
1,0.0019629975,0.012650912,-0.00057251568,-0.0013630416,0.0011411438,0.014526556,-0.0011111456,-0.0048004569
2,0.0041185538,0.025329549,-0.0013067002,-0.0025819484,0.0022245994,0.029186066,-0.0021505179,-0.0096302083
3,0.0064734321,0.038039339,-0.0022050813,-0.0036618593,0.0032485326,0.043966121,-0.0031243054,-0.014485417
4,0.0090335515,0.050783844,-0.0032694322,-0.0046078616,0.0042105737,0.058853811,-0.0040385835,-0.019361909
5,0.011803961,0.063566729,-0.0045007699,-0.0054249814,0.0051078209,0.073835747,-0.0048992973,-0.024255189
6,0.014788815,0.076391736,-0.0058993546,-0.0061181730,0.0059368434,0.088898090,-0.0057122439,-0.029160443
7,0.017991356,0.089262657,-0.0074646917,-0.0066923098,0.0066936880,0.10402658,-0.0064830549,-0.034072559
8,0.021413892,0.10218330,-0.0091955355,-0.0071521741,0.0073738862,0.11920657,-0.0072171799,-0.038986130
9,0.025057780,0.11515748,-0.011089894,-0.0075024480,0.0079724634,0.13442306,-0.0079198688,-0.043895473
10,0.028923418,0.12818896,-0.013145037,-0.0077477041,0.0084839493,0.14966071,-0.0085961559,-0.048794639
11,0.033010228,0.14128144,-0.015357505,-0.0078923968,0.0089023909,0.16490391,-0.0092508437,-0.053677426
12,0.037316651,0.15443853,-0.017723117,-0.0079408531,0.0092213657,0.18013677,-0.0098884866,-0.058537398
13,0.041840143,0.16766374,-0.020236987,-0.0078972644,0.0094339978,0.19534320,-0.010513376,-0.063367890
14,0.046577168,0.18096040,-0.022893538,-0.0077656783,0.0095329740,0.21050694,-0.011129526,-0.068162034
15,0.051523201,0.19433168,-0.025686512,-0.0075499910,0.0095105632,0.22561154,-0.011740658,-0.072912764
16,0.056672730,0.20778054,-0.028608996,-0.0072539391,0.0093586355,0.24064050,-0.012350188,-0.077612839
17,0.062019263,0.22130973,-0.031653432,-0.0068810930,0.0090686837,0.25557722,-0.012961211,-0.082254855
18,0.067555333,0.23492172,-0.034811646,-0.0064348496,0.0086318456,0.27040507,-0.013576493,-0.086831261
19,0.073272513,0.24861872,-0.038074862,-0.0059184259,0.0080389282,0.28510745,-0.014198455,-0.091334377
20,0.079161426,0.26240263,-0.041433730,-0.0053348530,0.0072804322,0.29966780,-0.014829166,-0.095756409
21,0.085211765,0.27627502,-0.044878349,-0.0046869699,0.0063465783,0.31406965,-0.015470328,-0.10008946
22,0.091412310,0.29023712,-0.048398294,-0.0039774185,0.0052273343,0.32829669,-0.016123271,-0.10432557
23,0.097750950,0.30428978,-0.051982640,-0.0032086383,0.0039124433,0.34233273,-0.016788940,-0.10845669
24,0.10421471,0.31843347,-0.055619994,-0.0023828619,0.0023914530,0.35616183,-0.017467892,-0.11247474
25,0.11078977,0.33266824,-0.059298521,-0.0015021111,0.00065374503,0.36976830,-0.018160286,-0.11637161
26,0.11746150,0.34699373,-0.063005975,-0.00056819279,-0.0013114337,0.38313671,-0.018865878,-0.12013916
27,0.12421450,0.36140911,-0.066729730,0.00041730430,-0.0035149402,0.39625198,-0.019584015,-0.12376926
28,0.13103263,0.37591313,-0.070456814,0.0014530122,-0.0059677029,0.40909939,-0.020313634,-0.12725380
29,0.13789902,0.39050402,-0.074173935,0.0025377865,-0.0086806896,0.42166462,-0.021053253,-0.13058471
30,0.14479614,0.40517958,-0.077867524,0.0036707078,-0.011664874,0.43393379,-0.021800976,-0.13375396
31,0.15170585,0.41993707,-0.081523759,0.0048510836,-0.014931204,0.44589347,-0.022554489,-0.13675357
32,0.15860940,0.43477328,-0.085128605,0.0060784494,-0.018490565,0.45753077,-0.023311056,-0.13957568
33,0.16548751,0.44968446,-0.088667847,0.0073525688,-0.022353750,0.46883330,-0.024067526,-0.14221248
34,0.17232039,0.46466637,-0.092127125,0.0086734340,-0.026531423,0.47978928,-0.024820334,-0.14465630
35,0.17908783,0.47971424,-0.095491968,0.010041265,-0.031034086,0.49038749,-0.025565501,-0.14689958
36,0.18576918,0.49482277,-0.098747829,0.011456510,-0.035872048,0.50061736,-0.026298640,-0.14893491
37,0.19234348,0.50998614,-0.10188013,0.012919843,-0.041055387,0.51046896,-0.027014961,-0.15075501
38,0.19878946,0.52519801,-0.10487426,0.014432160,-0.046593920,0.51993306,-0.027709280,-0.15235278
39,0.20508559,0.54045152,-0.10771569,0.015994583,-0.052497169,0.52900111,-0.028376019,-0.15372129
40,0.21121018,0.55573928,-0.11038990,0.017608450,-0.058774330,0.53766530,-0.029009224,-0.15485381
41,0.21714137,0.57105341,-0.11288251,0.019275316,-0.065434239,0.54591855,-0.029602567,-0.15574377
42,0.22285726,0.58638551,-0.11517925,0.020996950,-0.072485344,0.55375456,-0.030149360,-0.15638486
43,0.22833588,0.60172670,-0.11726604,0.022775328,-0.079935673,0.56116781,-0.030642562,-0.15677096
44,0.23355534,0.61706761,-0.11912897,0.024612630,-0.087792803,0.56815355,-0.031074799,-0.15689618
45,0.23849380,0.63239840,-0.12075439,0.026511238,-0.096063834,0.57470786,-0.031438370,-0.15675489
46,0.24312960,0.64770877,-0.12212890,0.028473725,-0.10475536,0.58082763,-0.031725266,-0.15634167
47,0.24744126,0.66298800,-0.12323940,0.030502853,-0.11387345,0.58651057,-0.031927180,-0.15565140
48,0.25140755,0.67822492,-0.12407311,0.032601567,-0.12342360,0.59175523,-0.032035530,-0.15467918
49,0.25500760,0.69340798,-0.12461762,0.034772987,-0.13341073,0.59656098,-0.032041469,-0.15342040
50,0.25822086,0.70852523,-0.12486089,0.037020404,-0.14383917,0.60092804,-0.031935907,-0.15187072
51,0.26102724,0.72356437,-0.12479129,0.039347267,-0.15471260,0.60485747,-0.031709529,-0.15002609
52,0.26340711,0.73851276,-0.12439763,0.041757183,-0.16603407,0.60835114,-0.031352810,-0.14788272
53,0.26534141,0.75335744,-0.12366917,0.044253902,-0.17780596,0.61141177,-0.030856043,-0.14543714
54,0.26681162,0.76808516,-0.12259567,0.046841315,-0.19002997,0.61404289,-0.030209350,-0.14268614
55,0.26779989,0.78268244,-0.12116739,0.049523441,-0.20270709,0.61624886,-0.029402710,-0.13962683
56,0.26828905,0.79713552,-0.11937511,0.052304421,-0.21583762,0.61803482,-0.028425979,-0.13625660
57,0.26826266,0.81143046,-0.11721016,0.055188506,-0.22942110,0.61940672,-0.027268911,-0.13257314
58,0.26770508,0.82555315,-0.11466444,0.058180052,-0.24345639,0.62037126,-0.025921180,-0.12857445
59,0.26660148,0.83948933,-0.11173043,0.061283507,-0.25794154,0.62093592,-0.024372409,-0.12425881
60,0.26493792,0.85322463,-0.10840119,0.064503401,-0.27287390,0.62110889,-0.022612183,-0.11962482
61,0.26270135,0.86674460,-0.10467042,0.067844339,-0.28825003,0.62089911,-0.020630084,-0.11467136
62,0.25987970,0.88003473,-0.10053242,0.071310990,-0.30406576,0.62031618,-0.018415708,-0.10939762
63,0.25646186,0.89308052,-0.095982121,0.074908073,-0.32031613,0.61937037,-0.015958692,-0.10380307
64,0.25243778,0.90586749,-0.091015111,0.078640353,-0.33699544,0.61807262,-0.013248737,-0.097887479
65,0.24779844,0.91838119,-0.085627615,0.082512625,-0.35409720,0.61643446,-0.010275634,-0.091650911
66,0.24253590,0.93060728,-0.079816516,0.086529706,-0.37161420,0.61446799,-0.0070292888,-0.085093706
67,0.23664337,0.94253154,-0.073579355,0.090696424,-0.38953845,0.61218589,-0.0034997451,-0.078216485
68,0.23011518,0.95413991,-0.066914336,0.095017607,-0.40786123,0.60960133,0.00032278949,-0.071020151
69,0.22294680,0.96541853,-0.059820324,0.099498071,-0.42657309,0.60672799,0.0044479195,-0.063505872
70,0.21513491,0.97635375,-0.052296845,0.10414261,-0.44566385,0.60357996,0.0088850373,-0.055675086
71,0.20667739,0.98693220,-0.044344087,0.10895599,-0.46512260,0.60017178,0.013643299,-0.047529492
72,0.19757330,0.99714080,-0.035962892,0.11394293,-0.48493778,0.59651834,0.018731600,-0.039071041
73,0.18782296,1.0069668,-0.027154754,0.11910809,-0.50509710,0.59263487,0.024158554,-0.030301934
74,0.17742788,1.0163978,-0.017921809,0.12445608,-0.52558764,0.58853687,0.029932466,-0.021224611
75,0.16639085,1.0254219,-0.0082668311,0.12999141,-0.54639583,0.58424014,0.036061312,-0.011841749
76,0.15471586,1.0340274,0.0018067796,0.13571853,-0.56750747,0.57976064,0.042552718,-0.0021562502
77,0.14240816,1.0422033,0.012295008,0.14164178,-0.58890779,0.57511453,0.049413936,0.0078287617
78,0.12947421,1.0499390,0.023193237,0.14776539,-0.61058139,0.57031808,0.056651824,0.018109952
79,0.11592170,1.0572243,0.034496258,0.15409349,-0.63251239,0.56538766,0.064272827,0.028683781
80,0.10175956,1.0640497,0.046198289,0.16063006,-0.65468433,0.56033967,0.072282954,0.039546513
81,0.086997897,1.0704063,0.058292991,0.16737895,-0.67708029,0.55519049,0.080687764,0.050694223
82,0.071648006,1.0762857,0.070773480,0.17434389,-0.69968288,0.54995649,0.089492343,0.062122806
83,0.055722358,1.0816801,0.083632354,0.18152841,-0.72247426,0.54465391,0.098701291,0.073827985
84,0.039234566,1.0865824,0.096861703,0.18893591,-0.74543622,0.53929890,0.10831870,0.085805317
85,0.022199367,1.0909863,0.11045314,0.19656959,-0.76855015,0.53390739,0.11834815,0.098050206
86,0.0046325892,1.0948859,0.12439780,0.20443250,-0.79179713,0.52849513,0.12879268,0.11055790
87,-0.013448870,1.0982762,0.13868641,0.21252747,-0.81515791,0.52307759,0.13965478,0.12332353
88,-0.032027084,1.1011529,0.15330924,0.22085715,-0.83861301,0.51766994,0.15093639,0.13634206
89,-0.051083124,1.1035125,0.16825621,0.22942396,-0.86214270,0.51228702,0.16263886,0.14960835
90,-0.070597106,1.1053521,0.18351683,0.23823014,-0.88572706,0.50694328,0.17476298,0.16311716
91,-0.090548220,1.1066698,0.19908029,0.24727768,-0.90934602,0.50165276,0.18730894,0.17686310
92,-0.11091478,1.1074641,0.21493545,0.25656835,-0.93297939,0.49642905,0.20027632,0.19084071
93,-0.13167426,1.1077347,0.23107089,0.26610370,-0.95660690,0.49128523,0.21366411,0.20504444
94,-0.15280335,1.1074819,0.24747492,0.27588502,-0.98020824,0.48623387,0.22747068,0.21946862
95,-0.17427800,1.1067067,0.26413559,0.28591337,-1.0037631,0.48128698,0.24169379,0.23410753
96,-0.19607346,1.1054111,0.28104076,0.29618955,-1.0272512,0.47645596,0.25633058,0.24895537
97,-0.21816435,1.1035978,0.29817809,0.30671411,-1.0506523,0.47175162,0.27137755,0.26400626
98,-0.24052469,1.1012702,0.31553509,0.31748734,-1.0739464,0.46718409,0.28683061,0.27925428
99,-0.26312798,1.0984327,0.33309910,0.32850926,-1.0971134,0.46276284,0.30268502,0.29469342
100,-0.28594724,1.0950903,0.35085741,0.33977962,-1.1201337,0.45849664,0.31893543,0.31031766
101,-0.30895505,1.0912490,0.36879718,0.35129791,-1.1429877,0.45439352,0.33557587,0.32612090
102,-0.33212366,1.0869153,0.38690554,0.36306334,-1.1656560,0.45046077,0.35259977,0.34209701
103,-0.35542499,1.0820967,0.40516958,0.37507485,-1.1881199,0.44670493,0.36999993,0.35823985
104,-0.37883073,1.0768013,0.42357639,0.38733109,-1.2103605,0.44313173,0.38776856,0.37454319
105,-0.40231237,1.0710381,0.44211308,0.39983044,-1.2323596,0.43974613,0.40589727,0.39100083
106,-0.42584129,1.0648166,0.46076680,0.41257100,-1.2540993,0.43655224,0.42437709,0.40760652
107,-0.44938879,1.0581471,0.47952477,0.42555058,-1.2755622,0.43355337,0.44319848,0.42435396
108,-0.47292618,1.0510407,0.49837432,0.43876672,-1.2967313,0.43075202,0.46235131,0.44123689
109,-0.49642482,1.0435089,0.51730286,0.45221666,-1.3175900,0.42814982,0.48182494,0.45824897
110,-0.51985619,1.0355641,0.53629798,0.46589738,-1.3381224,0.42574756,0.50160814,0.47538388
111,-0.54319194,1.0272192,0.55534738,0.47980558,-1.3583132,0.42354520,0.52168920,0.49263529
112,-0.56640396,1.0184877,0.57443897,0.49393766,-1.3781473,0.42154185,0.54205588,0.50999682
113,-0.58946445,1.0093835,0.59356084,0.50828976,-1.3976106,0.41973578,0.56269545,0.52746212
114,-0.61234592,0.99992129,0.61270130,0.52285774,-1.4166894,0.41812443,0.58359471,0.54502481
115,-0.63502134,0.99011605,0.63184890,0.53763720,-1.4353709,0.41670439,0.60473999,0.56267849
116,-0.65746412,0.97998333,0.65099242,0.55262346,-1.4536426,0.41547144,0.62611719,0.58041675
117,-0.67964820,0.96953906,0.67012091,0.56781156,-1.4714930,0.41442058,0.64771181,0.59823319
118,-0.70154808,0.95879958,0.68922369,0.58319631,-1.4889111,0.41354597,0.66950893,0.61612136
119,-0.72313889,0.94778158,0.70829037,0.59877225,-1.5058868,0.41284101,0.69149326,0.63407482
120,-0.74439646,0.93650210,0.72731088,0.61453366,-1.5224106,0.41229835,0.71364916,0.65208712
121,-0.76529732,0.92497842,0.74627543,0.63047456,-1.5384737,0.41190988,0.73596067,0.67015178
122,-0.78581877,0.91322810,0.76517455,0.64658877,-1.5540683,0.41166678,0.75841151,0.68826230
123,-0.80593894,0.90126889,0.78399914,0.66286982,-1.5691872,0.41155955,0.78098513,0.70641217
124,-0.82563682,0.88911872,0.80274037,0.67931105,-1.5838239,0.41157798,0.80366471,0.72459484
125,-0.84489228,0.87679564,0.82138980,0.69590555,-1.5979728,0.41171127,0.82643322,0.74280375
126,-0.86368614,0.86431778,0.83993931,0.71264619,-1.6116290,0.41194797,0.84927340,0.76103231
127,-0.88200020,0.85170334,0.85838112,0.72952565,-1.6247885,0.41227607,0.87216783,0.77927391
128,-0.89981725,0.83897051,0.87670782,0.74653638,-1.6374480,0.41268299,0.89509892,0.79752187
129,-0.91712113,0.82613744,0.89491233,0.76367065,-1.6496050,0.41315566,0.91804898,0.81576952
130,-0.93389674,0.81322222,0.91298792,0.78092051,-1.6612577,0.41368052,0.94100018,0.83401013
131,-0.95013007,0.80024281,0.93092820,0.79827785,-1.6724051,0.41424357,0.96393465,0.85223693
132,-0.96580823,0.78721704,0.94872714,0.81573439,-1.6830471,0.41483041,0.98683446,0.87044311
133,-0.98091945,0.77416250,0.96637904,0.83328166,-1.6931842,0.41542628,1.0096817,0.88862180
134,-0.99545312,0.76109659,0.98387852,0.85091105,-1.7028176,0.41601608,1.0324583,0.90676609
135,-1.0093998,0.74803640,1.0012205,0.86861377,-1.7119495,0.41658446,1.0551465,0.92486904
136,-1.0227512,0.73499874,1.0184003,0.88638093,-1.7205824,0.41711579,1.0777284,0.94292361
137,-1.0355002,0.72200004,1.0354136,0.90420346,-1.7287199,0.41759428,1.1001863,0.96092275
138,-1.0476410,0.70905636,1.0522560,0.92207220,-1.7363659,0.41800397,1.1225025,0.97885931
139,-1.0591688,0.69618333,1.0689239,0.93997785,-1.7435253,0.41832878,1.1446594,0.99672610
140,-1.0700802,0.68339613,1.0854138,0.95791102,-1.7502035,0.41855260,1.1666399,1.0145159
141,-1.0803727,0.67070944,1.1017222,0.97586220,-1.7564064,0.41865926,1.1884266,1.0322213
142,-1.0900453,0.65813742,1.1178461,0.99382181,-1.7621406,0.41863264,1.2100027,1.0498349
143,-1.0990980,0.64569368,1.1337829,1.0117802,-1.7674134,0.41845668,1.2313515,1.0673494
144,-1.1075319,0.63339124,1.1495298,1.0297276,-1.7722324,0.41811544,1.2524566,1.0847572
145,-1.1153495,0.62124252,1.1650846,1.0476542,-1.7766058,0.41759312,1.2733017,1.1020506
146,-1.1225542,0.60925928,1.1804451,1.0655502,-1.7805423,0.41687416,1.2938712,1.1192220
147,-1.1291505,0.59745263,1.1956092,1.0834056,-1.7840511,0.41594320,1.3141493,1.1362636
148,-1.1351441,0.58583299,1.2105752,1.1012106,-1.7871418,0.41478520,1.3341211,1.1531677
149,-1.1405419,0.57441008,1.2253414,1.1189552,-1.7898243,0.41338544,1.3537716,1.1699264
150,-1.1453514,0.56319287,1.2399061,1.1366294,-1.7921090,0.41172958,1.3730865,1.1865317
151,-1.1495815,0.55218960,1.2542680,1.1542231,-1.7940066,0.40980368,1.3920518,1.2029756
152,-1.1532419,0.54140776,1.2684257,1.1717266,-1.7955279,0.40759426,1.4106539,1.2192500
153,-1.1563433,0.53085402,1.2823780,1.1891297,-1.7966844,0.40508835,1.4288797,1.2353467
154,-1.1588972,0.52053430,1.2961235,1.2064225,-1.7974873,0.40227348,1.4467165,1.2512576
155,-1.1609161,0.51045370,1.3096610,1.2235952,-1.7979485,0.39913775,1.4641521,1.2669744
156,-1.1624133,0.50061653,1.3229896,1.2406378,-1.7980796,0.39566988,1.4811748,1.2824888
157,-1.1634027,0.49102628,1.3361078,1.2575404,-1.7978927,0.39185921,1.4977733,1.2977923
158,-1.1638992,0.48168560,1.3490146,1.2742934,-1.7973998,0.38769573,1.5139370,1.3128766
159,-1.1639181,0.47259634,1.3617088,1.2908870,-1.7966130,0.38317015,1.5296556,1.3277333
160,-1.1634755,0.46375954,1.3741890,1.3073115,-1.7955445,0.37827388,1.5449195,1.3423538
161,-1.1625882,0.45517540,1.3864540,1.3235574,-1.7942064,0.37299910,1.5597195,1.3567295
162,-1.1612733,0.44684333,1.3985024,1.3396152,-1.7926107,0.36733875,1.5740470,1.3708521
163,-1.1595486,0.43876191,1.4103326,1.3554754,-1.7907696,0.36128655,1.5878941,1.3847128
164,-1.1574322,0.43092893,1.4219430,1.3711289,-1.7886948,0.35483708,1.6012532,1.3983031
165,-1.1549426,0.42334140,1.4333320,1.3865665,-1.7863981,0.34798571,1.6141175,1.4116145
166,-1.1520987,0.41599554,1.4444975,1.4017790,-1.7838913,0.34072868,1.6264804,1.4246384
167,-1.1489197,0.40888682,1.4554376,1.4167575,-1.7811856,0.33306310,1.6383364,1.4373662
168,-1.1454249,0.40200997,1.4661502,1.4314933,-1.7782922,0.32498694,1.6496801,1.4497894
169,-1.1416339,0.39535897,1.4766328,1.4459777,-1.7752221,0.31649907,1.6605068,1.4618995
170,-1.1375664,0.38892712,1.4868828,1.4602021,-1.7719859,0.30759925,1.6708125,1.4736881
171,-1.1332420,0.38270701,1.4968977,1.4741582,-1.7685939,0.29828814,1.6805937,1.4851467
172,-1.1286806,0.37669061,1.5066744,1.4878377,-1.7650561,0.28856731,1.6898473,1.4962671
173,-1.1239018,0.37086920,1.5162098,1.5012326,-1.7613821,0.27843921,1.6985709,1.5070410
174,-1.1189252,0.36523348,1.5255005,1.5143350,-1.7575812,0.26790721,1.7067626,1.5174601
175,-1.1137703,0.35977359,1.5345431,1.5271371,-1.7536622,0.25697558,1.7144211,1.5275165
176,-1.1084565,0.35447908,1.5433336,1.5396315,-1.7496335,0.24564947,1.7215457,1.5372021
177,-1.1030026,0.34933901,1.5518681,1.5518108,-1.7455032,0.23393491,1.7281359,1.5465092
178,-1.0974274,0.34434194,1.5601424,1.5636678,-1.7412786,0.22183883,1.7341921,1.5554300
179,-1.0917493,0.33947598,1.5681520,1.5751955,-1.7369669,0.20936899,1.7397149,1.5639569
180,-1.0859862,0.33472882,1.5758921,1.5863872,-1.7325746,0.19653400,1.7447058,1.5720826
181,-1.0801559,0.33008779,1.5833580,1.5972362,-1.7281077,0.18334331,1.7491662,1.5797998
182,-1.0742752,0.32553985,1.5905445,1.6077362,-1.7235719,0.16980717,1.7530986,1.5871014
183,-1.0683608,0.32107166,1.5974463,1.6178810,-1.7189720,0.15593661,1.7565055,1.5939807
184,-1.0624286,0.31666963,1.6040578,1.6276647,-1.7143126,0.14174345,1.7593900,1.6004310
185,-1.0564941,0.31231992,1.6103732,1.6370815,-1.7095976,0.12724022,1.7617558,1.6064458
186,-1.0505720,0.30800853,1.6163867,1.6461258,-1.7048304,0.11244018,1.7636066,1.6120191
187,-1.0446764,0.30372127,1.6220922,1.6547925,-1.7000140,0.097357265,1.7649470,1.6171447
188,-1.0388207,0.29944389,1.6274832,1.6630764,-1.6951505,0.082006072,1.7657817,1.6218172
189,-1.0330176,0.29516206,1.6325535,1.6709727,-1.6902419,0.066401813,1.7661158,1.6260311
190,-1.0272789,0.29086140,1.6372963,1.6784767,-1.6852893,0.050560292,1.7659548,1.6297813
191,-1.0216158,0.28652757,1.6417050,1.6855840,-1.6802934,0.034497866,1.7653045,1.6330630
192,-1.0160387,0.28214631,1.6457727,1.6922906,-1.6752544,0.018231408,1.7641710,1.6358717
193,-1.0105569,0.27770341,1.6494924,1.6985924,-1.6701720,0.0017782717,1.7625609,1.6382033
194,-1.0051792,0.27318484,1.6528571,1.7044858,-1.6650453,-0.014843747,1.7604808,1.6400539
195,-0.99991336,0.26857674,1.6558597,1.7099674,-1.6598730,-0.031616452,1.7579377,1.6414200
196,-0.99476631,0.26386546,1.6584930,1.7150339,-1.6546531,-0.048521283,1.7549389,1.6422986
197,-0.98974411,0.25903761,1.6607498,1.7196824,-1.6493834,-0.065539363,1.7514920,1.6426869
198,-0.98485191,0.25408013,1.6626228,1.7239102,-1.6440610,-0.082651536,1.7476045,1.6425824
199,-0.98009399,0.24898025,1.6641050,1.7277148,-1.6386827,-0.099838409,1.7432845,1.6419834
200,-0.97547375,0.24372560,1.6651890,1.7310939,-1.6332449,-0.11708040,1.7385399,1.6408880
201,-0.97099368,0.23830423,1.6658678,1.7340455,-1.6277435,-0.13435778,1.7333792,1.6392953
202,-0.96665538,0.23270460,1.6661343,1.7365680,-1.6221739,-0.15165070,1.7278105,1.6372044
203,-0.96245959,0.22691567,1.6659815,1.7386598,-1.6165315,-0.16893928,1.7218426,1.6346150
204,-0.95840617,0.22092692,1.6654026,1.7403197,-1.6108109,-0.18620359,1.7154840,1.6315272
205,-0.95449410,0.21472835,1.6643910,1.7415467,-1.6050067,-0.20342376,1.7087434,1.6279415
206,-0.95072155,0.20831053,1.6629400,1.7423399,-1.5991130,-0.22057996,1.7016297,1.6238591
207,-0.94708583,0.20166466,1.6610434,1.7426989,-1.5931239,-0.23765250,1.6941517,1.6192811
208,-0.94358345,0.19478253,1.6586949,1.7426235,-1.5870330,-0.25462183,1.6863184,1.6142097
209,-0.94021012,0.18765660,1.6558888,1.7421135,-1.5808338,-0.27146861,1.6781387,1.6086470
210,-0.93696080,0.18028000,1.6526194,1.7411692,-1.5745194,-0.28817374,1.6696216,1.6025960
211,-0.93382970,0.17264656,1.6488813,1.7397911,-1.5680832,-0.30471840,1.6607760,1.5960598
212,-0.93081030,0.16475083,1.6446696,1.7379799,-1.5615179,-0.32108409,1.6516110,1.5890423
213,-0.92789541,0.15658809,1.6399795,1.7357365,-1.5548166,-0.33725269,1.6421354,1.5815476
214,-0.92507718,0.14815435,1.6348067,1.7330621,-1.5479719,-0.35320646,1.6323581,1.5735803
215,-0.92234714,0.13944643,1.6291473,1.7299582,-1.5409766,-0.36892812,1.6222881,1.5651457
216,-0.91969624,0.13046188,1.6229977,1.7264264,-1.5338236,-0.38440083,1.6119340,1.5562492
217,-0.91711486,0.12119906,1.6163547,1.7224686,-1.5265054,-0.39960830,1.6013047,1.5468971
218,-0.91459290,0.11165714,1.6092158,1.7180869,-1.5190149,-0.41453475,1.5904087,1.5370956
219,-0.91211977,0.10183606,1.6015786,1.7132838,-1.5113449,-0.42916498,1.5792546,1.5268519
220,-0.90968443,0.091736586,1.5934415,1.7080618,-1.5034885,-0.44348442,1.5678508,1.5161733
221,-0.90727548,0.081360286,1.5848032,1.7024238,-1.4954386,-0.45747909,1.5562058,1.5050677
222,-0.90488115,0.070709538,1.5756630,1.6963728,-1.4871886,-0.47113569,1.5443276,1.4935433
223,-0.90248939,0.059787524,1.5660208,1.6899122,-1.4787318,-0.48444160,1.5322244,1.4816089
224,-0.90008787,0.048598229,1.5558770,1.6830455,-1.4700620,-0.49738492,1.5199042,1.4692736
225,-0.89766405,0.037146433,1.5452326,1.6757764,-1.4611729,-0.50995445,1.5073748,1.4565469
226,-0.89520523,0.025437705,1.5340890,1.6681089,-1.4520589,-0.52213975,1.4946439,1.4434387
227,-0.89269857,0.013478390,1.5224484,1.6600471,-1.4427142,-0.53393116,1.4817190,1.4299594
228,-0.89013116,0.0012756002,1.5103137,1.6515956,-1.4331337,-0.54531976,1.4686076,1.4161197
229,-0.88749008,-0.011162802,1.4976881,1.6427588,-1.4233126,-0.55629745,1.4553170,1.4019307
230,-0.88476239,-0.023828218,1.4845757,1.6335417,-1.4132462,-0.56685694,1.4418542,1.3874037
231,-0.88193524,-0.036711330,1.4709812,1.6239492,-1.4029304,-0.57699172,1.4282262,1.3725505
232,-0.87899587,-0.049802125,1.4569098,1.6139867,-1.3923616,-0.58669612,1.4144397,1.3573832
233,-0.87593167,-0.063089908,1.4423674,1.6036596,-1.3815364,-0.59596529,1.4005016,1.3419141
234,-0.87273024,-0.076563335,1.4273606,1.5929734,-1.3704520,-0.60479519,1.3864182,1.3261560
235,-0.86937941,-0.090210428,1.4118968,1.5819342,-1.3591060,-0.61318264,1.3721959,1.3101218
236,-0.86586730,-0.10401861,1.3959836,1.5705478,-1.3474964,-0.62112523,1.3578409,1.2938246
237,-0.86218235,-0.11797472,1.3796298,1.5588206,-1.3356219,-0.62862142,1.3433592,1.2772780
238,-0.85831336,-0.13206505,1.3628444,1.5467590,-1.3234816,-0.63567045,1.3287568,1.2604955
239,-0.85424955,-0.14627539,1.3456374,1.5343695,-1.3110751,-0.64227238,1.3140395,1.2434911
240,-0.84998058,-0.16059104,1.3280191,1.5216590,-1.2984024,-0.64842805,1.2992128,1.2262788
241,-0.84549658,-0.17499683,1.3100006,1.5086343,-1.2854643,-0.65413911,1.2842823,1.2088729
242,-0.84078821,-0.18947718,1.2915937,1.4953027,-1.2722620,-0.65940794,1.2692533,1.1912876
243,-0.83584668,-0.20401614,1.2728107,1.4816715,-1.2587973,-0.66423770,1.2541311,1.1735374
244,-0.83066376,-0.21859740,1.2536645,1.4677480,-1.2450725,-0.66863227,1.2389209,1.1556370
245,-0.82523186,-0.23320434,1.2341686,1.4535400,-1.2310903,-0.67259626,1.2236275,1.1376009
246,-0.81954403,-0.24782006,1.2143371,1.4390551,-1.2168544,-0.67613494,1.2082561,1.1194440
247,-0.81359396,-0.26242743,1.1941846,1.4243014,-1.2023686,-0.67925427,1.1928113,1.1011809
248,-0.80737605,-0.27700913,1.1737263,1.4092868,-1.1876375,-0.68196087,1.1772979,1.0828265
249,-0.80088543,-0.29154766,1.1529778,1.3940197,-1.1726662,-0.68426194,1.1617205,1.0643954
250,-0.79411793,-0.30602541,1.1319553,1.3785083,-1.1574603,-0.68616529,1.1460837,1.0459025
251,-0.78707014,-0.32042469,1.1106754,1.3627611,-1.1420259,-0.68767930,1.1303920,1.0273624
252,-0.77973944,-0.33472776,1.0891552,1.3467867,-1.1263697,-0.68881285,1.1146499,1.0087897
253,-0.77212396,-0.34891690,1.0674123,1.3305939,-1.1104990,-0.68957534,1.0988616,0.99019905
254,-0.76422264,-0.36297440,1.0454644,1.3141915,-1.0944214,-0.68997664,1.0830315,0.97160472
255,-0.75603519,-0.37688264,1.0233299,1.2975884,-1.0781451,-0.69002702,1.0671639,0.95302103
256,-0.74756216,-0.39062410,1.0010274,1.2807937,-1.0616789,-0.68973718,1.0512629,0.93446209
257,-0.73880488,-0.40418143,0.97857581,1.2638164,-1.0450318,-0.68911817,1.0353329,0.91594183
258,-0.72976550,-0.41753745,0.95599427,1.2466660,-1.0282134,-0.68818135,1.0193781,0.89747400
259,-0.72044696,-0.43067524,0.93330226,1.2293516,-1.0112337,-0.68693838,1.0034025,0.87907210
260,-0.71085303,-0.44357812,0.91051943,1.2118826,-0.99410309,-0.68540116,0.98741033,0.86074940
261,-0.70098824,-0.45622970,0.88766562,1.1942686,-0.97683240,-0.68358183,0.97140582,0.84251893
262,-0.69085794,-0.46861395,0.86476082,1.1765190,-0.95943276,-0.68149266,0.95539311,0.82439341
263,-0.68046823,-0.48071519,0.84182514,1.1586435,-0.94191566,-0.67914609,0.93937638,0.80638528
264,-0.66982598,-0.49251816,0.81887877,1.1406516,-0.92429290,-0.67655465,0.92335983,0.78850666
265,-0.65893881,-0.50400802,0.79594192,1.1225531,-0.90657657,-0.67373091,0.90734769,0.77076934
266,-0.64781505,-0.51517038,0.77303485,1.1043576,-0.88877902,-0.67068749,0.89134419,0.75318477
267,-0.63646375,-0.52599137,0.75017776,1.0860750,-0.87091285,-0.66743697,0.87535362,0.73576399
268,-0.62489463,-0.53645764,0.72739080,1.0677150,-0.85299087,-0.66399189,0.85938029,0.71851772
269,-0.61311810,-0.54655636,0.70469402,1.0492874,-0.83502604,-0.66036469,0.84342856,0.70145624
270,-0.60114515,-0.55627530,0.68210734,1.0308019,-0.81703152,-0.65656769,0.82750283,0.68458942
271,-0.58898742,-0.56560281,0.65965049,1.0122684,-0.79902056,-0.65261304,0.81160754,0.66792674
272,-0.57665710,-0.57452787,0.63734301,0.99369663,-0.78100652,-0.64851269,0.79574717,0.65147721
273,-0.56416691,-0.58304008,0.61520419,0.97509638,-0.76300282,-0.64427838,0.77992628,0.63524941
274,-0.55153010,-0.59112971,0.59325304,0.95647739,-0.74502293,-0.63992154,0.76414945,0.61925144
275,-0.53876037,-0.59878771,0.57150825,0.93784937,-0.72708031,-0.63545335,0.74842132,0.60349097
276,-0.52587186,-0.60600571,0.54998816,0.91922199,-0.70918839,-0.63088464,0.73274660,0.58797516
277,-0.51287910,-0.61277603,0.52871074,0.90060490,-0.69136058,-0.62622587,0.71713003,0.57271069
278,-0.49979699,-0.61909172,0.50769352,0.88200764,-0.67361017,-0.62148714,0.70157642,0.55770376
279,-0.48664073,-0.62494654,0.48695361,0.86343974,-0.65595035,-0.61667812,0.68609061,0.54296007
280,-0.47342578,-0.63033500,0.46650761,0.84491064,-0.63839418,-0.61180805,0.67067751,0.52848480
281,-0.46016785,-0.63525232,0.44637161,0.82642968,-0.62095453,-0.60688570,0.65534207,0.51428265
282,-0.44688283,-0.63969448,0.42656117,0.80800616,-0.60364408,-0.60191936,0.64008928,0.50035779
283,-0.43358675,-0.64365819,0.40709128,0.78964923,-0.58647529,-0.59691681,0.62492416,0.48671388
284,-0.42029574,-0.64714091,0.38797631,0.77136797,-0.56946036,-0.59188533,0.60985180,0.47335408
285,-0.40702597,-0.65014084,0.36923001,0.75317135,-0.55261119,-0.58683162,0.59487728,0.46028102
286,-0.39379363,-0.65265690,0.35086549,0.73506822,-0.53593941,-0.58176186,0.58000575,0.44749684
287,-0.38061487,-0.65468878,0.33289517,0.71706729,-0.51945629,-0.57668163,0.56524235,0.43500315
288,-0.36750575,-0.65623685,0.31533078,0.69917714,-0.50317276,-0.57159596,0.55059224,0.42280107
289,-0.35448220,-0.65730223,0.29818332,0.68140622,-0.48709936,-0.56650926,0.53606062,0.41089119
290,-0.34155999,-0.65788673,0.28146306,0.66376281,-0.47124624,-0.56142536,0.52165266,0.39927364
291,-0.32875465,-0.65799284,0.26517949,0.64625507,-0.45562312,-0.55634748,0.50737354,0.38794804
292,-0.31608147,-0.65762376,0.24934136,0.62889095,-0.44023929,-0.55127824,0.49322842,0.37691352
293,-0.30355542,-0.65678333,0.23395660,0.61167826,-0.42510357,-0.54621964,0.47922247,0.36616874
294,-0.29119112,-0.65547604,0.21903235,0.59462462,-0.41022431,-0.54117307,0.46536079,0.35571189
295,-0.27900283,-0.65370700,0.20457493,0.57773748,-0.39560937,-0.53613933,0.45164848,0.34554071
296,-0.26700433,-0.65148195,0.19058985,0.56102407,-0.38126610,-0.53111860,0.43809057,0.33565249
297,-0.25520898,-0.64880719,0.17708177,0.54449144,-0.36720133,-0.52611047,0.42469206,0.32604409
298,-0.24362961,-0.64568959,0.16405451,0.52814644,-0.35342136,-0.52111394,0.41145788,0.31671192
299,-0.23227850,-0.64213656,0.15151106,0.51199570,-0.33993194,-0.51612743,0.39839287,0.30765202
300,-0.22116738,-0.63815603,0.13945357,0.49604564,-0.32673830,-0.51114880,0.38550181,0.29886000
301,-0.21030733,-0.63375641,0.12788332,0.48030245,-0.31384507,-0.50617536,0.37278938,0.29033112
302,-0.19970883,-0.62894657,0.11680076,0.46477210,-0.30125635,-0.50120387,0.36026015,0.28206024
303,-0.18938166,-0.62373580,0.10620551,0.44946032,-0.28897567,-0.49623057,0.34791860,0.27404190
304,-0.17933490,-0.61813381,0.096096335,0.43437260,-0.27700597,-0.49125121,0.33576907,0.26627029
305,-0.16957691,-0.61215067,0.086471176,0.41951421,-0.26534966,-0.48626106,0.32381578,0.25873929
306,-0.16011531,-0.60579679,0.077327156,0.40489015,-0.25400854,-0.48125491,0.31206278,0.25144249
307,-0.15095692,-0.59908291,0.068660586,0.39050517,-0.24298386,-0.47622714,0.30051402,0.24437318
308,-0.14210780,-0.59202002,0.060466980,0.37636378,-0.23227633,-0.47117171,0.28917323,0.23752441
309,-0.13357319,-0.58461938,0.052741068,0.36247022,-0.22188607,-0.46608220,0.27804402,0.23088899
310,-0.12535750,-0.57689245,0.045476811,0.34882848,-0.21181267,-0.46095181,0.26712978,0.22445948
311,-0.11746432,-0.56885087,0.038667420,0.33544227,-0.20205518,-0.45577345,0.25643373,0.21822827
312,-0.10989637,-0.56050645,0.032305376,0.32231506,-0.19261212,-0.45053970,0.24595890,0.21218756
313,-0.10265553,-0.55187109,0.026382447,0.30945001,-0.18348147,-0.44524290,0.23570808,0.20632939
314,-0.095742844,-0.54295679,0.020889716,0.29685005,-0.17466073,-0.43987513,0.22568387,0.20064565
315,-0.089158459,-0.53377560,0.015817601,0.28451783,-0.16614691,-0.43442828,0.21588864,0.19512812
316,-0.082901681,-0.52433958,0.011155880,0.27245571,-0.15793654,-0.42889408,0.20632453,0.18976848
317,-0.076970956,-0.51466079,0.0068937205,0.26066579,-0.15002567,-0.42326411,0.19699343,0.18455835
318,-0.071363873,-0.50475124,0.0030197067,0.24914990,-0.14240995,-0.41752985,0.18789699,0.17948927
319,-0.066077180,-0.49462287,-0.00047813195,0.23790958,-0.13508458,-0.41168273,0.17903661,0.17455276
320,-0.061106786,-0.48428750,-0.0036122892,0.22694612,-0.12804438,-0.40571412,0.17041344,0.16974032
321,-0.056447778,-0.47375684,-0.0063957506,0.21626051,-0.12128378,-0.39961543,0.16202833,0.16504348
322,-0.052094435,-0.46304241,-0.0088419602,0.20585351,-0.11479687,-0.39337808,0.15388191,0.16045376
323,-0.048040248,-0.45215557,-0.010964787,0.19572557,-0.10857741,-0.38699358,0.14597450,0.15596276
324,-0.044277932,-0.44110744,-0.012778491,0.18587689,-0.10261885,-0.38045356,0.13830616,0.15156215
325,-0.040799457,-0.42990889,-0.014297685,0.17630741,-0.096914352,-0.37374977,0.13087667,0.14724367
326,-0.037596069,-0.41857055,-0.015537302,0.16701680,-0.091456846,-0.36687418,0.12368553,0.14299919
327,-0.034658313,-0.40710274,-0.016512554,0.15800447,-0.086239026,-0.35981893,0.11673194,0.13882070
328,-0.031976067,-0.39551545,-0.017238899,0.14926958,-0.081253394,-0.35257644,0.11001485,0.13470034
329,-0.029538571,-0.38381838,-0.017732000,0.14081104,-0.076492279,-0.34513941,0.10353289,0.13063042
330,-0.027334459,-0.37202083,-0.018007686,0.13262751,-0.071947875,-0.33750085,0.097284424,0.12660343
331,-0.025351792,-0.36013174,-0.018081916,0.12471741,-0.067612264,-0.32965411,0.091267533,0.12261207
332,-0.023578098,-0.34815967,-0.017970737,0.11707891,-0.063477447,-0.32159293,0.085480014,0.11864923
333,-0.022000409,-0.33611276,-0.017690250,0.10970997,-0.059535374,-0.31331145,0.079919389,0.11470809
334,-0.020605297,-0.32399875,-0.017256564,0.10260832,-0.055777974,-0.30480426,0.074582903,0.11078202
335,-0.019378922,-0.31182492,-0.016685762,0.095771439,-0.052197185,-0.29606639,0.069467533,0.10686471
336,-0.018307069,-0.29959812,-0.015993863,0.089196636,-0.048784983,-0.28709337,0.064569988,0.10295009
337,-0.017375191,-0.28732475,-0.015196778,0.082880986,-0.045533411,-0.27788125,0.059886722,0.099032398
338,-0.016568461,-0.27501075,-0.014310278,0.076821375,-0.042434611,-0.26842663,0.055413932,0.095106187
339,-0.015871809,-0.26266158,-0.013349953,0.071014492,-0.039480849,-0.25872663,0.051147571,0.091166318
340,-0.015269975,-0.25028225,-0.012331175,0.065456844,-0.036664547,-0.24877899,0.047083354,0.087207982
341,-0.014747556,-0.23787729,-0.011269063,0.060144760,-0.033978312,-0.23858202,0.043216768,0.083226714
342,-0.014289049,-0.22545074,-0.010178445,0.055074402,-0.031414958,-0.22813468,0.039543078,0.079218395
343,-0.013878906,-0.21300618,-0.0090738242,0.050241771,-0.028967540,-0.21743652,0.036057340,0.075179264
344,-0.013501580,-0.20054672,-0.0079693467,0.045642718,-0.026629373,-0.20648776,0.032754411,0.071105928
345,-0.013141573,-0.18807501,-0.0068787650,0.041272951,-0.024394066,-0.19528927,0.029628961,0.066995366
346,-0.012783488,-0.17559322,-0.0058154077,0.037128047,-0.022255536,-0.18384258,0.026675484,0.062844933
347,-0.012412078,-0.16310307,-0.0047921484,0.033203457,-0.020208043,-0.17214990,0.023888309,0.058652371
348,-0.012012290,-0.15060584,-0.0038213754,0.029494521,-0.018246202,-0.16021412,0.021261618,0.054415807
349,-0.011569322,-0.13810238,-0.0029149638,0.025996472,-0.016365011,-0.14803880,0.018789456,0.050133761
350,-0.011068664,-0.12559309,-0.0020842477,0.022704452,-0.014559869,-0.13562820,0.016465743,0.045805146
351,-0.010496147,-0.11307800,-0.0013399946,0.019613518,-0.012826596,-0.12298725,0.014284297,0.041429270
352,-0.0098379947,-0.10055672,-0.00069238119,0.016718651,-0.011161450,-0.11012158,0.012238840,0.037005836
353,-0.0090808617,-0.088028465,-0.00015097002,0.014014772,-0.0095611427,-0.097037474,0.010323020,0.032534942
354,-0.0082118839,-0.075492120,0.00027531148,0.011496747,-0.0080228555,-0.083741906,0.0085304229,0.028017079
355,-0.0072187201,-0.062946207,0.00057819086,0.0091593995,-0.0065442534,-0.070242506,0.0068545925,0.023453132
356,-0.0060895946,-0.050388928,0.00075006868,0.0069975216,-0.0051234965,-0.056547555,0.0052890446,0.018844372
357,-0.0048133381,-0.037818181,0.00078403494,0.0050058833,-0.0037592505,-0.042665979,0.0038272848,0.014192457
358,-0.0033794274,-0.025231583,0.00067388372,0.0031792435,-0.0024506962,-0.028607328,0.0024628261,0.0094994235
359,-0.0017780230,-0.012626493,0.00041412613,0.0015123609,-0.0011975368,-0.014381764,0.0011892058,0.0047676824
360,-5.2125557e-09,-3.5243914e-08,1.3740191e-09,4.0067789e-09,-3.2614054e-09,-4.0313545e-08,3.2045477e-09,1.3342827e-08
