deg,XRT_AX,XRT_BX,XRT_AY,XRT_BY,SOT_AX,SOT_BX,SOT_AY,SOT_BY
valid,1,1,1,1,1,1,1,1,revB
offset,102.13123,90.407788,1985.7086,1980.8373,29.973113,18.278975,104.42967,99.040353
0,0.0000000,0.0000000,0.0000000,0.0000000,0.0000000,0.0000000,0.0000000,0.0000000
1,0.035623956,0.015484086,-0.025943272,0.013142542,0.080845749,0.034152164,-0.016578660,-0.0019750159
2,0.068488255,0.031064728,-0.049887997,0.026200825,0.16023008,0.068261874,-0.032769852,-0.0032379641
3,0.098682352,0.046747582,-0.071828954,0.039164006,0.23805816,0.10228135,-0.048578613,-0.0038163586
4,0.12630164,0.062539228,-0.091766357,0.052021516,0.31424025,0.13616405,-0.064010882,-0.0037385437
5,0.15144706,0.078447126,-0.10970581,0.064763067,0.38869176,0.16986476,-0.079073458,-0.0030336146
6,0.17422475,0.094479567,-0.12565822,0.077378665,0.46133341,0.20333966,-0.093773945,-0.0017313357
7,0.19474562,0.11064562,-0.13963976,0.089858612,0.53209132,0.23654642,-0.10812071,0.00013794208
8,0.21312496,0.12695508,-0.15167172,0.10219351,0.60089708,0.26944431,-0.12212281,0.0025433652
9,0.22948202,0.14341841,-0.16178045,0.11437429,0.66768783,0.30199420,-0.13578996,0.0054536621
10,0.24393960,0.16004670,-0.16999719,0.12639219,0.73240633,0.33415868,-0.14913246,0.0088372286
11,0.25662362,0.17685157,-0.17635797,0.13823878,0.79500098,0.36590212,-0.16216116,0.012662214
12,0.26766269,0.19384513,-0.18090347,0.14990596,0.85542586,0.39719071,-0.17488735,0.016896607
13,0.27718769,0.21103993,-0.18367880,0.16138600,0.91364075,0.42799251,-0.18732278,0.021508322
14,0.28533131,0.22844887,-0.18473342,0.17267150,0.96961115,0.45827753,-0.19947952,0.026465284
15,0.29222762,0.24608513,-0.18412088,0.18375543,1.0233082,0.48801773,-0.21136996,0.031735515
16,0.29801166,0.26396213,-0.18189866,0.19463114,1.0747088,0.51718709,-0.22300669,0.037287219
17,0.30281896,0.28209342,-0.17812797,0.20529236,1.1237953,0.54576162,-0.23440250,0.043088866
18,0.30678518,0.30049265,-0.17287352,0.21573318,1.1705559,0.57371942,-0.24557029,0.049109271
19,0.31004558,0.31917348,-0.16620334,0.22594811,1.2149841,0.60104063,-0.25652300,0.055317681
20,0.31273472,0.33814951,-0.15818849,0.23593208,1.2570788,0.62770754,-0.26727357,0.061683851
21,0.31498594,0.35743420,-0.14890286,0.24568041,1.2968444,0.65370453,-0.27783486,0.068178124
22,0.31693101,0.37704083,-0.13842296,0.25518885,1.3342905,0.67901808,-0.28821962,0.074771505
23,0.31869971,0.39698238,-0.12682758,0.26445358,1.3694319,0.70363681,-0.29844039,0.081435738
24,0.32041946,0.41727152,-0.11419762,0.27347123,1.4022883,0.72755144,-0.30850949,0.088143375
25,0.32221492,0.43792049,-0.10061581,0.28223885,1.4328843,0.75075478,-0.31843893,0.094867845
26,0.32420764,0.45894105,-0.086166412,0.29075398,1.4612493,0.77324172,-0.32824039,0.10158352
27,0.32651571,0.48034444,-0.070934995,0.29901461,1.4874173,0.79500921,-0.33792511,0.10826579
28,0.32925340,0.50214126,-0.055008150,0.30701919,1.5114266,0.81605622,-0.34750392,0.11489111
29,0.33253085,0.52434145,-0.038473221,0.31476667,1.5333200,0.83638373,-0.35698713,0.12143704
30,0.33645376,0.54695422,-0.021418036,0.32225646,1.5531441,0.85599466,-0.36638449,0.12788234
31,0.34112312,0.56998798,-0.0039306358,0.32948849,1.5709495,0.87489386,-0.37570520,0.13420701
32,0.34663489,0.59345030,0.013900993,0.33646317,1.5867905,0.89308804,-0.38495779,0.14039231
33,0.35307978,0.61734782,0.031989188,0.34318143,1.6007250,0.91058574,-0.39415014,0.14642082
34,0.36054299,0.64168625,0.050246880,0.34964468,1.6128140,0.92739724,-0.40328943,0.15227648
35,0.36910401,0.66647026,0.068587847,0.35585489,1.6231217,0.94353455,-0.41238209,0.15794465
36,0.37883642,0.69170349,0.086926982,0.36181452,1.6317150,0.95901129,-0.42143380,0.16341208
37,0.38980769,0.71738849,0.10518054,0.36752655,1.6386638,0.97384267,-0.43044942,0.16866701
38,0.40207904,0.74352663,0.12326640,0.37299452,1.6440399,0.98804539,-0.43943303,0.17369912
39,0.41570529,0.77011816,0.14110429,0.37822247,1.6479177,1.0016376,-0.44838783,0.17849962
40,0.43073477,0.79716207,0.15861602,0.38321499,1.6503734,1.0146387,-0.45731618,0.18306122
41,0.44720920,0.82465615,0.17572576,0.38797719,1.6514849,1.0270696,-0.46621958,0.18737816
42,0.46516362,0.85259691,0.19236018,0.39251474,1.6513317,1.0389521,-0.47509863,0.19144619
43,0.48462636,0.88097958,0.20844875,0.39683381,1.6499944,1.0503093,-0.48395304,0.19526261
44,0.50561897,0.90979807,0.22392386,0.40094115,1.6475548,1.0611652,-0.49278164,0.19882624
45,0.52815627,0.93904500,0.23872109,0.40484401,1.6440953,1.0715448,-0.50158235,0.20213743
46,0.55224631,0.96871164,0.25277933,0.40855017,1.6396992,1.0814739,-0.51035219,0.20519804
47,0.57789045,0.99878793,0.26604099,0.41206798,1.6344498,1.0909791,-0.51908732,0.20801143
48,0.60508338,1.0292625,0.27845217,0.41540627,1.6284306,1.1000876,-0.52778297,0.21058244
49,0.63381323,1.0601225,0.28996276,0.41857440,1.6217251,1.1088270,-0.53643355,0.21291735
50,0.66406165,1.0913541,0.30052664,0.42158226,1.6144165,1.1172258,-0.54503259,0.21502390
51,0.69580393,1.1229417,0.31010176,0.42444025,1.6065873,1.1253123,-0.55357280,0.21691119
52,0.72900917,1.1548687,0.31865026,0.42715924,1.5983193,1.1331156,-0.56204606,0.21858972
53,0.76364038,1.1871172,0.32613860,0.42975061,1.5896935,1.1406646,-0.57044348,0.22007130
54,0.79965471,1.2196679,0.33253760,0.43222624,1.5807896,1.1479885,-0.57875540,0.22136902
55,0.83700365,1.2525003,0.33782256,0.43459844,1.5716860,1.1551164,-0.58697142,0.22249721
56,0.87563318,1.2855928,0.34197327,0.43688002,1.5624597,1.1620773,-0.59508047,0.22347139
57,0.91548408,1.3189226,0.34497410,0.43908422,1.5531858,1.1689000,-0.60307079,0.22430823
58,0.95649213,1.3524656,0.34681401,0.44122469,1.5439377,1.1756132,-0.61093002,0.22502547
59,0.99858836,1.3861969,0.34748654,0.44331554,1.5347868,1.1822449,-0.61864521,0.22564186
60,1.0416994,1.4200903,0.34698988,0.44537125,1.5258022,1.1888229,-0.62620288,0.22617715
61,1.0857476,1.4541186,0.34532679,0.44740670,1.5170507,1.1953745,-0.63358906,0.22665196
62,1.1306517,1.4882540,0.34250462,0.44943714,1.5085968,1.2019261,-0.64078931,0.22708776
63,1.1763265,1.5224673,0.33853524,0.45147815,1.5005023,1.2085038,-0.64778884,0.22750678
64,1.2226840,1.5567290,0.33343503,0.45354565,1.4928264,1.2151326,-0.65457249,0.22793195
65,1.2696330,1.5910084,0.32722474,0.45565588,1.4856254,1.2218368,-0.66112481,0.22838683
66,1.3170799,1.6252744,0.31992950,0.45782534,1.4789527,1.2286398,-0.66743014,0.22889554
67,1.3649289,1.6594951,0.31157866,0.46007081,1.4728590,1.2355641,-0.67347261,0.22948266
68,1.4130823,1.6936380,0.30220570,0.46240929,1.4673916,1.2426309,-0.67923627,0.23017317
69,1.4614408,1.7276703,0.29184812,0.46485802,1.4625950,1.2498606,-0.68470506,0.23099241
70,1.5099043,1.7615586,0.28054732,0.46743441,1.4585104,1.2572722,-0.68986296,0.23196593
71,1.5583718,1.7952692,0.26834844,0.47015603,1.4551756,1.2648839,-0.69469397,0.23311948
72,1.6067417,1.8287683,0.25530018,0.47304059,1.4526256,1.2727122,-0.69918223,0.23447887
73,1.6549126,1.8620217,0.24145471,0.47610589,1.4508919,1.2807725,-0.70331204,0.23606996
74,1.7027835,1.8949952,0.22686742,0.47936984,1.4500027,1.2890791,-0.70706794,0.23791852
75,1.7502540,1.9276545,0.21159677,0.48285035,1.4499829,1.2976446,-0.71043477,0.24005018
76,1.7972249,1.9599654,0.19570409,0.48656538,1.4508545,1.3064803,-0.71339771,0.24249036
77,1.8435983,1.9918939,0.17925340,0.49053286,1.4526357,1.3155963,-0.71594237,0.24526418
78,1.8892781,2.0234061,0.16231113,0.49477068,1.4553421,1.3250012,-0.71805482,0.24839637
79,1.9341705,2.0544685,0.14494599,0.49929664,1.4589856,1.3347019,-0.71972165,0.25191123
80,1.9781841,2.0850480,0.12722867,0.50412843,1.4635754,1.3447042,-0.72093005,0.25583254
81,2.0212303,2.1151120,0.10923167,0.50928360,1.4691173,1.3550123,-0.72166784,0.26018348
82,2.0632236,2.1446282,0.091029016,0.51477953,1.4756144,1.3656289,-0.72192352,0.26498655
83,2.1040820,2.1735652,0.072696027,0.52063335,1.4830667,1.3765554,-0.72168637,0.27026356
84,2.1437272,2.2018922,0.054309090,0.52686198,1.4914714,1.3877916,-0.72094641,0.27603548
85,2.1820851,2.2295793,0.035945389,0.53348204,1.5008230,1.3993359,-0.71969455,0.28232244
86,2.2190857,2.2565973,0.017682666,0.54050983,1.5111133,1.4111854,-0.71792255,0.28914366
87,2.2546637,2.2829181,-0.00040104306,0.54796132,1.5223316,1.4233358,-0.71562311,0.29651734
88,2.2887585,2.3085145,-0.018227657,0.55585207,1.5344648,1.4357813,-0.71278992,0.30446068
89,2.3213147,2.3333604,-0.035719308,0.56419723,1.5474975,1.4485149,-0.70941765,0.31298978
90,2.3522820,2.3574309,-0.052798595,0.57301149,1.5614120,1.4615282,-0.70550203,0.32211959
91,2.3816156,2.3807024,-0.069388839,0.58230906,1.5761887,1.4748117,-0.70103986,0.33186388
92,2.4092763,2.4031524,-0.085414336,0.59210361,1.5918059,1.4883545,-0.69602905,0.34223520
93,2.4352308,2.4247598,-0.10080060,0.60240828,1.6082404,1.5021446,-0.69046864,0.35324482
94,2.4594515,2.4455050,-0.11547463,0.61323559,1.6254670,1.5161690,-0.68435885,0.36490271
95,2.4819171,2.4653697,-0.12936513,0.62459745,1.6434593,1.5304135,-0.67770103,0.37721750
96,2.5026122,2.4843374,-0.14240273,0.63650513,1.6621896,1.5448629,-0.67049778,0.39019645
97,2.5215277,2.5023927,-0.15452028,0.64896918,1.6816286,1.5595010,-0.66275286,0.40384543
98,2.5386608,2.5195222,-0.16565302,0.66199947,1.7017464,1.5743109,-0.65447128,0.41816891
99,2.5540150,2.5357140,-0.17573881,0.67560509,1.7225120,1.5892746,-0.64565927,0.43316991
100,2.5676001,2.5509578,-0.18471836,0.68979437,1.7438937,1.6043735,-0.63632428,0.44885001
101,2.5794323,2.5652451,-0.19253542,0.70457484,1.7658592,1.6195884,-0.62647498,0.46520935
102,2.5895339,2.5785690,-0.19913695,0.71995319,1.7883759,1.6348992,-0.61612130,0.48224660
103,2.5979336,2.5909244,-0.20447338,0.73593524,1.8114108,1.6502855,-0.60527434,0.49995897
104,2.6046664,2.6023081,-0.20849869,0.75252595,1.8349308,1.6657263,-0.59394644,0.51834221
105,2.6097730,2.6127186,-0.21117064,0.76972935,1.8589028,1.6812002,-0.58215110,0.53739064
106,2.6133005,2.6221560,-0.21245090,0.78754857,1.8832939,1.6966854,-0.56990303,0.55709712
107,2.6153017,2.6306226,-0.21230522,0.80598574,1.9080717,1.7121601,-0.55721805,0.57745309
108,2.6158348,2.6381220,-0.21070350,0.82504207,1.9332039,1.7276021,-0.54411312,0.59844857
109,2.6149641,2.6446600,-0.20761997,0.84471775,1.9586591,1.7429890,-0.53060631,0.62007222
110,2.6127587,2.6502440,-0.20303327,0.86501197,1.9844065,1.7582987,-0.51671671,0.64231132
111,2.6092932,2.6548832,-0.19692656,0.88592289,2.0104161,1.7735088,-0.50246449,0.66515183
112,2.6046469,2.6585886,-0.18928755,0.90744764,2.0366589,1.7885974,-0.48787075,0.68857841
113,2.5989038,2.6613727,-0.18010863,0.92958231,2.0631072,1.8035425,-0.47295758,0.71257445
114,2.5921524,2.6632499,-0.16938689,0.95232191,2.0897341,1.8183225,-0.45774794,0.73712215
115,2.5844852,2.6642363,-0.15712416,0.97566039,2.1165144,1.8329160,-0.44226566,0.76220249
116,2.5759987,2.6643495,-0.14332704,0.99959063,2.1434240,1.8473024,-0.42653535,0.78779536
117,2.5667927,2.6636087,-0.12800691,1.0241044,2.1704404,1.8614611,-0.41058237,0.81387953
118,2.5569703,2.6620347,-0.11117992,1.0491925,2.1975426,1.8753725,-0.39443278,0.84043278
119,2.5466376,2.6596498,-0.092866978,1.0748444,2.2247115,1.8890173,-0.37811325,0.86743188
120,2.5359031,2.6564776,-0.073093733,1.1010487,2.2519293,1.9023770,-0.36165104,0.89485271
121,2.5248774,2.6525433,-0.051890495,1.1277929,2.2791803,1.9154340,-0.34507389,0.92267027
122,2.5136732,2.6478732,-0.029292201,1.1550634,2.3064503,1.9281713,-0.32840999,0.95085878
123,2.5024043,2.6424950,-0.0053383327,1.1828453,2.3337273,1.9405728,-0.31168790,0.97939172
124,2.4911858,2.6364376,0.019927170,1.2111230,2.3610009,1.9526234,-0.29493648,1.0082419
125,2.4801333,2.6297308,0.046456012,1.2398796,2.3882628,1.9643090,-0.27818482,1.0373815
126,2.4693629,2.6224058,0.074195655,1.2690973,2.4155064,1.9756163,-0.26146218,1.0667823
127,2.4589903,2.6144944,0.10308945,1.2987571,2.4427272,1.9865333,-0.24479790,1.0964155
128,2.4491310,2.6060294,0.13307676,1.3288390,2.4699227,1.9970490,-0.22822132,1.1262518
129,2.4398992,2.5970447,0.16409315,1.3593223,2.4970919,2.0071535,-0.21176173,1.1562619
130,2.4314082,2.5875744,0.19607051,1.3901849,2.5242363,2.0168380,-0.19544829,1.1864160
131,2.4237692,2.5776537,0.22893724,1.4214040,2.5513586,2.0260951,-0.17930995,1.2166841
132,2.4170916,2.5673180,0.26261847,1.4529558,2.5784639,2.0349184,-0.16337535,1.2470364
133,2.4114821,2.5566033,0.29703621,1.4848156,2.6055586,2.0433030,-0.14767278,1.2774427
134,2.4070445,2.5455461,0.33210958,1.5169578,2.6326511,2.0512448,-0.13223011,1.3078731
135,2.4038793,2.5341829,0.36775504,1.5493559,2.6597514,2.0587414,-0.11707468,1.3382977
136,2.4020834,2.5225504,0.40388658,1.5819827,2.6868710,2.0657914,-0.10223324,1.3686869
137,2.4017496,2.5106857,0.44041598,1.6148101,2.7140229,2.0723949,-0.087731909,1.3990112
138,2.4029664,2.4986255,0.47725305,1.6478094,2.7412215,2.0785530,-0.073596053,1.4292416
139,2.4058174,2.4864066,0.51430585,1.6809508,2.7684826,2.0842682,-0.059850249,1.4593494
140,2.4103810,2.4740656,0.55148100,1.7142042,2.7958232,2.0895443,-0.046518206,1.4893065
141,2.4167305,2.4616386,0.58868385,1.7475388,2.8232612,2.0943861,-0.033622699,1.5190851
142,2.4249332,2.4491616,0.62581885,1.7809230,2.8508157,2.0988000,-0.021185504,1.5486582
143,2.4350503,2.4366698,0.66278974,1.8143248,2.8785067,2.1027932,-0.0092273353,1.5779994
144,2.4471369,2.4241982,0.69949984,1.8477115,2.9063547,2.1063743,0.0022322145,1.6070830
145,2.4612414,2.4117808,0.73585234,1.8810502,2.9343810,2.1095529,0.013174732,1.6358841
146,2.4774051,2.3994510,0.77175055,1.9143073,2.9626073,2.1123398,0.023583040,1.6643787
147,2.4956626,2.3872413,0.80709822,1.9474490,2.9910556,2.1147469,0.033441247,1.6925436
148,2.5160408,2.3751833,0.84179976,1.9804410,3.0197482,2.1167869,0.042734799,1.7203566
149,2.5385595,2.3633076,0.87576054,2.0132487,3.0487073,2.1184737,0.051450527,1.7477964
150,2.5632304,2.3516437,0.90888720,2.0458375,3.0779549,2.1198219,0.059576686,1.7748427
151,2.5900576,2.3402199,0.94108786,2.0781723,3.1075132,2.1208472,0.067102999,1.8014766
152,2.6190372,2.3290632,0.97227242,2.1102180,3.1374034,2.1215659,0.074020689,1.8276799
153,2.6501571,2.3181994,1.0023528,2.1419394,3.1676464,2.1219952,0.080322516,1.8534358
154,2.6833972,2.3076529,1.0312434,2.1733013,3.1982625,2.1221528,0.086002802,1.8787285
155,2.7187290,2.2974466,1.0588609,2.2042684,3.2292708,2.1220573,0.091057457,1.9035436
156,2.7561156,2.2876019,1.0851249,2.2348055,3.2606897,2.1217277,0.095484003,1.9278677
157,2.7955122,2.2781386,1.1099583,2.2648775,3.2925362,2.1211833,0.099281585,1.9516889
158,2.8368652,2.2690749,1.1332869,2.2944496,3.3248258,2.1204441,0.10245099,1.9749965
159,2.8801130,2.2604275,1.1550402,2.3234869,3.3575730,2.1195304,0.10499465,1.9977808
160,2.9251857,2.2522110,1.1751515,2.3519552,3.3907901,2.1184626,0.10691666,2.0200338
161,2.9720053,2.2444386,1.1935581,2.3798203,3.4244879,2.1172614,0.10822276,2.0417485
162,3.0204857,2.2371215,1.2102012,2.4070485,3.4586753,2.1159476,0.10892033,2.0629193
163,3.0705328,2.2302692,1.2250265,2.4336063,3.4933591,2.1145421,0.10901840,2.0835419
164,3.1220447,2.2238892,1.2379843,2.4594612,3.5285437,2.1130656,0.10852765,2.1036133
165,3.1749121,2.2179874,1.2490295,2.4845806,3.5642314,2.1115388,0.10746034,2.1231318
166,3.2290180,2.2125674,1.2581217,2.5089329,3.6004220,2.1099822,0.10583034,2.1420968
167,3.2842382,2.2076312,1.2652257,2.5324869,3.6371128,2.1084158,0.10365307,2.1605092
168,3.3404418,2.2031788,1.2703114,2.5552124,3.6742981,2.1068596,0.10094552,2.1783708
169,3.3974910,2.1992084,1.2733538,2.5770794,3.7119699,2.1053329,0.097726156,2.1956849
170,3.4552414,2.1957160,1.2743333,2.5980592,3.7501171,2.1038545,0.094014923,2.2124559
171,3.5135428,2.1926961,1.2732357,2.6181235,3.7887255,2.1024428,0.089833190,2.2286892
172,3.5722389,2.1901409,1.2700524,2.6372451,3.8277781,2.1011152,0.085203713,2.2443916
173,3.6311681,2.1880409,1.2647802,2.6553977,3.8672547,2.0998886,0.080150575,2.2595705
174,3.6901637,2.1863849,1.2574215,2.6725558,3.9071320,2.0987791,0.074699144,2.2742348
175,3.7490540,2.1851597,1.2479845,2.6886949,3.9473835,2.0978018,0.068876012,2.2883942
176,3.8076633,2.1843504,1.2364829,2.7037917,3.9879792,2.0969709,0.062708938,2.3020593
177,3.8658118,2.1839402,1.2229361,2.7178238,4.0288862,2.0962995,0.056226784,2.3152415
178,3.9233161,2.1839107,1.2073691,2.7307700,4.0700680,2.0957998,0.049459450,2.3279534
179,3.9799899,2.1842418,1.1898123,2.7426100,4.1114850,2.0954827,0.042437805,2.3402079
180,4.0356441,2.1849119,1.1703021,2.7533249,4.1530940,2.0953580,0.035193617,2.3520191
181,4.0900875,2.1858977,1.1488799,2.7628970,4.1948488,2.0954342,0.027759480,2.3634013
182,4.1431273,2.1871744,1.1255928,2.7713097,4.2366997,2.0957184,0.020168732,2.3743699
183,4.1945693,2.1887159,1.1004931,2.7785476,4.2785938,2.0962167,0.012455384,2.3849403
184,4.2442187,2.1904945,1.0736383,2.7845968,4.3204750,2.0969334,0.0046540343,2.3951289
185,4.2918804,2.1924815,1.0450910,2.7894444,4.3622841,2.0978717,-0.0032002129,2.4049522
186,4.3373595,2.1946467,1.0149189,2.7930791,4.4039587,2.0990331,-0.011071831,2.4144272
187,4.3804620,2.1969588,0.98319420,2.7954907,4.4454334,2.1004178,-0.018924958,2.4235710
188,4.4209950,2.1993856,0.94999395,2.7966705,4.4866399,2.1020243,-0.026723482,2.4324011
189,4.4587676,2.2018938,0.91539958,2.7966111,4.5275070,2.1038498,-0.034431130,2.4409351
190,4.4935911,2.2044492,0.87949680,2.7953065,4.5679608,2.1058898,-0.042011557,2.4491907
191,4.5252793,2.2070168,0.84237541,2.7927521,4.6079247,2.1081382,-0.049428434,2.4571854
192,4.5536497,2.2095608,0.80412905,2.7889446,4.6473197,2.1105875,-0.056645540,2.4649370
193,4.5785234,2.2120450,0.76485497,2.7838822,4.6860644,2.1132285,-0.063626848,2.4724629
194,4.5997257,2.2144324,0.72465386,2.7775645,4.7240752,2.1160503,-0.070336622,2.4797804
195,4.6170869,2.2166857,0.68362953,2.7699924,4.7612665,2.1190408,-0.076739498,2.4869066
196,4.6304424,2.2187673,0.64188869,2.7611684,4.7975505,2.1221861,-0.082800577,2.4938580
197,4.6396333,2.2206394,0.59954072,2.7510962,4.8328382,2.1254707,-0.088485516,2.5006511
198,4.6445068,2.2222638,0.55669731,2.7397810,4.8670385,2.1288778,-0.093760610,2.5073016
199,4.6449170,2.2236026,0.51347229,2.7272293,4.9000594,2.1323890,-0.098592881,2.5138248
200,4.6407249,2.2246178,0.46998126,2.7134491,4.9318074,2.1359845,-0.10295016,2.5202356
201,4.6317988,2.2252714,0.42634135,2.6984497,4.9621883,2.1396430,-0.10680118,2.5265479
202,4.6180153,2.2255261,0.38267088,2.6822417,4.9911070,2.1433419,-0.11011563,2.5327753
203,4.5992588,2.2253446,0.33908912,2.6648370,5.0184679,2.1470572,-0.11286428,2.5389302
204,4.5754228,2.2246901,0.29571593,2.6462491,5.0441751,2.1507638,-0.11501901,2.5450246
205,4.5464095,2.2235264,0.25267148,2.6264925,5.0681326,2.1544350,-0.11655292,2.5510695
206,4.5121304,2.2218182,0.21007594,2.6055830,5.0902446,2.1580434,-0.11744036,2.5570748
207,4.4725069,2.2195306,0.16804917,2.5835378,5.1104156,2.1615601,-0.11765706,2.5630497
208,4.4274702,2.2166297,0.12671041,2.5603752,5.1285508,2.1649554,-0.11718014,2.5690024
209,4.3769616,2.2130826,0.086177957,2.5361147,5.1445561,2.1681985,-0.11598820,2.5749399
210,4.3209329,2.2088573,0.046568881,2.5107770,5.1583387,2.1712578,-0.11406137,2.5808682
211,4.2593467,2.2039230,0.0079987024,2.4843840,5.1698071,2.1741008,-0.11138138,2.5867924
212,4.1921764,2.1982501,-0.029418908,2.4569585,5.1788712,2.1766943,-0.10793158,2.5927162
213,4.1194064,2.1918103,-0.065572427,2.4285246,5.1854430,2.1790045,-0.10369703,2.5986422
214,4.0410322,2.1845766,-0.10035277,2.3991074,5.1894363,2.1809969,-0.098664514,2.6045721
215,3.9570608,2.1765234,-0.13365359,2.3687327,5.1907674,2.1826367,-0.092822590,2.6105060
216,3.8675104,2.1676269,-0.16537156,2.3374276,5.1893551,2.1838884,-0.086161629,2.6164431
217,3.7724109,2.1578645,-0.19540662,2.3052200,5.1851210,2.1847167,-0.078673843,2.6223812
218,3.6718036,2.1472154,-0.22366230,2.2721387,5.1779897,2.1850855,-0.070353311,2.6283170
219,3.5657411,2.1356605,-0.25004594,2.2382131,5.1678891,2.1849592,-0.061196010,2.6342460
220,3.4542879,2.1231825,-0.27446895,2.2034738,5.1547507,2.1843017,-0.051199825,2.6401623
221,3.3375197,2.1097660,-0.29684705,2.1679518,5.1385093,2.1830774,-0.040364568,2.6460591
222,3.2155236,2.0953971,-0.31710053,2.1316789,5.1191041,2.1812505,-0.028691987,2.6519279
223,3.0883980,2.0800642,-0.33515441,2.0946877,5.0964783,2.1787859,-0.016185771,2.6577596
224,2.9562526,2.0637574,-0.35093872,2.0570112,5.0705791,2.1756487,-0.0028515476,2.6635434
225,2.8192080,2.0464689,-0.36438864,2.0186830,5.0413588,2.1718044,0.011303116,2.6692677
226,2.6773957,2.0281929,-0.37544471,1.9797373,5.0087739,2.1672193,0.026268724,2.6749195
227,2.5309576,2.0089254,-0.38405300,1.9402088,4.9727862,2.1618603,0.042033869,2.6804850
228,2.3800464,1.9886648,-0.39016528,1.9001323,4.9333623,2.1556952,0.058585244,2.6859490
229,2.2248245,1.9674114,-0.39373911,1.8595434,4.8904741,2.1486926,0.075907669,2.6912955
230,2.0654644,1.9451674,-0.39473804,1.8184777,4.8440989,2.1408222,0.093984115,2.6965074
231,1.9021483,1.9219374,-0.39313168,1.7769712,4.7942196,2.1320548,0.11279574,2.7015667
232,1.7350672,1.8977277,-0.38889578,1.7350601,4.7408246,2.1223623,0.13232191,2.7064543
233,1.5644212,1.8725471,-0.38201239,1.6927808,4.6839082,2.1117179,0.15254028,2.7111506
234,1.3904190,1.8464060,-0.37246983,1.6501698,4.6234704,2.1000964,0.17342677,2.7156349
235,1.2132771,1.8193172,-0.36026282,1.6072636,4.5595173,2.0874739,0.19495568,2.7198857
236,1.0332199,1.7912953,-0.34539248,1.5640989,4.4920610,2.0738279,0.21709970,2.7238811
237,0.85047896,1.7623570,-0.32786633,1.5207121,4.4211197,2.0591379,0.23982999,2.7275983
238,0.66529251,1.7325208,-0.30769835,1.4771399,4.3467179,2.0433848,0.26311622,2.7310140
239,0.47790521,1.7018075,-0.28490890,1.4334185,4.2688860,2.0265516,0.28692664,2.7341045
240,0.28856746,1.6702393,-0.25952474,1.3895843,4.1876608,2.0086228,0.31122817,2.7368454
241,0.097534996,1.6378405,-0.23157897,1.3456732,4.1030855,1.9895851,0.33598643,2.7392122
242,-0.094931684,1.6046372,-0.20111094,1.3017210,4.0152094,1.9694272,0.36116584,2.7411799
243,-0.28856782,1.5706572,-0.16816622,1.2577633,3.9240879,1.9481396,0.38672968,2.7427234
244,-0.48310495,1.5359300,-0.13279648,1.2138351,3.8297828,1.9257153,0.41264017,2.7438173
245,-0.67827144,1.5004866,-0.095059366,1.1699712,3.7323620,1.9021492,0.43885858,2.7444363
246,-0.87379309,1.4643597,-0.055018398,1.1262060,3.6318994,1.8774384,0.46534526,2.7445549
247,-1.0693936,1.4275834,-0.012742826,1.0825734,3.5284752,1.8515823,0.49205979,2.7441477
248,-1.2647954,1.3901932,0.031692532,1.0391068,3.4221751,1.8245826,0.51896099,2.7431896
249,-1.4597199,1.3522261,0.078207453,0.99583914,3.3130912,1.7964434,0.54600709,2.7416555
250,-1.6538881,1.3137200,0.12671649,0.95280265,3.2013208,1.7671710,0.57315575,2.7395208
251,-1.8470216,1.2747145,0.17712919,0.91002908,3.0869671,1.7367740,0.60036419,2.7367612
252,-2.0388427,1.2352497,0.22935026,0.86754954,2.9701388,1.7052635,0.62758929,2.7333527
253,-2.2290751,1.1953671,0.28327983,0.82539444,2.8509498,1.6726529,0.65478764,2.7292721
254,-2.4174448,1.1551090,0.33881366,0.78359352,2.7295191,1.6389582,0.68191568,2.7244965
255,-2.6036801,1.1145186,0.39584341,0.74217581,2.6059707,1.6041973,0.70892977,2.7190040
256,-2.7875128,1.0736396,0.45425687,0.70116957,2.4804335,1.5683909,0.73578629,2.7127731
257,-2.9686783,1.0325166,0.51393822,0.66060230,2.3530409,1.5315620,0.76244173,2.7057835
258,-3.1469162,0.99119470,0.57476835,0.62050072,2.2239305,1.4937356,0.78885278,2.6980154
259,-3.3219713,0.94971924,0.63662510,0.58089071,2.0932443,1.4549393,0.81497644,2.6894503
260,-3.4935935,0.90813611,0.69938354,0.54179731,1.9611280,1.4152029,0.84077009,2.6800705
261,-3.6615387,0.86649137,0.76291632,0.50324474,1.8277310,1.3745585,0.86619160,2.6698594
262,-3.8255694,0.82483127,0.82709393,0.46525631,1.6932061,1.3330402,0.89119942,2.6588019
263,-3.9854548,0.78320206,0.89178504,0.42785445,1.5577093,1.2906843,0.91575263,2.6468835
264,-4.1409716,0.74165000,0.95685678,0.39106070,1.4213994,1.2475294,0.93981108,2.6340915
265,-4.2919046,0.70022118,1.0221751,0.35489566,1.2844376,1.2036158,0.96333545,2.6204143
266,-4.4380465,0.65896145,1.0876050,0.31937904,1.1469877,1.1589859,0.98628732,2.6058417
267,-4.5791992,0.61791634,1.1530110,0.28452958,1.0092152,1.1136840,1.0086293,2.5903648
268,-4.7151733,0.57713094,1.2182575,0.25036510,0.87128750,1.0677563,1.0303250,2.5739765
269,-4.8457894,0.53664984,1.2832086,0.21690245,0.73337329,1.0212506,1.0513392,2.5566708
270,-4.9708777,0.49651700,1.3477293,0.18415755,0.59564233,0.97421628,1.0716380,2.5384436
271,-5.0902787,0.45677567,1.4116850,0.15214535,0.45826515,0.92670448,1.0911886,2.5192920
272,-5.2038435,0.41746834,1.4749424,0.12087984,0.32141269,0.87876769,1.1099597,2.4992152
273,-5.3114341,0.37863661,1.5373693,0.090374052,0.18525604,0.83045980,1.1279215,2.4782135
274,-5.4129235,0.34032113,1.5988355,0.060640073,0.049966063,0.78183597,1.1450453,2.4562892
275,-5.5081962,0.30256151,1.6592127,0.031689023,-0.084286899,0.73295251,1.1613043,2.4334461
276,-5.5971481,0.26539626,1.7183748,0.0035310763,-0.21733336,0.68386683,1.1766731,2.4096900
277,-5.6796870,0.22886269,1.7761986,-0.023824537,-0.34900502,0.63463726,1.1911281,2.3850279
278,-5.7557325,0.19299687,1.8325636,-0.050369526,-0.47913506,0.58532297,1.2046472,2.3594689
279,-5.8252164,0.15783356,1.8873525,-0.076096530,-0.60755849,0.53598386,1.2172099,2.3330236
280,-5.8880825,0.12340610,1.9404516,-0.10099911,-0.73411245,0.48668044,1.2287979,2.3057044
281,-5.9442869,0.089746417,1.9917508,-0.12507173,-0.85863656,0.43747371,1.2393942,2.2775253
282,-5.9937980,0.056884941,2.0411442,-0.14830976,-0.98097315,0.38842502,1.2489838,2.2485020
283,-6.0365965,0.024850543,2.0885300,-0.17070946,-1.1009676,0.33959598,1.2575536,2.2186520
284,-6.0726752,-0.0063294996,2.1338111,-0.19226796,-1.2184688,0.29104831,1.2650922,2.1879943
285,-6.1020394,-0.036629544,2.1768948,-0.21298325,-1.3333291,0.24284374,1.2715902,2.1565495
286,-6.1247064,-0.066025627,2.2176937,-0.23285416,-1.4454050,0.19504385,1.2770399,2.1243399
287,-6.1407056,-0.094495492,2.2561253,-0.25188034,-1.5545569,0.14771001,1.2814357,2.0913893
288,-6.1500786,-0.12201862,2.2921126,-0.27006227,-1.6606501,0.10090316,1.2847736,2.0577229
289,-6.1528784,-0.14857627,2.3255839,-0.28740120,-1.7635543,0.054683784,1.2870518,2.0233676
290,-6.1491701,-0.17415148,2.3564734,-0.30389918,-1.8631444,0.0091117152,1.2882700,1.9883515
291,-6.1390297,-0.19872906,2.3847209,-0.31955900,-1.9593005,-0.035753946,1.2884301,1.9527044
292,-6.1225449,-0.22229567,2.4102725,-0.33438418,-2.0519082,-0.079854971,1.2875356,1.9164571
293,-6.0998141,-0.24483978,2.4330800,-0.34837896,-2.1408587,-0.12313411,1.2855919,1.8796418
294,-6.0709465,-0.26635165,2.4531015,-0.36154829,-2.2260493,-0.16553523,1.2826061,1.8422921
295,-6.0360614,-0.28682339,2.4703014,-0.37389777,-2.3073830,-0.20700341,1.2785871,1.8044425
296,-5.9952886,-0.30624891,2.4846504,-0.38543366,-2.3847696,-0.24748505,1.2735457,1.7661286
297,-5.9487672,-0.32462390,2.4961256,-0.39616286,-2.4581250,-0.28692800,1.2674942,1.7273872
298,-5.8966457,-0.34194584,2.5047106,-0.40609287,-2.5273718,-0.32528166,1.2604465,1.6882560
299,-5.8390818,-0.35821398,2.5103951,-0.41523178,-2.5924394,-0.36249709,1.2524182,1.6487735
300,-5.7762416,-0.37342929,2.5131758,-0.42358824,-2.6532639,-0.39852707,1.2434265,1.6089790
301,-5.7082991,-0.38759445,2.5130553,-0.43117145,-2.7097886,-0.43332626,1.2334901,1.5689126
302,-5.6354363,-0.40071380,2.5100430,-0.43799111,-2.7619639,-0.46685125,1.2226290,1.5286150
303,-5.5578423,-0.41279332,2.5041545,-0.44405743,-2.8097471,-0.49906065,1.2108647,1.4881275
304,-5.4757128,-0.42384059,2.4954116,-0.44938111,-2.8531030,-0.52991519,1.1982200,1.4474918
305,-5.3892499,-0.43386472,2.4838427,-0.45397326,-2.8920036,-0.55937779,1.1847191,1.4067501
306,-5.2986616,-0.44287633,2.4694818,-0.45784546,-2.9264283,-0.58741363,1.1703872,1.3659448
307,-5.2041608,-0.45088748,2.4523696,-0.46100967,-2.9563638,-0.61399023,1.1552508,1.3251186
308,-5.1059654,-0.45791161,2.4325521,-0.46347824,-2.9818041,-0.63907751,1.1393373,1.2843143
309,-5.0042975,-0.46396350,2.4100814,-0.46526390,-3.0027506,-0.66264783,1.1226752,1.2435748
310,-4.8993827,-0.46905920,2.3850153,-0.46637969,-3.0192122,-0.68467608,1.1052939,1.2029428
311,-4.7914500,-0.47321596,2.3574170,-0.46683901,-3.0312047,-0.70513969,1.0872237,1.1624610
312,-4.6807307,-0.47645217,2.3273548,-0.46665551,-3.0387516,-0.72401871,1.0684956,1.1221718
313,-4.5674583,-0.47878729,2.2949024,-0.46584316,-3.0418831,-0.74129579,1.0491412,1.0821174
314,-4.4518679,-0.48024176,2.2601382,-0.46441617,-3.0406369,-0.75695627,1.0291929,1.0423396
315,-4.3341954,-0.48083697,2.2231454,-0.46238899,-3.0350574,-0.77098818,1.0086835,1.0028795
316,-4.2146772,-0.48059513,2.1840117,-0.45977629,-3.0251960,-0.78338224,0.98764633,0.96377784
317,-4.0935495,-0.47953925,2.1428290,-0.45659293,-3.0111107,-0.79413190,0.96611497,0.92507466
318,-3.9710480,-0.47769302,2.0996930,-0.45285397,-2.9928662,-0.80323334,0.94412340,0.88680921
319,-3.8474069,-0.47508073,2.0547034,-0.44857462,-2.9705337,-0.81068545,0.92170575,0.84901996
320,-3.7228589,-0.47172724,2.0079633,-0.44377023,-2.9441904,-0.81648985,0.89889630,0.81174447
321,-3.5976345,-0.46765784,1.9595790,-0.43845629,-2.9139200,-0.82065085,0.87572938,0.77501931
322,-3.4719613,-0.46289820,1.9096596,-0.43264840,-2.8798116,-0.82317546,0.85223927,0.73888000
323,-3.3460637,-0.45747429,1.8583170,-0.42636225,-2.8419603,-0.82407335,0.82846016,0.70336096
324,-3.2201624,-0.45141229,1.8056653,-0.41961362,-2.8004666,-0.82335682,0.80442603,0.66849537
325,-3.0944739,-0.44473852,1.7518209,-0.41241833,-2.7554362,-0.82104078,0.78017063,0.63431519
326,-2.9692100,-0.43747933,1.6969016,-0.40479227,-2.7069799,-0.81714267,0.75572735,0.60085102
327,-2.8445774,-0.42966108,1.6410269,-0.39675136,-2.6552131,-0.81168245,0.73112918,0.56813209
328,-2.7207773,-0.42131001,1.5843175,-0.38831155,-2.6002557,-0.80468255,0.70640863,0.53618617
329,-2.5980048,-0.41245218,1.5268947,-0.37948879,-2.5422319,-0.79616777,0.68159766,0.50503955
330,-2.4764490,-0.40311340,1.4688806,-0.37029903,-2.4812699,-0.78616525,0.65672764,0.47471695
331,-2.3562920,-0.39331915,1.4103972,-0.36075819,-2.4175013,-0.77470441,0.63182924,0.44524149
332,-2.2377090,-0.38309453,1.3515668,-0.35088217,-2.3510615,-0.76181685,0.60693240,0.41663468
333,-2.1208676,-0.37246413,1.2925111,-0.34068685,-2.2820886,-0.74753627,0.58206627,0.38891631
334,-2.0059281,-0.36145206,1.2333510,-0.33018804,-2.2107236,-0.73189842,0.55725913,0.36210449
335,-1.8930423,-0.35008179,1.1742067,-0.31940148,-2.1371101,-0.71494099,0.53253839,0.33621557
336,-1.7823543,-0.33837614,1.1151969,-0.30834285,-2.0613938,-0.69670351,0.50793049,0.31126413
337,-1.6739992,-0.32635721,1.0564388,-0.29702777,-1.9837222,-0.67722729,0.48346086,0.28726296
338,-1.5681038,-0.31404633,0.99804783,-0.28547173,-1.9042445,-0.65655528,0.45915390,0.26422304
339,-1.4647857,-0.30146399,0.94013713,-0.27369016,-1.8231111,-0.63473201,0.43503293,0.24215351
340,-1.3641537,-0.28862980,0.88281754,-0.26169834,-1.7404731,-0.61180344,0.41112016,0.22106171
341,-1.2663073,-0.27556246,0.82619718,-0.24951148,-1.6564826,-0.58781690,0.38743664,0.20095311
342,-1.1713364,-0.26227968,0.77038125,-0.23714463,-1.5712917,-0.56282094,0.36400223,0.18183136
343,-1.0793220,-0.24879817,0.71547181,-0.22461273,-1.4850527,-0.53686525,0.34083561,0.16369829
344,-0.99033522,-0.23513361,0.66156748,-0.21193056,-1.3979173,-0.51000052,0.31795423,0.14655387
345,-0.90443775,-0.22130056,0.60876324,-0.19911278,-1.3100370,-0.48227834,0.29537427,0.13039630
346,-0.82168180,-0.20731253,0.55715023,-0.18617386,-1.2215619,-0.45375109,0.27311070,0.11522196
347,-0.74211000,-0.19318188,0.50681554,-0.17312815,-1.1326413,-0.42447179,0.25117719,0.10102547
348,-0.66575549,-0.17891979,0.45784200,-0.15998981,-1.0434226,-0.39449402,0.22958613,0.087799711
349,-0.59264197,-0.16453634,0.41030801,-0.14677281,-0.95405178,-0.36387177,0.20834867,0.075535845
350,-0.52278381,-0.15004038,0.36428738,-0.13349096,-0.86467236,-0.33265934,0.18747465,0.064223355
351,-0.45618610,-0.13543959,0.31984917,-0.12015789,-0.77542573,-0.30091121,0.16697266,0.053850089
352,-0.39284484,-0.12074048,0.27705754,-0.10678701,-0.68645056,-0.26868193,0.14685001,0.044402296
353,-0.33274704,-0.10594836,0.23597164,-0.093391539,-0.59788266,-0.23602599,0.12711278,0.035864674
354,-0.27587096,-0.091067361,0.19664548,-0.079984495,-0.50985470,-0.20299771,0.10776580,0.028220422
355,-0.22218625,-0.076100430,0.15912785,-0.066578673,-0.42249594,-0.16965112,0.088812703,0.021451292
356,-0.17165422,-0.061049365,0.12346224,-0.053186653,-0.33593207,-0.13603984,0.070255904,0.015537647
357,-0.12422803,-0.045914815,0.089686726,-0.039820784,-0.25028491,-0.10221700,0.052096666,0.010458521
358,-0.079853012,-0.030696306,0.057833984,-0.026493182,-0.16567226,-0.068235064,0.034335113,0.0061916817
359,-0.038466887,-0.015392264,0.027931201,-0.013215724,-0.082207659,-0.034145794,0.016970259,0.0027136974
360,-1.0327099e-07,-4.3050306e-08,7.5125854e-08,-3.6757683e-08,-2.2740004e-07,-9.5253846e-08,4.6777060e-08,6.5255392e-09
