XRT N-S vs UFSS-A
      188.096
      2.47727
     -3.42045
      1.85263
      1.65321
    -0.849943
     0.869421
XRT N-S vs UFSS-B
      152.409
     0.855020
     -1.50112
     0.411488
    0.0995189
    -0.139340
     0.108033
XRT E-W vs UFSS-A
      3972.18
     -1.30773
     0.353569
    -0.441178
    -0.344274
     0.257513
   -0.0857525
XRT E-W vs UFSS-B
      3956.53
   -0.0104833
     -1.52113
     0.569983
     0.508952
    -0.115869
     0.279112
SOT N-S vs UFSS-A
      39.8470
      2.61262
     -3.26014
      1.64054
      1.73539
    -0.489141
     0.480565
SOT N-S vs UFSS-B
      3.06161
     0.999615
     -1.62318
     0.578720
     0.380807
   -0.0802280
     0.130502
SOT E-W vs UFSS-A
      212.087
     -1.09955
     0.460040
    -0.587343
    -0.242487
    0.0651851
    -0.160268
SOT E-W vs UFSS-B
      197.120
    -0.880216
     -1.44813
     0.490857
    -0.191410
     0.102996
     0.262236
