deg,XRT_AX,XRT_BX,XRT_AY,XRT_BY,SOT_AX,SOT_BX,SOT_AY,SOT_BY
valid,1,1,1,1,1,1,1,1,revB
offset,90.810028,81.571851,1989.3545,1979.4114,16.842358,7.0365825,110.02726,99.838459
0,0.0000000,0.0000000,0.0000000,0.0000000,0.0000000,0.0000000,0.0000000,0.0000000
1,0.014537726,-0.046153333,-0.011755346,0.00083571860,0.079600382,0.027425762,-0.039886450,0.0075806208
2,0.031782633,-0.089432140,-0.024231051,0.0024816517,0.15842200,0.054881800,-0.079034924,0.014635399
3,0.051655961,-0.12982159,-0.037403735,0.0048968523,0.23638249,0.082333930,-0.11741793,0.021169761
4,0.074075618,-0.16731220,-0.051249479,0.0080394369,0.31340327,0.10974895,-0.15501026,0.027190534
5,0.098956382,-0.20189985,-0.065743863,0.011866708,0.38940970,0.13709470,-0.19178899,0.032705906
6,0.12621010,-0.23358569,-0.080862010,0.016335276,0.46433114,0.16434011,-0.22773348,0.037725389
7,0.15574592,-0.26237612,-0.096578626,0.021401183,0.53810097,0.19145525,-0.26282536,0.042259775
8,0.18747047,-0.28828269,-0.11286804,0.027020033,0.61065672,0.21841139,-0.29704854,0.046321085
9,0.22128810,-0.31132206,-0.12970425,0.033147109,0.68194011,0.24518106,-0.33038916,0.049922528
10,0.25710112,-0.33151586,-0.14706095,0.039737507,0.75189703,0.27173805,-0.36283561,0.053078446
11,0.29480998,-0.34889064,-0.16491160,0.046746257,0.82047764,0.29805748,-0.39437844,0.055804262
12,0.33431354,-0.36347772,-0.18322943,0.054128452,0.88763636,0.32411586,-0.42501038,0.058116429
13,0.37550930,-0.37531310,-0.20198750,0.061839370,0.95333188,0.34989105,-0.45472628,0.060032367
14,0.41829360,-0.38443728,-0.22115874,0.069834597,1.0175271,0.37536238,-0.48352304,0.061570413
15,0.46256188,-0.39089518,-0.24071599,0.078070154,1.0801894,0.40051059,-0.51139963,0.062749756
16,0.50820889,-0.39473594,-0.26063202,0.086502609,1.1412901,0.42531790,-0.53835694,0.063590378
17,0.55512897,-0.39601279,-0.28087958,0.095089205,1.2008049,0.44976805,-0.56439781,0.064112997
18,0.60321622,-0.39478286,-0.30143146,0.10378797,1.2587137,0.47384624,-0.58952691,0.064338996
19,0.65236478,-0.39110704,-0.32226047,0.11255782,1.3150005,0.49753921,-0.61375070,0.064290368
20,0.70246902,-0.38504975,-0.34333953,0.12135870,1.3696534,0.52083521,-0.63707734,0.063989645
21,0.75342381,-0.37667879,-0.36464168,0.13015166,1.4226644,0.54372401,-0.65951664,0.063459841
22,0.80512470,-0.36606514,-0.38614011,0.13889897,1.4740295,0.56619692,-0.68107997,0.062724383
23,0.85746818,-0.35328272,-0.40780818,0.14756420,1.5237487,0.58824674,-0.70178018,0.061807045
24,0.91035184,-0.33840824,-0.42961951,0.15611237,1.5718255,0.60986780,-0.72163151,0.060731891
25,0.96367465,-0.32152097,-0.45154792,0.16450997,1.6182674,0.63105592,-0.74064952,0.059523200
26,1.0173371,-0.30270249,-0.47356755,0.17272510,1.6630852,0.65180841,-0.75885098,0.058205414
27,1.0712415,-0.28203652,-0.49565281,0.18072752,1.7062933,0.67212402,-0.77625382,0.056803064
28,1.1252921,-0.25960869,-0.51777847,0.18848874,1.7479093,0.69200297,-0.79287699,0.055340718
29,1.1793951,-0.23550628,-0.53991964,0.19598211,1.7879543,0.71144687,-0.80874041,0.053842911
30,1.2334593,-0.20981804,-0.56205182,0.20318282,1.8264523,0.73045874,-0.82386484,0.052334088
31,1.2873958,-0.18263395,-0.58415091,0.21006803,1.8634303,0.74904292,-0.83827184,0.050838548
32,1.3411184,-0.15404497,-0.60619325,0.21661691,1.8989182,0.76720509,-0.85198359,0.049380380
33,1.3945438,-0.12414284,-0.62815561,0.22281066,1.9329485,0.78495221,-0.86502289,0.047983412
34,1.4475916,-0.093019866,-0.65001525,0.22863256,1.9655562,0.80229247,-0.87741300,0.046671153
35,1.5001845,-0.060768645,-0.67174989,0.23406803,1.9967790,0.81923525,-0.88917757,0.045466741
36,1.5522484,-0.027481889,-0.69333777,0.23910465,2.0266565,0.83579109,-0.90034055,0.044392896
37,1.6037127,0.0067478146,-0.71475766,0.24373216,2.0552306,0.85197162,-0.91092609,0.043471862
38,1.6545102,0.041828221,-0.73598885,0.24794251,2.0825450,0.86778952,-0.92095846,0.042725369
39,1.7045772,0.077667639,-0.75701118,0.25172985,2.1086454,0.88325846,-0.93046194,0.042174583
40,1.7538539,0.11417514,-0.77780505,0.25509055,2.1335788,0.89839305,-0.93946074,0.041840066
41,1.8022841,0.15126078,-0.79835145,0.25802318,2.1573941,0.91320877,-0.94797894,0.041741735
42,1.8498154,0.18883577,-0.81863193,0.26052853,2.1801411,0.92772195,-0.95604037,0.041898823
43,1.8963994,0.22681269,-0.83862865,0.26260955,2.2018709,0.94194964,-0.96366855,0.042329847
44,1.9419918,0.26510570,-0.85832436,0.26427140,2.2226357,0.95590963,-0.97088661,0.043052572
45,1.9865519,0.30363067,-0.87770242,0.26552133,2.2424884,0.96962033,-0.97771720,0.044083984
46,2.0300434,0.34230542,-0.89674681,0.26636875,2.2614825,0.98310070,-0.98418245,0.045440261
47,2.0724339,0.38104984,-0.91544212,0.26682510,2.2796722,0.99637023,-0.99030388,0.047136749
48,2.1136952,0.41978606,-0.93377357,0.26690387,2.2971120,1.0094489,-0.99610231,0.049187941
49,2.1538029,0.45843863,-0.95172700,0.26662052,2.3138565,1.0223569,-1.0015979,0.051607455
50,2.1927369,0.49693464,-0.96928889,0.26599242,2.3299606,1.0351149,-1.0068098,0.054408022
51,2.2304810,0.53520388,-0.98644633,0.26503881,2.3454789,1.0477438,-1.0117567,0.057601472
52,2.2670233,0.57317893,-1.0031871,0.26378073,2.3604659,1.0602645,-1.0164561,0.061198718
53,2.3023555,0.61079531,-1.0194994,0.26224091,2.3749757,1.0726983,-1.0209246,0.065209755
54,2.3364734,0.64799160,-1.0353724,0.26044375,2.3890620,1.0850663,-1.0251778,0.069643652
55,2.3693767,0.68470949,-1.0507957,0.25841521,2.4027777,1.0973897,-1.0292305,0.074508550
56,2.4010689,0.72089393,-1.0657594,0.25618273,2.4161752,1.1096895,-1.0330963,0.079811659
57,2.4315571,0.75649317,-1.0802546,0.25377513,2.4293059,1.1219866,-1.0367876,0.085559268
58,2.4608522,0.79145883,-1.0942725,0.25122253,2.4422203,1.1343019,-1.0403159,0.091756745
59,2.4889686,0.82574598,-1.1078054,0.24855626,2.4549678,1.1466556,-1.0436915,0.098408547
60,2.5159241,0.85931319,-1.1208460,0.24580874,2.4675965,1.1590680,-1.0469236,0.10551823
61,2.5417399,0.89212255,-1.1333875,0.24301338,2.4801535,1.1715587,-1.0500204,0.11308846
62,2.5664404,0.92413971,-1.1454239,0.24020449,2.4926844,1.1841470,-1.0529886,0.12112104
63,2.5900530,0.95533389,-1.1569496,0.23741717,2.5052334,1.1968517,-1.0558342,0.12961690
64,2.6126082,0.98567791,-1.1679599,0.23468717,2.5178430,1.2096909,-1.0585619,0.13857616
65,2.6341393,1.0151481,-1.1784502,0.23205083,2.5305544,1.2226823,-1.0611751,0.14799811
66,2.6546823,1.0437246,-1.1884170,0.22954490,2.5434071,1.2358428,-1.0636763,0.15788125
67,2.6742756,1.0713907,-1.1978569,0.22720650,2.5564387,1.2491887,-1.0660669,0.16822332
68,2.6929603,1.0981336,-1.2067674,0.22507294,2.5696852,1.2627354,-1.0683473,0.17902133
69,2.7107793,1.1239437,-1.2151464,0.22318164,2.5831809,1.2764977,-1.0705167,0.19027158
70,2.7277779,1.1488150,-1.2229924,0.22157001,2.5969581,1.2904894,-1.0725734,0.20196968
71,2.7440031,1.1727447,-1.2303043,0.22027532,2.6110474,1.3047236,-1.0745148,0.21411061
72,2.7595039,1.1957335,-1.2370817,0.21933459,2.6254773,1.3192124,-1.0763372,0.22668874
73,2.7743305,1.2177852,-1.2433247,0.21878449,2.6402746,1.3339670,-1.0780363,0.23969784
74,2.7885348,1.2389066,-1.2490339,0.21866119,2.6554642,1.3489976,-1.0796068,0.25313116
75,2.8021698,1.2591079,-1.2542102,0.21900032,2.6710690,1.3643135,-1.0810425,0.26698143
76,2.8152894,1.2784019,-1.2588554,0.21983675,2.6871101,1.3799230,-1.0823368,0.28124093
77,2.8279486,1.2968042,-1.2629714,0.22120459,2.7036067,1.3958333,-1.0834821,0.29590148
78,2.8402029,1.3143335,-1.2665608,0.22313702,2.7205761,1.4120507,-1.0844704,0.31095452
79,2.8521085,1.3310108,-1.2696267,0.22566620,2.7380336,1.4285803,-1.0852931,0.32639114
80,2.8637217,1.3468594,-1.2721725,0.22882318,2.7559930,1.4454263,-1.0859411,0.34220209
81,2.8750992,1.3619054,-1.2742022,0.23263779,2.7744662,1.4625917,-1.0864050,0.35837787
82,2.8862974,1.3761766,-1.2757203,0.23713857,2.7934632,1.4800785,-1.0866748,0.37490870
83,2.8973728,1.3897032,-1.2767316,0.24235263,2.8129924,1.4978877,-1.0867406,0.39178462
84,2.9083814,1.4025170,-1.2772414,0.24830563,2.8330606,1.5160190,-1.0865918,0.40899551
85,2.9193788,1.4146519,-1.2772555,0.25502165,2.8536731,1.5344714,-1.0862181,0.42653110
86,2.9304197,1.4261430,-1.2767801,0.26252313,2.8748333,1.5532426,-1.0856090,0.44438104
87,2.9415583,1.4370272,-1.2758217,0.27083079,2.8965435,1.5723293,-1.0847539,0.46253492
88,2.9528474,1.4473423,-1.2743873,0.27996358,2.9188044,1.5917273,-1.0836424,0.48098230
89,2.9643391,1.4571275,-1.2724845,0.28993859,2.9416154,1.6114312,-1.0822642,0.49971275
90,2.9760839,1.4664227,-1.2701211,0.30077101,2.9649746,1.6314348,-1.0806093,0.51871590
91,2.9881311,1.4752689,-1.2673052,0.31247410,2.9888790,1.6517309,-1.0786679,0.53798143
92,3.0005283,1.4837073,-1.2640455,0.32505910,3.0133243,1.6723113,-1.0764307,0.55749915
93,3.0133215,1.4917800,-1.2603512,0.33853520,3.0383054,1.6931669,-1.0738886,0.57725897
94,3.0265550,1.4995289,-1.2562314,0.35290954,3.0638160,1.7142878,-1.0710334,0.59725100
95,3.0402711,1.5069964,-1.2516962,0.36818713,3.0898492,1.7356632,-1.0678572,0.61746550
96,3.0545101,1.5142247,-1.2467556,0.38437088,3.1163970,1.7572816,-1.0643527,0.63789296
97,3.0693103,1.5212559,-1.2414202,0.40146153,3.1434509,1.7791304,-1.0605134,0.65852409
98,3.0847077,1.5281316,-1.2357009,0.41945769,3.1710016,1.8011967,-1.0563338,0.67934986
99,3.1007362,1.5348930,-1.2296089,0.43835578,3.1990395,1.8234667,-1.0518088,0.70036149
100,3.1174270,1.5415806,-1.2231559,0.45815009,3.2275544,1.8459258,-1.0469344,0.72155052
101,3.1348094,1.5482341,-1.2163539,0.47883275,3.2565356,1.8685590,-1.0417076,0.74290875
102,3.1529098,1.5548923,-1.2092152,0.50039373,3.2859724,1.8913508,-1.0361264,0.76442831
103,3.1717523,1.5615929,-1.2017524,0.52282092,3.3158536,1.9142849,-1.0301896,0.78610166
104,3.1913584,1.5683724,-1.1939786,0.54610009,3.3461680,1.9373447,-1.0238973,0.80792158
105,3.2117471,1.5752659,-1.1859070,0.57021496,3.3769044,1.9605132,-1.0172506,0.82988117
106,3.2329346,1.5823071,-1.1775515,0.59514722,3.4080514,1.9837729,-1.0102518,0.85197389
107,3.2549346,1.5895281,-1.1689258,0.62087658,3.4395980,2.0071062,-1.0029044,0.87419353
108,3.2777581,1.5969595,-1.1600444,0.64738082,3.4715332,2.0304949,-0.99521301,0.89653422
109,3.3014136,1.6046299,-1.1509218,0.67463583,3.5038460,2.0539208,-0.98718362,0.91899043
110,3.3259068,1.6125662,-1.1415730,0.70261570,3.5365261,2.0773656,-0.97882335,0.94155694
111,3.3512409,1.6207933,-1.1320131,0.73129275,3.5695632,2.1008105,-0.97014063,0.96422888
112,3.3774165,1.6293340,-1.1222576,0.76063760,3.6029476,2.1242370,-0.96114515,0.98700169
113,3.4044316,1.6382091,-1.1123223,0.79061928,3.6366699,2.1476264,-0.95184787,1.0098711
114,3.4322817,1.6474373,-1.1022232,0.82120528,3.6707214,2.1709599,-0.94226105,1.0328331
115,3.4609599,1.6570350,-1.0919767,0.85236163,3.7050937,2.1942191,-0.93239821,1.0558840
116,3.4904568,1.6670164,-1.0815993,0.88405301,3.7397791,2.2173855,-0.92227411,1.0790205
117,3.5207607,1.6773934,-1.0711078,0.91624279,3.7747705,2.2404406,-0.91190480,1.1022391
118,3.5518576,1.6881757,-1.0605193,0.94889320,3.8100614,2.2633665,-0.90130752,1.1255370
119,3.5837314,1.6993705,-1.0498509,0.98196536,3.8456460,2.2861451,-0.89050073,1.1489114
120,3.6163637,1.7109828,-1.0391203,1.0154194,3.8815190,2.3087590,-0.87950408,1.1723597
121,3.6497343,1.7230152,-1.0283451,1.0492147,3.9176759,2.3311909,-0.86833834,1.1958793
122,3.6838208,1.7354680,-1.0175431,1.0833095,3.9541130,2.3534239,-0.85702540,1.2194678
123,3.7185991,1.7483392,-1.0067325,1.1176619,3.9908272,2.3754416,-0.84558819,1.2431231
124,3.7540435,1.7616245,-0.99593142,1.1522290,4.0278159,2.3972279,-0.83405068,1.2668428
125,3.7901263,1.7753174,-0.98515827,1.1869677,4.0650774,2.4187673,-0.82243779,1.2906249
126,3.8268187,1.7894092,-0.97443156,1.2218344,4.1026105,2.4400449,-0.81077536,1.3144670
127,3.8640902,1.8038890,-0.96376992,1.2567854,4.1404149,2.4610460,-0.79909005,1.3383670
128,3.9019092,1.8187436,-0.95319208,1.2917768,4.1784904,2.4817570,-0.78740935,1.3623226
129,3.9402428,1.8339583,-0.94271688,1.3267649,4.2168380,2.5021643,-0.77576142,1.3863313
130,3.9790571,1.8495158,-0.93236321,1.3617059,4.2554587,2.5222555,-0.76417511,1.4103907
131,4.0183175,1.8653974,-0.92215001,1.3965563,4.2943542,2.5420184,-0.75267980,1.4344980
132,4.0579883,1.8815824,-0.91209628,1.4312729,4.3335268,2.5614416,-0.74130541,1.4586504
133,4.0980334,1.8980485,-0.90222100,1.4658132,4.3729790,2.5805146,-0.73008225,1.4828446
134,4.1384161,1.9147716,-0.89254316,1.5001349,4.4127136,2.5992274,-0.71904095,1.5070773
135,4.1790992,1.9317263,-0.88308175,1.5341966,4.4527339,2.6175706,-0.70821241,1.5313447
136,4.2200454,1.9488857,-0.87385566,1.5679577,4.4930432,2.6355356,-0.69762768,1.5556428
137,4.2612173,1.9662218,-0.86488375,1.6013783,4.5336451,2.6531148,-0.68731787,1.5799671
138,4.3025774,1.9837052,-0.85618477,1.6344198,4.5745432,2.6703009,-0.67731407,1.6043127
139,4.3440884,2.0013058,-0.84777736,1.6670444,4.6157410,2.6870876,-0.66764726,1.6286745
140,4.3857131,2.0189922,-0.83968002,1.6992157,4.6572421,2.7034692,-0.65834819,1.6530465
141,4.4274150,2.0367327,-0.83191107,1.7308983,4.6990499,2.7194408,-0.64944733,1.6774225
142,4.4691579,2.0544946,-0.82448867,1.7620584,4.7411675,2.7349981,-0.64097470,1.7017958
143,4.5109063,2.0722448,-0.81743073,1.7926636,4.7835975,2.7501377,-0.63295987,1.7261589
144,4.5526253,2.0899501,-0.81075495,1.8226830,4.8263425,2.7648568,-0.62543176,1.7505040
145,4.5942810,2.1075768,-0.80447874,1.8520873,4.8694042,2.7791531,-0.61841864,1.7748225
146,4.6358405,2.1250914,-0.79861923,1.8808490,4.9127838,2.7930253,-0.61194795,1.7991052
147,4.6772719,2.1424601,-0.79319322,1.9089421,4.9564819,2.8064726,-0.60604626,1.8233422
148,4.7185445,2.1596498,-0.78821717,1.9363427,5.0004982,2.8194947,-0.60073915,1.8475230
149,4.7596287,2.1766276,-0.78370715,1.9630285,5.0448316,2.8320921,-0.59605113,1.8716365
150,4.8004965,2.1933609,-0.77967883,1.9889792,5.0894800,2.8442657,-0.59200552,1.8956708
151,4.8411213,2.2098181,-0.77614746,2.0141767,5.1344401,2.8560171,-0.58862442,1.9196131
152,4.8814778,2.2259683,-0.77312782,2.0386045,5.1797076,2.8673484,-0.58592853,1.9434502
153,4.9215425,2.2417814,-0.77063420,2.0622484,5.2252768,2.8782622,-0.58393716,1.9671679
154,4.9612934,2.2572285,-0.76868038,2.0850961,5.2711409,2.8887614,-0.58266808,1.9907515
155,5.0007103,2.2722820,-0.76727958,2.1071377,5.3172912,2.8988496,-0.58213747,2.0141852
156,5.0397747,2.2869155,-0.76644447,2.1283651,5.3637181,2.9085306,-0.58235984,2.0374528
157,5.0784700,2.3011042,-0.76618709,2.1487723,5.4104098,2.9178085,-0.58334794,2.0605372
158,5.1167813,2.3148248,-0.76651890,2.1683557,5.4573531,2.9266880,-0.58511273,2.0834205
159,5.1546956,2.3280557,-0.76745065,2.1871135,5.5045332,2.9351739,-0.58766326,2.1060841
160,5.1922019,2.3407772,-0.76899244,2.2050462,5.5519331,2.9432711,-0.59100666,2.1285088
161,5.2292909,2.3529716,-0.77115367,2.2221565,5.5995341,2.9509850,-0.59514805,2.1506745
162,5.2659554,2.3646229,-0.77394297,2.2384489,5.6473155,2.9583209,-0.60009049,2.1725605
163,5.3021899,2.3757176,-0.77736825,2.2539301,5.6952547,2.9652845,-0.60583495,2.1941453
164,5.3379912,2.3862442,-0.78143662,2.2686088,5.7433266,2.9718812,-0.61238027,2.2154070
165,5.3733574,2.3961936,-0.78615437,2.2824958,5.7915045,2.9781168,-0.61972309,2.2363227
166,5.4082890,2.4055591,-0.79152698,2.2956037,5.8397591,2.9839969,-0.62785785,2.2568691
167,5.4427881,2.4143361,-0.79755907,2.3079470,5.8880591,2.9895271,-0.63677676,2.2770224
168,5.4768585,2.4225229,-0.80425438,2.3195422,5.9363708,2.9947129,-0.64646974,2.2967579
169,5.5105060,2.4301201,-0.81161577,2.3304073,5.9846584,2.9995597,-0.65692447,2.3160508
170,5.5437379,2.4371310,-0.81964517,2.3405624,6.0328836,3.0040727,-0.66812635,2.3348755
171,5.5765632,2.4435614,-0.82834359,2.3500289,6.0810058,3.0082568,-0.68005846,2.3532060
172,5.6089926,2.4494198,-0.83771108,2.3588299,6.1289823,3.0121168,-0.69270162,2.3710161
173,5.6410380,2.4547173,-0.84774674,2.3669900,6.1767678,3.0156571,-0.70603438,2.3882789
174,5.6727131,2.4594677,-0.85844867,2.3745353,6.2243149,3.0188820,-0.72003302,2.4049675
175,5.7040328,2.4636874,-0.86981399,2.3814931,6.2715736,3.0217950,-0.73467159,2.4210546
176,5.7350131,2.4673955,-0.88183882,2.3878920,6.3184920,3.0243997,-0.74992190,2.4365125
177,5.7656713,2.4706137,-0.89451827,2.3937617,6.3650157,3.0266989,-0.76575363,2.4513137
178,5.7960258,2.4733662,-0.90784639,2.3991330,6.4110880,3.0286951,-0.78213427,2.4654302
179,5.8260959,2.4756798,-0.92181624,2.4040376,6.4566503,3.0303904,-0.79902925,2.4788342
180,5.8559019,2.4775840,-0.93641982,2.4085081,6.5016417,3.0317860,-0.81640193,2.4914979
181,5.8854644,2.4791104,-0.95164811,2.4125777,6.5459993,3.0328831,-0.83421372,2.5033933
182,5.9148052,2.4802932,-0.96749101,2.4162804,6.5896582,3.0336819,-0.85242406,2.5144928
183,5.9439461,2.4811689,-0.98393741,2.4196506,6.6325514,3.0341821,-0.87099057,2.5247688
184,5.9729095,2.4817761,-1.0009751,2.4227232,6.6746104,3.0343830,-0.88986907,2.5341940
185,6.0017182,2.4821556,-1.0185910,2.4255331,6.7157647,3.0342830,-0.90901369,2.5427415
186,6.0303947,2.4823503,-1.0367707,2.4281159,6.7559422,3.0338800,-0.92837694,2.5503845
187,6.0589619,2.4824049,-1.0554991,2.4305068,6.7950692,3.0331713,-0.94790978,2.5570968
188,6.0874423,2.4823660,-1.0747597,2.4327411,6.8330708,3.0321533,-0.96756177,2.5628527
189,6.1158581,2.4822819,-1.0945354,2.4348540,6.8698704,3.0308221,-0.98728113,2.5676271
190,6.1442314,2.4822023,-1.1148077,2.4368803,6.9053906,3.0291727,-1.0070148,2.5713954
191,6.1725833,2.4821785,-1.1355575,2.4388546,6.9395526,3.0271997,-1.0267087,2.5741338
192,6.2009346,2.4822631,-1.1567643,2.4408108,6.9722769,3.0248970,-1.0463077,2.5758190
193,6.2293052,2.4825096,-1.1784072,2.4427822,7.0034830,3.0222578,-1.0657556,2.5764289
194,6.2577138,2.4829728,-1.2004637,2.4448014,7.0330901,3.0192744,-1.0849958,2.5759421
195,6.2861784,2.4837080,-1.2229110,2.4469003,7.0610164,3.0159389,-1.1039707,2.5743379
196,6.3147155,2.4847715,-1.2457250,2.4491096,7.0871803,3.0122423,-1.1226223,2.5715971
197,6.3433405,2.4862197,-1.2688810,2.4514592,7.1114997,3.0081753,-1.1408922,2.5677012
198,6.3720672,2.4881098,-1.2923532,2.4539777,7.1338926,3.0037277,-1.1587219,2.5626329
199,6.4009078,2.4904986,-1.3161153,2.4566926,7.1542771,2.9988891,-1.1760524,2.5563761
200,6.4298731,2.4934433,-1.3401399,2.4596298,7.1725719,2.9936480,-1.1928250,2.5489160
201,6.4589717,2.4970006,-1.3643992,2.4628140,7.1886959,2.9879928,-1.2089810,2.5402390
202,6.4882106,2.5012271,-1.3888643,2.4662685,7.2025690,2.9819111,-1.2244620,2.5303329
203,6.5175948,2.5061786,-1.4135059,2.4700146,7.2141116,2.9753902,-1.2392101,2.5191868
204,6.5471269,2.5119102,-1.4382941,2.4740724,7.2232456,2.9684169,-1.2531678,2.5067916
205,6.5768078,2.5184760,-1.4631981,2.4784599,7.2298939,2.9609774,-1.2662784,2.4931392
206,6.6066356,2.5259291,-1.4881868,2.4831935,7.2339810,2.9530577,-1.2784860,2.4782233
207,6.6366065,2.5343211,-1.5132286,2.4882876,7.2354328,2.9446434,-1.2897355,2.4620391
208,6.6667140,2.5437023,-1.5382911,2.4937548,7.2341773,2.9357198,-1.2999732,2.4445837
209,6.6969493,2.5541212,-1.5633419,2.4996056,7.2301443,2.9262720,-1.3091463,2.4258553
210,6.7273009,2.5656245,-1.5883479,2.5058486,7.2232659,2.9162847,-1.3172036,2.4058543
211,6.7577548,2.5782569,-1.6132758,2.5124902,7.2134766,2.9057426,-1.3240954,2.3845826
212,6.7882944,2.5920608,-1.6380920,2.5195347,7.2007134,2.8946302,-1.3297734,2.3620437
213,6.8189003,2.6070764,-1.6627626,2.5269845,7.1849160,2.8829320,-1.3341913,2.3382432
214,6.8495507,2.6233411,-1.6872535,2.5348395,7.1660272,2.8706325,-1.3373045,2.3131881
215,6.8802208,2.6408899,-1.7115305,2.5430978,7.1439927,2.8577160,-1.3390705,2.2868876
216,6.9108832,2.6597548,-1.7355593,2.5517550,7.1187617,2.8441672,-1.3394488,2.2593523
217,6.9415078,2.6799648,-1.7593057,2.5608047,7.0902865,2.8299707,-1.3384013,2.2305949
218,6.9720618,2.7015459,-1.7827352,2.5702384,7.0585234,2.8151115,-1.3358920,2.2006298
219,7.0025097,2.7245207,-1.8058137,2.5800452,7.0234321,2.7995747,-1.3318875,2.1694733
220,7.0328133,2.7489085,-1.8285069,2.5902122,6.9849764,2.7833458,-1.3263570,2.1371434
221,7.0629318,2.7747251,-1.8507810,2.6007244,6.9431241,2.7664107,-1.3192720,2.1036600
222,7.0928218,2.8019825,-1.8726022,2.6115646,6.8978474,2.7487556,-1.3106070,2.0690448
223,7.1224375,2.8306893,-1.8939370,2.6227135,6.8491223,2.7303672,-1.3003393,2.0333213
224,7.1517304,2.8608500,-1.9147523,2.6341500,6.7969299,2.7112329,-1.2884489,1.9965147
225,7.1806499,2.8924653,-1.9350155,2.6458507,6.7412554,2.6913406,-1.2749188,1.9586520
226,7.2091427,2.9255321,-1.9546942,2.6577906,6.6820889,2.6706787,-1.2597351,1.9197618
227,7.2371536,2.9600429,-1.9737566,2.6699425,6.6194253,2.6492367,-1.2428870,1.8798745
228,7.2646250,2.9959864,-1.9921717,2.6822777,6.5532641,2.6270045,-1.2243665,1.8390223
229,7.2914976,3.0333471,-2.0099086,2.6947655,6.4836101,2.6039729,-1.2041692,1.7972387
230,7.3177098,3.0721052,-2.0269376,2.7073738,6.4104730,2.5801337,-1.1822936,1.7545590
231,7.3431984,3.1122370,-2.0432293,2.7200686,6.3338676,2.5554795,-1.1587416,1.7110198
232,7.3678985,3.1537141,-2.0587553,2.7328147,6.2538138,2.5300040,-1.1335182,1.6666596
233,7.3917436,3.1965044,-2.0734878,2.7455752,6.1703367,2.5037018,-1.1066318,1.6215179
234,7.4146657,3.2405713,-2.0874001,2.7583122,6.0834669,2.4765686,-1.0780940,1.5756358
235,7.4365958,3.2858741,-2.1004663,2.7709863,5.9932398,2.4486012,-1.0479199,1.5290556
236,7.4574636,3.3323679,-2.1126614,2.7835572,5.8996965,2.4197977,-1.0161276,1.4818209
237,7.4771978,3.3800038,-2.1239615,2.7959834,5.8028831,2.3901572,-0.98273854,1.4339766
238,7.4957265,3.4287286,-2.1343436,2.8082225,5.7028512,2.3596801,-0.94777759,1.3855686
239,7.5129769,3.4784855,-2.1437860,2.8202316,5.5996575,2.3283681,-0.91127266,1.3366438
240,7.5288759,3.5292133,-2.1522678,2.8319667,5.4933639,2.2962243,-0.87325493,1.2872502
241,7.5433503,3.5808473,-2.1597697,2.8433834,5.3840376,2.2632528,-0.83375869,1.2374366
242,7.5563264,3.6333191,-2.1662732,2.8544371,5.2717509,2.2294595,-0.79282137,1.1872528
243,7.5677309,3.6865563,-2.1717613,2.8650825,5.1565811,2.1948514,-0.75048342,1.1367490
244,7.5774908,3.7404835,-2.1762181,2.8752744,5.0386107,2.1594370,-0.70678827,1.0859764
245,7.5855332,3.7950214,-2.1796292,2.8849672,4.9179268,2.1232261,-0.66178229,1.0349867
246,7.5917863,3.8500877,-2.1819813,2.8941156,4.7946217,2.0862302,-0.61551466,0.98383198
247,7.5961789,3.9055971,-2.1832627,2.9026745,4.6687922,2.0484620,-0.56803732,0.93256476
248,7.5986408,3.9614612,-2.1834628,2.9105989,4.5405396,2.0099357,-0.51940489,0.88123791
249,7.5991033,4.0175889,-2.1825727,2.9178444,4.4099699,1.9706672,-0.46967454,0.82990453
250,7.5974987,4.0738863,-2.1805848,2.9243670,4.2771934,1.9306736,-0.41890591,0.77861781
251,7.5937613,4.1302573,-2.1774930,2.9301235,4.1423246,1.8899735,-0.36716103,0.72743103
252,7.5878270,4.1866035,-2.1732925,2.9350714,4.0054819,1.8485871,-0.31450413,0.67639739
253,7.5796338,4.2428243,-2.1679801,2.9391692,3.8667877,1.8065360,-0.26100162,0.62556996
254,7.5691218,4.2988176,-2.1615542,2.9423763,3.7263682,1.7638431,-0.20672189,0.57500157
255,7.5562336,4.3544793,-2.1540146,2.9446534,3.5843530,1.7205328,-0.15173522,0.52474472
256,7.5409142,4.4097041,-2.1453625,2.9459625,3.4408749,1.6766311,-0.096113627,0.47485152
257,7.5231113,4.4643856,-2.1356007,2.9462667,3.2960701,1.6321652,-0.039930753,0.42537353
258,7.5027758,4.5184161,-2.1247337,2.9455310,3.1500777,1.5871635,0.016738292,0.37636175
259,7.4798612,4.5716875,-2.1127671,2.9437216,3.0030393,1.5416560,0.073817069,0.32786646
260,7.4543247,4.6240910,-2.0997084,2.9408067,2.8550992,1.4956739,0.13122796,0.27993718
261,7.4261267,4.6755177,-2.0855665,2.9367560,2.7064039,1.4492497,0.18889230,0.23262255
262,7.3952309,4.7258585,-2.0703515,2.9315415,2.5571020,1.4024169,0.24673058,0.18597028
263,7.3616052,4.7750048,-2.0540754,2.9251368,2.4073437,1.3552104,0.30466252,0.14002703
264,7.3252208,4.8228480,-2.0367515,2.9175176,2.2572810,1.3076661,0.36260729,0.094838338
265,7.2860532,4.8692808,-2.0183944,2.9086621,2.1070671,1.2598211,0.42048367,0.050448555
266,7.2440819,4.9141963,-1.9990204,2.8985503,1.9568562,1.2117134,0.47821014,0.0069007540
267,7.1992906,4.9574893,-1.9786469,2.8871646,1.8068035,1.1633820,0.53570513,-0.035763345
268,7.1516671,4.9990557,-1.9572931,2.8744900,1.6570645,1.1148668,0.59288711,-0.077503444
269,7.1012040,5.0387931,-1.9349792,2.8605136,1.5077952,1.0662086,0.64967477,-0.11828074
270,7.0478980,5.0766014,-1.9117269,2.8452251,1.3591515,1.0174489,0.70598721,-0.15805799
271,6.9917505,5.1123821,-1.8875592,2.8286167,1.2112892,0.96863002,0.76174406,-0.19679957
272,6.9327677,5.1460397,-1.8625002,2.8106830,1.0643634,0.91979483,0.81686564,-0.23447156
273,6.8709602,5.1774809,-1.8365755,2.7914215,0.91852855,0.87098683,0.87127314,-0.27104176
274,6.8063436,5.2066153,-1.8098117,2.7708321,0.77393814,0.82225002,0.92488875,-0.30647979
275,6.7389381,5.2333560,-1.7822367,2.7489172,0.63074427,0.77362883,0.97763584,-0.34075709
276,6.6687688,5.2576188,-1.7538795,2.7256822,0.48909756,0.72516806,1.0294391,-0.37384702
277,6.5958656,5.2793234,-1.7247699,2.7011347,0.34914680,0.67691279,1.0802246,-0.40572487
278,6.5202633,5.2983932,-1.6949392,2.6752854,0.21103873,0.62890827,1.1299201,-0.43636789
279,6.4420014,5.3147554,-1.6644193,2.6481474,0.074917785,0.58119993,1.1784551,-0.46575536
280,6.3611243,5.3283412,-1.6332432,2.6197363,-0.059074162,0.53383319,1.2257608,-0.49386860
281,6.2776811,5.3390862,-1.6014449,2.5900706,-0.19079803,0.48685348,1.2717708,-0.52069098
282,6.1917258,5.3469305,-1.5690589,2.5591713,-0.32011778,0.44030608,1.3164205,-0.54620798
283,6.1033170,5.3518188,-1.5361208,2.5270618,-0.44690065,0.39423608,1.3596475,-0.57040717
284,6.0125180,5.3537003,-1.5026668,2.4937681,-0.57101735,0.34868828,1.4013921,-0.59327826
285,5.9193965,5.3525295,-1.4687338,2.4593188,-0.69234234,0.30370713,1.4415969,-0.61481309
286,5.8240248,5.3482656,-1.4343593,2.4237448,-0.81075398,0.25933664,1.4802070,-0.63500561
287,5.7264798,5.3408731,-1.3995814,2.3870792,-0.92613480,0.21562026,1.5171704,-0.65385194
288,5.6268423,5.3303218,-1.3644387,2.3493577,-1.0383716,0.17260087,1.5524378,-0.67135031
289,5.5251976,5.3165867,-1.3289702,2.3106180,-1.1473559,0.13032064,1.5859627,-0.68750110
290,5.4216349,5.2996485,-1.2932154,2.2709001,-1.2529836,0.088820977,1.6177017,-0.70230677
291,5.3162474,5.2794931,-1.2572139,2.2302458,-1.3551557,0.048142453,1.6476143,-0.71577191
292,5.2091320,5.2561122,-1.2210058,2.1886992,-1.4537783,0.0083247125,1.6756632,-0.72790316
293,5.1003893,5.2295032,-1.1846314,2.1463061,-1.5487624,-0.030593594,1.7018142,-0.73870922
294,4.9901233,5.1996690,-1.1481310,2.1031142,-1.6400248,-0.068574885,1.7260365,-0.74820081
295,4.8784415,5.1666182,-1.1115451,2.0591727,-1.7274873,-0.10558272,1.7483022,-0.75639064
296,4.7654543,5.1303653,-1.0749141,2.0145326,-1.8110775,-0.14158185,1.7685871,-0.76329337
297,4.6512751,5.0909303,-1.0382786,1.9692463,-1.8907288,-0.17653833,1.7868702,-0.76892556
298,4.5360202,5.0483390,-1.0016790,1.9233675,-1.9663803,-0.21041954,1.8031337,-0.77330566
299,4.4198081,5.0026228,-0.96515535,1.8769511,-2.0379768,-0.24319425,1.8173635,-0.77645391
300,4.3027600,4.9538190,-0.92874778,1.8300534,-2.1054694,-0.27483272,1.8295486,-0.77839232
301,4.1849990,4.9019701,-0.89249602,1.7827314,-2.1688151,-0.30530669,1.8396816,-0.77914461
302,4.0666503,4.8471244,-0.85643947,1.7350431,-2.2279768,-0.33458950,1.8477584,-0.77873616
303,3.9478406,4.7893356,-0.82061717,1.6870472,-2.2829239,-0.36265610,1.8537784,-0.77719391
304,3.8286981,4.7286625,-0.78506770,1.6388032,-2.3336316,-0.38948311,1.8577442,-0.77454636
305,3.7093522,4.6651696,-0.74982918,1.5903708,-2.3800814,-0.41504885,1.8596619,-0.77082342
306,3.5899335,4.5989262,-0.71493914,1.5418103,-2.4222610,-0.43933341,1.8595408,-0.76605642
307,3.4705731,4.5300067,-0.68043453,1.4931820,-2.4601642,-0.46231865,1.8573935,-0.76027799
308,3.3514027,4.4584905,-0.64635164,1.4445465,-2.4937911,-0.48398826,1.8532359,-0.75352198
309,3.2325542,4.3844617,-0.61272606,1.3959643,-2.5231477,-0.50432778,1.8470870,-0.74582342
310,3.1141595,4.3080089,-0.57959262,1.3474956,-2.5482462,-0.52332463,1.8389689,-0.73721841
311,2.9963505,4.2292251,-0.54698536,1.2992004,-2.5691048,-0.54096810,1.8289068,-0.72774403
312,2.8792583,4.1482076,-0.51493746,1.2511382,-2.5857476,-0.55724943,1.8169289,-0.71743829
313,2.7630135,4.0650579,-0.48348122,1.2033680,-2.5982046,-0.57216177,1.8030662,-0.70634003
314,2.6477456,3.9798811,-0.45264800,1.1559480,-2.6065116,-0.58570019,1.7873525,-0.69448882
315,2.5335829,3.8927861,-0.42246820,1.1089356,-2.6107101,-0.59786174,1.7698245,-0.68192490
316,2.4206523,3.8038851,-0.39297119,1.0623872,-2.6108470,-0.60864538,1.7505214,-0.66868908
317,2.3090790,3.7132938,-0.36418531,1.0163583,-2.6069749,-0.61805202,1.7294848,-0.65482263
318,2.1989862,3.6211306,-0.33613780,0.97090282,-2.5991516,-0.62608452,1.7067590,-0.64036722
319,2.0904950,3.5275168,-0.30885481,0.92607373,-2.5874400,-0.63274765,1.6823904,-0.62536485
320,1.9837240,3.4325762,-0.28236130,0.88192237,-2.5719081,-0.63804807,1.6564278,-0.60985770
321,1.8787893,3.3364348,-0.25668110,0.83849856,-2.5526287,-0.64199437,1.6289217,-0.59388808
322,1.7758041,3.2392207,-0.23183682,0.79585049,-2.5296795,-0.64459697,1.5999251,-0.57749836
323,1.6748785,3.1410637,-0.20784983,0.75402455,-2.5031423,-0.64586815,1.5694923,-0.56073084
324,1.5761194,3.0420953,-0.18474028,0.71306532,-2.4731036,-0.64582200,1.5376797,-0.54362769
325,1.4796302,2.9424479,-0.16252704,0.67301540,-2.4396540,-0.64447436,1.5045452,-0.52623086
326,1.3855108,2.8422551,-0.14122769,0.63391535,-2.4028878,-0.64184285,1.4701479,-0.50858198
327,1.2938569,2.7416512,-0.12085851,0.59580364,-2.3629033,-0.63794674,1.4345485,-0.49072231
328,1.2047606,2.6407710,-0.10143449,0.55871651,-2.3198021,-0.63280699,1.3978087,-0.47269262
329,1.1183096,2.5397493,-0.082969271,0.52268795,-2.2736892,-0.62644613,1.3599914,-0.45453313
330,1.0345872,2.4387209,-0.065475170,0.48774961,-2.2246728,-0.61888825,1.3211602,-0.43628344
331,0.95367228,2.3378203,-0.048963169,0.45393074,-2.1728636,-0.61015896,1.2813796,-0.41798244
332,0.87563919,2.2371812,-0.033442907,0.42125815,-2.1183753,-0.60028526,1.2407147,-0.39966824
333,0.80055737,2.1369367,-0.018922681,0.38975616,-2.0613237,-0.58929558,1.1992309,-0.38137808
334,0.72849141,2.0372184,-0.0054094439,0.35944653,-2.0018269,-0.57721962,1.1569943,-0.36314831
335,0.65950092,1.9381568,0.0070911917,0.33034847,-1.9400049,-0.56408834,1.1140709,-0.34501427
336,0.59364040,1.8398805,0.018574947,0.30247859,-1.8759792,-0.54993389,1.0705269,-0.32701027
337,0.53095919,1.7425162,0.029038872,0.27585087,-1.8098730,-0.53478952,1.0264283,-0.30916948
338,0.47150133,1.6461887,0.038481335,0.25047665,-1.7418103,-0.51868951,0.98184101,-0.29152394
339,0.41530559,1.5510200,0.046902010,0.22636465,-1.6719164,-0.50166910,0.93683058,-0.27410445
340,0.36240531,1.4571298,0.054301869,0.20352092,-1.6003170,-0.48376443,0.89146207,-0.25694052
341,0.31282845,1.3646347,0.060683160,0.18194889,-1.5271384,-0.46501243,0.84579995,-0.24006037
342,0.26659749,1.2736484,0.066049394,0.16164936,-1.4525071,-0.44545075,0.79990797,-0.22349084
343,0.22372947,1.1842812,0.070405324,0.14262050,-1.3765493,-0.42511771,0.75384902,-0.20725736
344,0.18423592,1.0966398,0.073756927,0.12485792,-1.2993914,-0.40405216,0.70768506,-0.19138393
345,0.14812293,1.0108274,0.076111379,0.10835467,-1.2211588,-0.38229347,0.66147694,-0.17589308
346,0.11539113,0.92694323,0.077477030,0.093101293,-1.1419765,-0.35988138,0.61528435,-0.16080581
347,0.086035704,0.84508236,0.077863383,0.079085859,-1.0619683,-0.33685595,0.56916568,-0.14614162
348,0.060046485,0.76533574,0.077281061,0.066294017,-0.98125693,-0.31325747,0.52317793,-0.13191844
349,0.037407954,0.68778989,0.075741780,0.054709058,-0.89996367,-0.28912640,0.47737660,-0.11815264
350,0.018099328,0.61252679,0.073258324,0.044311972,-0.81820819,-0.26450324,0.43181563,-0.10485899
351,0.0020946295,0.53962377,0.069844504,0.035081518,-0.73610830,-0.23942847,0.38654725,-0.092050687
352,-0.010637226,0.46915331,0.065515134,0.026994298,-0.65377980,-0.21394248,0.34162199,-0.079739303
353,-0.020132338,0.40118302,0.060285993,0.020024835,-0.57133626,-0.18808548,0.29708853,-0.067934822
354,-0.026431708,0.33577548,0.054173789,0.014145656,-0.48888884,-0.16189741,0.25299364,-0.056645617
355,-0.029581128,0.27298816,0.047196127,0.0093273831,-0.40654610,-0.13541786,0.20938215,-0.045878465
356,-0.029631050,0.21287335,0.039371470,0.0055388238,-0.32441385,-0.10868600,0.16629686,-0.035638550
357,-0.026636451,0.15547808,0.030719099,0.0027470707,-0.24259497,-0.081740527,0.12377850,-0.025929476
358,-0.020656687,0.10084409,0.021259080,0.00091760243,-0.16118925,-0.054619528,0.081865655,-0.016753286
359,-0.011755335,0.049007774,0.011012221,1.4388537e-05,-0.080293263,-0.027360465,0.040594781,-0.0081104766
360,-3.6695710e-08,1.3269796e-07,3.1756372e-08,-1.1634711e-09,-2.2298763e-07,-7.6407370e-08,1.1223288e-07,-2.1877270e-08
