deg,XRT_AX,XRT_BX,XRT_AY,XRT_BY,SOT_AX,SOT_BX,SOT_AY,SOT_BY
valid,1,1,1,1,1,1,1,1,revB
offset,116.02750,107.71005,1982.6896,1982.1925,49.824243,41.222121,94.292583,93.692230
0,0.0000000,0.0000000,0.0000000,0.0000000,0.0000000,0.0000000,0.0000000,0.0000000
1,0.041317319,0.0039149074,-0.026332237,-0.012084649,0.052513039,0.021803633,-0.017819808,-0.0030898411
2,0.080808856,0.0080425327,-0.052175779,-0.024413463,0.10474806,0.044481436,-0.035140437,-0.0057393634
3,0.11845731,0.012394274,-0.077525010,-0.036968839,0.15660954,0.067978595,-0.051954277,-0.0079589395
4,0.15425007,0.016981438,-0.10237563,-0.049732670,0.20800346,0.092239051,-0.068255083,-0.0097597192
5,0.18817916,0.021815206,-0.12672465,-0.062686406,0.25883749,0.11720564,-0.084037979,-0.011153609
6,0.22024121,0.026906591,-0.15057033,-0.075811103,0.30902126,0.14282025,-0.099299449,-0.012153250
7,0.25043740,0.032266406,-0.17391217,-0.089087481,0.35846645,0.16902396,-0.11403733,-0.012771997
8,0.27877336,0.037905220,-0.19675088,-0.10249597,0.40708708,0.19575717,-0.12825079,-0.013023887
9,0.30525911,0.043833329,-0.21908833,-0.11601679,0.45479960,0.22295981,-0.14194034,-0.012923618
10,0.32990899,0.050060715,-0.24092751,-0.12962998,0.50152314,0.25057142,-0.15510776,-0.012486513
11,0.35274150,0.056597014,-0.26227250,-0.14331543,0.54717963,0.27853135,-0.16775613,-0.011728491
12,0.37377922,0.063451480,-0.28312840,-0.15705302,0.59169397,0.30677890,-0.17988977,-0.010666036
13,0.39304870,0.070632954,-0.30350131,-0.17082259,0.63499419,0.33525346,-0.19151422,-0.0093161549
14,0.41058031,0.078149829,-0.32339826,-0.18460401,0.67701161,0.36389468,-0.20263621,-0.0076963472
15,0.42640810,0.086010024,-0.34282715,-0.19837728,0.71768091,0.39264260,-0.21326361,-0.0058245620
16,0.44056964,0.094220947,-0.36179673,-0.21212250,0.75694035,0.42143780,-0.22340539,-0.0037191597
17,0.45310589,0.10278947,-0.38031650,-0.22582002,0.79473180,0.45022157,-0.23307158,-0.0013988696
18,0.46406102,0.11172191,-0.39839668,-0.23945039,0.83100092,0.47893602,-0.24227324,0.0011172529
19,0.47348223,0.12102400,-0.41604812,-0.25299447,0.86569719,0.50752424,-0.25102239,0.0038098702
20,0.48141958,0.13070083,-0.43328227,-0.26643346,0.89877405,0.53593044,-0.25933195,0.0066594083
21,0.48792582,0.14075690,-0.45011112,-0.27974894,0.93018896,0.56410006,-0.26721572,0.0096461027
22,0.49305618,0.15119603,-0.46654709,-0.29292291,0.95990347,0.59197992,-0.27468829,0.012750046
23,0.49686817,0.16202136,-0.48260302,-0.30593785,0.98788326,0.61951835,-0.28176500,0.015951236
24,0.49942141,0.17323536,-0.49829206,-0.31877674,1.0140982,0.64666530,-0.28846187,0.019229624
25,0.50077740,0.18483978,-0.51362764,-0.33142308,1.0385225,0.67337246,-0.29479556,0.022565165
26,0.50099934,0.19683565,-0.52862338,-0.34386097,1.0611344,0.69959338,-0.30078327,0.025937865
27,0.50015190,0.20922327,-0.54329305,-0.35607510,1.0819166,0.72528353,-0.30644269,0.029327835
28,0.49830102,0.22200221,-0.55765046,-0.36805083,1.1008560,0.75040049,-0.31179197,0.032715337
29,0.49551370,0.23517128,-0.57170945,-0.37977415,1.1179437,0.77490396,-0.31684960,0.036080837
30,0.49185778,0.24872853,-0.58548378,-0.39123176,1.1331753,0.79875589,-0.32163436,0.039405056
31,0.48740176,0.26267126,-0.59898711,-0.40241105,1.1465504,0.82192053,-0.32616526,0.042669015
32,0.48221454,0.27699602,-0.61223288,-0.41330018,1.1580729,0.84436457,-0.33046148,0.045854090
33,0.47636523,0.29169857,-0.62523431,-0.42388802,1.1677507,0.86605712,-0.33454229,0.048942060
34,0.46992297,0.30677395,-0.63800431,-0.43416424,1.1755959,0.88696986,-0.33842695,0.051915154
35,0.46295669,0.32221642,-0.65055542,-0.44411927,1.1816246,0.90707702,-0.34213471,0.054756099
36,0.45553491,0.33801952,-0.66289976,-0.45374432,1.1858569,0.92635548,-0.34568468,0.057448168
37,0.44772555,0.35417601,-0.67504898,-0.46303140,1.1883167,0.94478478,-0.34909581,0.059975227
38,0.43959575,0.37067796,-0.68701420,-0.47197334,1.1890317,0.96234716,-0.35238678,0.062321778
39,0.43121163,0.38751672,-0.69880597,-0.48056372,1.1880331,0.97902761,-0.35557596,0.064473003
40,0.42263816,0.40468293,-0.71043421,-0.48879696,1.1853559,0.99481383,-0.35868136,0.066414808
41,0.41393893,0.42216654,-0.72190817,-0.49666826,1.1810384,1.0096963,-0.36172052,0.068133863
42,0.40517604,0.43995684,-0.73323641,-0.50417360,1.1751222,1.0236683,-0.36471050,0.069617641
43,0.39640983,0.45804248,-0.74442672,-0.51130974,1.1676520,1.0367257,-0.36766780,0.070854457
44,0.38769884,0.47641147,-0.75548611,-0.51807422,1.1586757,1.0488674,-0.37060829,0.071833503
45,0.37909956,0.49505123,-0.76642078,-0.52446532,1.1482439,1.0600948,-0.37354717,0.072544882
46,0.37066632,0.51394859,-0.77723608,-0.53048205,1.1364101,1.0704120,-0.37649892,0.072979640
47,0.36245116,0.53308984,-0.78793648,-0.53612416,1.1232301,1.0798258,-0.37947725,0.073129799
48,0.35450369,0.55246074,-0.79852556,-0.54139208,1.1087624,1.0883458,-0.38249502,0.072988381
49,0.34687097,0.57204656,-0.80900597,-0.54628691,1.0930675,1.0959838,-0.38556425,0.072549435
50,0.33959739,0.59183209,-0.81937946,-0.55081040,1.0762080,1.1027544,-0.38869602,0.071808060
51,0.33272459,0.61180171,-0.82964678,-0.55496494,1.0582485,1.1086747,-0.39190050,0.070760430
52,0.32629134,0.63193938,-0.83980777,-0.55875350,1.0392552,1.1137640,-0.39518682,0.069403805
53,0.32033347,0.65222870,-0.84986128,-0.56217960,1.0192957,1.1180439,-0.39856314,0.067736554
54,0.31488381,0.67265295,-0.85980521,-0.56524731,0.99843909,1.1215384,-0.40203654,0.065758164
55,0.30997208,0.69319510,-0.86963649,-0.56796117,0.97675547,1.1242736,-0.40561302,0.063469254
56,0.30562491,0.71383786,-0.87935109,-0.57032621,0.95431595,1.1262776,-0.40929751,0.060871580
57,0.30186574,0.73456373,-0.88894404,-0.57234787,0.93119235,1.1275804,-0.41309380,0.057968043
58,0.29871480,0.75535502,-0.89840942,-0.57403197,0.90745706,1.1282140,-0.41700455,0.054762690
59,0.29618909,0.77619390,-0.90774039,-0.57538468,0.88318285,1.1282121,-0.42103127,0.051260716
60,0.29430241,0.79706241,-0.91692921,-0.57641249,0.85844263,1.1276100,-0.42517433,0.047468459
61,0.29306527,0.81794254,-0.92596725,-0.57712215,0.83330933,1.1264445,-0.42943291,0.043393396
62,0.29248499,0.83881625,-0.93484504,-0.57752062,0.80785567,1.1247539,-0.43380506,0.039044134
63,0.29256567,0.85966551,-0.94355226,-0.57761507,0.78215396,1.1225777,-0.43828766,0.034430398
64,0.29330823,0.88047233,-0.95207781,-0.57741281,0.75627597,1.1199566,-0.44287644,0.029563020
65,0.29471047,0.90121882,-0.96040982,-0.57692125,0.73029272,1.1169323,-0.44756598,0.024453919
66,0.29676708,0.92188719,-0.96853572,-0.57614784,0.70427429,1.1135474,-0.45234973,0.019116084
67,0.29946973,0.94245984,-0.97644222,-0.57510007,0.67828967,1.1098453,-0.45722005,0.013563551
68,0.30280714,0.96291937,-0.98411542,-0.57378541,0.65240659,1.1058700,-0.46216818,0.0078113797
69,0.30676514,0.98324860,-0.99154082,-0.57221125,0.62669137,1.1016659,-0.46718431,0.0018756238
70,0.31132679,1.0034306,-0.99870338,-0.57038489,0.60120872,1.0972779,-0.47225759,-0.0042266965
71,0.31647243,1.0234489,-1.0055875,-0.56831348,0.57602163,1.0927511,-0.47737616,-0.010477628
72,0.32217982,1.0432872,-1.0121773,-0.56600398,0.55119124,1.0881307,-0.48252719,-0.016858317
73,0.32842423,1.0629296,-1.0184564,-0.56346314,0.52677663,1.0834616,-0.48769690,-0.023349051
74,0.33517857,1.0823606,-1.0244081,-0.56069745,0.50283476,1.0787890,-0.49287064,-0.029929292
75,0.34241354,1.1015654,-1.0300153,-0.55771310,0.47942032,1.0741573,-0.49803288,-0.036577722
76,0.35009770,1.1205293,-1.0352610,-0.55451597,0.45658561,1.0696107,-0.50316730,-0.043272285
77,0.35819769,1.1392384,-1.0401278,-0.55111154,0.43438043,1.0651927,-0.50825682,-0.049990233
78,0.36667829,1.1576791,-1.0445983,-0.54750495,0.41285198,1.0609463,-0.51328365,-0.056708174
79,0.37550265,1.1758386,-1.0486550,-0.54370088,0.39204478,1.0569133,-0.51822936,-0.063402118
80,0.38463240,1.1937044,-1.0522806,-0.53970358,0.37200057,1.0531349,-0.52307492,-0.070047532
81,0.39402779,1.2112648,-1.0554577,-0.53551683,0.35275823,1.0496509,-0.52780075,-0.076619391
82,0.40364793,1.2285088,-1.0581692,-0.53114388,0.33435375,1.0465002,-0.53238682,-0.083092230
83,0.41345088,1.2454257,-1.0603982,-0.52658750,0.31682010,1.0437201,-0.53681266,-0.089440201
84,0.42339384,1.2620060,-1.0621281,-0.52184990,0.30018727,1.0413467,-0.54105746,-0.095637131
85,0.43343335,1.2782403,-1.0633426,-0.51693274,0.28448216,1.0394144,-0.54510013,-0.10165658
86,0.44352544,1.2941203,-1.0640259,-0.51183709,0.26972858,1.0379561,-0.54891935,-0.10747188
87,0.45362579,1.3096383,-1.0641627,-0.50656347,0.25594721,1.0370029,-0.55249365,-0.11305623
88,0.46368993,1.3247872,-1.0637381,-0.50111178,0.24315562,1.0365841,-0.55580147,-0.11838274
89,0.47367342,1.3395609,-1.0627380,-0.49548133,0.23136822,1.0367272,-0.55882126,-0.12342447
90,0.48353199,1.3539537,-1.0611488,-0.48967081,0.22059631,1.0374576,-0.56153149,-0.12815451
91,0.49322174,1.3679609,-1.0589577,-0.48367831,0.21084808,1.0387987,-0.56391076,-0.13254607
92,0.50269931,1.3815784,-1.0561528,-0.47750132,0.20212859,1.0407718,-0.56593788,-0.13657247
93,0.51192203,1.3948029,-1.0527228,-0.47113670,0.19443988,1.0433960,-0.56759191,-0.14020726
94,0.52084812,1.4076319,-1.0486575,-0.46458074,0.18778096,1.0466882,-0.56885222,-0.14342427
95,0.52943682,1.4200634,-1.0439475,-0.45782910,0.18214785,1.0506630,-0.56969861,-0.14619766
96,0.53764855,1.4320965,-1.0385843,-0.45087688,0.17753368,1.0553328,-0.57011133,-0.14850198
97,0.54544511,1.4437306,-1.0325608,-0.44371860,0.17392872,1.0607076,-0.57007115,-0.15031222
98,0.55278976,1.4549663,-1.0258706,-0.43634825,0.17132046,1.0667949,-0.56955946,-0.15160390
99,0.55964743,1.4658045,-1.0185085,-0.42875924,0.16969372,1.0736000,-0.56855830,-0.15235311
100,0.56598482,1.4762469,-1.0104707,-0.42094449,0.16903068,1.0811257,-0.56705042,-0.15253655
101,0.57177055,1.4862960,-1.0017542,-0.41289642,0.16931103,1.0893725,-0.56501938,-0.15213162
102,0.57697528,1.4959549,-0.99235749,-0.40460699,0.17051204,1.0983383,-0.56244955,-0.15111643
103,0.58157181,1.5052272,-0.98228021,-0.39606771,0.17260868,1.1080188,-0.55932623,-0.14946991
104,0.58553525,1.5141174,-0.97152328,-0.38726968,0.17557374,1.1184072,-0.55563566,-0.14717180
105,0.58884306,1.5226304,-0.96008891,-0.37820361,0.17937792,1.1294945,-0.55136508,-0.14420276
106,0.59147519,1.5307717,-0.94798060,-0.36885988,0.18399000,1.1412693,-0.54650279,-0.14054435
107,0.59341413,1.5385473,-0.93520319,-0.35922856,0.18937690,1.1537178,-0.54103818,-0.13617914
108,0.59464503,1.5459639,-0.92176284,-0.34929944,0.19550391,1.1668241,-0.53496182,-0.13109072
109,0.59515575,1.5530286,-0.90766704,-0.33906208,0.20233474,1.1805702,-0.52826542,-0.12526374
110,0.59493691,1.5597490,-0.89292462,-0.32850584,0.20983169,1.1949356,-0.52094195,-0.11868398
111,0.59398198,1.5661331,-0.87754575,-0.31761994,0.21795583,1.2098982,-0.51298561,-0.11133833
112,0.59228725,1.5721893,-0.86154192,-0.30639349,0.22666708,1.2254335,-0.50439191,-0.10321490
113,0.58985196,1.5779264,-0.84492595,-0.29481555,0.23592441,1.2415153,-0.49515767,-0.094302982
114,0.58667825,1.5833536,-0.82771195,-0.28287516,0.24568598,1.2581155,-0.48528105,-0.084593120
115,0.58277119,1.5884803,-0.80991534,-0.27056138,0.25590928,1.2752042,-0.47476156,-0.074077129
116,0.57813879,1.5933163,-0.79155279,-0.25786337,0.26655127,1.2927498,-0.46360012,-0.062748115
117,0.57279200,1.5978715,-0.77264223,-0.24477042,0.27756858,1.3107192,-0.45179901,-0.050600501
118,0.56674468,1.6021562,-0.75320280,-0.23127199,0.28891761,1.3290779,-0.43936193,-0.037630042
119,0.56001358,1.6061806,-0.73325481,-0.21735778,0.30055470,1.3477897,-0.42629398,-0.023833844
120,0.55261829,1.6099554,-0.71281973,-0.20301776,0.31243632,1.3668175,-0.41260165,-0.0092103765
121,0.54458120,1.6134910,-0.69192014,-0.18824225,0.32451914,1.3861229,-0.39829287,0.0062405168
122,0.53592747,1.6167981,-0.67057968,-0.17302192,0.33676025,1.4056663,-0.38337695,0.022517613
123,0.52668493,1.6198874,-0.64882301,-0.15734791,0.34911726,1.4254075,-0.36786459,0.039618302
124,0.51688399,1.6227696,-0.62667578,-0.14121180,0.36154846,1.4453051,-0.35176787,0.057538588
125,0.50655761,1.6254552,-0.60416452,-0.12460574,0.37401297,1.4653175,-0.33510022,0.076273091
126,0.49574118,1.6279547,-0.58131665,-0.10752244,0.38647085,1.4854021,-0.31787642,0.095815050
127,0.48447240,1.6302786,-0.55816040,-0.089955227,0.39888323,1.5055161,-0.30011254,0.11615633
128,0.47279117,1.6324371,-0.53472472,-0.071898117,0.41121246,1.5256163,-0.28182597,0.13728743
129,0.46073952,1.6344402,-0.51103926,-0.053345839,0.42342222,1.5456594,-0.26303531,0.15919751
130,0.44836142,1.6362978,-0.48713429,-0.034293888,0.43547763,1.5656021,-0.24376040,0.18187438
131,0.43570269,1.6380194,-0.46304062,-0.014738563,0.44734537,1.5854010,-0.22402223,0.20530456
132,0.42281083,1.6396143,-0.43878952,0.0053229882,0.45899377,1.6050130,-0.20384294,0.22947324
133,0.40973491,1.6410913,-0.41441269,0.025892730,0.47039292,1.6243955,-0.18324576,0.25436439
134,0.39652535,1.6424592,-0.38994216,0.046971700,0.48151478,1.6435060,-0.16225494,0.27996069
135,0.38323385,1.6437261,-0.36541021,0.068559978,0.49233320,1.6623029,-0.14089571,0.30624364
136,0.36991315,1.6448997,-0.34084931,0.090656645,0.50282410,1.6807451,-0.11919425,0.33319356
137,0.35661689,1.6459876,-0.31629203,0.11325976,0.51296543,1.6987927,-0.097177589,0.36078960
138,0.34339944,1.6469965,-0.29177096,0.13636632,0.52273732,1.7164062,-0.074873575,0.38900983
139,0.33031571,1.6479328,-0.26731865,0.15997224,0.53212209,1.7335476,-0.052310800,0.41783123
140,0.31742099,1.6488025,-0.24296751,0.18407233,0.54110432,1.7501800,-0.029518539,0.44722977
141,0.30477073,1.6496110,-0.21874975,0.20866028,0.54967087,1.7662676,-0.0065266766,0.47718043
142,0.29242039,1.6503630,-0.19469727,0.23372862,0.55781092,1.7817762,0.016634354,0.50765724
143,0.28042523,1.6510628,-0.17084163,0.25926872,0.56551602,1.7966729,0.039933648,0.53863336
144,0.26884015,1.6517141,-0.14721393,0.28527078,0.57278005,1.8109267,0.063339900,0.57008109
145,0.25771945,1.6523200,-0.12384473,0.31172381,0.57959929,1.8245079,0.086821478,0.60197194
146,0.24711669,1.6528830,-0.10076400,0.33861562,0.58597237,1.8373890,0.11034650,0.63427670
147,0.23708449,1.6534049,-0.078001039,0.36593283,0.59190027,1.8495439,0.13388290,0.66696544
148,0.22767432,1.6538870,-0.055584381,0.39366087,0.59738635,1.8609488,0.15739852,0.70000764
149,0.21893634,1.6543299,-0.033541737,0.42178395,0.60243625,1.8715817,0.18086119,0.73337216
150,0.21091920,1.6547336,-0.011899920,0.45028510,0.60705793,1.8814227,0.20423877,0.76702739
151,0.20366987,1.6550974,0.0093152260,0.47914620,0.61126155,1.8904542,0.22749928,0.80094120
152,0.19723348,1.6554201,0.030078892,0.50834790,0.61505951,1.8986605,0.25061094,0.83508112
153,0.19165309,1.6556997,0.050367370,0.53786976,0.61846632,1.9060283,0.27354226,0.86941429
154,0.18696960,1.6559337,0.070158115,0.56769015,0.62149857,1.9125467,0.29626212,0.90390759
155,0.18322152,1.6561189,0.089429807,0.59778635,0.62417486,1.9182067,0.31873984,0.93852766
156,0.18044486,1.6562516,0.10816241,0.62813457,0.62651571,1.9230020,0.34094526,0.97324099
157,0.17867293,1.6563274,0.12633721,0.65870992,0.62854348,1.9269285,0.36284880,1.0080139
158,0.17793625,1.6563413,0.14393690,0.68948650,0.63028227,1.9299846,0.38442156,1.0428129
159,0.17826237,1.6562877,0.16094559,0.72043742,0.63175786,1.9321708,0.40563537,1.0776041
160,0.17967578,1.6561606,0.17734888,0.75153482,0.63299754,1.9334901,0.42646287,1.1123541
161,0.18219772,1.6559533,0.19313388,0.78274993,0.63403006,1.9339480,0.44687757,1.1470294
162,0.18584615,1.6556585,0.20828927,0.81405309,0.63488550,1.9335522,0.46685392,1.1815967
163,0.19063559,1.6552687,0.22280530,0.84541383,0.63559512,1.9323128,0.48636737,1.2160230
164,0.19657703,1.6547755,0.23667386,0.87680089,0.63619127,1.9302421,0.50539446,1.2502756
165,0.20367786,1.6541705,0.24988847,0.90818228,0.63670727,1.9273547,0.52391280,1.2843222
166,0.21194178,1.6534446,0.26244431,0.93952532,0.63717725,1.9236675,0.54190123,1.3181309
167,0.22136875,1.6525882,0.27433827,0.97079674,0.63763601,1.9191994,0.55933979,1.3516700
168,0.23195489,1.6515915,0.28556890,1.0019627,0.63811891,1.9139717,0.57620981,1.3849088
169,0.24369250,1.6504444,0.29613648,1.0329888,0.63866173,1.9080074,0.59249395,1.4178168
170,0.25656996,1.6491364,0.30604298,1.0638403,0.63930050,1.9013318,0.60817623,1.4503642
171,0.27057177,1.6476565,0.31529208,1.0944819,0.64007138,1.8939720,0.62324210,1.4825220
172,0.28567845,1.6459939,0.32388917,1.1248783,0.64101049,1.8859569,0.63767842,1.5142617
173,0.30186665,1.6441372,0.33184132,1.1549938,0.64215379,1.8773171,0.65147355,1.5455556
174,0.31910904,1.6420750,0.33915728,1.1847923,0.64353693,1.8680851,0.66461737,1.5763769
175,0.33737443,1.6397957,0.34584749,1.2142379,0.64519509,1.8582947,0.67710126,1.6066996
176,0.35662774,1.6372876,0.35192397,1.2432946,0.64716284,1.8479814,0.68891817,1.6364984
177,0.37683007,1.6345390,0.35740042,1.2719264,0.64947401,1.8371819,0.70006261,1.6657491
178,0.39793873,1.6315381,0.36229205,1.3000974,0.65216152,1.8259342,0.71053068,1.6944283
179,0.41990736,1.6282730,0.36661568,1.3277719,0.65525727,1.8142775,0.72032005,1.7225137
180,0.44268593,1.6247320,0.37038960,1.3549144,0.65879198,1.8022520,0.72943001,1.7499839
181,0.46622089,1.6209035,0.37363356,1.3814898,0.66279507,1.7898988,0.73786142,1.7768184
182,0.49045523,1.6167758,0.37636874,1.4074635,0.66729451,1.7772599,0.74561674,1.8029979
183,0.51532861,1.6123377,0.37861769,1.4328012,0.67231670,1.7643778,0.75270002,1.8285042
184,0.54077748,1.6075778,0.38040424,1.4574692,0.67788637,1.7512957,0.75911687,1.8533200
185,0.56673520,1.6024852,0.38175350,1.4814345,0.68402642,1.7380570,0.76487445,1.8774291
186,0.59313216,1.5970492,0.38269176,1.5046646,0.69075783,1.7247056,0.76998146,1.9008165
187,0.61989598,1.5912595,0.38324642,1.5271281,0.69809957,1.7112856,0.77444811,1.9234684
188,0.64695162,1.5851059,0.38344597,1.5487942,0.70606844,1.6978408,0.77828608,1.9453718
189,0.67422157,1.5785788,0.38331984,1.5696329,0.71467903,1.6844153,0.78150852,1.9665152
190,0.70162601,1.5716690,0.38289840,1.5896155,0.72394361,1.6710526,0.78412997,1.9868880
191,0.72908302,1.5643677,0.38221285,1.6087141,0.73387202,1.6577961,0.78616636,2.0064806
192,0.75650873,1.5566664,0.38129514,1.6269019,0.74447164,1.6446886,0.78763493,2.0252849
193,0.78381756,1.5485575,0.38017788,1.6441534,0.75574729,1.6317721,0.78855422,2.0432936
194,0.81092239,1.5400336,0.37889429,1.6604441,0.76770118,1.6190882,0.78894400,2.0605007
195,0.83773479,1.5310881,0.37747809,1.6757511,0.78033284,1.6066773,0.78882520,2.0769011
196,0.86416523,1.5217149,0.37596340,1.6900526,0.79363910,1.5945790,0.78821991,2.0924909
197,0.89012331,1.5119085,0.37438470,1.7033282,0.80761403,1.5828315,0.78715125,2.1072674
198,0.91551795,1.5016641,0.37277667,1.7155590,0.82224891,1.5714721,0.78564334,2.1212287
199,0.94025766,1.4909776,0.37117418,1.7267276,0.83753224,1.5605365,0.78372126,2.1343740
200,0.96425076,1.4798455,0.36961212,1.7368181,0.85344968,1.5500590,0.78141093,2.1467038
201,0.98740561,1.4682652,0.36812538,1.7458160,0.86998408,1.5400724,0.77873909,2.1582193
202,1.0096308,1.4562347,0.36674870,1.7537088,0.88711548,1.5306075,0.77573319,2.1689226
203,1.0308356,1.4437528,0.36551661,1.7604853,0.90482111,1.5216937,0.77242133,2.1788170
204,1.0509298,1.4308190,0.36446334,1.7661360,0.92307543,1.5133584,0.76883220,2.1879065
205,1.0698244,1.4174337,0.36362270,1.7706533,0.94185015,1.5056269,0.76499498,2.1961962
206,1.0874314,1.4035979,0.36302804,1.7740311,0.96111426,1.4985225,0.76093926,2.2036919
207,1.1036645,1.3893138,0.36271211,1.7762652,0.98083411,1.4920665,0.75669499,2.2104002
208,1.1184390,1.3745839,0.36270698,1.7773531,1.0009734,1.4862779,0.75229235,2.2163285
209,1.1316721,1.3594120,0.36304398,1.7772940,1.0214935,1.4811734,0.74776173,2.2214851
210,1.1432833,1.3438022,0.36375361,1.7760890,1.0423529,1.4767675,0.74313360,2.2258788
211,1.1531945,1.3277599,0.36486542,1.7737410,1.0635081,1.4730722,0.73843843,2.2295192
212,1.1613300,1.3112911,0.36640797,1.7702545,1.0849132,1.4700971,0.73370663,2.2324165
213,1.1676171,1.2944026,0.36840873,1.7656359,1.1065201,1.4678493,0.72896848,2.2345816
214,1.1719861,1.2771021,0.37089401,1.7598935,1.1282785,1.4663335,0.72425399,2.2360258
215,1.1743708,1.2593979,0.37388888,1.7530372,1.1501363,1.4655519,0.71959288,2.2367609
216,1.1747081,1.2412994,0.37741711,1.7450786,1.1720394,1.4655039,0.71501446,2.2367995
217,1.1729387,1.2228164,0.38150109,1.7360313,1.1939322,1.4661867,0.71054758,2.2361542
218,1.1690072,1.2039599,0.38616176,1.7259103,1.2157572,1.4675947,0.70622051,2.2348383
219,1.1628621,1.1847414,0.39141857,1.7147325,1.2374557,1.4697198,0.70206091,2.2328653
220,1.1544562,1.1651730,0.39728940,1.7025164,1.2589676,1.4725514,0.69809574,2.2302491
221,1.1437466,1.1452677,0.40379053,1.6892821,1.2802316,1.4760763,0.69435117,2.2270040
222,1.1306948,1.1250393,0.41093655,1.6750513,1.3011855,1.4802789,0.69085251,2.2231441
223,1.1152671,1.1045020,0.41874037,1.6598472,1.3217661,1.4851410,0.68762416,2.2186842
224,1.0974343,1.0836709,0.42721313,1.6436947,1.3419098,1.4906421,0.68468953,2.2136390
225,1.0771724,1.0625614,0.43636416,1.6266198,1.3615521,1.4967592,0.68207099,2.2080233
226,1.0544622,1.0411899,0.44620099,1.6086502,1.3806286,1.5034670,0.67978979,2.2018520
227,1.0292896,1.0195729,0.45672929,1.5898149,1.3990743,1.5107380,0.67786599,2.1951402
228,1.0016456,0.99772778,0.46795285,1.5701441,1.4168246,1.5185423,0.67631845,2.1879027
229,0.97152651,0.97567228,0.47987354,1.5496693,1.4338149,1.5268482,0.67516474,2.1801546
230,0.93893401,0.95342459,0.49249135,1.5284232,1.4499809,1.5356216,0.67442110,2.1719106
231,0.90387501,0.93100335,0.50580431,1.5064395,1.4652591,1.5448266,0.67410239,2.1631857
232,0.86636181,0.90842758,0.51980854,1.4837531,1.4795864,1.5544255,0.67422207,2.1539944
233,0.82641212,0.88571664,0.53449821,1.4603998,1.4929008,1.5643786,0.67479213,2.1443512
234,0.78404905,0.86289022,0.54986557,1.4364162,1.5051415,1.5746446,0.67582307,2.1342703
235,0.73930113,0.83996827,0.56590095,1.4118398,1.5162488,1.5851808,0.67732389,2.1237660
236,0.69220223,0.81697096,0.58259275,1.3867089,1.5261645,1.5959429,0.67930203,2.1128520
237,0.64279159,0.79391869,0.59992750,1.3610625,1.5348320,1.6068852,0.68176336,2.1015418
238,0.59111377,0.77083196,0.61788985,1.3349401,1.5421966,1.6179608,0.68471217,2.0898488
239,0.53721854,0.74773142,0.63646262,1.3083817,1.5482053,1.6291219,0.68815114,2.0777858
240,0.48116088,0.72463776,0.65562680,1.2814278,1.5528077,1.6403194,0.69208135,2.0653656
241,0.42300085,0.70157171,0.67536160,1.2541193,1.5559552,1.6515038,0.69650226,2.0526004
242,0.36280350,0.67855397,0.69564452,1.2264973,1.5576019,1.6626244,0.70141170,2.0395020
243,0.30063878,0.65560520,0.71645136,1.1986030,1.5577046,1.6736303,0.70680591,2.0260821
244,0.23658141,0.63274593,0.73775627,1.1704780,1.5562226,1.6844700,0.71267949,2.0123518
245,0.17071074,0.60999657,0.75953180,1.1421635,1.5531183,1.6950919,0.71902548,1.9983218
246,0.10311062,0.58737732,0.78174901,1.1137010,1.5483570,1.7054441,0.72583530,1.9840024
247,0.033869219,0.56490817,0.80437744,1.0851317,1.5419073,1.7154746,0.73309883,1.9694036
248,-0.036921103,0.54260885,0.82738526,1.0564966,1.5337409,1.7251319,0.74080441,1.9545349
249,-0.10916400,0.52049875,0.85073928,1.0278363,1.5238329,1.7343644,0.74893887,1.9394052
250,-0.18275933,0.49859695,0.87440505,0.99919120,1.5121621,1.7431213,0.75748756,1.9240233
251,-0.25760333,0.47692213,0.89834692,0.97060109,1.4987108,1.7513521,0.76643438,1.9083974
252,-0.33358884,0.45549253,0.92252813,0.94210523,1.4834649,1.7590071,0.77576183,1.8925353
253,-0.41060551,0.43432595,0.94691088,0.91374229,1.4664141,1.7660376,0.78545106,1.8764444
254,-0.48854004,0.41343970,0.97145643,0.88555020,1.4475520,1.7723957,0.79548190,1.8601316
255,-0.56727638,0.39285055,0.99612515,0.85756614,1.4268760,1.7780348,0.80583291,1.8436035
256,-0.64669600,0.37257471,1.0208766,0.82982644,1.4043876,1.7829096,0.81648144,1.8268663
257,-0.72667811,0.35262781,1.0456698,0.80236650,1.3800922,1.7869760,0.82740369,1.8099258
258,-0.80709996,0.33302483,1.0704630,0.77522076,1.3539992,1.7901917,0.83857478,1.7927875
259,-0.88783701,0.31378013,1.0952139,0.74842257,1.3261222,1.7925159,0.84996879,1.7754563
260,-0.96876329,0.29490739,1.1198800,0.72200420,1.2964787,1.7939097,0.86155881,1.7579371
261,-1.0497516,0.27641956,1.1444183,0.69599673,1.2650904,1.7943361,0.87331708,1.7402343
262,-1.1306738,0.25832890,1.1687857,0.67043003,1.2319829,1.7937599,0.88521497,1.7223519
263,-1.2114010,0.24064692,1.1929389,0.64533268,1.1971861,1.7921483,0.89722312,1.7042939
264,-1.2918042,0.22338433,1.2168345,0.62073189,1.1607337,1.7894707,0.90931147,1.6860637
265,-1.3717539,0.20655110,1.2404294,0.59665355,1.1226636,1.7856988,0.92144939,1.6676646
266,-1.4511210,0.19015639,1.2636803,0.57312207,1.0830173,1.7808065,0.93360568,1.6490998
267,-1.5297768,0.17420853,1.2865445,0.55016041,1.0418405,1.7747706,0.94574872,1.6303722
268,-1.6075933,0.15871505,1.3089794,0.52779005,0.99918266,1.7675703,0.95784652,1.6114845
269,-1.6844436,0.14368265,1.3309431,0.50603088,0.95509682,1.7591874,0.96986680,1.5924393
270,-1.7602018,0.12911716,1.3523939,0.48490127,0.90963979,1.7496064,0.98177708,1.5732389
271,-1.8347438,0.11502359,1.3732912,0.46441797,0.86287190,1.7388149,0.99354475,1.5538858
272,-1.9079473,0.10140611,1.3935946,0.44459611,0.81485693,1.7268029,1.0051372,1.5343822
273,-1.9796919,0.088268032,1.4132649,0.42544918,0.76566197,1.7135637,1.0165218,1.5147303
274,-2.0498596,0.075611813,1.4322637,0.40698904,0.71535731,1.6990932,1.0276660,1.4949323
275,-2.1183351,0.063439078,1.4505534,0.38922587,0.66401633,1.6833904,1.0385377,1.4749905
276,-2.1850058,0.051750610,1.4680977,0.37216817,0.61171532,1.6664573,1.0491049,1.4549070
277,-2.2497624,0.040546364,1.4848613,0.35582278,0.55853335,1.6482989,1.0593360,1.4346841
278,-2.3124987,0.029825472,1.5008103,0.34019487,0.50455211,1.6289231,1.0691998,1.4143242
279,-2.3731121,0.019586259,1.5159118,0.32528793,0.44985574,1.6083410,1.0786657,1.3938298
280,-2.4315038,0.0098262548,1.5301346,0.31110378,0.39453066,1.5865663,1.0877038,1.3732034
281,-2.4875790,0.00054220840,1.5434486,0.29764261,0.33866542,1.5636161,1.0962848,1.3524478
282,-2.5412472,-0.0082698921,1.5558255,0.28490297,0.28235044,1.5395103,1.1043800,1.3315658
283,-2.5924220,-0.016614801,1.5672384,0.27288179,0.22567792,1.5142717,1.1119619,1.3105607
284,-2.6410219,-0.024497994,1.5776620,0.26157441,0.16874156,1.4879260,1.1190035,1.2894358
285,-2.6869699,-0.031925645,1.5870728,0.25097461,0.11163641,1.4605017,1.1254791,1.2681945
286,-2.7301940,-0.038904602,1.5954487,0.24107463,0.054458639,1.4320300,1.1313639,1.2468409
287,-2.7706273,-0.045442359,1.6027698,0.23186521,-0.0026946515,1.4025452,1.1366341,1.2253789
288,-2.8082080,-0.051547030,1.6090176,0.22333564,-0.059725658,1.3720838,1.1412673,1.2038131
289,-2.8428796,-0.057227319,1.6141758,0.21547377,-0.11653608,1.3406851,1.1452422,1.1821481
290,-2.8745912,-0.062492490,1.6182296,0.20826606,-0.17302734,1.3083910,1.1485386,1.1603890
291,-2.9032974,-0.067352333,1.6211663,0.20169766,-0.22910079,1.2752455,1.1511379,1.1385413
292,-2.9289583,-0.071817134,1.6229751,0.19575242,-0.28465795,1.2412951,1.1530226,1.1166106
293,-2.9515397,-0.075897637,1.6236471,0.19041296,-0.33960071,1.2065887,1.1541770,1.0946031
294,-2.9710135,-0.079605012,1.6231755,0.18566071,-0.39383157,1.1711769,1.1545864,1.0725253
295,-2.9873569,-0.082950815,1.6215551,0.18147599,-0.44725383,1.1351126,1.1542378,1.0503841
296,-3.0005535,-0.085946957,1.6187829,0.17783805,-0.49977184,1.0984504,1.1531198,1.0281867
297,-3.0105924,-0.088605658,1.6148580,0.17472514,-0.55129120,1.0612468,1.1512224,1.0059408
298,-3.0174687,-0.090939417,1.6097811,0.17211456,-0.60171895,1.0235598,1.1485372,0.98365452
299,-3.0211834,-0.092960965,1.6035551,0.16998274,-0.65096385,0.98544896,1.1450575,0.96133624
300,-3.0217434,-0.094683232,1.5961847,0.16830531,-0.69893652,0.94697515,1.1407781,0.93899485
301,-3.0191615,-0.096119304,1.5876766,0.16705715,-0.74554968,0.90820049,1.1356954,0.91663958
302,-3.0134560,-0.097282385,1.5780394,0.16621245,-0.79071833,0.86918815,1.1298074,0.89428007
303,-3.0046513,-0.098185755,1.5672834,0.16574484,-0.83435998,0.83000222,1.1231140,0.87192634
304,-2.9927771,-0.098842731,1.5554209,0.16562738,-0.87639481,0.79070758,1.1156165,0.84958878
305,-2.9778691,-0.099266628,1.5424659,0.16583268,-0.91674585,0.75136972,1.1073177,0.82727816
306,-2.9599682,-0.099470719,1.5284341,0.16633299,-0.95533920,0.71205460,1.0982223,0.80500560
307,-2.9391207,-0.099468194,1.5133431,0.16710021,-0.99210414,0.67282852,1.0883364,0.78278255
308,-2.9153782,-0.099272126,1.4972120,0.16810601,-1.0269734,0.63375790,1.0776679,0.76062082
309,-2.8887973,-0.098895425,1.4800615,0.16932190,-1.0598831,0.59490921,1.0662260,0.73853249
310,-2.8594399,-0.098350810,1.4619139,0.17071929,-1.0907732,0.55634871,1.0540217,0.71652997
311,-2.8273723,-0.097650764,1.4427931,0.17226957,-1.1195874,0.51814241,1.0410672,0.69462593
312,-2.7926658,-0.096807503,1.4227242,0.17394417,-1.1462734,0.48035581,1.0273766,0.67283330
313,-2.7553959,-0.095832940,1.4017339,0.17571463,-1.1707831,0.44305382,1.0129651,0.65116525
314,-2.7156426,-0.094738648,1.3798500,0.17755271,-1.1930722,0.40630055,0.99784935,0.62963513
315,-2.6734899,-0.093535832,1.3571017,0.17943041,-1.2131012,0.37015922,0.98204755,0.60825651
316,-2.6290257,-0.092235296,1.3335192,0.18132006,-1.2308347,0.33469193,0.96557905,0.58704310
317,-2.5823417,-0.090847412,1.3091340,0.18319436,-1.2462419,0.29995959,0.94846451,0.56600875
318,-2.5335328,-0.089382089,1.2839785,0.18502651,-1.2592963,0.26602175,0.93072580,0.54516740
319,-2.4826973,-0.087848751,1.2580859,0.18679020,-1.2699765,0.23293642,0.91238597,0.52453307
320,-2.4299365,-0.086256308,1.2314904,0.18845972,-1.2782653,0.20076001,0.89346913,0.50411983
321,-2.3753544,-0.084613131,1.2042270,0.19000997,-1.2841505,0.16954711,0.87400045,0.48394175
322,-2.3190576,-0.082927032,1.1763313,0.19141659,-1.2876245,0.13935044,0.85400606,0.46401288
323,-2.2611549,-0.081205241,1.1478395,0.19265595,-1.2886846,0.11022067,0.83351303,0.44434723
324,-2.2017571,-0.079454389,1.1187884,0.19370521,-1.2873327,0.082206329,0.81254923,0.42495870
325,-2.1409767,-0.077680490,1.0892151,0.19454243,-1.2835756,0.055353687,0.79114332,0.40586110
326,-2.0789279,-0.075888927,1.0591572,0.19514652,-1.2774249,0.029706642,0.76932465,0.38706805
327,-2.0157259,-0.074084435,1.0286524,0.19549738,-1.2688967,0.0053066197,0.74712321,0.36859301
328,-1.9514870,-0.072271094,0.99773877,0.19557588,-1.2580120,-0.017807520,0.72456953,0.35044920
329,-1.8863280,-0.070452320,0.96645433,0.19536390,-1.2447965,-0.039599576,0.70169461,0.33264959
330,-1.8203666,-0.068630851,0.93483716,0.19484442,-1.2292803,-0.060036083,0.67852987,0.31520686
331,-1.7537201,-0.066808752,0.90292525,0.19400148,-1.2114981,-0.079086395,0.65510704,0.29813334
332,-1.6865060,-0.064987402,0.87075645,0.19282028,-1.1914892,-0.096722749,0.63145808,0.28144101
333,-1.6188416,-0.063167500,0.83836835,0.19128713,-1.1692969,-0.11292033,0.60761516,0.26514148
334,-1.5508433,-0.061349062,0.80579825,0.18938956,-1.1449692,-0.12765731,0.58361049,0.24924588
335,-1.4826268,-0.059531423,0.77308304,0.18711625,-1.1185580,-0.14091494,0.55947632,0.23376492
336,-1.4143066,-0.057713249,0.74025913,0.18445713,-1.0901191,-0.15267752,0.53524484,0.21870879
337,-1.3459959,-0.055892533,0.70736240,0.18140332,-1.0597125,-0.16293250,0.51094809,0.20408717
338,-1.2778063,-0.054066615,0.67442809,0.17794721,-1.0274018,-0.17167044,0.48661787,0.18990917
339,-1.2098476,-0.052232184,0.64149078,0.17408239,-0.99325421,-0.17888508,0.46228573,0.17618333
340,-1.1422273,-0.050385297,0.60858428,0.16980374,-0.95734047,-0.18457332,0.43798283,0.16291755
341,-1.0750509,-0.048521391,0.57574158,0.16510733,-0.91973458,-0.18873522,0.41373988,0.15011911
342,-1.0084212,-0.046635300,0.54299478,0.15999053,-0.88051369,-0.19137401,0.38958710,0.13779461
343,-0.94243835,-0.044721273,0.51037507,0.15445189,-0.83975790,-0.19249604,0.36555413,0.12594997
344,-0.87719961,-0.042772997,0.47791261,0.14849123,-0.79755007,-0.19211079,0.34166994,0.11459037
345,-0.81279907,-0.040783614,0.44563654,0.14210956,-0.75397567,-0.19023082,0.31796283,0.10372029
346,-0.74932753,-0.038745748,0.41357489,0.13530908,-0.70912254,-0.18687175,0.29446029,0.093343405
347,-0.68687236,-0.036651531,0.38175456,0.12809317,-0.66308072,-0.18205219,0.27118899,0.083462653
348,-0.62551726,-0.034492625,0.35020125,0.12046640,-0.61594222,-0.17579369,0.24817471,0.074080162
349,-0.56534218,-0.032260256,0.31893946,0.11243441,-0.56780082,-0.16812070,0.22544228,0.065197254
350,-0.50642311,-0.029945237,0.28799242,0.10400401,-0.51875187,-0.15906047,0.20301553,0.056814435
351,-0.44883201,-0.027538005,0.25738210,0.095183030,-0.46889208,-0.14864301,0.18091724,0.048931375
352,-0.39263665,-0.025028647,0.22712911,0.085980373,-0.41831924,-0.13690096,0.15916909,0.041546909
353,-0.33790053,-0.022406937,0.19725279,0.076405937,-0.36713209,-0.12386956,0.13779164,0.034659023
354,-0.28468275,-0.019662367,0.16777108,0.066470594,-0.31543001,-0.10958650,0.11680427,0.028264851
355,-0.23303795,-0.016784184,0.13870057,0.056186144,-0.26331288,-0.094091876,0.096225136,0.022360677
356,-0.18301622,-0.013761424,0.11005647,0.045565275,-0.21088078,-0.077428014,0.076071153,0.016941927
357,-0.13466307,-0.010582948,0.081852623,0.034621524,-0.15823381,-0.059639419,0.056357968,0.012003178
358,-0.088019349,-0.0072374821,0.054101464,0.023369223,-0.10547186,-0.040772627,0.037099928,0.0075381564
359,-0.043121213,-0.0037136490,0.026814054,0.011823462,-0.052694370,-0.020876093,0.018310059,0.0035397493
360,-1.1774769e-07,-1.0631510e-08,7.4107675e-08,3.3343895e-08,-1.4674060e-07,-5.9534720e-08,5.0381956e-08,9.2396562e-09
