deg,XRT_AX,XRT_BX,XRT_AY,XRT_BY,SOT_AX,SOT_BX,SOT_AY,SOT_BY
valid,1,1,1,1,1,1,1,1,revB
offset,121.02531,113.76497,1983.5019,1985.0843,56.856730,49.483368,94.564856,96.503765
0,0.0000000,0.0000000,0.0000000,0.0000000,0.0000000,0.0000000,0.0000000,0.0000000
1,0.021517402,0.0069978665,-0.0090705629,-0.0035762778,0.023480049,0.012215243,-0.0074680381,-0.0042303053
2,0.042820546,0.014620732,-0.018155043,-0.0071297243,0.046557263,0.024665851,-0.014762089,-0.0086444929
3,0.063879823,0.022864788,-0.027246723,-0.010668137,0.069194641,0.037331731,-0.021882951,-0.013250483
4,0.084665950,0.031725272,-0.036338448,-0.014199071,0.091355547,0.050192482,-0.028831462,-0.018055525
5,0.10515002,0.041196472,-0.045422655,-0.017729829,0.11300379,0.063227454,-0.035608494,-0.023066179
6,0.12530355,0.051271742,-0.054491399,-0.021267445,0.13410370,0.076415797,-0.042214951,-0.028288307
7,0.14509858,0.061943510,-0.063536373,-0.024818682,0.15462019,0.089736510,-0.048651760,-0.033727060
8,0.16450766,0.073203300,-0.072548944,-0.028390014,0.17451888,0.10316849,-0.054919871,-0.039386867
9,0.18350396,0.085041742,-0.081520176,-0.031987623,0.19376609,0.11669061,-0.061020252,-0.045271431
10,0.20206129,0.097448597,-0.090440862,-0.035617389,0.21232899,0.13028172,-0.066953883,-0.051383718
11,0.22015418,0.11041277,-0.099301553,-0.039284877,0.23017563,0.14392075,-0.072721754,-0.057725957
12,0.23775788,0.12392236,-0.10809259,-0.042995340,0.24727502,0.15758674,-0.078324859,-0.064299637
13,0.25484846,0.13796463,-0.11680413,-0.046753700,0.26359718,0.17125890,-0.083764192,-0.071105505
14,0.27140283,0.15252610,-0.12542619,-0.050564555,0.27911323,0.18491664,-0.089040743,-0.078143566
15,0.28739876,0.16759253,-0.13394866,-0.054432164,0.29379544,0.19853966,-0.094155493,-0.085413090
16,0.30281498,0.18314896,-0.14236135,-0.058360446,0.30761731,0.21210797,-0.099109412,-0.092912613
17,0.31763114,0.19917976,-0.15065403,-0.062352976,0.32055357,0.22560193,-0.10390345,-0.10063995
18,0.33182793,0.21566863,-0.15881644,-0.066412984,0.33258032,0.23900234,-0.10853854,-0.10859218
19,0.34538704,0.23259867,-0.16683831,-0.070543348,0.34367501,0.25229047,-0.11301559,-0.11676569
20,0.35829124,0.24995240,-0.17470946,-0.074746595,0.35381653,0.26544807,-0.11733547,-0.12515618
21,0.37052440,0.26771179,-0.18241976,-0.079024897,0.36298523,0.27845747,-0.12149904,-0.13375863
22,0.38207148,0.28585830,-0.18995918,-0.083380076,0.37116300,0.29130159,-0.12550708,-0.14256738
23,0.39291861,0.30437294,-0.19731784,-0.087813595,0.37833326,0.30396400,-0.12936038,-0.15157610
24,0.40305307,0.32323628,-0.20448603,-0.092326568,0.38448104,0.31642894,-0.13305965,-0.16077783
25,0.41246332,0.34242851,-0.21145423,-0.096919753,0.38959299,0.32868138,-0.13660557,-0.17016499
26,0.42113901,0.36192948,-0.21821317,-0.10159356,0.39365742,0.34070702,-0.13999875,-0.17972941
27,0.42907103,0.38171874,-0.22475379,-0.10634805,0.39666433,0.35249240,-0.14323977,-0.18946232
28,0.43625145,0.40177559,-0.23106735,-0.11118292,0.39860541,0.36402483,-0.14632914,-0.19935440
29,0.44267359,0.42207910,-0.23714541,-0.11609757,0.39947408,0.37529251,-0.14926729,-0.20939583
30,0.44833200,0.44260817,-0.24297986,-0.12109100,0.39926548,0.38628449,-0.15205462,-0.21957624
31,0.45322246,0.46334159,-0.24856294,-0.12616193,0.39797654,0.39699076,-0.15469144,-0.22988480
32,0.45734197,0.48425804,-0.25388729,-0.13130871,0.39560589,0.40740221,-0.15717800,-0.24031023
33,0.46068878,0.50533620,-0.25894591,-0.13652939,0.39215398,0.41751069,-0.15951448,-0.25084081
34,0.46326234,0.52655470,-0.26373227,-0.14182168,0.38762296,0.42730902,-0.16170096,-0.26146442
35,0.46506333,0.54789226,-0.26824025,-0.14718299,0.38201677,0.43679100,-0.16373749,-0.27216858
36,0.46609362,0.56932768,-0.27246419,-0.15261042,0.37534108,0.44595142,-0.16562400,-0.28294046
37,0.46635626,0.59083987,-0.27639891,-0.15810077,0.36760331,0.45478608,-0.16736035,-0.29376692
38,0.46585548,0.61240794,-0.28003971,-0.16365053,0.35881258,0.46329179,-0.16894634,-0.30463455
39,0.46459666,0.63401119,-0.28338239,-0.16925593,0.34897972,0.47146638,-0.17038166,-0.31552967
40,0.46258630,0.65562920,-0.28642325,-0.17491290,0.33811722,0.47930870,-0.17166593,-0.32643839
41,0.45983200,0.67724182,-0.28915912,-0.18061710,0.32623923,0.48681861,-0.17279869,-0.33734663
42,0.45634245,0.69882924,-0.29158735,-0.18636395,0.31336151,0.49399699,-0.17377937,-0.34824017
43,0.45212738,0.72037203,-0.29370582,-0.19214858,0.29950141,0.50084572,-0.17460733,-0.35910464
44,0.44719753,0.74185114,-0.29551296,-0.19796591,0.28467782,0.50736768,-0.17528186,-0.36992559
45,0.44156464,0.76324798,-0.29700771,-0.20381059,0.26891114,0.51356674,-0.17580213,-0.38068850
46,0.43524137,0.78454442,-0.29818956,-0.20967706,0.25222321,0.51944774,-0.17616725,-0.39137884
47,0.42824133,0.80572284,-0.29905855,-0.21555955,0.23463732,0.52501648,-0.17637623,-0.40198204
48,0.42057897,0.82676615,-0.29961523,-0.22145206,0.21617809,0.53027967,-0.17642800,-0.41248360
49,0.41226959,0.84765784,-0.29986069,-0.22734839,0.19687147,0.53524496,-0.17632140,-0.42286905
50,0.40332928,0.86838196,-0.29979655,-0.23324217,0.17674466,0.53992088,-0.17605520,-0.43312404
51,0.39377488,0.88892321,-0.29942492,-0.23912684,0.15582606,0.54431680,-0.17562807,-0.44323431
52,0.38362393,0.90926689,-0.29874843,-0.24499565,0.13414518,0.54844294,-0.17503862,-0.45318576
53,0.37289463,0.92939900,-0.29777022,-0.25084171,0.11173265,0.55231031,-0.17428536,-0.46296446
54,0.36160580,0.94930620,-0.29649386,-0.25665798,0.088620071,0.55593069,-0.17336674,-0.47255670
55,0.34977682,0.96897584,-0.29492343,-0.26243727,0.064839996,0.55931659,-0.17228114,-0.48194897
56,0.33742757,0.98839602,-0.29306344,-0.26817224,0.040425852,0.56248119,-0.17102684,-0.49112803
57,0.32457844,1.0075555,-0.29091883,-0.27385546,0.015411866,0.56543833,-0.16960208,-0.50008091
58,0.31125020,1.0264439,-0.28849496,-0.27947936,-0.010167006,0.56820247,-0.16800503,-0.50879496
59,0.29746401,1.0450515,-0.28579757,-0.28503630,-0.036275153,0.57078862,-0.16623378,-0.51725781
60,0.28324135,1.0633693,-0.28283278,-0.29051850,-0.062876380,0.57321230,-0.16428637,-0.52545749
61,0.26860396,1.0813892,-0.27960706,-0.29591813,-0.089933989,0.57548954,-0.16216081,-0.53338234
62,0.25357380,1.0991038,-0.27612718,-0.30122727,-0.11741085,0.57763674,-0.15985501,-0.54102113
63,0.23817301,1.1165063,-0.27240024,-0.30643796,-0.14526948,0.57967072,-0.15736688,-0.54836299
64,0.22242385,1.1335911,-0.26843359,-0.31154214,-0.17347211,0.58160862,-0.15469425,-0.55539750
65,0.20634863,1.1503529,-0.26423484,-0.31653175,-0.20198079,0.58346782,-0.15183492,-0.56211465
66,0.18996971,1.1667874,-0.25981180,-0.32139865,-0.23075745,0.58526597,-0.14878668,-0.56850489
67,0.17330942,1.1828912,-0.25517250,-0.32613470,-0.25976394,0.58702085,-0.14554726,-0.57455911
68,0.15638999,1.1986612,-0.25032509,-0.33073173,-0.28896219,0.58875039,-0.14211438,-0.58026869
69,0.13923357,1.2140956,-0.24527789,-0.33518156,-0.31831419,0.59047256,-0.13848574,-0.58562547
70,0.12186210,1.2291928,-0.24003930,-0.33947600,-0.34778216,0.59220537,-0.13465902,-0.59062181
71,0.10429736,1.2439523,-0.23461779,-0.34360689,-0.37732855,0.59396675,-0.13063189,-0.59525052
72,0.086560844,1.2583742,-0.22902189,-0.34756604,-0.40691614,0.59577457,-0.12640204,-0.59950496
73,0.068673755,1.2724591,-0.22326010,-0.35134532,-0.43650813,0.59764652,-0.12196712,-0.60337894
74,0.050656969,1.2862086,-0.21734095,-0.35493662,-0.46606819,0.59960011,-0.11732484,-0.60686683
75,0.032530986,1.2996245,-0.21127288,-0.35833186,-0.49556051,0.60165260,-0.11247287,-0.60996349
76,0.014315892,1.3127097,-0.20506426,-0.36152300,-0.52494993,0.60382092,-0.10740895,-0.61266427
77,-0.0039686722,1.3254674,-0.19872334,-0.36450207,-0.55420195,0.60612167,-0.10213081,-0.61496507
78,-0.022303547,1.3379013,-0.19225825,-0.36726116,-0.58328279,0.60857103,-0.096636237,-0.61686226
79,-0.040670087,1.3500159,-0.18567693,-0.36979240,-0.61215951,0.61118472,-0.090923040,-0.61835273
80,-0.059050191,1.3618161,-0.17898711,-0.37208803,-0.64079999,0.61397798,-0.084989080,-0.61943389
81,-0.077426326,1.3733073,-0.17219630,-0.37414034,-0.66917306,0.61696548,-0.078832272,-0.62010360
82,-0.095781562,1.3844953,-0.16531176,-0.37594172,-0.69724851,0.62016129,-0.072450584,-0.62036024
83,-0.11409959,1.3953864,-0.15834045,-0.37748466,-0.72499714,0.62357888,-0.065842052,-0.62020266
84,-0.13236474,1.4059872,-0.15128903,-0.37876175,-0.75239084,0.62723100,-0.059004781,-0.61963017
85,-0.15056201,1.4163048,-0.14416382,-0.37976567,-0.77940260,0.63112971,-0.051936954,-0.61864255
86,-0.16867709,1.4263466,-0.13697079,-0.38048924,-0.80600658,0.63528629,-0.044636835,-0.61724003
87,-0.18669636,1.4361202,-0.12971550,-0.38092538,-0.83217813,0.63971126,-0.037102782,-0.61542326
88,-0.20460690,1.4456335,-0.12240314,-0.38106714,-0.85789384,0.64441428,-0.029333245,-0.61319332
89,-0.22239652,1.4548947,-0.11503844,-0.38090770,-0.88313157,0.64940418,-0.021326779,-0.61055171
90,-0.24005378,1.4639121,-0.10762573,-0.38044039,-0.90787045,0.65468889,-0.013082048,-0.60750030
91,-0.25756794,1.4726942,-0.10016883,-0.37965866,-0.93209097,0.66027543,-0.0045978292,-0.60404137
92,-0.27492904,1.4812497,-0.092671121,-0.37855612,-0.95577495,0.66616988,0.0041269792,-0.60017753
93,-0.29212784,1.4895872,-0.085135470,-0.37712655,-0.97890556,0.67237736,0.013093351,-0.59591175
94,-0.30915586,1.4977156,-0.077564248,-0.37536386,-1.0014674,0.67890202,0.022302130,-0.59124734
95,-0.32600534,1.5056435,-0.069959308,-0.37326214,-1.0234464,0.68574700,0.031754018,-0.58618790
96,-0.34266928,1.5133798,-0.062321979,-0.37081565,-1.0448299,0.69291445,0.041449576,-0.58073734
97,-0.35914140,1.5209332,-0.054653054,-0.36801884,-1.0656067,0.70040548,0.051389214,-0.57489982
98,-0.37541615,1.5283122,-0.046952787,-0.36486631,-1.0857669,0.70822018,0.061573188,-0.56867978
99,-0.39148867,1.5355255,-0.039220891,-0.36135287,-1.1053023,0.71635760,0.072001596,-0.56208189
100,-0.40735483,1.5425814,-0.031456530,-0.35747350,-1.1242057,0.72481576,0.082674369,-0.55511103
101,-0.42301116,1.5494879,-0.023658323,-0.35322341,-1.1424715,0.73359163,0.093591269,-0.54777228
102,-0.43845487,1.5562532,-0.015824343,-0.34859797,-1.1600956,0.74268116,0.10475189,-0.54007091
103,-0.45368381,1.5628849,-0.0079521221,-0.34359280,-1.1770750,0.75207925,0.11615563,-0.53201234
104,-0.46869649,1.5693904,-3.8653722e-05,-0.33820369,-1.1934083,0.76177979,0.12780173,-0.52360213
105,-0.48349198,1.5757770,0.0079195971,-0.33242666,-1.2090952,0.77177566,0.13968922,-0.51484596
106,-0.49806997,1.5820515,0.015926687,-0.32625798,-1.2241370,0.78205872,0.15181697,-0.50574963
107,-0.51243070,1.5882202,0.023987183,-0.31969411,-1.2385360,0.79261989,0.16418362,-0.49631901
108,-0.52657496,1.5942894,0.032106150,-0.31273175,-1.2522958,0.80344909,0.17678765,-0.48656004
109,-0.54050402,1.6002648,0.040289137,-0.30536785,-1.2654214,0.81453530,0.18962731,-0.47647872
110,-0.55421964,1.6061516,0.048542160,-0.29759959,-1.2779189,0.82586661,0.20270066,-0.46608106
111,-0.56772406,1.6119547,0.056871684,-0.28942439,-1.2897953,0.83743020,0.21600557,-0.45537310
112,-0.58101989,1.6176785,0.065284605,-0.28083994,-1.3010590,0.84921238,0.22953969,-0.44436090
113,-0.59411016,1.6233269,0.073788228,-0.27184418,-1.3117194,0.86119865,0.24330045,-0.43305047
114,-0.60699825,1.6289035,0.082390244,-0.26243529,-1.3217869,0.87337370,0.25728508,-0.42144782
115,-0.61968786,1.6344111,0.091098706,-0.25261175,-1.3312727,0.88572146,0.27149062,-0.40955890
116,-0.63218300,1.6398523,0.099922001,-0.24237229,-1.3401891,0.89822514,0.28591387,-0.39738961
117,-0.64448790,1.6452289,0.10886883,-0.23171592,-1.3485494,0.91086726,0.30055143,-0.38494579
118,-0.65660704,1.6505424,0.11794816,-0.22064192,-1.3563673,0.92362971,0.31539968,-0.37223319
119,-0.66854509,1.6557937,0.12716922,-0.20914989,-1.3636576,0.93649376,0.33045479,-0.35925746
120,-0.68030687,1.6609831,0.13654147,-0.19723967,-1.3704358,0.94944015,0.34571272,-0.34602418
121,-0.69189731,1.6661105,0.14607453,-0.18491143,-1.3767178,0.96244909,0.36116922,-0.33253881
122,-0.70332143,1.6711751,0.15577818,-0.17216563,-1.3825204,0.97550035,0.37681982,-0.31880667
123,-0.71458432,1.6761757,0.16566234,-0.15900303,-1.3878607,0.98857327,0.39265985,-0.30483301
124,-0.72569107,1.6811106,0.17573698,-0.14542472,-1.3927563,1.0016468,0.40868442,-0.29062290
125,-0.73664677,1.6859775,0.18601216,-0.13143206,-1.3972255,1.0146998,0.42488844,-0.27618131
126,-0.74745645,1.6907735,0.19649790,-0.11702676,-1.4012866,1.0277104,0.44126662,-0.26151307
127,-0.75812507,1.6954954,0.20720425,-0.10221085,-1.4049583,1.0406571,0.45781347,-0.24662285
128,-0.76865748,1.7001393,0.21814115,-0.086986677,-1.4082597,1.0535177,0.47452327,-0.23151522
129,-0.77905839,1.7047010,0.22931846,-0.071356912,-1.4112099,1.0662704,0.49139015,-0.21619458
130,-0.78933235,1.7091757,0.24074591,-0.055324570,-1.4138282,1.0788931,0.50840800,-0.20066520
131,-0.79948369,1.7135582,0.25243303,-0.038892997,-1.4161339,1.0913636,0.52557056,-0.18493122
132,-0.80951655,1.7178429,0.26438915,-0.022065881,-1.4181465,1.1036600,0.54287136,-0.16899663
133,-0.81943479,1.7220237,0.27662334,-0.0048472543,-1.4198851,1.1157604,0.56030376,-0.15286530
134,-0.82924202,1.7260942,0.28914438,0.012758506,-1.4213691,1.1276431,0.57786093,-0.13654097
135,-0.83894154,1.7300474,0.30196072,0.030746671,-1.4226174,1.1392867,0.59553588,-0.12002727
136,-0.84853633,1.7338763,0.31508043,0.049112162,-1.4236489,1.1506698,0.61332145,-0.10332770
137,-0.85802905,1.7375734,0.32851120,0.067849545,-1.4244820,1.1617718,0.63121031,-0.086445672
138,-0.86742198,1.7411307,0.34226025,0.086953027,-1.4251352,1.1725720,0.64919497,-0.069384484
139,-0.87671705,1.7445403,0.35633436,0.10641646,-1.4256261,1.1830505,0.66726781,-0.052147355
140,-0.88591578,1.7477937,0.37073975,0.12623333,-1.4259724,1.1931876,0.68542105,-0.034737424
141,-0.89501930,1.7508825,0.38548214,0.14639677,-1.4261909,1.2029644,0.70364676,-0.017157763
142,-0.90402834,1.7537979,0.40056665,0.16689954,-1.4262983,1.2123624,0.72193689,0.00058861310
143,-0.91294317,1.7565309,0.41599780,0.18773404,-1.4263104,1.2213638,0.74028326,0.018498730
144,-0.92176367,1.7590725,0.43177945,0.20889231,-1.4262426,1.2299513,0.75867757,0.036569646
145,-0.93048925,1.7614136,0.44791481,0.23036602,-1.4261096,1.2381087,0.77711142,0.054798434
146,-0.93911891,1.7635449,0.46440639,0.25214649,-1.4259257,1.2458200,0.79557627,0.073182172
147,-0.94765118,1.7654572,0.48125597,0.27422467,-1.4257042,1.2530705,0.81406352,0.091717925
148,-0.95608417,1.7671412,0.49846459,0.29659113,-1.4254577,1.2598460,0.83256446,0.11040273
149,-0.96441552,1.7685877,0.51603251,0.31923611,-1.4251984,1.2661333,0.85107029,0.12923358
150,-0.97264247,1.7697876,0.53395920,0.34214947,-1.4249374,1.2719200,0.86957214,0.14820743
151,-0.98076178,1.7707317,0.55224333,0.36532074,-1.4246851,1.2771947,0.88806108,0.16732112
152,-0.98876983,1.7714111,0.57088272,0.38873907,-1.4244512,1.2819469,0.90652811,0.18657144
153,-0.99666256,1.7718169,0.58987437,0.41239327,-1.4242445,1.2861671,0.92496417,0.20595506
154,-1.0044355,1.7719407,0.60921440,0.43627181,-1.4240729,1.2898467,0.94336017,0.22546853
155,-1.0120838,1.7717739,0.62889806,0.46036283,-1.4239437,1.2929783,0.96170699,0.24510825
156,-1.0196022,1.7713085,0.64891974,0.48465411,-1.4238630,1.2955553,0.97999545,0.26487047
157,-1.0269852,1.7705366,0.66927293,0.50913312,-1.4238365,1.2975724,0.99821638,0.28475129
158,-1.0342267,1.7694507,0.68995022,0.53378699,-1.4238686,1.2990250,1.0163606,0.30474661
159,-1.0413206,1.7680434,0.71094331,0.55860255,-1.4239631,1.2999099,1.0344189,0.32485211
160,-1.0482602,1.7663081,0.73224303,0.58356630,-1.4241230,1.3002248,1.0523820,0.34506329
161,-1.0550387,1.7642382,0.75383927,0.60866446,-1.4243503,1.2999685,1.0702409,0.36537539
162,-1.0616490,1.7618277,0.77572106,0.63388293,-1.4246462,1.2991409,1.0879863,0.38578341
163,-1.0680838,1.7590710,0.79787655,0.65920733,-1.4250113,1.2977429,1.1056092,0.40628211
164,-1.0743354,1.7559631,0.82029299,0.68462302,-1.4254450,1.2957766,1.1231004,0.42686594
165,-1.0803962,1.7524992,0.84295677,0.71011508,-1.4259464,1.2932450,1.1404508,0.44752910
166,-1.0862583,1.7486754,0.86585345,0.73566833,-1.4265134,1.2901523,1.1576516,0.46826548
167,-1.0919136,1.7444880,0.88896774,0.76126734,-1.4271435,1.2865036,1.1746937,0.48906867
168,-1.0973541,1.7399340,0.91228351,0.78689645,-1.4278332,1.2823050,1.1915683,0.50993191
169,-1.1025716,1.7350109,0.93578386,0.81253979,-1.4285785,1.2775639,1.2082666,0.53084816
170,-1.1075579,1.7297169,0.95945109,0.83818126,-1.4293747,1.2722882,1.2247800,0.55181002
171,-1.1123049,1.7240506,0.98326676,0.86380456,-1.4302165,1.2664872,1.2410998,0.57280973
172,-1.1168042,1.7180115,1.0072117,0.88939322,-1.4310979,1.2601708,1.2572175,0.59383921
173,-1.1210480,1.7115994,1.0312660,0.91493060,-1.4320124,1.2533501,1.2731247,0.61489000
174,-1.1250281,1.7048150,1.0554092,0.94039988,-1.4329529,1.2460369,1.2888131,0.63595331
175,-1.1287368,1.6976594,1.0796200,0.96578413,-1.4339121,1.2382437,1.3042746,0.65701996
176,-1.1321663,1.6901345,1.1038766,0.99106627,-1.4348819,1.2299842,1.3195011,0.67808042
177,-1.1353092,1.6822427,1.1281568,1.0162291,-1.4358540,1.2212724,1.3344848,0.69912478
178,-1.1381582,1.6739873,1.1524376,1.0412554,-1.4368196,1.2121235,1.3492179,0.72014277
179,-1.1407063,1.6653719,1.1766956,1.0661278,-1.4377697,1.2025531,1.3636928,0.74112377
180,-1.1429468,1.6564010,1.2009069,1.0908288,-1.4386949,1.1925774,1.3779020,0.76205678
181,-1.1448733,1.6470796,1.2250474,1.1153411,-1.4395857,1.1822134,1.3918382,0.78293046
182,-1.1464800,1.6374135,1.2490924,1.1396471,-1.4404323,1.1714787,1.4054944,0.80373310
183,-1.1477611,1.6274088,1.2730170,1.1637293,-1.4412247,1.1603911,1.4188635,0.82445265
184,-1.1487114,1.6170725,1.2967959,1.1875703,-1.4419530,1.1489693,1.4319388,0.84507674
185,-1.1493262,1.6064122,1.3204036,1.2111527,-1.4426071,1.1372320,1.4447137,0.86559265
186,-1.1496014,1.5954359,1.3438146,1.2344590,-1.4431768,1.1251985,1.4571818,0.88598735
187,-1.1495330,1.5841522,1.3670031,1.2574719,-1.4436522,1.1128885,1.4693369,0.90624750
188,-1.1491178,1.5725705,1.3899431,1.2801741,-1.4440232,1.1003219,1.4811730,0.92635949
189,-1.1483533,1.5607004,1.4126089,1.3025487,-1.4442800,1.0875186,1.4926842,0.94630939
190,-1.1472372,1.5485523,1.4349744,1.3245785,-1.4444128,1.0744989,1.5038649,0.96608305
191,-1.1457681,1.5361369,1.4570139,1.3462467,-1.4444123,1.0612833,1.5147098,0.98566605
192,-1.1439450,1.5234655,1.4787016,1.3675366,-1.4442690,1.0478922,1.5252136,1.0050437
193,-1.1417677,1.5105497,1.5000120,1.3884317,-1.4439741,1.0343460,1.5353714,1.0242013
194,-1.1392366,1.4974017,1.5209198,1.4089158,-1.4435188,1.0206652,1.5451784,1.0431236
195,-1.1363527,1.4840340,1.5413999,1.4289728,-1.4428951,1.0068701,1.5546301,1.0617955
196,-1.1331177,1.4704595,1.5614275,1.4485869,-1.4420949,0.99298089,1.5637221,1.0802017
197,-1.1295340,1.4566914,1.5809782,1.4677425,-1.4411109,0.97901760,1.5724504,1.0983266
198,-1.1256047,1.4427432,1.6000281,1.4864245,-1.4399361,0.96500001,1.5808111,1.1161547
199,-1.1213335,1.4286288,1.6185536,1.5046178,-1.4385640,0.95094761,1.5888005,1.1336703
200,-1.1167251,1.4143622,1.6365318,1.5223078,-1.4369887,0.93687957,1.5964153,1.1508578
201,-1.1117845,1.3999577,1.6539402,1.5394804,-1.4352048,0.92281468,1.6036524,1.1677014
202,-1.1065177,1.3854297,1.6707570,1.5561216,-1.4332076,0.90877129,1.6105086,1.1841853
203,-1.1009313,1.3707927,1.6869609,1.5722179,-1.4309929,0.89476731,1.6169815,1.2002940
204,-1.0950326,1.3560616,1.7025316,1.5877563,-1.4285571,0.88082012,1.6230684,1.2160118
205,-1.0888295,1.3412511,1.7174491,1.6027240,-1.4258974,0.86694657,1.6287671,1.2313233
206,-1.0823308,1.3263760,1.7316947,1.6171087,-1.4230116,0.85316291,1.6340757,1.2462129
207,-1.0755458,1.3114511,1.7452500,1.6308989,-1.4198980,0.83948477,1.6389924,1.2606654
208,-1.0684845,1.2964912,1.7580979,1.6440830,-1.4165559,0.82592713,1.6435157,1.2746659
209,-1.0611576,1.2815109,1.7702219,1.6566504,-1.4129851,0.81250426,1.6476441,1.2881994
210,-1.0535765,1.2665250,1.7816065,1.6685908,-1.4091862,0.79922974,1.6513768,1.3012513
211,-1.0457529,1.2515479,1.7922373,1.6798944,-1.4051604,0.78611636,1.6547128,1.3138074
212,-1.0376994,1.2365939,1.8021006,1.6905519,-1.4009097,0.77317616,1.6576516,1.3258535
213,-1.0294291,1.2216770,1.8111841,1.7005546,-1.3964369,0.76042037,1.6601927,1.3373760
214,-1.0209556,1.2068110,1.8194761,1.7098946,-1.3917454,0.74785940,1.6623361,1.3483615
215,-1.0122930,1.1920097,1.8269665,1.7185642,-1.3868392,0.73550281,1.6640817,1.3587973
216,-1.0034560,1.1772861,1.8336457,1.7265565,-1.3817233,0.72335931,1.6654299,1.3686706
217,-0.99445952,1.1626532,1.8395058,1.7338652,-1.3764031,0.71143675,1.6663813,1.3779695
218,-0.98531920,1.1481235,1.8445396,1.7404845,-1.3708848,0.69974206,1.6669365,1.3866825
219,-0.97605091,1.1337091,1.8487413,1.7464095,-1.3651753,0.68828132,1.6670965,1.3947985
220,-0.96667091,1.1194217,1.8521060,1.7516356,-1.3592820,0.67705966,1.6668625,1.4023069
221,-0.95719577,1.1052725,1.8546303,1.7561590,-1.3532129,0.66608136,1.6662358,1.4091979
222,-0.94764238,1.0912723,1.8563117,1.7599766,-1.3469769,0.65534975,1.6652181,1.4154621
223,-0.93802784,1.0774311,1.8571491,1.7630858,-1.3405831,0.64486728,1.6638112,1.4210908
224,-0.92836949,1.0637587,1.8571423,1.7654849,-1.3340414,0.63463550,1.6620170,1.4260760
225,-0.91868481,1.0502642,1.8562927,1.7671726,-1.3273620,0.62465505,1.6598377,1.4304101
226,-0.90899142,1.0369560,1.8546024,1.7681485,-1.3205558,0.61492572,1.6572758,1.4340865
227,-0.89930702,1.0238421,1.8520752,1.7684127,-1.3136339,0.60544638,1.6543338,1.4370993
228,-0.88964933,1.0109297,1.8487155,1.7679661,-1.3066081,0.59621509,1.6510144,1.4394430
229,-0.88003608,0.99822537,1.8445294,1.7668103,-1.2994902,0.58722904,1.6473207,1.4411133
230,-0.87048497,0.98573514,1.8395238,1.7649473,-1.2922927,0.57848459,1.6432557,1.4421064
231,-0.86101355,0.97346428,1.8337068,1.7623802,-1.2850283,0.56997733,1.6388228,1.4424192
232,-0.85163928,0.96141738,1.8270878,1.7591125,-1.2777097,0.56170205,1.6340254,1.4420497
233,-0.84237942,0.94959836,1.8196771,1.7551484,-1.2703502,0.55365278,1.6288673,1.4409964
234,-0.83325098,0.93801042,1.8114860,1.7504928,-1.2629629,0.54582286,1.6233521,1.4392589
235,-0.82427071,0.92665607,1.8025272,1.7451512,-1.2555614,0.53820490,1.6174839,1.4368375
236,-0.81545505,0.91553709,1.7928141,1.7391300,-1.2481589,0.53079088,1.6112668,1.4337333
237,-0.80682005,0.90465458,1.7823613,1.7324360,-1.2407692,0.52357212,1.6047051,1.4299483
238,-0.79838135,0.89400888,1.7711841,1.7250767,-1.2334056,0.51653936,1.5978032,1.4254854
239,-0.79015417,0.88359966,1.7592991,1.7170603,-1.2260815,0.50968281,1.5905657,1.4203482
240,-0.78215321,0.87342588,1.7467235,1.7083955,-1.2188103,0.50299212,1.5829972,1.4145414
241,-0.77439262,0.86348579,1.7334755,1.6990918,-1.2116051,0.49645649,1.5751026,1.4080704
242,-0.76688599,0.85377694,1.7195741,1.6891591,-1.2044789,0.49006468,1.5668869,1.4009414
243,-0.75964629,0.84429622,1.7050391,1.6786081,-1.1974443,0.48380506,1.5583552,1.3931616
244,-0.75268584,0.83503984,1.6898910,1.6674498,-1.1905138,0.47766564,1.5495126,1.3847390
245,-0.74601625,0.82600336,1.6741510,1.6556961,-1.1836993,0.47163414,1.5403645,1.3756825
246,-0.73964842,0.81718170,1.6578411,1.6433592,-1.1770126,0.46569802,1.5309163,1.3660016
247,-0.73359245,0.80856914,1.6409837,1.6304520,-1.1704648,0.45984451,1.5211736,1.3557069
248,-0.72785770,0.80015939,1.6236018,1.6169877,-1.1640666,0.45406070,1.5111420,1.3448096
249,-0.72245265,0.79194556,1.6057191,1.6029801,-1.1578284,0.44833355,1.5008272,1.3333219
250,-0.71738496,0.78392021,1.5873595,1.5884437,-1.1517596,0.44264993,1.4902351,1.3212566
251,-0.71266140,0.77607535,1.5685476,1.5733930,-1.1458695,0.43699672,1.4793715,1.3086273
252,-0.70828781,0.76840249,1.5493082,1.5578435,-1.1401662,0.43136080,1.4682426,1.2954484
253,-0.70426913,0.76089269,1.5296664,1.5418106,-1.1346576,0.42572914,1.4568543,1.2817350
254,-0.70060933,0.75353650,1.5096477,1.5253104,-1.1293507,0.42008880,1.4452129,1.2675028
255,-0.69731142,0.74632411,1.4892776,1.5083593,-1.1242517,0.41442703,1.4333245,1.2527682
256,-0.69437742,0.73924528,1.4685820,1.4909741,-1.1193660,0.40873127,1.4211954,1.2375485
257,-0.69180836,0.73228944,1.4475868,1.4731718,-1.1146983,0.40298925,1.4088320,1.2218612
258,-0.68960424,0.72544566,1.4263179,1.4549698,-1.1102524,0.39718897,1.3962407,1.2057248
259,-0.68776407,0.71870278,1.4048013,1.4363859,-1.1060312,0.39131879,1.3834280,1.1891580
260,-0.68628580,0.71204934,1.3830630,1.4174380,-1.1020369,0.38536744,1.3704003,1.1721802
261,-0.68516637,0.70547369,1.3611287,1.3981442,-1.0982705,0.37932410,1.3571643,1.1548114
262,-0.68440170,0.69896399,1.3390243,1.3785231,-1.0947323,0.37317840,1.3437264,1.1370718
263,-0.68398666,0.69250827,1.3167752,1.3585930,-1.0914217,0.36692050,1.3300935,1.1189823
264,-0.68391510,0.68609446,1.2944067,1.3383729,-1.0883368,0.36054109,1.3162720,1.1005640
265,-0.68417987,0.67971043,1.2719437,1.3178815,-1.0854752,0.35403144,1.3022688,1.0818385
266,-0.68477278,0.67334401,1.2494110,1.2971379,-1.0828333,0.34738344,1.2880904,1.0628275
267,-0.68568466,0.66698308,1.2268327,1.2761612,-1.0804064,0.34058962,1.2737438,1.0435532
268,-0.68690536,0.66061555,1.2042327,1.2549705,-1.0781891,0.33364319,1.2592355,1.0240379
269,-0.68842376,0.65422945,1.1816345,1.2335849,-1.0761750,0.32653807,1.2445724,1.0043042
270,-0.69022779,0.64781291,1.1590607,1.2120237,-1.0743565,0.31926890,1.2297613,0.98437474
271,-0.69230446,0.64135429,1.1365339,1.1903060,-1.0727252,0.31183107,1.2148088,0.96427244
272,-0.69463987,0.63484211,1.1140757,1.1684509,-1.0712719,0.30422077,1.1997219,0.94402015
273,-0.69721927,0.62826519,1.0917072,1.1464775,-1.0699862,0.29643496,1.1845073,0.92364081
274,-0.70002704,0.62161261,1.0694488,1.1244047,-1.0688570,0.28847142,1.1691717,0.90315735
275,-0.70304676,0.61487381,1.0473203,1.1022514,-1.0678722,0.28032875,1.1537219,0.88259266
276,-0.70626125,0.60803856,1.0253407,1.0800362,-1.0670188,0.27200640,1.1381647,0.86196952
277,-0.70965254,0.60109706,1.0035283,1.0577778,-1.0662831,0.26350466,1.1225068,0.84131060
278,-0.71320201,0.59403993,0.98190056,1.0354943,-1.0656505,0.25482466,1.1067549,0.82063839
279,-0.71689034,0.58685829,0.96047417,1.0132039,-1.0651056,0.24596841,1.0909156,0.79997515
280,-0.72069760,0.57954373,0.93926497,0.99092453,-1.0646323,0.23693878,1.0749958,0.77934291
281,-0.72460328,0.57208839,0.91828797,0.96867373,-1.0642137,0.22773947,1.0590018,0.75876341
282,-0.72858635,0.56448497,0.89755730,0.94646884,-1.0638323,0.21837507,1.0429405,0.73825802
283,-0.73262527,0.55672678,0.87708619,0.92432687,-1.0634700,0.20885101,1.0268183,0.71784778
284,-0.73669809,0.54880775,0.85688700,0.90226452,-1.0631079,0.19917354,1.0106418,0.69755330
285,-0.74078246,0.54072243,0.83697115,0.88029812,-1.0627270,0.18934977,0.99441737,0.67739474
286,-0.74485569,0.53246607,0.81734916,0.85844364,-1.0623072,0.17938761,0.97815152,0.65739177
287,-0.74889482,0.52403461,0.79803061,0.83671667,-1.0618286,0.16929577,0.96185063,0.63756357
288,-0.75287665,0.51542470,0.77902415,0.81513238,-1.0612703,0.15908375,0.94552101,0.61792874
289,-0.75677782,0.50663371,0.76033750,0.79370553,-1.0606115,0.14876181,0.92916895,0.59850531
290,-0.76057484,0.49765980,0.74197745,0.77245044,-1.0598309,0.13834093,0.91280066,0.57931067
291,-0.76424415,0.48850185,0.72394983,0.75138096,-1.0589070,0.12783284,0.89642230,0.56036160
292,-0.76776221,0.47915955,0.70625957,0.73051049,-1.0578182,0.11724992,0.88003996,0.54167418
293,-0.77110549,0.46963337,0.68891066,0.70985193,-1.0565428,0.10660523,0.86365967,0.52326377
294,-0.77425060,0.45992457,0.67190620,0.68941769,-1.0550589,0.095912428,0.84728739,0.50514503
295,-0.77717430,0.45003522,0.65524836,0.66921966,-1.0533447,0.085185785,0.83092901,0.48733187
296,-0.77985358,0.43996822,0.63893845,0.64926922,-1.0513786,0.074440117,0.81459033,0.46983738
297,-0.78226570,0.42972725,0.62297688,0.62957720,-1.0491388,0.063690758,0.79827711,0.45267390
298,-0.78438825,0.41931682,0.60736323,0.61015392,-1.0466041,0.052953521,0.78199499,0.43585292
299,-0.78619921,0.40874225,0.59209624,0.59100911,-1.0437532,0.042244656,0.76574954,0.41938512
300,-0.78767703,0.39800968,0.57717381,0.57215196,-1.0405654,0.031580809,0.74954627,0.40328032
301,-0.78880063,0.38712601,0.56259309,0.55359111,-1.0370202,0.020978979,0.73339058,0.38754747
302,-0.78954949,0.37609898,0.54835044,0.53533459,-1.0330977,0.010456473,0.71728778,0.37219465
303,-0.78990370,0.36493709,0.53444147,0.51738990,-1.0287783,3.0860023e-05,0.70124310,0.35722906
304,-0.78984402,0.35364960,0.52086112,0.49976393,-1.0240431,-0.010280075,0.68526167,0.34265699
305,-0.78935191,0.34224655,0.50760360,0.48246299,-1.0188739,-0.020458376,0.66934854,0.32848385
306,-0.78840957,0.33073870,0.49466252,0.46549281,-1.0132530,-0.030485970,0.65350864,0.31471415
307,-0.78700004,0.31913754,0.48203083,0.44885855,-1.0071637,-0.040344709,0.63774681,0.30135146
308,-0.78510716,0.30745524,0.46970092,0.43256477,-1.0005899,-0.050016423,0.62206779,0.28839848
309,-0.78271572,0.29570467,0.45766463,0.41661545,-0.99351640,-0.059482966,0.60647623,0.27585700
310,-0.77981141,0.28389934,0.44591330,0.40101399,-0.98592893,-0.068726270,0.59097665,0.26372789
311,-0.77638091,0.27205339,0.43443777,0.38576321,-0.97781422,-0.077728391,0.57557349,0.25201115
312,-0.77241190,0.26018155,0.42322846,0.37086536,-0.96915998,-0.086471557,0.56027106,0.24070588
313,-0.76789312,0.24829912,0.41227538,0.35632212,-0.95995501,-0.094938223,0.54507357,0.22981032
314,-0.76281440,0.23642195,0.40156821,0.34213462,-0.95018919,-0.10311111,0.52998513,0.21932182
315,-0.75716667,0.22456638,0.39109628,0.32830340,-0.93985358,-0.11097327,0.51500972,0.20923689
316,-0.75094200,0.21274920,0.38084866,0.31482850,-0.92894044,-0.11850810,0.50015121,0.19955122
317,-0.74413364,0.20098768,0.37081416,0.30170938,-0.91744324,-0.12569945,0.48541336,0.19025966
318,-0.73673604,0.18929944,0.36098142,0.28894499,-0.90535674,-0.13253158,0.47079982,0.18135626
319,-0.72874484,0.17770249,0.35133891,0.27653376,-0.89267700,-0.13898928,0.45631411,0.17283431
320,-0.72015692,0.16621514,0.34187499,0.26447361,-0.87940141,-0.14505791,0.44195965,0.16468632
321,-0.71097041,0.15485598,0.33257792,0.25276195,-0.86552872,-0.15072337,0.42773972,0.15690409
322,-0.70118470,0.14364384,0.32343595,0.24139573,-0.85105907,-0.15597223,0.41365750,0.14947869
323,-0.69080043,0.13259775,0.31443733,0.23037142,-0.83599400,-0.16079170,0.39971604,0.14240052
324,-0.67981954,0.12173688,0.30557034,0.21968502,-0.82033647,-0.16516973,0.38591827,0.13565932
325,-0.66824524,0.11108051,0.29682337,0.20933210,-0.80409089,-0.16909499,0.37226700,0.12924423
326,-0.65608201,0.10064800,0.28818489,0.19930780,-0.78726310,-0.17255691,0.35876493,0.12314376
327,-0.64333561,0.090458707,0.27964356,0.18960686,-0.76986041,-0.17554577,0.34541463,0.11734590
328,-0.63001307,0.080531978,0.27118822,0.18022360,-0.75189158,-0.17805266,0.33221855,0.11183807
329,-0.61612271,0.070887088,0.26280794,0.17115197,-0.73336682,-0.18006953,0.31917902,0.10660724
330,-0.60167407,0.061543196,0.25449206,0.16238559,-0.71429781,-0.18158924,0.30629824,0.10163988
331,-0.58667796,0.052519305,0.24623020,0.15391768,-0.69469766,-0.18260554,0.29357830,0.096922086
332,-0.57114638,0.043834216,0.23801232,0.14574119,-0.67458094,-0.18311315,0.28102119,0.092439526
333,-0.55509256,0.035506480,0.22982874,0.13784872,-0.65396363,-0.18310770,0.26862874,0.088177544
334,-0.53853090,0.027554359,0.22167017,0.13023260,-0.63286311,-0.18258583,0.25640268,0.084121167
335,-0.52147698,0.019995782,0.21352772,0.12288489,-0.61129815,-0.18154511,0.24434464,0.080255155
336,-0.50394747,0.012848302,0.20539296,0.11579740,-0.58928888,-0.17998416,0.23245612,0.076564035
337,-0.48596018,0.0061290518,0.19725790,0.10896171,-0.56685675,-0.17790256,0.22073849,0.073032142
338,-0.46753396,-0.00014529246,0.18911508,0.10236919,-0.54402453,-0.17530092,0.20919302,0.069643657
339,-0.44868872,-0.0059585546,0.18095750,0.096010996,-0.52081625,-0.17218082,0.19782087,0.066382651
340,-0.42944532,-0.011295096,0.17277873,0.089878148,-0.49725714,-0.16854491,0.18662310,0.063233121
341,-0.40982563,-0.016139853,0.16457287,0.083961492,-0.47337364,-0.16439678,0.17560063,0.060179029
342,-0.38985239,-0.020478376,0.15633458,0.078251745,-0.44919333,-0.15974107,0.16475429,0.057204346
343,-0.36954923,-0.024296859,0.14805910,0.072739516,-0.42474487,-0.15458339,0.15408480,0.054293087
344,-0.34894060,-0.027582181,0.13974226,0.067415318,-0.40005797,-0.14893033,0.14359280,0.051429353
345,-0.32805173,-0.030321931,0.13138048,0.062269592,-0.37516333,-0.14278947,0.13327879,0.048597367
346,-0.30690857,-0.032504443,0.12297078,0.057292728,-0.35009257,-0.13616932,0.12314319,0.045781515
347,-0.28553773,-0.034118824,0.11451083,0.052475080,-0.32487821,-0.12907933,0.11318632,0.042966381
348,-0.26396648,-0.035154979,0.10599886,0.047806989,-0.29955355,-0.12152988,0.10340842,0.040136785
349,-0.24222262,-0.035603641,0.097433768,0.043278800,-0.27415267,-0.11353222,0.093809620,0.037277819
350,-0.22033448,-0.035456389,0.088815039,0.038880880,-0.24871031,-0.10509848,0.084389968,0.034374883
351,-0.19833085,-0.034705675,0.080142789,0.034603641,-0.22326185,-0.096241612,0.075149426,0.031413718
352,-0.17624090,-0.033344837,0.071417741,0.030437551,-0.19784320,-0.086975396,0.066087875,0.028380438
353,-0.15409415,-0.031368124,0.062641230,0.026373158,-0.17249074,-0.077314371,0.057205115,0.025261567
354,-0.13192042,-0.028770704,0.053815188,0.022401105,-0.14724128,-0.067273820,0.048500869,0.022044065
355,-0.10974970,-0.025548685,0.044942141,0.018512145,-0.12213195,-0.056869732,0.039974790,0.018715359
356,-0.087612196,-0.021699118,0.036025192,0.014697160,-0.097200114,-0.046118757,0.031626458,0.015263376
357,-0.065538177,-0.017220013,0.027068014,0.010947179,-0.072483343,-0.035038175,0.023455391,0.011676562
358,-0.043557963,-0.012110341,0.018074833,0.0072533868,-0.048019296,-0.023645844,0.015461041,0.0079439164
359,-0.021701853,-0.0063700402,0.0090504092,0.0036071467,-0.023845660,-0.011960165,0.0076428039,0.0040550101
360,-6.0276449e-08,-1.8640563e-08,2.5269628e-08,1.0012400e-08,-6.6005711e-08,-3.3717924e-08,2.1069368e-08,1.1548451e-08
