XRT N-S vs UFSS-A
      218.367
     0.451941
     -1.14595
      1.04409
     0.228737
    -0.337869
     0.321626
XRT N-S vs UFSS-B
      213.427
     0.372864
    -0.461416
   -0.0839525
    -0.153553
    -0.254001
   -0.0546479
XRT E-W vs UFSS-A
      3978.76
    -0.595377
    -0.297825
   -0.0720181
    0.0246940
   -0.0111102
    0.0766611
XRT E-W vs UFSS-B
      3972.73
     -1.40466
     -1.10080
     0.159237
    -0.423078
     0.273028
   0.00324686
SOT N-S vs UFSS-A
      75.1290
    0.0479022
     -1.48126
      1.38184
   -0.0113186
     0.412975
     0.500624
SOT N-S vs UFSS-B
      69.7589
     0.401576
    -0.748277
     0.360487
   -0.0101886
     0.240691
     0.140424
SOT E-W vs UFSS-A
      213.771
   -0.0816011
    -0.160970
    -0.178279
     0.333956
   -0.0861342
   -0.0351840
SOT E-W vs UFSS-B
      206.937
    -0.499574
     -1.15082
     0.198758
    0.0667704
    0.0667767
    0.0538519
