XRT N-S vs UFSS-A
      199.086
      2.11442
     -2.81744
      1.68261
      1.13487
    -0.459481
     0.658272
XRT N-S vs UFSS-B
      164.096
     0.557025
     -1.73035
     0.395690
    0.0379674
   -0.0442134
     0.183972
XRT E-W vs UFSS-A
      3967.01
     -1.86219
     0.139357
   -0.0513931
    -0.568556
     0.240526
   -0.0718839
XRT E-W vs UFSS-B
      3954.61
    -0.881804
     -1.26451
     0.697767
     0.165176
    -0.117691
     0.184471
SOT N-S vs UFSS-A
      61.2774
      1.47473
     -2.65736
      1.68070
     0.901210
    -0.239040
     0.421220
SOT N-S vs UFSS-B
      24.7323
     0.369326
     -1.64272
     0.526386
     0.121302
   -0.0520493
     0.211152
SOT E-W vs UFSS-A
      195.748
     -1.02426
     0.455468
    -0.388622
   -0.0703772
  -0.00228531
    -0.281709
SOT E-W vs UFSS-B
      183.984
    -0.891291
    -0.949022
     0.372113
    0.0376879
    0.0559174
  -0.00539028
