,,,,,,,,,,,,
,OBS ID,Size + description,Impact on cadence (>1 = slower),Impact on SG datarate,Impact on SJI datarate,,,,,,,
,0,C II   Si IV   Mg II h/k   Mg II w   ,1,1.00,1.00,,,,,,,
,100,C II   Si IV   Mg II h/k   Mg II w s   ,1,1.00,0.79,,,,,,,
,200,C II   Si IV   Mg II w s   ,1,1.00,0.54,,,,,,,
,300,C II   Mg II h/k   Mg II w s   ,1,1.00,0.54,,,,,,,
,400,Si IV   Mg II h/k   Mg II w s   ,1,1.00,0.54,,,,,,,
,500,C II   Mg II w s   ,1,1.00,0.29,,,,,,,
,600,Si IV   Mg II w s   ,1,1.00,0.29,,,,,,,
,700,Mg II h/k   Mg II w s   ,1,1.00,0.29,,,,,,,
,800,Si IV   Mg II h/k   Mg II w   ,1,1.00,0.75,,,,,,,
,900,C II   Mg II h/k   Mg II w   ,1,1.00,0.75,,,,,,,
,1000,Si IV   Mg II h/k   Mg II w   ,1,1.00,0.75,,,,,,,
,1100,C II   Si IV   Mg II h/k   ,1,1.00,0.75,,,,,,,
,1200,C II   Si IV   ,1,1.00,0.50,,,,,,,
,1300,C II   Mg II h/k   ,1,1.00,0.50,,,,,,,
,1400,Si IV   Mg II h/k   ,1,1.00,0.50,,,,,,,
,1500,C II   ,1,1.00,0.25,,,,,,,
,1600,Si IV   ,1,1.00,0.25,,,,,,,
,1700,Mg II h/k   ,1,1.00,0.25,,,,,,,
,1800,Mg II w   ,1,1.00,0.25,,,,,,,
,1900,C II   Si IV s   Mg II h/k   Mg II w s   ,1,1.00,0.58,,,,,,,
,2000,Full wavelength coverage,3,1.50,1.00,,,,,,,
,4000,Deep x 2,2,0.50,1.00,,,,,,,
,6000,Deep x 4,4,0.25,1.00,,,,,,,
,8000,"Full wavelength coverage, deep x4",10,0.45,1.00,,,,,,,
,10000,"Spatial x 1, Spectral x 2",1,0.50,1.00,,,,,,,
,20000,"Spatial x 1, Spectral x 4",1,0.25,1.00,,,,,,,
,30000,"Spatial x 1, Spectral x 8",1,0.13,1.00,,,,,,,
,40000,"Spatial x 2, Spectral x 1",1,0.50,1.00,,,,,,,
,50000,"Spatial x 2, Spectral x 2",1,0.25,1.00,,,,,,,
,60000,"Spatial x 2, Spectral x 4",1,0.13,1.00,,,,,,,
,70000,"Spatial x 2, Spectral x 8",1,0.06,1.00,,,,,,,
,80000,"Spatial x 4, Spectral x 1",1,0.25,1.00,,,,,,,
,90000,"Spatial x 4, Spectral x 2",1,0.13,1.00,,,,,,,
,100000,"Spatial x 4, Spectral x 4",1,0.06,1.00,,,,,,,
,110000,"Spatial x 4, Spectral x 8",1,0.03,1.00,,,,,,,
,200000,FUV spectrally rebinned x 2,1,0.50,1.00,,,,,,,
,400000,FUV spectrally rebinned x 4,1,0.25,1.00,,,,,,,
,1000000,Lossless compression,1,1.50,1.50,,,,,,,
,2000000,AEC enabled,1,1.50,1.50,,,,,,,
,3000000,SJI cadence 2x faster,1,1.00,2.00,,,,,,,
,4000000,SJI cadence 4x faster,1,1.00,4.00,,,,,,,
,5000000,SJI cadence 10x faster,1,1.00,10.00,,,,,,,
,9000000,Flatfield and calibration,1,1.00,1.00,,,,,,,
